Door : [1637,1806],[1736,1806],[1736,1813],[1637,1813] : [1] 
Door : [945,1877],[987,1877],[987,1984],[945,1984] : [1] 
Door : [1602,1390],[1602,1457],[1623,1457],[1623,1390] : [0.866666666667] 
Door : [1438,1319],[1541,1319],[1541,1340],[1438,1340] : [1] 
