Total No of Rooms: 10
single : room 1 : maybe bedroom 2 : [2109,2783] : contour_details : [1979 2632],[1979 2641],[1980 2642],[1980 2667],[1979 2668],[1953 2668],[1952 2667],[1856 2667],[1856 2668],[1855 2669],[1838 2669],[1838 2978],[2048 2978],[2049 2977],[2331 2977],[2331 2632]

single : room 2 : maybe closet : [2151,2594] : contour_details : [1979 2556],[1979 2592],[1980 2593],[1980 2628],[2329 2628],[2329 2556]

single : room 3 : maybe bedroom 1 : [1623,2777] : contour_details : [1449 2543],[1449 2550],[1448 2551],[1448 2977],[1728 2977],[1729 2978],[1830 2978],[1830 2669],[1829 2668],[1829 2643],[1828 2642],[1828 2543]

single : room 4 : maybe closet : [1632,2499] : contour_details : [1448 2468],[1448 2506],[1449 2507],[1449 2539],[1828 2539],[1828 2468]

single : room 5 : maybe bathroom : [2162,2434] : contour_details : [1980 2313],[1980 2413],[1979 2414],[1978 2414],[1978 2512],[1979 2513],[1979 2547],[2331 2547],[2331 2513],[2330 2512],[2330 2441],[2331 2440],[2331 2313]

single : room 6 : maybe closet : [1685,2168] : contour_details : [1537 2131],[1537 2167],[1538 2168],[1538 2203],[1828 2203],[1828 2131]

single : room 7 : maybe kitchen : [1159,2234] : contour_details : [792 2107],[792 2175],[801 2175],[802 2176],[802 2422],[907 2422],[908 2423],[1076 2423],[1077 2424],[1077 2467],[1076 2468],[1076 2505],[1309 2505],[1310 2506],[1404 2506],[1404 2467],[1403 2466],[1403 2460],[1404 2459],[1404 2206],[1403 2205],[1403 2107]

single : room 8 : maybe office : [2159,2104] : contour_details : [1980 1953],[1980 2206],[1979 2207],[1979 2305],[2331 2305],[2331 2206],[2330 2205],[2330 2063],[2331 2062],[2331 1953]

single : room 9 : garage : [1670,1129] : contour_details : [1738 694],[1737 695],[1430 695],[1430 937],[1429 938],[1429 1207],[1430 1207],[1431 1208],[1431 1426],[1430 1427],[1430 1520],[1447 1520],[1448 1521],[1448 1697],[1853 1697],[1854 1696],[1952 1696],[1953 1697],[2136 1697],[2136 1515],[2135 1514],[2135 788],[2136 787],[2136 695],[1830 695],[1829 694]

open : plan 1-room 10 : cellar : [1628, 2269] : contour_details : [1449 2215],[1450 2214],[1827 2214],[1828 2215],[1828 2457],[1827 2458],[1450 2458],[1449 2457]

open : plan 1-room 11 : entry : [1879, 1885] : contour_details : [1774 1742],[1775 1741],[2116 1741],[2117 1742],[2117 1942],[2116 1943],[1971 1943],[1970 1944],[1970 2639],[1969 2640],[1857 2640],[1856 2639],[1856 2128],[1855 2127],[1548 2127],[1547 2126],[1547 1840],[1550 1837],[1551 1837],[1553 1835],[1554 1835],[1555 1834],[1556 1834],[1558 1832],[1559 1832],[1561 1830],[1562 1830],[1563 1829],[1564 1829],[1566 1827],[1567 1827],[1569 1825],[1570 1825],[1571 1824],[1572 1824],[1574 1822],[1575 1822],[1577 1820],[1578 1820],[1579 1819],[1580 1819],[1582 1817],[1583 1817],[1585 1815],[1586 1815],[1587 1814],[1588 1814],[1590 1812],[1591 1812],[1593 1810],[1594 1810],[1595 1809],[1596 1809],[1598 1807],[1599 1807],[1601 1805],[1602 1805],[1603 1804],[1604 1804],[1606 1802],[1607 1802],[1609 1800],[1610 1800],[1611 1799],[1612 1799],[1614 1797],[1615 1797],[1617 1795],[1618 1795],[1619 1794],[1620 1794],[1622 1792],[1623 1792],[1625 1790],[1626 1790],[1627 1789],[1628 1789],[1630 1787],[1631 1787],[1633 1785],[1634 1785],[1635 1784],[1636 1784],[1638 1782],[1639 1782],[1641 1780],[1642 1780],[1643 1779],[1644 1779],[1646 1777],[1647 1777],[1649 1775],[1650 1775],[1651 1774],[1652 1774],[1654 1772],[1655 1772],[1656 1771],[1657 1772],[1657 1953],[1658 1954],[1773 1954],[1774 1953]

open : plan 1-room 12 : toilet : [1706, 1874] : contour_details : [1667 1742],[1668 1741],[1763 1741],[1764 1742],[1764 1951],[1763 1952],[1668 1952],[1667 1951]

open : plan 1-room 13 : dining : [528, 1691] : contour_details : [ 321 1603],[ 322 1602],[ 782 1602],[ 783 1603],[ 783 2172],[ 782 2173],[ 322 2173],[ 321 2172]

open : plan 1-room 14 : living : [1167, 1992] : contour_details : [1026 1600],[1402 1600],[1403 1601],[1403 1951],[1404 1952],[1544 1952],[1545 1953],[1545 2126],[1544 2127],[1527 2127],[1526 2128],[1526 2211],[1525 2212],[1450 2212],[1449 2211],[1449 2205],[1448 2204],[1433 2204],[1432 2203],[1432 2098],[1431 2097],[ 785 2097],[ 784 2096],[ 784 1603],[ 785 1602],[1024 1602]

