Window : [879,657],[949,657],[949,700],[879,700] : [1] 
Window : [525,758],[666,758],[666,800],[525,800] : [1] 
Window : [512,1602],[555,1602],[555,1674],[512,1674] : [1] 
Window : [1670,1133],[1712,1133],[1712,1346],[1670,1346] : [1] 
Window : [1540,773],[1582,773],[1582,915],[1540,915] : [1] 
Window : [512,1254],[555,1254],[555,1337],[512,1337] : [1] 
Window : [512,1266],[537,1266],[537,1337],[512,1337] : [1] 
Window : [1806,1863],[1830,1863],[1413,1486],[1411,1503] : [0.5] 
