Door : [1029,1565],[1128,1565],[1128,1590],[1029,1590] : [1] 
Door : [1389,1253],[1489,1253],[1489,1260],[1389,1260] : [1] 
Door : [1029,1565],[1128,1565],[1128,1590],[1029,1590] : [1] 
Door : [509,1819],[614,1819],[614,1862],[509,1862] : [1] 
Door : [981,1607],[1024,1607],[1024,1702],[981,1702] : [1] 
Door : [1140,2180],[1148,2180],[1148,2275],[1140,2275] : [1] 
Door : [1760,1147],[1803,1147],[1803,1242],[1760,1242] : [1] 
Door : [1141,2275],[1183,2275],[1157,2167],[1140,2165] : [0.8] 
Door : [511,1543],[631,1543],[631,1560],[511,1560] : [0.866666666667] 
