Window : [1688,1706],[1730,1706],[1730,1884],[1688,1884] : [1] 
Window : [1435,2035],[1611,2035],[1611,2079],[1435,2079] : [1] 
Window : [825,956],[869,956],[869,1074],[825,1074] : [1] 
Window : [1441,915],[1511,915],[1511,957],[1441,957] : [1] 
Window : [599,1296],[628,1326],[781,1174],[754,1146] : [0.6] 
Window : [761,1641],[790,1612],[567,1427],[526,1427] : [0.5] 
