Door : [1202,781],[1307,781],[1307,788],[1202,788] : [1] 
Door : [1432,1000],[1532,1000],[1532,1007],[1432,1007] : [1] 
Door : [1598,1118],[1703,1118],[1703,1161],[1598,1161] : [1] 
Door : [1202,677],[1301,677],[1301,682],[1202,682] : [1] 
Door : [1976,764],[2075,764],[2075,788],[1976,788] : [1] 
Door : [1426,781],[1526,781],[1526,788],[1426,788] : [1] 
Door : [1786,787],[1794,787],[1794,889],[1786,889] : [1] 
Door : [1195,805],[1203,805],[1203,899],[1195,899] : [1] 
Door : [2087,671],[2094,671],[2094,765],[2087,765] : [1] 
Door : [1046,681],[1053,681],[1053,782],[1046,782] : [1] 
Door : [1195,907],[1202,907],[1202,1001],[1195,1001] : [1] 
