cellier : [1055,886] : [972,871,1138,901] : confidence,dict,original_word,difference : [92,DM,None,0]
garage : [1618,886] : [1533,871,1703,901] : confidence,dict,original_word,difference : [92,DM,None,0]
bains : [1062,1210] : [1004,1195,1121,1226] : confidence,dict,original_word,difference : [91,DM,None,0]
chambre 2 : [1585,1213] : [1469,1198,1701,1228] : confidence,dict,original_word,difference : [92,DM,None,0]
wc : [948,1390] : [915,1375,981,1406] : confidence,dict,original_word,difference : [95,DM,None,0]
porche : [1636,1571] : [1552,1556,1721,1587] : confidence,dict,original_word,difference : [94,DM,None,0]
chambre 1 : [887,1613] : [774,1598,1001,1628] : confidence,dict,original_word,difference : [93,DM,None,0]
cuisine : [1490,1801] : [1410,1786,1570,1817] : confidence,dict,original_word,difference : [92,DM,None,0]
sejour : [874,2104] : [793,2089,955,2120] : confidence,dict,original_word,difference : [93,DM,None,0]
repas : [1331,2244] : [1265,2229,1398,2260] : confidence,dict,original_word,difference : [92,DM,None,0]
terrassecouverte : [1867,2391] : [1756,2352,1979,2431] : confidence,dict,original_word,difference : [90,DM,None,0]
No Text Detected
