Total No of Rooms: 9
single : room 1 : maybe bedroom 4 : [1494,1906] : contour_details : [1342 1748],[1342 2078],[1552 2078],[1553 2077],[1835 2077],[1835 1749],[1440 1749],[1439 1748]

single : room 2 : maybe bedroom 3 : [1164,1882] : contour_details : [1236 1748],[1235 1749],[976 1749],[976 2078],[1227 2078],[1228 2077],[1321 2077],[1322 2078],[1333 2078],[1333 1748]

single : room 3 : unknown room : [282,1941] : contour_details : [226 1690],[226 1855],[225 1856],[225 2031],[226 2032],[226 2195],[287 2195],[288 2194],[288 2193],[301 2180],[309 2188],[310 2188],[317 2195],[339 2195],[339 1690]

single : room 4 : maybe bathroom : [1253,1480] : contour_details : [1230 1412],[1229 1413],[1082 1413],[1082 1635],[1233 1635],[1234 1634],[1332 1634],[1333 1635],[1440 1635],[1440 1413],[1298 1413],[1297 1412]

single : room 5 : maybe toilet : [1025,1563] : contour_details : [1024 1412],[1023 1413],[976 1413],[976 1634],[1073 1634],[1074 1635],[1074 1413],[1068 1413],[1067 1412]

single : room 6 : maybe cellar : [1013,1091] : contour_details : [864 1016],[863 1017],[704 1017],[704 1198],[861 1198],[862 1197],[1109 1197],[1109 1018],[961 1018],[960 1017],[960 1016]

single : room 7 : garage : [666,772] : contour_details : [622 638],[621 639],[226 639],[226 991],[861 991],[862 990],[960 990],[961 991],[1109 991],[1109 957],[1110 956],[1126 956],[1126 673],[1127 672],[1127 639],[690 639],[689 638]

open : plan 1-room 8 : corridor : [1147, 1699] : contour_details : [ 977 1644],[ 978 1643],[1446 1643],[1447 1644],[1447 1739],[1446 1740],[ 978 1740],[ 977 1739]

open : plan 1-room 9 : bedroom 5 : [1583, 1504] : contour_details : [1449 1415],[1450 1414],[1832 1414],[1833 1415],[1833 1739],[1832 1740],[1450 1740],[1449 1739]

open : plan 2-room 10 : dining : [970, 2307] : contour_details : [ 581 1692],[ 582 1691],[ 695 1691],[ 696 1692],[ 696 1819],[ 697 1820],[ 965 1820],[ 966 1821],[ 966 2087],[ 967 2088],[1104 2088],[1105 2089],[1105 2547],[1104 2548],[ 582 2548],[ 581 2547]

open : plan 2-room 11 : bedroom 2 : [455, 1469] : contour_details : [ 227 1355],[ 228 1354],[ 694 1354],[ 695 1355],[ 695 1680],[ 694 1681],[ 228 1681],[ 227 1680]

open : plan 2-room 12 : entry : [792, 1457] : contour_details : [ 866 1205],[ 965 1205],[ 966 1206],[ 966 1817],[ 965 1818],[ 705 1818],[ 704 1817],[ 704 1453],[ 703 1452],[ 698 1452],[ 697 1451],[ 697 1355],[ 698 1354],[ 704 1354],[ 705 1353],[ 705 1346],[ 704 1345],[ 696 1345],[ 695 1344],[ 695 1298],[ 696 1297],[ 696 1250],[ 697 1249],[ 704 1249],[ 705 1248],[ 705 1208],[ 706 1207],[ 864 1207]

open : plan 2-room 13 : bedroom 1 : [441, 1138] : contour_details : [ 227 1019],[ 228 1018],[ 694 1018],[ 695 1019],[ 695 1297],[ 694 1298],[ 694 1344],[ 693 1345],[ 228 1345],[ 227 1344]

