Wall : [492,1909],[612,1909],[612,1953],[492,1953] : [1] 
Wall : [115,724],[157,724],[157,860],[115,860] : [1] 
Wall : [752,1910],[866,1910],[866,1952],[752,1952] : [1] 
Wall : [1461,1001],[1503,1001],[1503,1196],[1461,1196] : [1] 
Wall : [988,1733],[1976,1733],[1976,1775],[988,1775] : [1] 
Wall : [115,1001],[157,1001],[157,1196],[115,1196] : [1] 
Wall : [989,1910],[1031,1910],[1031,2289],[989,2289] : [1] 
Wall : [115,1338],[158,1338],[158,1704],[115,1704] : [1] 
Wall : [1420,2247],[1462,2247],[1462,2525],[1420,2525] : [1] 
Wall : [1461,1338],[1503,1338],[1503,1533],[1461,1533] : [1] 
Wall : [843,724],[1764,724],[1764,766],[843,766] : [1] 
Wall : [1862,2482],[1976,2482],[1976,2525],[1862,2525] : [1] 
Wall : [1461,724],[1504,724],[1504,860],[1461,860] : [1] 
Wall : [1460,1674],[1503,1674],[1503,1775],[1460,1775] : [1] 
Wall : [1384,2482],[1534,2482],[1534,2525],[1384,2525] : [1] 
Wall : [114,724],[775,724],[775,765],[114,765] : [1] 
Wall : [1934,1733],[1975,1733],[1975,2525],[1934,2525] : [1] 
Wall : [114,1432],[518,1432],[518,1456],[114,1456] : [1] 
Wall : [493,1615],[517,1615],[517,2117],[493,2117] : [1] 
Wall : [989,1096],[1014,1096],[1014,1179],[989,1179] : [1] 
Wall : [1739,1043],[1763,1043],[1763,1155],[1739,1155] : [1] 
Wall : [1739,1379],[1763,1379],[1763,1491],[1739,1491] : [1] 
Wall : [115,1775],[139,1775],[139,2070],[115,2070] : [1] 
Wall : [989,1279],[1014,1279],[1014,1515],[989,1515] : [1] 
Wall : [989,724],[1013,724],[1013,996],[989,996] : [1] 
Wall : [923,2501],[1043,2501],[1043,2525],[923,2525] : [1] 
Wall : [493,1432],[518,1432],[518,1515],[493,1515] : [1] 
Wall : [989,1615],[1013,1615],[1013,1757],[989,1757] : [1] 
Wall : [1739,724],[1763,724],[1763,818],[1739,818] : [1] 
Wall : [114,2045],[175,2045],[175,2070],[114,2070] : [1] 
Wall : [457,2045],[518,2045],[518,2071],[457,2071] : [1] 
Wall : [492,2500],[583,2500],[583,2525],[492,2525] : [1] 
Wall : [493,2460],[517,2460],[517,2525],[493,2525] : [1] 
Wall : [1390,2247],[1463,2247],[1463,2290],[1390,2290] : [1] 
Wall : [1741,1716],[1763,1716],[1763,1775],[1741,1775] : [1] 
Wall : [970,1910],[1032,1910],[1032,1953],[970,1953] : [1] 
Wall : [988,2246],[1061,2246],[1061,2287],[988,2287] : [1] 
Wall : [847,1875],[853,1875],[853,1952],[847,1952] : [1] 
Wall : [988,1096],[1504,1096],[1504,1102],[988,1102] : [1] 
Wall : [114,1096],[636,1096],[636,1102],[114,1102] : [1] 
Wall : [114,1432],[854,1432],[854,1439],[114,1439] : [1] 
Wall : [988,1432],[1504,1432],[1504,1438],[988,1438] : [1] 
Wall : [629,724],[635,724],[635,996],[629,996] : [1] 
Wall : [858,989],[1014,989],[1014,996],[858,996] : [1] 
Wall : [735,1249],[741,1249],[741,1438],[735,1438] : [1] 
Wall : [846,1432],[853,1432],[853,1775],[846,1775] : [1] 
Wall : [628,1202],[635,1202],[635,1438],[628,1438] : [1] 
Wall : [628,989],[760,989],[760,996],[628,996] : [1] 
Wall : [734,1249],[819,1249],[819,1255],[734,1255] : [1] 
Wall : [989,1875],[995,1875],[995,2289],[989,2289] : [1] 
Wall : [815,1396],[819,1396],[819,1255],[815,1255] : [1] 
Wall : [741,1398],[817,1398],[817,1394],[741,1394] : [1] 
