Door : [1201,1485],[1301,1485],[1301,1492],[1201,1492] : [1] 
Door : [877,1981],[976,1981],[976,2006],[877,2006] : [1] 
Door : [1200,1060],[1301,1060],[1301,1067],[1200,1067] : [1] 
Door : [1300,1143],[1308,1143],[1308,1244],[1300,1244] : [1] 
Door : [1193,1385],[1202,1385],[1202,1486],[1193,1486] : [1] 
Door : [1194,1066],[1201,1066],[1201,1167],[1194,1167] : [1] 
Door : [1193,1278],[1201,1278],[1201,1380],[1193,1380] : [1] 
Door : [1193,1881],[1202,1881],[1202,1982],[1193,1982] : [1] 
Door : [1797,2201],[1840,2201],[1840,2307],[1797,2307] : [1] 
Door : [1201,2066],[1201,2153],[1224,2153],[1224,2066] : [1] 
