Wall : [972,2415],[1488,2415],[1488,2463],[972,2463] : [1] 
Wall : [636,1352],[678,1352],[678,1482],[636,1482] : [1] 
Wall : [1587,1370],[1629,1370],[1629,1500],[1587,1500] : [1] 
Wall : [819,1612],[861,1612],[861,1786],[819,1786] : [1] 
Wall : [818,1610],[980,1610],[980,1654],[818,1654] : [1] 
Wall : [1586,1458],[1895,1458],[1895,1500],[1586,1500] : [1] 
Wall : [819,1928],[861,1928],[861,2102],[819,2102] : [1] 
Wall : [973,2061],[1015,2061],[1015,2126],[973,2126] : [1] 
Wall : [635,1087],[679,1087],[679,1211],[635,1211] : [1] 
Wall : [1769,2420],[1895,2420],[1895,2463],[1769,2463] : [1] 
Wall : [1587,709],[1629,709],[1629,1193],[1587,1193] : [1] 
Wall : [765,1444],[980,1444],[980,1486],[765,1486] : [1] 
Wall : [1853,1748],[1894,1748],[1894,2463],[1853,2463] : [1] 
Wall : [1853,1458],[1894,1458],[1894,1606],[1853,1606] : [1] 
Wall : [1480,1264],[1630,1264],[1630,1299],[1480,1299] : [1] 
Wall : [1385,709],[1630,709],[1630,732],[1385,732] : [1] 
Wall : [494,1087],[1163,1087],[1163,1110],[494,1110] : [1] 
Wall : [1261,1087],[1630,1087],[1630,1110],[1261,1110] : [1] 
Wall : [494,709],[1075,709],[1075,732],[494,732] : [1] 
Wall : [495,709],[518,709],[518,768],[495,768] : [1] 
Wall : [1143,709],[1317,709],[1317,732],[1143,732] : [1] 
Wall : [495,1051],[518,1051],[518,1110],[495,1110] : [1] 
Wall : [937,1441],[977,1441],[977,1494],[937,1494] : [1] 
Wall : [939,1600],[979,1600],[979,1653],[939,1653] : [1] 
Wall : [985,2409],[1015,2409],[1015,2463],[985,2463] : [1] 
Wall : [635,1440],[697,1440],[697,1480],[635,1480] : [1] 
Wall : [818,2060],[874,2060],[874,2102],[818,2102] : [1] 
Wall : [1392,2362],[1398,2362],[1398,2463],[1392,2463] : [1] 
Wall : [1444,2362],[1453,2362],[1453,2463],[1444,2463] : [1] 
Wall : [1468,1493],[1895,1493],[1895,1500],[1468,1500] : [1] 
Wall : [818,1646],[1222,1646],[1222,1653],[818,1653] : [1] 
Wall : [966,2061],[1222,2061],[1222,2067],[966,2067] : [1] 
Wall : [1362,1848],[1895,1848],[1895,1854],[1362,1854] : [1] 
Wall : [1480,1276],[1488,1276],[1488,1388],[1480,1388] : [1] 
Wall : [1150,1087],[1156,1087],[1156,1332],[1150,1332] : [1] 
Wall : [1268,1087],[1274,1087],[1274,1382],[1268,1382] : [1] 
Wall : [1391,2362],[1453,2362],[1453,2369],[1391,2369] : [1] 
Wall : [1214,1647],[1221,1647],[1221,1751],[1214,1751] : [1] 
Wall : [1214,1851],[1221,1851],[1221,2067],[1214,2067] : [1] 
Wall : [1363,1494],[1369,1494],[1369,1854],[1363,1854] : [1] 
Wall : [1267,1376],[1382,1376],[1382,1382],[1267,1382] : [1] 
Wall : [759,1441],[1157,1441],[1157,1448],[759,1448] : [1] 
