Window : [1809,1558],[1851,1558],[1851,1654],[1809,1654] : [1] 
Window : [1560,1086],[1604,1086],[1604,1205],[1560,1205] : [1] 
Window : [1579,1092],[1604,1092],[1604,1205],[1579,1205] : [1] 
Window : [905,2137],[948,2137],[948,2232],[905,2232] : [1] 
Window : [1025,2591],[1307,2591],[1307,2634],[1025,2634] : [1] 
Window : [905,732],[930,732],[930,1016],[905,1016] : [1] 
Window : [1809,1759],[1851,1759],[1851,1831],[1809,1831] : [1] 
Window : [1808,1759],[1851,1759],[1851,1902],[1808,1902] : [1] 
Window : [905,1499],[948,1499],[948,1595],[905,1595] : [1] 
