Wall : [501,293],[525,293],[525,641],[501,641] : [1] 
Wall : [500,293],[874,293],[874,316],[500,316] : [1] 
Wall : [943,293],[1075,293],[1075,316],[943,316] : [1] 
Wall : [1144,293],[1264,293],[1264,316],[1144,316] : [1] 
Wall : [1754,1674],[1797,1674],[1797,2041],[1754,2041] : [1] 
Wall : [2000,930],[2292,930],[2292,972],[2000,972] : [1] 
Wall : [2455,1987],[3003,1987],[3003,2029],[2455,2029] : [1] 
Wall : [2248,1084],[2392,1084],[2392,1126],[2248,1126] : [1] 
Wall : [2604,1639],[2646,1639],[2646,2029],[2604,2029] : [1] 
Wall : [2486,1096],[2527,1096],[2527,1243],[2486,1243] : [1] 
Wall : [2604,1344],[2645,1344],[2645,1462],[2604,1462] : [1] 
Wall : [2485,1201],[2646,1201],[2646,1243],[2485,1243] : [1] 
Wall : [1895,871],[1925,871],[1925,972],[1895,972] : [1] 
Wall : [2453,2359],[3003,2359],[3003,2383],[2453,2383] : [1] 
Wall : [1895,293],[1919,293],[1919,399],[1895,399] : [1] 
Wall : [2456,1987],[2480,1987],[2480,2129],[2456,2129] : [1] 
Wall : [2456,2224],[2480,2224],[2480,2387],[2456,2387] : [1] 
Wall : [2976,2003],[3000,2003],[3000,2159],[2976,2159] : [1] 
Wall : [2231,1651],[2292,1651],[2292,1674],[2231,1674] : [1] 
Wall : [2976,2230],[2999,2230],[2999,2386],[2976,2386] : [1] 
Wall : [1546,293],[1920,293],[1920,316],[1546,316] : [1] 
Wall : [1345,293],[1477,293],[1477,316],[1345,316] : [1] 
Wall : [2107,1651],[2132,1651],[2132,1675],[2107,1675] : [1] 
Wall : [2461,1096],[2528,1096],[2528,1118],[2461,1118] : [1] 
Wall : [2467,1120],[2528,1120],[2528,1138],[2467,1138] : [1] 
Wall : [147,1208],[197,1208],[197,1400],[147,1400] : [1] 
Wall : [146,930],[502,930],[502,972],[146,972] : [1] 
Wall : [624,1633],[667,1633],[667,2117],[624,2117] : [1] 
Wall : [147,1615],[189,1615],[189,2117],[147,2117] : [1] 
Wall : [147,1474],[188,1474],[188,1545],[147,1545] : [1] 
Wall : [210,1338],[241,1338],[241,1382],[210,1382] : [1] 
Wall : [524,948],[1796,948],[1796,972],[524,972] : [1] 
Wall : [501,895],[525,895],[525,930],[501,930] : [1] 
Wall : [147,1208],[171,1208],[171,1403],[147,1403] : [1] 
Wall : [147,930],[188,930],[188,995],[147,995] : [1] 
Wall : [1204,930],[1226,930],[1226,972],[1204,972] : [1] 
Wall : [1582,930],[1606,930],[1606,972],[1582,972] : [1] 
Wall : [879,930],[903,930],[903,972],[879,972] : [1] 
Wall : [1756,1674],[1789,1674],[1789,2044],[1756,2044] : [1] 
Wall : [2975,2241],[3003,2241],[3003,2259],[2975,2259] : [1] 
Wall : [2975,2325],[3003,2325],[3003,2342],[2975,2342] : [1] 
Wall : [2529,2359],[2586,2359],[2586,2387],[2529,2387] : [1] 
Wall : [1894,931],[1931,931],[1931,954],[1894,954] : [1] 
Wall : [2796,2359],[2853,2359],[2853,2387],[2796,2387] : [1] 
Wall : [2506,2359],[2524,2359],[2524,2387],[2506,2387] : [1] 
Wall : [2736,2359],[2771,2359],[2771,2387],[2736,2387] : [1] 
Wall : [2934,2359],[2958,2359],[2958,2387],[2934,2387] : [1] 
Wall : [2878,2359],[2896,2359],[2896,2387],[2878,2387] : [1] 
Wall : [2623,2359],[2648,2359],[2648,2387],[2623,2387] : [1] 
Wall : [2621,1202],[2645,1202],[2645,1249],[2621,1249] : [1] 
Wall : [2453,1987],[2460,1987],[2460,2218],[2453,2218] : [1] 
Wall : [2248,1127],[2386,1127],[2386,1137],[2248,1137] : [1] 
Wall : [2231,1651],[2646,1651],[2646,1658],[2231,1658] : [1] 
Wall : [2248,1236],[2646,1236],[2646,1243],[2248,1243] : [1] 
Wall : [2301,1421],[2646,1421],[2646,1426],[2301,1426] : [1] 
Wall : [2995,2156],[3002,2156],[3002,2235],[2995,2235] : [1] 
Wall : [2125,1651],[2132,1651],[2132,1987],[2125,1987] : [1] 
Wall : [146,1361],[203,1361],[203,1366],[146,1366] : [1] 
Wall : [146,1368],[206,1368],[206,1374],[146,1374] : [1] 
Wall : [146,1390],[668,1390],[668,1397],[146,1397] : [1] 
Wall : [146,1375],[208,1375],[208,1383],[146,1383] : [1] 
Wall : [146,1384],[242,1384],[242,1398],[146,1398] : [1] 
Wall : [583,1703],[668,1703],[668,1711],[583,1711] : [1] 
Wall : [146,1704],[485,1704],[485,1710],[146,1710] : [1] 
Wall : [1789,1633],[1795,1633],[1795,2044],[1789,2044] : [1] 
Wall : [2302,1344],[2308,1344],[2308,1497],[2302,1497] : [1] 
Wall : [2053,1651],[2132,1651],[2132,1658],[2053,1658] : [1] 
Wall : [400,1391],[407,1391],[407,1468],[400,1468] : [1] 
Wall : [478,1391],[484,1391],[484,1474],[478,1474] : [1] 
Wall : [660,1391],[667,1391],[667,1474],[660,1474] : [1] 
Wall : [661,1574],[668,1574],[668,2117],[661,2117] : [1] 
Wall : [401,1574],[407,1574],[407,1710],[401,1710] : [1] 
Wall : [2172,1344],[2309,1344],[2309,1350],[2172,1350] : [1] 
Wall : [583,1574],[668,1574],[668,1580],[583,1580] : [1] 
Wall : [264,1574],[481,1574],[481,1580],[264,1580] : [1] 
Wall : [2173,1344],[2178,1344],[2178,1550],[2173,1550] : [1] 
Wall : [2172,1545],[2239,1545],[2239,1550],[2172,1550] : [1] 
Wall : [1752,1361],[1759,1361],[1759,1533],[1752,1533] : [1] 
Wall : [1751,1450],[2061,1450],[2061,1456],[1751,1456] : [1] 
Wall : [2053,1450],[2060,1450],[2060,1533],[2053,1533] : [1] 
Wall : [1978,1143],[1984,1143],[1984,1456],[1978,1456] : [1] 
Wall : [1751,1143],[2061,1143],[2061,1149],[1751,1149] : [1] 
Wall : [1752,1143],[1759,1143],[1759,1261],[1752,1261] : [1] 
Wall : [2480,2387],[2524,2387],[2505,2385],[2505,2385] : [1] 
Wall : [406,1399],[477,1399],[477,1395],[406,1395] : [1] 
Wall : [475,1467],[479,1467],[479,1397],[475,1397] : [1] 
Wall : [407,1469],[477,1469],[477,1465],[407,1465] : [1] 
Wall : [405,1467],[408,1466],[407,1396],[404,1397] : [1] 
