Wall : [634,1205],[925,1205],[925,1247],[634,1247] : [1] 
Wall : [1538,1920],[1580,1920],[1580,2138],[1538,2138] : [1] 
Wall : [1537,1223],[1581,1223],[1581,1500],[1537,1500] : [1] 
Wall : [634,2238],[878,2238],[878,2280],[634,2280] : [1] 
Wall : [1538,1595],[1580,1595],[1580,1813],[1538,1813] : [1] 
Wall : [1538,2232],[1581,2232],[1581,2634],[1538,2634] : [1] 
Wall : [988,2392],[1031,2392],[1031,2634],[988,2634] : [1] 
Wall : [970,2238],[1032,2238],[1032,2281],[970,2281] : [1] 
Wall : [988,2592],[1179,2592],[1179,2634],[988,2634] : [1] 
Wall : [635,1831],[676,1831],[676,2280],[635,2280] : [1] 
Wall : [634,1205],[676,1205],[676,1559],[634,1559] : [1] 
Wall : [635,1654],[676,1654],[676,1760],[635,1760] : [1] 
Wall : [1460,2592],[1581,2592],[1581,2634],[1460,2634] : [1] 
Wall : [882,1051],[1368,1051],[1368,1087],[882,1087] : [1] 
Wall : [1556,1016],[1581,1016],[1581,1500],[1556,1500] : [1] 
Wall : [1343,1051],[1368,1051],[1368,1288],[1343,1288] : [1] 
Wall : [1466,1263],[1581,1263],[1581,1289],[1466,1289] : [1] 
Wall : [882,674],[907,674],[907,1093],[882,1093] : [1] 
Wall : [1556,674],[1580,674],[1580,733],[1556,733] : [1] 
Wall : [884,1248],[914,1209],[887,1188],[857,1227] : [1] 
Wall : [886,1187],[907,1187],[907,1247],[886,1247] : [1] 
Wall : [882,674],[1581,674],[1581,704],[882,704] : [1] 
Wall : [989,2238],[1013,2238],[1013,2298],[989,2298] : [1] 
Wall : [903,1193],[913,1193],[913,1247],[903,1247] : [1] 
Wall : [914,1187],[925,1187],[925,1247],[914,1247] : [1] 
Wall : [1466,1794],[1581,1794],[1581,1802],[1466,1802] : [1] 
Wall : [1026,2238],[1031,2238],[1031,2298],[1026,2298] : [1] 
Wall : [1015,2238],[1025,2238],[1025,2292],[1015,2292] : [1] 
Wall : [634,1902],[1014,1902],[1014,1908],[634,1908] : [1] 
Wall : [634,1239],[1014,1239],[1014,1247],[634,1247] : [1] 
Wall : [634,1689],[1014,1689],[1014,1695],[634,1695] : [1] 
Wall : [1343,1051],[1350,1051],[1350,1553],[1343,1553] : [1] 
Wall : [1466,1050],[1581,1050],[1581,1059],[1466,1059] : [1] 
Wall : [970,2238],[1120,2238],[1120,2245],[970,2245] : [1] 
Wall : [1006,1795],[1014,1795],[1014,1908],[1006,1908] : [1] 
Wall : [1007,1240],[1014,1240],[1014,1589],[1007,1589] : [1] 
Wall : [1112,1547],[1351,1547],[1351,1553],[1112,1553] : [1] 
Wall : [1113,1902],[1119,1902],[1119,2244],[1113,2244] : [1] 
Wall : [1112,1471],[1119,1471],[1119,1618],[1112,1618] : [1] 
Wall : [1219,1547],[1225,1547],[1225,1801],[1219,1801] : [1] 
Wall : [1218,1795],[1303,1795],[1303,1801],[1218,1801] : [1] 
Wall : [1112,1719],[1226,1719],[1226,1725],[1112,1725] : [1] 
Wall : [1113,1719],[1119,1719],[1119,1801],[1113,1801] : [1] 
Wall : [995,1323],[998,1320],[924,1245],[921,1248] : [1] 
Wall : [996,1323],[997,1320],[677,1245],[676,1248] : [1] 
Wall : [1118,1473],[1147,1473],[1147,1469],[1118,1469] : [1] 
Wall : [1170,1498],[1173,1495],[1148,1469],[1145,1472] : [1] 
Wall : [1162,1499],[1172,1499],[1172,1495],[1162,1495] : [1] 
Wall : [1160,1520],[1164,1520],[1164,1497],[1160,1497] : [1] 
Wall : [1160,1520],[1164,1520],[1164,1497],[1160,1497] : [1] 
Wall : [1162,1499],[1175,1499],[1175,1495],[1162,1495] : [1] 
Wall : [1173,1498],[1176,1495],[1151,1468],[1148,1471] : [1] 
Wall : [1150,1472],[1230,1472],[1230,1468],[1150,1468] : [1] 
Wall : [1228,1497],[1232,1497],[1232,1470],[1228,1470] : [1] 
Wall : [1230,1499],[1237,1499],[1237,1495],[1230,1495] : [1] 
Wall : [1230,1499],[1237,1499],[1237,1495],[1230,1495] : [1] 
Wall : [1228,1497],[1232,1497],[1232,1470],[1228,1470] : [1] 
Wall : [1230,1472],[1342,1472],[1342,1468],[1230,1468] : [1] 
Wall : [1228,1546],[1232,1546],[1232,1527],[1228,1527] : [1] 
Wall : [1222,1545],[1225,1546],[1231,1527],[1228,1526] : [1] 
Wall : [1222,1547],[1225,1544],[1205,1525],[1202,1528] : [1] 
Wall : [1219,1547],[1222,1544],[1205,1525],[1202,1528] : [1] 
Wall : [750,2237],[754,2237],[754,1908],[750,1908] : [1] 
Wall : [687,2237],[690,2236],[689,1907],[686,1908] : [1] 
