Window : [2391,1095],[2461,1095],[2461,1118],[2391,1118] : [1] 
Window : [2603,1425],[2646,1425],[2646,1639],[2603,1639] : [1] 
Window : [501,947],[524,947],[524,972],[501,972] : [1] 
Window : [1753,1638],[1796,1638],[1796,1674],[1753,1674] : [1] 
Window : [2770,2358],[2796,2358],[2796,2387],[2770,2387] : [1] 
Window : [1794,1986],[2455,1986],[2455,2029],[1794,2029] : [1] 
Window : [873,292],[943,292],[943,316],[873,316] : [1] 
Window : [1796,1986],[2455,1986],[2455,2029],[1796,2029] : [1] 
Window : [2391,1095],[2486,1095],[2486,1126],[2391,1126] : [1] 
Window : [146,1544],[188,1544],[188,1615],[146,1615] : [1] 
Window : [1894,398],[1919,398],[1919,871],[1894,871] : [1] 
Window : [2603,1461],[2645,1461],[2645,1639],[2603,1639] : [1] 
Window : [1476,292],[1546,292],[1546,316],[1476,316] : [1] 
Window : [1074,292],[1144,292],[1144,316],[1074,316] : [1] 
Window : [2603,1242],[2645,1242],[2645,1344],[2603,1344] : [1] 
Window : [2603,1242],[2645,1242],[2645,1344],[2603,1344] : [1] 
Window : [1924,929],[2000,929],[2000,972],[1924,972] : [1] 
Window : [196,1337],[210,1337],[210,1382],[196,1382] : [1] 
Window : [2484,1137],[2528,1137],[2528,1201],[2484,1201] : [1] 
