bains : [651,682] : [605,670,697,695] : confidence,dict,original_word,difference : [87,DM,None,0]
chambre 1 : [1047,681] : [957,669,1138,693] : confidence,dict,original_word,difference : [93,DM,None,0]
porche : [1479,762] : [1412,750,1546,775] : confidence,dict,original_word,difference : [75,DM,None,0]
abrigarage : [2428,784] : [2360,754,2496,815] : confidence,dict,original_word,difference : [75,DM,None,0]
wc : [597,911] : [571,899,624,924] : confidence,dict,original_word,difference : [78,DM,None,0]
wc : [1725,902] : [1699,890,1751,915] : confidence,dict,original_word,difference : [76,DM,None,0]
bureau : [1984,894] : [1919,882,2049,906] : confidence,dict,original_word,difference : [88,DM,None,0]
degagement : [953,941] : [840,929,1066,954] : confidence,dict,original_word,difference : [77,DM,None,0]
pl : [1634,935] : [1612,924,1656,947] : confidence,dict,original_word,difference : [74,DM,None,0]
chambre 3 : [1161,1124] : [1069,1112,1254,1137] : confidence,dict,original_word,difference : [87,DM,None,0]
chambre 2 : [618,1136] : [526,1124,711,1148] : confidence,dict,original_word,difference : [76,DM,None,0]
hall : [1479,1154] : [1441,1143,1518,1166] : confidence,dict,original_word,difference : [91,DM,None,0]
douche : [1687,1153] : [1619,1141,1755,1166] : confidence,dict,original_word,difference : [86,DM,None,0]
cellier : [2115,1236] : [2049,1224,2181,1249] : confidence,dict,original_word,difference : [89,DM,None,0]
rangement : [2564,1230] : [2463,1218,2666,1243] : confidence,dict,original_word,difference : [87,DM,None,0]
salon : [1304,1585] : [1251,1573,1357,1598] : confidence,dict,original_word,difference : [85,DM,None,0]
repas : [1706,1585] : [1654,1573,1759,1598] : confidence,dict,original_word,difference : [85,DM,None,0]
dgt : [1865,2159] : [1822,2147,1909,2171] : confidence,dict,original_word,difference : [71,SG,dut,1]
ch : [1927,1665] : [1900,1698,1954,1632] : confidence,dict,original_word,difference : [70,SG,ci,1]
wc : [2106,1285] : [2098,1297,2114,1273] : confidence,dict,original_word,difference : [71,SG,oc,1]
ch : [2440,880] : [2429,894,2452,866] : confidence,dict,original_word,difference : [74,SG,cn,1]
No Text Detected
