Window : [607,1508],[649,1508],[649,1651],[607,1651] : [1] 
Window : [1516,853],[1541,853],[1541,1137],[1516,1137] : [1] 
Window : [1240,2187],[1380,2187],[1380,2230],[1240,2230] : [1] 
Window : [985,1331],[1185,1331],[1185,1374],[985,1374] : [1] 
Window : [797,2187],[937,2187],[937,2230],[797,2230] : [1] 
Window : [1116,1331],[1185,1331],[1185,1373],[1116,1373] : [1] 
Window : [1807,2187],[2018,2187],[2018,2230],[1807,2230] : [1] 
Window : [2236,1833],[2279,1833],[2279,1975],[2236,1975] : [1] 
Window : [2236,1378],[2279,1378],[2279,1521],[2236,1521] : [1] 
Window : [2254,1042],[2279,1042],[2279,1114],[2254,1114] : [1] 
Window : [1516,1284],[1559,1284],[1559,1355],[1516,1355] : [1] 
