Door : [1464,2464],[1582,2464],[1582,2471],[1464,2471] : [1] 
Door : [1594,1076],[1693,1076],[1693,1119],[1594,1119] : [1] 
Door : [1587,1301],[1693,1301],[1693,1308],[1587,1308] : [1] 
Door : [1481,1891],[1581,1891],[1581,1904],[1481,1904] : [1] 
Door : [1298,2358],[1398,2358],[1398,2365],[1298,2365] : [1] 
Door : [1299,2464],[1398,2464],[1398,2471],[1299,2471] : [1] 
Door : [1581,2080],[1588,2080],[1588,2182],[1581,2182] : [1] 
Door : [1457,2612],[1464,2612],[1464,2713],[1457,2713] : [1] 
Door : [1581,2612],[1588,2612],[1588,2713],[1581,2713] : [1] 
Door : [395,1477],[402,1477],[402,1577],[395,1577] : [1] 
Door : [395,1507],[402,1507],[402,1577],[395,1577] : [1] 
Door : [1799,1779],[1840,1779],[1840,1886],[1799,1886] : [1] 
Door : [1581,2364],[1589,2364],[1589,2465],[1581,2465] : [1] 
Door : [1496,1976],[1573,1976],[1573,1997],[1496,1997] : [0.866666666667] 
