Wall : [982,2183],[1029,2183],[1029,2254],[982,2254] : [1] 
Wall : [479,2583],[670,2583],[670,2626],[479,2626] : [1] 
Wall : [810,2584],[1136,2584],[1136,2626],[810,2626] : [1] 
Wall : [1418,2584],[1650,2584],[1650,2626],[1418,2626] : [1] 
Wall : [934,1506],[995,1506],[995,1549],[934,1549] : [1] 
Wall : [479,1510],[888,1510],[888,1552],[479,1552] : [1] 
Wall : [1608,2121],[1649,2121],[1649,2301],[1608,2301] : [1] 
Wall : [1608,2443],[1649,2443],[1649,2626],[1608,2626] : [1] 
Wall : [480,2109],[521,2109],[521,2626],[480,2626] : [1] 
Wall : [480,1829],[522,1829],[522,2038],[480,2038] : [1] 
Wall : [480,1510],[521,1510],[521,1687],[480,1687] : [1] 
Wall : [1608,1882],[1649,1882],[1649,2015],[1608,2015] : [1] 
Wall : [1607,1539],[1649,1539],[1649,1740],[1607,1740] : [1] 
Wall : [1401,1374],[1425,1374],[1425,1640],[1401,1640] : [1] 
Wall : [952,742],[976,742],[976,1267],[952,1267] : [1] 
Wall : [1294,742],[1455,742],[1455,766],[1294,766] : [1] 
Wall : [1524,742],[1650,742],[1650,767],[1524,767] : [1] 
Wall : [951,742],[1012,742],[1012,767],[951,767] : [1] 
Wall : [1524,1616],[1650,1616],[1650,1641],[1524,1641] : [1] 
Wall : [951,1376],[1426,1376],[1426,1400],[951,1400] : [1] 
Wall : [1626,742],[1649,742],[1649,1468],[1626,1468] : [1] 
Wall : [952,1498],[976,1498],[976,1551],[952,1551] : [1] 
Wall : [952,1362],[976,1362],[976,1403],[952,1403] : [1] 
Wall : [982,2112],[988,2112],[988,2626],[982,2626] : [1] 
Wall : [982,1504],[988,1504],[988,1722],[982,1722] : [1] 
Wall : [875,1510],[881,1510],[881,1855],[875,1855] : [1] 
Wall : [479,2236],[882,2236],[882,2242],[479,2242] : [1] 
Wall : [479,2023],[882,2023],[882,2029],[479,2029] : [1] 
Wall : [1323,1633],[1426,1633],[1426,1640],[1323,1640] : [1] 
Wall : [876,2130],[882,2130],[882,2242],[876,2242] : [1] 
Wall : [875,1947],[881,1947],[881,2038],[875,2038] : [1] 
Wall : [1323,1634],[1331,1634],[1331,1829],[1323,1829] : [1] 
Wall : [981,1823],[1331,1823],[1331,1829],[981,1829] : [1] 
Wall : [1059,1823],[1066,1823],[1066,2012],[1059,2012] : [1] 
Wall : [981,2006],[1066,2006],[1066,2012],[981,2012] : [1] 
