Window : [837,766],[885,766],[885,885],[837,885] : [1] 
Window : [1930,895],[1966,895],[1966,967],[1930,967] : [1] 
Window : [885,1327],[1215,1327],[1215,1387],[885,1387] : [1] 
Window : [1405,506],[1487,506],[1487,554],[1405,554] : [1] 
Window : [2202,1327],[2378,1327],[2378,1375],[2202,1375] : [1] 
Window : [837,766],[885,766],[885,885],[837,885] : [1] 
Window : [1404,506],[1487,506],[1487,555],[1404,555] : [1] 
Window : [1984,506],[2065,506],[2065,554],[1984,554] : [1] 
