garage : [1304,489] : [1236,477,1372,502] : confidence,dict,original_word,difference : [88,DM,None,0]
wc : [1054,724] : [1028,712,1081,737] : confidence,dict,original_word,difference : [89,DM,None,0]
chambre 1 : [2304,760] : [2213,748,2395,773] : confidence,dict,original_word,difference : [96,DM,None,0]
chambre 4 : [812,790] : [719,778,905,802] : confidence,dict,original_word,difference : [87,DM,None,0]
placard : [835,961] : [761,949,910,974] : confidence,dict,original_word,difference : [85,DM,None,0]
placard : [2229,949] : [2155,937,2304,962] : confidence,dict,original_word,difference : [88,DM,None,0]
hall : [2099,1032] : [2061,1020,2138,1044] : confidence,dict,original_word,difference : [92,DM,None,0]
bains : [832,1067] : [785,1055,879,1080] : confidence,dict,original_word,difference : [82,DM,None,0]
placard : [1367,1162] : [1293,1150,1442,1175] : confidence,dict,original_word,difference : [86,DM,None,0]
placard : [2099,1162] : [2025,1150,2174,1175] : confidence,dict,original_word,difference : [94,DM,None,0]
chambre 3 : [925,1363] : [832,1351,1018,1376] : confidence,dict,original_word,difference : [88,DM,None,0]
chambre 2 : [1290,1374] : [1198,1362,1383,1387] : confidence,dict,original_word,difference : [89,DM,None,0]
repas : [1889,1392] : [1836,1380,1942,1405] : confidence,dict,original_word,difference : [76,DM,None,0]
cuisine : [2295,1374] : [2231,1362,2359,1387] : confidence,dict,original_word,difference : [87,DM,None,0]
terrassecouverte : [2334,1746] : [2248,1715,2420,1777] : confidence,dict,original_word,difference : [88,DM,None,0]
sejour : [1741,1758] : [1676,1746,1806,1771] : confidence,dict,original_word,difference : [83,DM,None,0]
No Text Detected
