Window : [1893,1207],[2246,1207],[2246,1233],[1893,1233] : [1] 
Window : [529,1992],[669,1992],[669,2035],[529,2035] : [1] 
Window : [2340,1361],[2365,1361],[2365,1432],[2340,1432] : [1] 
Window : [1242,2311],[1285,2311],[1285,2596],[1242,2596] : [1] 
Window : [923,912],[1023,912],[1023,954],[923,954] : [1] 
Window : [333,1544],[375,1544],[375,1615],[333,1615] : [1] 
Window : [954,912],[1023,912],[1023,954],[954,954] : [1] 
Window : [1391,2701],[1720,2701],[1720,2743],[1391,2743] : [1] 
Window : [333,1048],[375,1048],[375,1190],[333,1190] : [1] 
Window : [1242,2099],[1285,2099],[1285,2241],[1242,2241] : [1] 
Window : [2339,1679],[2365,1679],[2365,1751],[2339,1751] : [1] 
Window : [333,1308],[375,1308],[375,1379],[333,1379] : [1] 
Window : [1455,1430],[1555,1430],[1555,1474],[1455,1474] : [1] 
Window : [1887,2701],[2216,2701],[2216,2743],[1887,2743] : [1] 
Window : [1320,912],[1460,912],[1460,954],[1320,954] : [1] 
Window : [983,1992],[1124,1992],[1124,2035],[983,2035] : [1] 
Window : [2322,2087],[2365,2087],[2365,2229],[2322,2229] : [1] 
