Wall : [838,885],[886,885],[886,1387],[838,1387] : [1] 
Wall : [2468,820],[2515,820],[2515,1381],[2468,1381] : [1] 
Wall : [2065,507],[2516,507],[2516,554],[2065,554] : [1] 
Wall : [1487,507],[1624,507],[1624,555],[1487,555] : [1] 
Wall : [837,507],[1406,507],[1406,554],[837,554] : [1] 
Wall : [2155,1328],[2203,1328],[2203,1741],[2155,1741] : [1] 
Wall : [2468,507],[2515,507],[2515,702],[2468,702] : [1] 
Wall : [1552,1328],[1600,1328],[1600,1741],[1552,1741] : [1] 
Wall : [2378,1327],[2516,1327],[2516,1375],[2378,1375] : [1] 
Wall : [1847,507],[1985,507],[1985,555],[1847,555] : [1] 
Wall : [838,507],[885,507],[885,767],[838,767] : [1] 
Wall : [1706,595],[1730,595],[1730,643],[1706,643] : [1] 
Wall : [2412,1328],[2467,1328],[2467,1381],[2412,1381] : [1] 
Wall : [1847,508],[1991,508],[1991,530],[1847,530] : [1] 
Wall : [2492,507],[2515,507],[2515,708],[2492,708] : [1] 
Wall : [840,879],[862,879],[862,1387],[840,1387] : [1] 
Wall : [1575,594],[1636,594],[1636,619],[1575,619] : [1] 
Wall : [2059,507],[2516,507],[2516,530],[2059,530] : [1] 
Wall : [1481,507],[1624,507],[1624,530],[1481,530] : [1] 
Wall : [1576,507],[1627,507],[1627,643],[1576,643] : [1] 
Wall : [837,508],[1412,508],[1412,530],[837,530] : [1] 
Wall : [838,507],[862,507],[862,772],[838,772] : [1] 
Wall : [1836,507],[1896,507],[1896,643],[1836,643] : [1] 
Wall : [837,885],[1223,885],[1223,891],[837,891] : [1] 
Wall : [2514,1375],[2865,1375],[2865,1381],[2514,1381] : [1] 
Wall : [2148,820],[2516,820],[2516,826],[2148,826] : [1] 
Wall : [1612,507],[1618,507],[1618,837],[1612,837] : [1] 
Wall : [1399,507],[1405,507],[1405,646],[1399,646] : [1] 
Wall : [1547,1328],[1689,1328],[1689,1335],[1547,1335] : [1] 
Wall : [2496,814],[2509,814],[2509,1381],[2496,1381] : [1] 
Wall : [2510,814],[2515,814],[2515,1375],[2510,1375] : [1] 
Wall : [1540,636],[1630,636],[1630,643],[1540,643] : [1] 
Wall : [1215,885],[1223,885],[1223,967],[1215,967] : [1] 
Wall : [2149,820],[2155,820],[2155,902],[2149,902] : [1] 
Wall : [1540,832],[1619,832],[1619,837],[1540,837] : [1] 
Wall : [1682,991],[1689,991],[1689,1333],[1682,1333] : [1] 
Wall : [1588,832],[1594,832],[1594,891],[1588,891] : [1] 
Wall : [1321,991],[1725,991],[1725,997],[1321,997] : [1] 
Wall : [1504,885],[1619,885],[1619,891],[1504,891] : [1] 
Wall : [1322,991],[1329,991],[1329,1074],[1322,1074] : [1] 
Wall : [1321,885],[1406,885],[1406,891],[1321,891] : [1] 
Wall : [1398,675],[1405,675],[1405,891],[1398,891] : [1] 
Wall : [1888,896],[2050,896],[2050,902],[1888,902] : [1] 
Wall : [1966,743],[1972,743],[1972,967],[1966,967] : [1] 
Wall : [1924,896],[1931,896],[1931,967],[1924,967] : [1] 
Wall : [1216,1068],[1223,1068],[1223,1328],[1216,1328] : [1] 
Wall : [1215,1328],[1220,1328],[1220,1476],[1215,1476] : [1] 
Wall : [1718,595],[1724,595],[1724,891],[1718,891] : [1] 
Wall : [1888,743],[1973,743],[1973,749],[1888,749] : [1] 
