Window : [800,1201],[841,1201],[841,1297],[800,1297] : [1] 
Window : [799,823],[823,823],[823,895],[799,895] : [1] 
Window : [379,1502],[422,1502],[422,1574],[379,1574] : [1] 
Window : [1519,1237],[1562,1237],[1562,1308],[1519,1308] : [1] 
Window : [1118,1579],[1518,1579],[1518,1615],[1118,1615] : [1] 
Window : [1615,1573],[1684,1573],[1684,1615],[1615,1615] : [1] 
Window : [499,2134],[639,2134],[639,2177],[499,2177] : [1] 
Window : [1810,2394],[1950,2394],[1950,2436],[1810,2436] : [1] 
Window : [1537,764],[1562,764],[1562,1049],[1537,1049] : [1] 
Window : [865,2134],[1005,2134],[1005,2177],[865,2177] : [1] 
Window : [1469,1435],[1562,1435],[1562,1479],[1469,1479] : [1] 
Window : [2162,1868],[2205,1868],[2205,2011],[2162,2011] : [1] 
Window : [1219,2134],[1312,2134],[1312,2177],[1219,2177] : [1] 
Window : [1449,1578],[1482,1578],[1472,1480],[1460,1510] : [0.5] 
