chambre 1 : [1196,1128] : [1083,1113,1310,1143] : confidence,dict,original_word,difference : [96,DM,None,0]
wc : [1545,1187] : [1512,1172,1578,1203] : confidence,dict,original_word,difference : [95,DM,None,0]
sejour : [792,1328] : [711,1313,873,1344] : confidence,dict,original_word,difference : [92,DM,None,0]
cellier : [1603,1375] : [1520,1360,1686,1391] : confidence,dict,original_word,difference : [87,DM,None,0]
hall : [1363,1435] : [1314,1420,1412,1450] : confidence,dict,original_word,difference : [83,DM,None,0]
ch : [344,1481] : [332,1470,357,1493] : confidence,dict,original_word,difference : [80,SG,cn,1]
cuisine : [1547,1747] : [1467,1732,1627,1763] : confidence,dict,original_word,difference : [86,DM,None,0]
repas : [1209,1795] : [1143,1780,1276,1810] : confidence,dict,original_word,difference : [93,DM,None,0]
terrasse : [1792,2261] : [1684,2246,1900,2277] : confidence,dict,original_word,difference : [89,DM,None,0]
No Text Detected
