Door : [1311,1450],[1420,1450],[1420,1457],[1311,1457] : [1] 
Door : [1525,1787],[1618,1787],[1618,1829],[1525,1829] : [1] 
Door : [1429,1158],[1436,1158],[1436,1262],[1429,1262] : [1] 
Door : [1092,1211],[1121,1240],[1217,1163],[1175,1163] : [0.8] 
