Total No of Rooms: 2
single : room 1 : maybe toilet : [1022,1687] : contour_details : [977 1661],[977 1712],[976 1713],[976 1782],[977 1782],[978 1783],[978 1834],[1022 1834],[1023 1835],[1074 1835],[1074 1759],[1073 1758],[1073 1661]

open : plan 1-room 2 : living : [1707, 2109] : contour_details : [1395 1845],[1396 1844],[1434 1844],[1435 1845],[1620 1845],[1621 1846],[1804 1846],[1805 1847],[1805 2294],[1804 2295],[1397 2295],[1396 2294],[1396 2070],[1395 2069]

open : plan 1-room 3 : dining : [1308, 2207] : contour_details : [1032 1845],[1033 1844],[1393 1844],[1394 1845],[1394 2069],[1395 2070],[1395 2338],[1391 2342],[1390 2342],[1377 2355],[1376 2355],[1362 2369],[1361 2369],[1348 2382],[1347 2382],[1334 2395],[1333 2395],[1319 2409],[1318 2409],[1305 2422],[1304 2422],[1290 2436],[1289 2436],[1276 2449],[1275 2449],[1262 2462],[1261 2462],[1252 2471],[1244 2463],[1242 2465],[1241 2465],[1239 2467],[1238 2467],[1235 2470],[1234 2470],[1232 2472],[ 980 2472],[ 979 2471],[ 979 1898],[ 980 1897],[1031 1897],[1032 1896]

open : plan 1-room 4 : entry : [1302, 1618] : contour_details : [1408 1392],[1409 1391],[1410 1392],[1410 1660],[1411 1661],[1804 1661],[1805 1662],[1805 1844],[1804 1845],[1621 1845],[1620 1844],[1435 1844],[1434 1843],[1395 1843],[1394 1842],[1393 1843],[1251 1843],[1250 1842],[1250 1758],[1249 1757],[1240 1757],[1239 1758],[1239 1833],[1238 1834],[1085 1834],[1084 1833],[1084 1502],[1085 1501],[1184 1501],[1185 1500],[1185 1466],[1186 1465],[1313 1465],[1376 1528],[1377 1528],[1404 1555],[1405 1554],[1405 1514],[1406 1513],[1406 1474],[1407 1473],[1407 1433],[1408 1432]

open : plan 1-room 5 : kitchen : [1637, 1617] : contour_details : [1456 1385],[1457 1384],[1804 1384],[1805 1385],[1805 1659],[1804 1660],[1457 1660],[1456 1659]

open : plan 1-room 6 : cellar : [1079, 1337] : contour_details : [ 960 1227],[ 961 1226],[1285 1226],[1286 1227],[1286 1307],[1287 1308],[1310 1308],[1311 1309],[1311 1462],[1310 1463],[1209 1463],[1208 1462],[1208 1328],[1207 1327],[1181 1327],[1180 1328],[1180 1461],[1179 1462],[ 961 1462],[ 960 1461]

open : plan 1-room 7 : garage : [1642, 963] : contour_details : [1457  734],[1458  733],[1787  733],[1789  735],[1822  735],[1823  736],[1823 1060],[1822 1061],[1806 1061],[1805 1062],[1805 1355],[1804 1356],[1457 1356],[1456 1355],[1456  981],[1457  980]

open : plan 1-room 8 : other room : [1096, 887] : contour_details : [960 734],[961 733],[1455  733],[1456  734],[1456  980],[1455  981],[1455 1225],[1454 1226],[1411 1226],[1410 1225],[1410 1224],[1409 1223],[1409 1218],[1408 1217],[1408 1211],[1407 1210],[1407 1204],[1406 1203],[1406 1197],[1405 1196],[1405 1190],[1404 1189],[1404 1184],[1403 1183],[1403 1177],[1402 1176],[1402 1170],[1401 1169],[1401 1163],[1400 1162],[1400 1156],[1399 1155],[1399 1149],[1398 1148],[1398 1142],[1397 1141],[1396 1142],[1395 1142],[1394 1143],[1392 1143],[1391 1144],[1390 1144],[1389 1145],[1387 1145],[1386 1146],[1385 1146],[1384 1147],[1383 1147],[1382 1148],[1380 1148],[1379 1149],[1378 1149],[1377 1150],[1375 1150],[1374 1151],[1373 1151],[1372 1152],[1371 1152],[1370 1153],[1368 1153],[1367 1154],[1367 1155],[1365 1157],[1364 1157],[1363 1158],[1361 1158],[1360 1159],[1359 1159],[1358 1160],[1357 1160],[1356 1161],[1355 1161],[1354 1162],[1352 1162],[1351 1163],[1350 1163],[1349 1164],[1348 1164],[1347 1165],[1346 1165],[1345 1166],[1344 1166],[1343 1167],[1341 1167],[1340 1168],[1339 1168],[1338 1169],[1338 1173],[1337 1174],[1337 1175],[1336 1176],[1336 1178],[1335 1179],[1335 1180],[1334 1181],[1334 1182],[1333 1183],[1333 1185],[1332 1186],[1332 1187],[1331 1188],[1331 1189],[1330 1190],[1330 1192],[1329 1193],[1329 1194],[1328 1195],[1328 1196],[1327 1197],[1327 1199],[1326 1200],[1326 1201],[1325 1202],[1325 1203],[1324 1204],[1324 1206],[1323 1207],[1323 1208],[1322 1209],[1322 1210],[1321 1211],[1321 1213],[1320 1214],[1320 1215],[1319 1216],[1319 1217],[1318 1218],[1318 1220],[1317 1221],[1317 1222],[1315 1224],[ 961 1224],[ 960 1223]

