Window : [575,879],[600,879],[600,1069],[575,1069] : [1] 
Window : [339,1830],[379,1830],[379,2114],[339,2114] : [1] 
Window : [1291,551],[1361,551],[1361,576],[1291,576] : [1] 
Window : [1822,1330],[1892,1330],[1892,1373],[1822,1373] : [1] 
Window : [1744,2258],[1787,2258],[1787,2495],[1744,2495] : [1] 
Window : [1303,1372],[1520,1372],[1520,1416],[1303,1416] : [1] 
Window : [1946,1330],[2016,1330],[2016,1373],[1946,1373] : [1] 
Window : [381,2204],[702,2204],[702,2247],[381,2247] : [1] 
Window : [1553,1962],[1563,1962],[1563,2069],[1553,2069] : [1] 
Window : [1259,1231],[1304,1231],[1304,1373],[1259,1373] : [1] 
Window : [1745,2129],[1787,2129],[1785,1969],[1763,1969] : [0.6] 
Window : [1097,2583],[1426,2581],[1426,2539],[1097,2522] : [0.5] 
Window : [830,2504],[870,2504],[872,2291],[830,2291] : [0.5] 
Window : [830,1662],[872,1662],[872,1426],[829,1426] : [0.5] 
