Total No of Rooms: 6
single : room 1 : maybe bedroom 1 : [1494,2096] : contour_details : [1493 1919],[1493 1920],[1492 1921],[1245 1921],[1245 1955],[1244 1956],[1244 2247],[1500 2247],[1501 2248],[1667 2248],[1667 1920],[1590 1920],[1589 1919]

single : room 2 : maybe bedroom 2 : [1875,2007] : contour_details : [1596 1814],[1596 1912],[1675 1912],[1676 1913],[1676 1919],[1675 1920],[1675 2248],[1761 2248],[1762 2247],[2003 2247],[2003 1814]

single : room 3 : unknown room : [1241,1827] : contour_details : [1126 1813],[1126 1820],[1127 1821],[1127 1834],[1128 1835],[1128 1848],[1129 1849],[1129 1863],[1130 1864],[1130 1877],[1131 1878],[1131 1891],[1132 1892],[1132 1898],[1133 1898],[1134 1897],[1139 1897],[1140 1896],[1141 1896],[1141 1830],[1142 1829],[1400 1829],[1401 1830],[1401 1911],[1400 1912],[1126 1912],[1401 1912],[1401 1814],[1224 1814],[1223 1813]

single : room 4 : maybe bedroom 3 : [1792,1600] : contour_details : [1598 1412],[1598 1706],[1597 1707],[1597 1806],[2003 1806],[2003 1671],[2002 1670],[2002 1528],[2003 1527],[2003 1412]

single : room 5 : maybe bathroom : [1357,1547] : contour_details : [1392 1411],[1392 1412],[1391 1413],[1226 1413],[1226 1699],[1482 1699],[1482 1599],[1483 1598],[1483 1412],[1460 1412],[1459 1411]

open : plan 1-room 6 : corridor : [1508, 1777] : contour_details : [1182 1708],[1183 1707],[1586 1707],[1587 1708],[1587 1910],[1586 1911],[1411 1911],[1410 1910],[1410 1815],[1411 1814],[1486 1814],[1487 1813],[1487 1807],[1486 1806],[1182 1806],[1181 1805],[1181 1757],[1182 1756]

open : plan 1-room 7 : dining : [646, 1678] : contour_details : [ 822 1483],[ 823 1482],[ 850 1482],[ 851 1483],[ 851 1696],[ 852 1697],[ 852 1910],[ 851 1911],[ 389 1911],[ 388 1910],[ 388 1490],[ 389 1489],[ 442 1489],[ 443 1488],[ 498 1488],[ 499 1487],[ 554 1487],[ 555 1486],[ 609 1486],[ 610 1485],[ 665 1485],[ 666 1484],[ 721 1484],[ 722 1483],[ 776 1483],[ 777 1484],[ 778 1483]

open : plan 1-room 8 : entry : [1059, 1677] : contour_details : [1137 1476],[1138 1475],[1180 1475],[1181 1476],[1181 1756],[1180 1757],[1180 1805],[1179 1806],[1117 1806],[1116 1807],[1116 1910],[1115 1911],[ 854 1911],[ 853 1910],[ 853 1697],[ 852 1696],[ 852 1483],[ 853 1482],[ 867 1482],[ 868 1481],[ 912 1481],[ 913 1480],[ 957 1480],[ 958 1479],[1002 1479],[1003 1478],[1047 1478],[1048 1477],[1092 1477],[1093 1476]

open : plan 1-room 9 : toilet : [1542, 1529] : contour_details : [1493 1414],[1494 1413],[1586 1413],[1587 1414],[1587 1704],[1586 1705],[1494 1705],[1493 1704]

open : plan 1-room 10 : kitchen : [935, 1312] : contour_details : [ 796 1091],[ 797 1090],[1180 1090],[1181 1091],[1181 1473],[1180 1474],[1137 1474],[1136 1475],[1092 1475],[1091 1476],[1047 1476],[1046 1477],[1002 1477],[1001 1478],[ 957 1478],[ 956 1479],[ 912 1479],[ 911 1480],[ 867 1480],[ 866 1481],[ 852 1481],[ 851 1480],[ 850 1481],[ 822 1481],[ 821 1482],[ 779 1482],[ 778 1481],[ 778 1462],[ 779 1461],[ 779 1441],[ 780 1440],[ 780 1421],[ 781 1420],[ 781 1400],[ 782 1399],[ 782 1379],[ 783 1378],[ 783 1358],[ 784 1357],[ 784 1338],[ 785 1337],[ 785 1317],[ 786 1316],[ 786 1296],[ 787 1295],[ 787 1276],[ 788 1275],[ 788 1255],[ 789 1254],[ 789 1234],[ 790 1233],[ 790 1214],[ 791 1213],[ 791 1193],[ 792 1192],[ 792 1172],[ 793 1171],[ 793 1152],[ 794 1151],[ 794 1131],[ 795 1130],[ 795 1110],[ 796 1109]

open : plan 1-room 11 : living : [639, 1293] : contour_details : [ 388 1091],[ 389 1090],[ 794 1090],[ 795 1091],[ 795 1109],[ 794 1110],[ 794 1130],[ 793 1131],[ 793 1151],[ 792 1152],[ 792 1171],[ 791 1172],[ 791 1192],[ 790 1193],[ 790 1213],[ 789 1214],[ 789 1233],[ 788 1234],[ 788 1254],[ 787 1255],[ 787 1275],[ 786 1276],[ 786 1295],[ 785 1296],[ 785 1316],[ 784 1317],[ 784 1337],[ 783 1338],[ 783 1358],[ 782 1359],[ 782 1378],[ 781 1379],[ 781 1399],[ 780 1400],[ 780 1420],[ 779 1421],[ 779 1440],[ 778 1441],[ 778 1461],[ 777 1462],[ 777 1481],[ 776 1482],[ 722 1482],[ 721 1483],[ 666 1483],[ 665 1484],[ 610 1484],[ 609 1485],[ 555 1485],[ 554 1486],[ 499 1486],[ 498 1487],[ 443 1487],[ 442 1488],[ 389 1488],[ 388 1487]

