Total No of Rooms: 6
single : room 1 : maybe closet : [1258,1835] : contour_details : [1176 1793],[1176 1864],[1336 1864],[1336 1793]

single : room 2 : maybe bedroom 1 : [1493,1646] : contour_details : [1346 1491],[1346 1690],[1345 1691],[1345 1789],[1346 1790],[1346 1866],[1686 1866],[1686 1737],[1685 1736],[1685 1595],[1686 1594],[1686 1491]

single : room 3 : maybe cellar : [732,1564] : contour_details : [590 1491],[590 1688],[802 1688],[803 1689],[918 1689],[918 1491]

single : room 4 : maybe closet : [887,1381] : contour_details : [850 1320],[850 1382],[851 1383],[851 1445],[922 1445],[922 1320]

single : room 5 : garage : [875,1052] : contour_details : [590 765],[590 1447],[824 1447],[824 1320],[823 1319],[823 1295],[824 1294],[932 1294],[933 1293],[1032 1293],[1033 1294],[1237 1294],[1237 1242],[1236 1241],[1236 816],[1237 815],[1237 765]

open : plan 1-room 6 : living : [734, 2153] : contour_details : [ 591 2033],[ 592 2032],[ 917 2032],[ 918 2033],[ 918 2060],[ 917 2061],[ 917 2147],[ 916 2148],[ 916 2233],[ 915 2234],[ 915 2318],[ 914 2319],[ 592 2319],[ 591 2318]

open : plan 1-room 7 : dining : [1345, 2153] : contour_details : [ 927 1877],[ 928 1876],[1684 1876],[1685 1877],[1685 2318],[1684 2319],[ 917 2319],[ 916 2318],[ 916 2234],[ 917 2233],[ 917 2148],[ 918 2147],[ 918 2061],[ 919 2060],[ 919 1976],[ 920 1975],[ 926 1975],[ 927 1974]

open : plan 1-room 8 : kitchen : [732, 1909] : contour_details : [ 591 1699],[ 592 1698],[ 917 1698],[ 918 1699],[ 918 2029],[ 917 2030],[ 592 2030],[ 591 2029]

open : plan 1-room 9 : corridor : [1196, 1735] : contour_details : [1032 1690],[1033 1689],[1129 1689],[1130 1690],[1130 1696],[1131 1697],[1335 1697],[1336 1698],[1336 1789],[1335 1790],[1149 1790],[1148 1791],[1148 1873],[1147 1874],[1033 1874],[1032 1873]

open : plan 1-room 10 : bathroom : [1272, 1599] : contour_details : [1140 1493],[1141 1492],[1335 1492],[1336 1493],[1336 1694],[1335 1695],[1242 1695],[1241 1694],[1241 1689],[1240 1688],[1141 1688],[1140 1687]

open : plan 1-room 11 : entry : [1023, 1435] : contour_details : [ 927 1321],[ 928 1320],[1030 1320],[1031 1321],[1031 1331],[1032 1332],[1128 1332],[1129 1333],[1129 1487],[1128 1488],[1031 1488],[1030 1489],[1030 1873],[1029 1874],[ 928 1874],[ 927 1873]

