garage : [1082,840] : [998,825,1167,856] : confidence,dict,original_word,difference : [91,DM,None,0]
lingerie : [1410,1253] : [1318,1238,1502,1269] : confidence,dict,original_word,difference : [92,DM,None,0]
pl : [1344,1518] : [1324,1504,1364,1533] : confidence,dict,original_word,difference : [95,SG,pi,1]
hall : [1242,1634] : [1194,1619,1291,1649] : confidence,dict,original_word,difference : [79,DM,None,0]
porche : [1555,1602] : [1471,1587,1640,1618] : confidence,dict,original_word,difference : [94,DM,None,0]
cuisine : [1644,1930] : [1564,1915,1725,1946] : confidence,dict,original_word,difference : [90,DM,None,0]
sejour : [1243,2292] : [1162,2277,1324,2307] : confidence,dict,original_word,difference : [90,DM,None,0]
terrassecouverte : [1895,2370] : [1784,2330,2006,2410] : confidence,dict,original_word,difference : [90,DM,None,0]
No Text Detected
