Window : [2112,1649],[2253,1649],[2253,1692],[2112,1692] : [1] 
Window : [2524,1307],[2568,1307],[2568,1450],[2524,1450] : [1] 
Window : [1699,663],[1768,663],[1768,706],[1699,706] : [1] 
Window : [2052,1649],[2253,1649],[2253,1692],[2052,1692] : [1] 
Window : [1232,663],[1302,663],[1302,688],[1232,688] : [1] 
Window : [2524,906],[2568,906],[2568,1048],[2524,1048] : [1] 
Window : [1486,663],[1556,663],[1556,706],[1486,706] : [1] 
Window : [813,1933],[953,1933],[953,1975],[813,1975] : [1] 
Window : [663,1585],[707,1585],[707,1727],[663,1727] : [1] 
Window : [2112,1649],[2289,1649],[2289,1692],[2112,1692] : [1] 
Window : [1256,1933],[1402,1933],[1402,1968],[1256,1968] : [1] 
Window : [664,723],[689,723],[689,1007],[664,1007] : [1] 
Window : [1958,663],[2028,663],[2028,706],[1958,706] : [1] 
Window : [1509,1916],[1551,1916],[1570,1703],[1508,1703] : [0.5] 
