[
    {
        "annotations": [
            {
                "class": "Door", 
                "xn": "909;976;976;909", 
                "yn": "286;286;296;296"
            }, 
            {
                "class": "Door", 
                "xn": "1427;1444;1444;1427", 
                "yn": "1461;1461;1496;1496"
            }, 
            {
                "class": "Window", 
                "xn": "894;969;969;894", 
                "yn": "431;431;438;438"
            }, 
            {
                "class": "Window", 
                "xn": "1498;1516;1516;1498", 
                "yn": "943;943;1151;1151"
            }, 
            {
                "class": "Wall", 
                "xn": "9;35;35;9", 
                "yn": "12;12;1124;1124"
            }, 
            {
                "class": "Wall", 
                "xn": "8;888;888;8", 
                "yn": "1100;1100;1124;1124"
            }, 
            {
                "class": "Wall", 
                "xn": "863;888;888;863", 
                "yn": "1100;1100;1421;1421"
            }, 
            {
                "class": "Wall", 
                "xn": "8;1333;1333;8", 
                "yn": "11;11;35;35"
            }, 
            {
                "class": "Wall", 
                "xn": "1041;1336;1336;1041", 
                "yn": "1577;1577;1600;1600"
            }, 
            {
                "class": "Wall", 
                "xn": "1309;1332;1332;1309", 
                "yn": "12;12;972;972"
            }, 
            {
                "class": "Wall", 
                "xn": "1494;1517;1517;1494", 
                "yn": "1125;1125;1418;1418"
            }, 
            {
                "class": "Wall", 
                "xn": "988;1025;1025;988", 
                "yn": "1524;1524;1547;1547"
            }, 
            {
                "class": "Wall", 
                "xn": "1444;1480;1480;1444", 
                "yn": "1087;1087;1110;1110"
            }, 
            {
                "class": "Wall", 
                "xn": "822;840;840;822", 
                "yn": "322;322;646;646"
            }, 
            {
                "class": "Wall", 
                "xn": "1056;1074;925;907", 
                "yn": "1599;1579;1440;1460"
            }, 
            {
                "class": "Wall", 
                "xn": "821;914;914;821", 
                "yn": "586;586;605;605"
            }, 
            {
                "class": "Wall", 
                "xn": "821;1333;1333;821", 
                "yn": "414;414;432;432"
            }, 
            {
                "class": "Wall", 
                "xn": "109;588;588;109", 
                "yn": "367;367;384;384"
            }, 
            {
                "class": "Wall", 
                "xn": "8;588;588;8", 
                "yn": "780;780;797;797"
            }, 
            {
                "class": "Wall", 
                "xn": "570;587;587;570", 
                "yn": "12;12;1124;1124"
            }, 
            {
                "class": "Wall", 
                "xn": "569;914;914;569", 
                "yn": "205;205;223;223"
            }, 
            {
                "class": "Wall", 
                "xn": "393;410;410;393", 
                "yn": "694;694;797;797"
            }, 
            {
                "class": "Wall", 
                "xn": "893;910;910;893", 
                "yn": "12;12;887;887"
            }, 
            {
                "class": "Wall", 
                "xn": "1443;1477;1477;1443", 
                "yn": "1438;1438;1456;1456"
            }, 
            {
                "class": "Wall", 
                "xn": "895;1333;1333;895", 
                "yn": "798;798;815;815"
            }, 
            {
                "class": "Wall", 
                "xn": "703;914;914;703", 
                "yn": "870;870;887;887"
            }, 
            {
                "class": "Wall", 
                "xn": "703;914;914;703", 
                "yn": "628;628;646;646"
            }, 
            {
                "class": "Wall", 
                "xn": "360;377;377;360", 
                "yn": "367;367;797;797"
            }, 
            {
                "class": "Wall", 
                "xn": "1414;1448;1448;1414", 
                "yn": "1467;1467;1485;1485"
            }, 
            {
                "class": "Wall", 
                "xn": "110;127;127;110", 
                "yn": "367;367;478;478"
            }, 
            {
                "class": "Wall", 
                "xn": "1366;1400;1400;1366", 
                "yn": "1515;1515;1533;1533"
            }, 
            {
                "class": "Wall", 
                "xn": "704;721;721;704", 
                "yn": "321;321;887;887"
            }, 
            {
                "class": "Wall", 
                "xn": "85;283;283;85", 
                "yn": "665;665;682;682"
            }, 
            {
                "class": "Wall", 
                "xn": "824;841;841;824", 
                "yn": "12;12;223;223"
            }, 
            {
                "class": "Wall", 
                "xn": "1018;1333;1333;1018", 
                "yn": "869;869;885;885"
            }, 
            {
                "class": "Wall", 
                "xn": "8;181;181;8", 
                "yn": "459;459;476;476"
            }, 
            {
                "class": "Wall", 
                "xn": "1054;1071;879;862", 
                "yn": "1599;1582;1392;1409"
            }, 
            {
                "class": "Wall", 
                "xn": "482;588;588;482", 
                "yn": "973;973;991;991"
            }, 
            {
                "class": "Wall", 
                "xn": "483;500;500;483", 
                "yn": "780;780;991;991"
            }, 
            {
                "class": "Wall", 
                "xn": "1388;1422;1422;1388", 
                "yn": "1493;1493;1511;1511"
            }, 
            {
                "class": "Wall", 
                "xn": "1499;1516;1325;1308", 
                "yn": "1151;1135;944;960"
            }, 
            {
                "class": "Wall", 
                "xn": "359;588;588;359", 
                "yn": "443;443;461;461"
            }, 
            {
                "class": "Wall", 
                "xn": "821;914;914;821", 
                "yn": "322;322;340;340"
            }, 
            {
                "class": "Wall", 
                "xn": "1019;1036;1036;1019", 
                "yn": "798;798;885;885"
            }, 
            {
                "class": "Wall", 
                "xn": "1463;1497;1497;1463", 
                "yn": "1418;1418;1436;1436"
            }, 
            {
                "class": "Wall", 
                "xn": "499;516;516;499", 
                "yn": "367;367;461;461"
            }, 
            {
                "class": "Wall", 
                "xn": "163;180;180;163", 
                "yn": "367;367;478;478"
            }, 
            {
                "class": "Wall", 
                "xn": "1342;1376;1376;1342", 
                "yn": "1539;1539;1557;1557"
            }, 
            {
                "class": "Wall", 
                "xn": "1151;1168;1168;1151", 
                "yn": "798;798;885;885"
            }, 
            {
                "class": "Wall", 
                "xn": "164;181;181;164", 
                "yn": "665;665;797;797"
            }, 
            {
                "class": "Wall", 
                "xn": "1324;1358;1358;1324", 
                "yn": "1557;1557;1575;1575"
            }, 
            {
                "class": "Wall", 
                "xn": "1471;1460;998;1009", 
                "yn": "1093;1081;1543;1555"
            }, 
            {
                "class": "Wall", 
                "xn": "359;588;588;359", 
                "yn": "694;694;711;711"
            }, 
            {
                "class": "Wall", 
                "xn": "1478;1512;1512;1478", 
                "yn": "1407;1407;1417;1417"
            }, 
            {
                "class": "Wall", 
                "xn": "1451;1467;1451;1435", 
                "yn": "1473;1452;1439;1460"
            }, 
            {
                "class": "Wall", 
                "xn": "1411;1428;1411;1395", 
                "yn": "1513;1491;1479;1501"
            }, 
            {
                "class": "Wall", 
                "xn": "1379;1395;1379;1363", 
                "yn": "1545;1524;1511;1532"
            }, 
            {
                "class": "Wall", 
                "xn": "1067;1055;995;1007", 
                "yn": "1493;1481;1541;1553"
            }, 
            {
                "class": "Wall", 
                "xn": "1363;1380;1363;1347", 
                "yn": "1561;1543;1527;1546"
            }, 
            {
                "class": "Wall", 
                "xn": "1386;1403;1386;1370", 
                "yn": "1538;1520;1504;1523"
            }, 
            {
                "class": "Wall", 
                "xn": "1428;1444;1428;1411", 
                "yn": "1496;1477;1462;1481"
            }, 
            {
                "class": "Wall", 
                "xn": "1318;1333;1322;1308", 
                "yn": "1599;1575;1568;1592"
            }, 
            {
                "class": "Wall", 
                "xn": "1475;1492;1476;1460", 
                "yn": "1447;1432;1414;1430"
            }, 
            {
                "class": "Wall", 
                "xn": "1031;1346;1346;1031", 
                "yn": "1575;1575;1580;1580"
            }, 
            {
                "class": "Wall", 
                "xn": "1488;1493;1493;1488", 
                "yn": "1400;1400;1432;1432"
            }, 
            {
                "class": "Wall", 
                "xn": "837;841;819;816", 
                "yn": "449;446;423;427"
            }, 
            {
                "class": "Wall", 
                "xn": "804;841;841;804", 
                "yn": "398;398;404;404"
            }, 
            {
                "class": "Wall", 
                "xn": "569;632;632;569", 
                "yn": "381;381;388;388"
            }, 
            {
                "class": "Wall", 
                "xn": "359;588;588;359", 
                "yn": "515;515;520;520"
            }, 
            {
                "class": "Wall", 
                "xn": "895;924;924;895", 
                "yn": "498;498;504;504"
            }, 
            {
                "class": "Wall", 
                "xn": "895;969;969;895", 
                "yn": "557;557;564;564"
            }, 
            {
                "class": "Wall", 
                "xn": "895;969;969;895", 
                "yn": "438;438;445;445"
            }, 
            {
                "class": "Wall", 
                "xn": "1456;1490;1490;1456", 
                "yn": "1431;1431;1436;1436"
            }, 
            {
                "class": "Wall", 
                "xn": "1428;1462;1462;1428", 
                "yn": "1458;1458;1466;1466"
            }, 
            {
                "class": "Wall", 
                "xn": "942;947;947;942", 
                "yn": "734;734;815;815"
            }, 
            {
                "class": "Wall", 
                "xn": "1401;1435;1435;1401", 
                "yn": "1486;1486;1492;1492"
            }, 
            {
                "class": "Wall", 
                "xn": "67;128;128;67", 
                "yn": "443;443;449;449"
            }, 
            {
                "class": "Wall", 
                "xn": "1379;1413;1413;1379", 
                "yn": "1508;1508;1513;1513"
            }, 
            {
                "class": "Wall", 
                "xn": "1355;1389;1389;1355", 
                "yn": "1531;1531;1538;1538"
            }, 
            {
                "class": "Wall", 
                "xn": "722;815;815;722", 
                "yn": "604;604;609;609"
            }, 
            {
                "class": "Wall", 
                "xn": "722;815;815;722", 
                "yn": "527;527;532;532"
            }, 
            {
                "class": "Wall", 
                "xn": "722;815;815;722", 
                "yn": "450;450;455;455"
            }, 
            {
                "class": "Wall", 
                "xn": "722;815;815;722", 
                "yn": "373;373;378;378"
            }, 
            {
                "class": "Wall", 
                "xn": "723;815;815;723", 
                "yn": "501;501;506;506"
            }, 
            {
                "class": "Wall", 
                "xn": "723;815;815;723", 
                "yn": "424;424;429;429"
            }, 
            {
                "class": "Wall", 
                "xn": "723;815;815;723", 
                "yn": "578;578;583;583"
            }, 
            {
                "class": "Wall", 
                "xn": "1291;1297;1297;1291", 
                "yn": "869;869;943;943"
            }, 
            {
                "class": "Wall", 
                "xn": "425;501;501;425", 
                "yn": "948;948;953;953"
            }, 
            {
                "class": "Wall", 
                "xn": "429;501;501;429", 
                "yn": "828;828;835;835"
            }, 
            {
                "class": "Wall", 
                "xn": "429;501;501;429", 
                "yn": "946;946;953;953"
            }, 
            {
                "class": "Wall", 
                "xn": "1374;1408;1408;1374", 
                "yn": "1514;1514;1519;1519"
            }, 
            {
                "class": "Wall", 
                "xn": "1451;1485;1485;1451", 
                "yn": "1437;1437;1442;1442"
            }, 
            {
                "class": "Text", 
                "height": 61, 
                "width": 80, 
                "x": 618, 
                "y": 66, 
                "text": "walkincloset"
            }, 
            {
                "class": "Text", 
                "height": 59, 
                "width": 117, 
                "x": 213, 
                "y": 137, 
                "text": "masterbedroom"
            }, 
            {
                "class": "Text", 
                "height": 23, 
                "width": 135, 
                "x": 1016, 
                "y": 149, 
                "text": "bedroom 1"
            }, 
            {
                "class": "Text", 
                "height": 23, 
                "width": 56, 
                "x": 193, 
                "y": 522, 
                "text": "bath"
            }, 
            {
                "class": "Text", 
                "height": 23, 
                "width": 97, 
                "x": 46, 
                "y": 713, 
                "text": "shower"
            }, 
            {
                "class": "Text", 
                "height": 30, 
                "width": 106, 
                "x": 732, 
                "y": 745, 
                "text": "laundry"
            }, 
            {
                "class": "Text", 
                "height": 23, 
                "width": 139, 
                "x": 134, 
                "y": 951, 
                "text": "bedroom"
            }, 
            {
                "class": "Text", 
                "height": 27, 
                "width": 32, 
                "x": 1222, 
                "y": 1447, 
                "text": "cl"
            }
        ], 
        "class": "image", 
        "filename": "81.png"
    }
]