dining : [463,176] : [421,167,506,185] : confidence,dict,original_word,difference : [87,DM,None,0]
familyroom : [203,282] : [120,273,286,291] : confidence,dict,original_word,difference : [84,DM,None,0]
kitchen : [443,409] : [391,400,495,418] : confidence,dict,original_word,difference : [80,DM,None,0]
pantry : [509,514] : [462,505,557,523] : confidence,dict,original_word,difference : [83,DM,None,0]
entry : [337,644] : [298,636,376,653] : confidence,dict,original_word,difference : [84,DM,None,0]
livingroom : [148,723] : [69,714,228,732] : confidence,dict,original_word,difference : [85,DM,None,0]
cargarage : [619,764] : [542,755,697,773] : confidence,dict,original_word,difference : [83,DM,None,0]
porch : [117,904] : [77,895,158,913] : confidence,dict,original_word,difference : [82,DM,None,0]
cl : [418,958] : [404,948,433,968] : confidence,dict,original_word,difference : [77,DM,None,0]
No Text Detected
