Wall : [641,528],[788,528],[788,539],[641,539] : [1] 
Wall : [777,137],[788,137],[788,441],[777,441] : [1] 
Wall : [407,565],[417,565],[417,938],[407,938] : [1] 
Wall : [777,475],[788,475],[788,938],[777,938] : [1] 
Wall : [573,437],[583,437],[583,574],[573,574] : [1] 
Wall : [221,858],[295,858],[295,868],[221,868] : [1] 
Wall : [573,128],[583,128],[583,386],[573,386] : [1] 
Wall : [46,858],[119,858],[119,868],[46,868] : [1] 
Wall : [534,58],[584,58],[584,70],[534,70] : [1] 
Wall : [572,528],[597,528],[597,540],[572,540] : [1] 
Wall : [317,58],[367,58],[367,67],[317,67] : [1] 
Wall : [285,741],[294,741],[294,868],[285,868] : [1] 
Wall : [353,565],[584,565],[584,574],[353,574] : [1] 
Wall : [353,480],[520,480],[520,488],[353,488] : [1] 
Wall : [375,740],[418,740],[418,751],[375,751] : [1] 
Wall : [318,58],[327,58],[327,76],[318,76] : [1] 
Wall : [284,741],[304,741],[304,751],[284,751] : [1] 
Wall : [416,58],[426,58],[426,67],[416,67] : [1] 
Wall : [129,498],[243,498],[243,505],[129,505] : [1] 
Wall : [683,420],[690,420],[690,539],[683,539] : [1] 
Wall : [46,565],[155,565],[155,572],[46,572] : [1] 
Wall : [354,481],[361,481],[361,501],[354,501] : [1] 
Wall : [737,930],[788,930],[788,938],[737,938] : [1] 
Wall : [632,367],[788,367],[788,374],[632,374] : [1] 
Wall : [396,481],[403,481],[403,572],[396,572] : [1] 
Wall : [406,930],[459,930],[459,938],[406,938] : [1] 
Wall : [572,366],[592,366],[592,375],[572,375] : [1] 
Wall : [513,443],[520,443],[520,488],[513,488] : [1] 
Wall : [354,544],[361,544],[361,572],[354,572] : [1] 
Wall : [234,432],[242,432],[242,447],[234,447] : [1] 
Wall : [318,741],[325,741],[325,750],[318,750] : [1] 
Wall : [317,128],[325,128],[325,146],[317,146] : [1] 
Wall : [475,58],[484,58],[484,67],[475,67] : [1] 
Wall : [234,490],[242,490],[242,505],[234,505] : [1] 
Wall : [566,442],[584,442],[584,450],[566,450] : [1] 
Wall : [733,588],[740,588],[740,597],[733,597] : [1] 
Wall : [710,589],[717,589],[717,597],[710,597] : [1] 
Wall : [903,542],[910,542],[910,551],[903,551] : [1] 
Wall : [973,495],[980,495],[980,523],[973,523] : [1] 
Wall : [925,464],[932,464],[932,473],[925,473] : [1] 
Wall : [836,350],[843,350],[843,360],[836,360] : [1] 
Wall : [853,334],[860,334],[860,342],[853,342] : [1] 
Wall : [844,315],[851,315],[851,324],[844,324] : [1] 
Wall : [821,316],[828,316],[828,324],[821,324] : [1] 
Wall : [46,137],[56,137],[56,868],[46,868] : [1] 
Wall : [572,137],[788,137],[788,146],[572,146] : [1] 
Wall : [211,136],[328,136],[328,146],[211,146] : [1] 
Wall : [134,137],[210,137],[210,146],[134,146] : [1] 
Wall : [46,137],[133,137],[133,147],[46,147] : [1] 
Wall : [572,58],[583,58],[583,76],[572,76] : [1] 
Wall : [46,565],[242,565],[242,572],[46,572] : [1] 
Wall : [778,442],[782,442],[782,474],[778,474] : [1] 
Wall : [485,58],[533,58],[533,62],[485,62] : [1] 
Wall : [368,58],[415,58],[415,62],[368,62] : [1] 
Wall : [427,58],[474,58],[474,62],[427,62] : [1] 
Wall : [682,375],[691,375],[691,380],[682,380] : [1] 
Wall : [632,359],[635,359],[635,364],[632,364] : [1] 
Wall : [686,367],[690,367],[690,380],[686,380] : [1] 
Wall : [512,443],[526,443],[526,447],[512,447] : [1] 
Wall : [46,432],[243,432],[243,438],[46,438] : [1] 
