Wall : [1793,1334],[2066,1334],[2066,1430],[1793,1430] : [1] 
Wall : [1793,1733],[2066,1733],[2066,1829],[1793,1829] : [1] 
Wall : [2597,16],[2685,16],[2685,4031],[2597,4031] : [1] 
Wall : [819,16],[2386,16],[2386,97],[819,97] : [1] 
Wall : [2531,36],[2686,36],[2686,97],[2531,97] : [1] 
Wall : [289,2408],[504,2408],[504,2468],[289,2468] : [1] 
Wall : [289,3819],[1701,3819],[1701,3877],[289,3877] : [1] 
Wall : [2024,1165],[2686,1165],[2686,1222],[2024,1222] : [1] 
Wall : [2314,3974],[2686,3974],[2686,4031],[2314,4031] : [1] 
Wall : [1642,3975],[2013,3975],[2013,4032],[1642,4032] : [1] 
Wall : [289,2409],[347,2409],[347,3877],[289,3877] : [1] 
Wall : [1643,3819],[1700,3819],[1700,4032],[1643,4032] : [1] 
Wall : [447,753],[503,753],[503,1712],[447,1712] : [1] 
Wall : [447,2171],[503,2171],[503,2467],[447,2467] : [1] 
Wall : [2228,2189],[2268,2189],[2268,3037],[2228,3037] : [1] 
Wall : [1793,1788],[2686,1788],[2686,1829],[1793,1829] : [1] 
Wall : [2025,743],[2065,743],[2065,1465],[2025,1465] : [1] 
Wall : [463,33],[2686,33],[2686,75],[463,75] : [1] 
Wall : [2025,16],[2064,16],[2064,476],[2025,476] : [1] 
Wall : [2024,778],[2360,778],[2360,817],[2024,817] : [1] 
Wall : [464,34],[503,34],[503,2467],[464,2467] : [1] 
Wall : [2028,1698],[2060,1698],[2060,1829],[2028,1829] : [1] 
Wall : [2592,792],[2686,792],[2686,816],[2592,816] : [1] 
Wall : [2227,2555],[2686,2555],[2686,2560],[2227,2560] : [1] 
Wall : [2227,2646],[2686,2646],[2686,2651],[2227,2651] : [1] 
Wall : [2261,3193],[2686,3193],[2686,3198],[2261,3198] : [1] 
Wall : [2031,2282],[2686,2282],[2686,2287],[2031,2287] : [1] 
Wall : [2031,2191],[2686,2191],[2686,2196],[2031,2196] : [1] 
Wall : [2227,2464],[2686,2464],[2686,2469],[2227,2469] : [1] 
Wall : [2227,2373],[2686,2373],[2686,2378],[2227,2378] : [1] 
Wall : [2589,786],[2686,786],[2686,791],[2589,791] : [1] 
Wall : [2547,2737],[2686,2737],[2686,2743],[2547,2743] : [1] 
Wall : [2227,3010],[2686,3010],[2686,3016],[2227,3016] : [1] 
Wall : [2227,2919],[2686,2919],[2686,2925],[2227,2925] : [1] 
Wall : [2557,16],[2686,16],[2686,32],[2557,32] : [1] 
Wall : [446,1419],[709,1419],[709,1424],[446,1424] : [1] 
Wall : [2227,2828],[2419,2828],[2419,2834],[2227,2834] : [1] 
Wall : [2168,1789],[2176,1789],[2176,2363],[2168,2363] : [1] 
Wall : [2262,1789],[2267,1789],[2267,3197],[2262,3197] : [1] 
Wall : [2072,1789],[2090,1789],[2090,2363],[2072,2363] : [1] 
Wall : [1819,752],[2066,752],[2066,757],[1819,757] : [1] 
Wall : [704,273],[2065,273],[2065,280],[704,280] : [1] 
Wall : [1999,170],[2085,170],[2085,176],[1999,176] : [1] 
Wall : [2444,2013],[2452,2013],[2452,2595],[2444,2595] : [1] 
Wall : [2287,2166],[2293,2166],[2293,3249],[2287,3249] : [1] 
Wall : [2445,2947],[2453,2947],[2453,3204],[2445,3204] : [1] 
Wall : [703,276],[711,276],[711,1423],[703,1423] : [1] 
Wall : [1267,268],[1579,268],[1579,274],[1267,274] : [1] 
Wall : [2449,2597],[2454,2590],[2386,2555],[2382,2562] : [1] 
Wall : [2514,2563],[2510,2556],[2444,2589],[2449,2596] : [1] 
Wall : [2510,2987],[2515,2980],[2449,2946],[2444,2953] : [1] 
Wall : [2452,2954],[2448,2946],[2383,2979],[2387,2986] : [1] 
