n_id_2574 ::: 0
n_id_2573 ::: 0
n_id_2501 ::: 62.8909912109375
n_id_2498 ::: 1362.243896484375
n_id_2497 ::: 1072.2750244140625
n_id_2492 ::: 8.2919921875
n_id_2491 ::: 8.28802490234375
n_id_2490 ::: 157.5269775390625
n_id_2489 ::: 8.46600341796875
n_id_2488 ::: 8.46600341796875
n_id_2486 ::: 25.2340087890625
n_id_2482 ::: 25.2340087890625
n_id_2480 ::: 10.44903564453125
n_id_2472 ::: 8.4759521484375
n_id_2471 ::: 8.4759521484375
n_id_2467 ::: 10.5439453125
n_id_2466 ::: 91.41693115234375
n_id_2464 ::: 99.22903442382812
n_id_2461 ::: 106.02896118164062
n_id_2451 ::: 0.19000244140625
n_id_2436 ::: 4.332430839538574
n_id_2394 ::: 155.35205078125
n_id_2393 ::: 155.35205078125
n_id_2391 ::: 128.04302978515625
n_id_2388 ::: 631.3539428710938
n_id_2386 ::: 162.12496948242188
n_id_2384 ::: 161.843994140625
n_id_2381 ::: 103.64903259277344
n_id_2379 ::: 38.968017578125
n_id_2371 ::: 147.52801513671875
n_id_2367 ::: 136.135009765625
n_id_2366 ::: 101.968017578125
n_id_2361 ::: 144.42596435546875
n_id_2360 ::: 168.90203857421875
n_id_2353 ::: 0.1839599609375
n_id_2338 ::: 4.333424091339111
n_id_2293 ::: 10.5460205078125
n_id_2292 ::: 10.5460205078125
n_id_2288 ::: 0.186004638671875
n_id_2228 ::: 0.1880035400390625
n_id_2212 ::: 2.6400146484375
n_id_2171 ::: 10.508023262023926
n_id_2167 ::: 54.430908203125
n_id_2164 ::: 12.676815032958984
n_id_2159 ::: 51.31201171875
n_id_2155 ::: 10.54400634765625
n_id_2154 ::: 10.54400634765625
n_id_2152 ::: 197.12811279296875
n_id_2150 ::: 206.19802856445312
n_id_2148 ::: 191.4990234375
n_id_2147 ::: 24.194000244140625
n_id_2141 ::: 10.5460205078125
n_id_2140 ::: 110.43902587890625
n_id_2129 ::: 29.0059814453125
n_id_2122 ::: 0.9570592641830444
n_id_2108 ::: 12.34295654296875
n_id_2100 ::: 0.77468341588974
n_id_2099 ::: 0.9284344911575317
n_id_2080 ::: 204.77999877929688
n_id_2077 ::: 267.18133544921875
n_id_2074 ::: 79.27200317382812
n_id_2071 ::: 291.125
n_id_2069 ::: 379.7099914550781
n_id_2025 ::: 208.823974609375
n_id_2023 ::: 982.1937255859375
n_id_2022 ::: 61.011009216308594
n_id_2021 ::: 0
n_id_2020 ::: 0
n_id_2018 ::: 105.17196655273438
n_id_2014 ::: 396.9339904785156
n_id_2011 ::: 52.91401672363281
n_id_2007 ::: 10.35198974609375
n_id_2006 ::: 17.4119873046875
n_id_2005 ::: 182.54901123046875
n_id_2001 ::: 10.5460205078125
n_id_1996 ::: 218.5159912109375
n_id_1995 ::: 8.740045547485352
n_id_1993 ::: 21.09503173828125
n_id_1980 ::: 15.054357528686523
n_id_1977 ::: 76.45806884765625
n_id_1971 ::: 22.89617347717285
n_id_1967 ::: 27.30876350402832
n_id_1965 ::: 23.36113739013672
n_id_1961 ::: 20.43293571472168
n_id_1959 ::: 7.16497802734375
n_id_1957 ::: 0.6311713457107544
n_id_1955 ::: 23.096782684326172
n_id_1951 ::: 27.32004737854004
n_id_1949 ::: 23.583633422851562
n_id_1945 ::: 20.65338706970215
n_id_1943 ::: 7.3399658203125
n_id_1941 ::: 44.6259765625
n_id_1937 ::: 22.88001823425293
n_id_1933 ::: 27.31485366821289
n_id_1931 ::: 23.345096588134766
n_id_1927 ::: 20.441818237304688
n_id_1925 ::: 7.16497802734375
n_id_1923 ::: 12.672440528869629
n_id_1921 ::: 23.080692291259766
n_id_1917 ::: 27.325439453125
n_id_1915 ::: 23.567516326904297
n_id_1911 ::: 20.662315368652344
n_id_1909 ::: 7.3399658203125
n_id_1907 ::: 69.72421264648438
n_id_1905 ::: 22.87958526611328
n_id_1901 ::: 27.248262405395508
n_id_1899 ::: 23.344436645507812
n_id_1895 ::: 20.368480682373047
n_id_1893 ::: 7.16497802734375
n_id_1891 ::: 12.685379028320312
n_id_1889 ::: 23.080078125
n_id_1885 ::: 27.25856590270996
n_id_1883 ::: 23.566904067993164
n_id_1879 ::: 20.589073181152344
n_id_1877 ::: 7.3399658203125
n_id_1875 ::: 131.33197021484375
n_id_1865 ::: 96.876953125
n_id_1864 ::: 0
n_id_1862 ::: 27.5880126953125
n_id_1857 ::: 10.364013671875
n_id_1856 ::: 18.92901611328125
n_id_1852 ::: 10.548095703125
n_id_1851 ::: 55.73602294921875
n_id_1848 ::: 184.25534057617188
n_id_1840 ::: 0.19000244140625
n_id_1825 ::: 4.3358869552612305
n_id_1774 ::: 28.98809814453125
n_id_1767 ::: 0.8665752410888672
n_id_1753 ::: 12.4210205078125
n_id_1745 ::: 0.6745546460151672
n_id_1744 ::: 0.9037072658538818
n_id_1716 ::: 160.22152709960938
n_id_1710 ::: 179.35906982421875
n_id_1706 ::: 37.93701171875
n_id_1704 ::: 63.094970703125
n_id_1702 ::: 45.8399658203125
n_id_1695 ::: 47.9189453125
n_id_1688 ::: 129.2630615234375
n_id_1686 ::: 567.253173828125
n_id_1680 ::: 10.364013671875
n_id_1678 ::: 315.86700439453125
n_id_1676 ::: 361.25103759765625
n_id_1670 ::: 11.4010009765625
n_id_1669 ::: 0.6790084838867188
n_id_1668 ::: 0.5162841081619263
n_id_1647 ::: 4.364408493041992
n_id_1640 ::: 7.2540283203125
n_id_1631 ::: 5.095268249511719
n_id_1629 ::: 53.188995361328125
n_id_1624 ::: 251.94296264648438
n_id_1620 ::: 125.49896240234375
n_id_1618 ::: 435.8050537109375
n_id_1616 ::: 24.76898193359375
n_id_1614 ::: 30.8699951171875
n_id_1613 ::: 200.6409454345703
n_id_1602 ::: 29.0079345703125
n_id_1595 ::: 0.9194644689559937
n_id_1581 ::: 12.43597412109375
n_id_1573 ::: 0.6717976331710815
n_id_1572 ::: 0.9247970581054688
n_id_1548 ::: 0
n_id_1546 ::: 44.15899658203125
n_id_1545 ::: 73.63600158691406
n_id_1543 ::: 121.91595458984375
n_id_1541 ::: 103.64903259277344
n_id_1539 ::: 122.2110595703125
n_id_1537 ::: 172.59396362304688
n_id_1535 ::: 172.59396362304688
n_id_1533 ::: 34.65800094604492
n_id_1531 ::: 75.5110092163086
n_id_1529 ::: 34.65800094604492
n_id_1527 ::: 75.51600646972656
n_id_1525 ::: 25.243999481201172
n_id_1523 ::: 35.78001403808594
n_id_1521 ::: 25.243011474609375
n_id_1519 ::: 34.65699768066406
n_id_1518 ::: 144.2449951171875
n_id_1515 ::: 96.5989990234375
n_id_1508 ::: 157.8588104248047
n_id_1506 ::: 50.468017578125
n_id_1500 ::: 107.33099365234375
n_id_1437 ::: 50.46197509765625
n_id_1414 ::: 142.91799926757812
n_id_1409 ::: 134.6320037841797
n_id_1406 ::: 324.06201171875
n_id_1403 ::: 313.51995849609375
n_id_1398 ::: 48.391998291015625
n_id_1393 ::: 48.394012451171875
n_id_1388 ::: 10.54400634765625
n_id_1385 ::: 10.54400634765625
n_id_1380 ::: 265.12396240234375
n_id_1377 ::: 152.5240020751953
n_id_1376 ::: 102.05400085449219
n_id_1369 ::: 35.77398681640625
n_id_1362 ::: 46.313995361328125
n_id_1357 ::: 10.548004150390625
n_id_1354 ::: 10.548004150390625
n_id_1349 ::: 102.05400085449219
n_id_1346 ::: 21.089996337890625
n_id_1341 ::: 63.082000732421875
n_id_1336 ::: 10.540008544921875
n_id_1331 ::: 10.35601806640625
n_id_1324 ::: 14.87200927734375
n_id_1323 ::: 84.73602294921875
n_id_1322 ::: 10.540008544921875
n_id_1315 ::: 240.83599853515625
n_id_1310 ::: 10.5460205078125
n_id_1305 ::: 58.9439697265625
n_id_1304 ::: 311.44195556640625
n_id_1299 ::: 51.2239990234375
n_id_1294 ::: 60.447998046875
n_id_1287 ::: 45.7640380859375
n_id_1280 ::: 14.6939697265625
n_id_1275 ::: 75.88800048828125
n_id_1274 ::: 12.6099853515625
n_id_1273 ::: 58.9320068359375
n_id_1212 ::: 77.95599365234375
n_id_1211 ::: 56.683998107910156
n_id_1204 ::: 77.95599365234375
n_id_1199 ::: 56.683998107910156
n_id_1194 ::: 84.17202758789062
n_id_1193 ::: 67.21800994873047
n_id_1190 ::: 14.6939697265625
n_id_1185 ::: 115.615966796875
n_id_1184 ::: 12.6259765625
n_id_1183 ::: 128.4219970703125
n_id_1178 ::: 126.1639404296875
n_id_1177 ::: 128.4219970703125
n_id_1172 ::: 122.011962890625
n_id_1171 ::: 124.2760009765625
n_id_1170 ::: 138.7760009765625
n_id_1169 ::: 138.7760009765625
n_id_1168 ::: 138.97003173828125
n_id_1167 ::: 138.97003173828125
n_id_1166 ::: 4.14794921875
n_id_1165 ::: 4.14599609375
n_id_1160 ::: 142.9339599609375
n_id_1159 ::: 143.11199951171875
n_id_1154 ::: 10.364013671875
n_id_1149 ::: 57.0579833984375
n_id_1146 ::: 67.4219970703125
n_id_1137 ::: 127.28300476074219
n_id_1135 ::: 70.42300415039062
n_id_1133 ::: 31.55545425415039
n_id_1132 ::: 387.15399169921875
n_id_1125 ::: 206.27906799316406
n_id_1122 ::: 231.61105346679688
n_id_1120 ::: 231.52783203125
n_id_1118 ::: 231.40811157226562
n_id_1117 ::: 14.68408203125
n_id_1116 ::: 21.097015380859375
n_id_1114 ::: 40.022003173828125
n_id_1103 ::: 163.98199462890625
n_id_1097 ::: 121.91595458984375
n_id_1095 ::: 38.968017578125
n_id_1093 ::: 122.2110595703125
n_id_1091 ::: 172.59396362304688
n_id_1089 ::: 172.59396362304688
n_id_1087 ::: 34.65800094604492
n_id_1085 ::: 75.5110092163086
n_id_1083 ::: 34.65800094604492
n_id_1081 ::: 75.51600646972656
n_id_1079 ::: 25.243999481201172
n_id_1077 ::: 35.78001403808594
n_id_1075 ::: 25.243011474609375
n_id_1073 ::: 34.65699768066406
n_id_1071 ::: 40.948974609375
n_id_1069 ::: 49.427001953125
n_id_1067 ::: 14.68499755859375
n_id_1065 ::: 718.925048828125
n_id_1064 ::: 16.85100555419922
n_id_1063 ::: 12.62200927734375
n_id_1062 ::: 47.35711669921875
n_id_1061 ::: 557.1859741210938
n_id_1060 ::: 21.097015380859375
n_id_1057 ::: 35.7769775390625
n_id_1056 ::: 21.097015380859375
n_id_1046 ::: 452.0220947265625
n_id_1045 ::: 390.35003662109375
n_id_1042 ::: 16.770994186401367
n_id_1039 ::: 315.1514587402344
n_id_1036 ::: 198.84896850585938
n_id_1032 ::: 127.65057373046875
n_id_1030 ::: 36.969268798828125
n_id_1028 ::: 87.40127563476562
n_id_1025 ::: 83.40170288085938
n_id_1023 ::: 40.571624755859375
n_id_1021 ::: 127.58211517333984
n_id_1017 ::: 307.135986328125
n_id_1016 ::: 694.2888793945312
n_id_1014 ::: 97.15501403808594
n_id_1008 ::: 309.63897705078125
n_id_1002 ::: 21.65594482421875
n_id_985 ::: 10.552001953125
n_id_982 ::: 12.61798095703125
n_id_979 ::: 73.43402099609375
n_id_978 ::: 8.47198486328125
n_id_973 ::: 73.43402099609375
n_id_972 ::: 31.63800048828125
n_id_971 ::: 294.2179870605469
n_id_970 ::: 153.6519775390625
n_id_969 ::: 779.27197265625
n_id_967 ::: 6.39794921875
n_id_966 ::: 330.36395263671875
n_id_965 ::: 414.4530334472656
n_id_964 ::: 432.15191650390625
n_id_963 ::: 14.8780517578125
n_id_960 ::: 96.7960205078125
n_id_959 ::: 111.6639404296875
n_id_958 ::: 111.6639404296875
n_id_957 ::: 120.7060546875
n_id_952 ::: 76.83203125
n_id_947 ::: 76.83203125
n_id_942 ::: 96.7960205078125
n_id_941 ::: 14.8780517578125
n_id_940 ::: 14.8780517578125
n_id_939 ::: 120.7060546875
n_id_938 ::: 120.7060546875
n_id_937 ::: 103.758056640625
n_id_936 ::: 6.39794921875
n_id_931 ::: 10.5460205078125
n_id_924 ::: 14.8780517578125
n_id_923 ::: 14.8780517578125
n_id_922 ::: 10.5479736328125
n_id_921 ::: 10.5479736328125
n_id_920 ::: 0
n_id_919 ::: 10.5460205078125
n_id_918 ::: 10.5460205078125
n_id_911 ::: 0
n_id_904 ::: 10.5460205078125
n_id_895 ::: 303.3499755859375
n_id_893 ::: 10.5479736328125
n_id_892 ::: 10.5479736328125
n_id_891 ::: 10.5460205078125
n_id_890 ::: 10.5460205078125
n_id_889 ::: 10.5460205078125
n_id_888 ::: 10.5460205078125
n_id_887 ::: 117.508056640625
n_id_886 ::: 441.9420166015625
n_id_885 ::: 441.9420166015625
n_id_884 ::: 10.5460205078125
n_id_883 ::: 10.5460205078125
n_id_882 ::: 84.7340087890625
n_id_879 ::: 14.8780517578125
n_id_878 ::: 14.8780517578125
n_id_876 ::: 522.343994140625
n_id_875 ::: 14.8780517578125
n_id_874 ::: 14.8780517578125
n_id_873 ::: 99.4300537109375
n_id_872 ::: 99.4300537109375
n_id_871 ::: 14.8780517578125
n_id_870 ::: 14.8780517578125
n_id_869 ::: 38.6119384765625
n_id_868 ::: 38.6119384765625
n_id_867 ::: 60.8280029296875
n_id_862 ::: 14.8780517578125
n_id_861 ::: 14.8780517578125
n_id_860 ::: 10.364013671875
n_id_859 ::: 10.364013671875
n_id_858 ::: 28.248046875
n_id_853 ::: 10.364013671875
n_id_850 ::: 14.8780517578125
n_id_848 ::: 10.364013671875
n_id_845 ::: 28.248046875
n_id_842 ::: 292.42596435546875
n_id_841 ::: 35.0260009765625
n_id_836 ::: 189.0460205078125
n_id_829 ::: 95.280029296875
n_id_828 ::: 15.24798583984375
n_id_827 ::: 24.468017578125
n_id_818 ::: 50.46002197265625
n_id_809 ::: 14.8780517578125
n_id_798 ::: 12.61798095703125
n_id_787 ::: 123.8900146484375
n_id_778 ::: 161.7459716796875
n_id_767 ::: 15.06005859375
n_id_756 ::: 27.8619384765625
n_id_745 ::: 15.06005859375
n_id_744 ::: 27.8619384765625
n_id_733 ::: 11.865966796875
n_id_732 ::: 7.72802734375
n_id_721 ::: 5.4580078125
n_id_720 ::: 18.2760009765625
n_id_711 ::: 10.552001953125
n_id_704 ::: 16.77001953125
n_id_699 ::: 16.77001953125
n_id_698 ::: 10.552001953125
n_id_689 ::: 161.7459716796875
n_id_682 ::: 161.7459716796875
n_id_673 ::: 422.9139404296875
n_id_666 ::: 10.552001953125
n_id_661 ::: 288.4659423828125
n_id_658 ::: 422.9139404296875
n_id_657 ::: 294.8740234375
n_id_650 ::: 10.364013671875
n_id_649 ::: 14.8780517578125
n_id_648 ::: 14.8780517578125
n_id_647 ::: 10.552001953125
n_id_646 ::: 10.552001953125
n_id_645 ::: 10.552001953125
n_id_642 ::: 74.18798828125
n_id_639 ::: 89.0660400390625
n_id_638 ::: 227.75201416015625
n_id_637 ::: 185.300048828125
n_id_636 ::: 134.6400146484375
n_id_631 ::: 176.823974609375
n_id_630 ::: 119.93597412109375
n_id_625 ::: 211.46197509765625
n_id_618 ::: 405.969970703125
n_id_535 ::: 96.7960205078125
n_id_534 ::: 96.7960205078125
n_id_532 ::: 317.6619873046875
n_id_531 ::: 14.6939697265625
n_id_530 ::: 14.6939697265625
n_id_529 ::: 219.9320068359375
n_id_528 ::: 219.9320068359375
n_id_527 ::: 86.2359619140625
n_id_526 ::: 10.5479736328125
n_id_525 ::: 10.5479736328125
n_id_523 ::: 307.31005859375
n_id_522 ::: 14.6939697265625
n_id_521 ::: 14.6939697265625
n_id_520 ::: 219.9320068359375
n_id_519 ::: 219.9320068359375
n_id_518 ::: 84.1700439453125
n_id_517 ::: 10.5479736328125
n_id_516 ::: 10.5479736328125
n_id_515 ::: 33.3280029296875
n_id_514 ::: 33.3280029296875
n_id_513 ::: 14.6939697265625
n_id_512 ::: 14.6939697265625
n_id_511 ::: 219.9320068359375
n_id_510 ::: 219.9320068359375
n_id_509 ::: 148.94598388671875
n_id_492 ::: 33.7039794921875
n_id_483 ::: 37.8499755859375
n_id_482 ::: 35.4000244140625
n_id_473 ::: 8.2860107421875
n_id_464 ::: 25.0419921875
n_id_457 ::: 10.5479736328125
n_id_452 ::: 25.0419921875
n_id_445 ::: 8.2860107421875
n_id_438 ::: 22.7740478515625
n_id_431 ::: 10.553955078125
n_id_430 ::: 10.553955078125
n_id_428 ::: 10.5479736328125
n_id_427 ::: 42.93597412109375
n_id_426 ::: 42.93597412109375
n_id_425 ::: 10.553955078125
n_id_424 ::: 10.553955078125
n_id_423 ::: 50.2860107421875
n_id_421 ::: 203.9339599609375
n_id_420 ::: 42.93597412109375
n_id_419 ::: 42.93597412109375
n_id_418 ::: 10.553955078125
n_id_417 ::: 10.553955078125
n_id_415 ::: 50.2860107421875
n_id_414 ::: 240.4659423828125
n_id_413 ::: 240.4659423828125
n_id_412 ::: 42.93597412109375
n_id_411 ::: 42.93597412109375
n_id_404 ::: 50.4639892578125
n_id_403 ::: 45.2039794921875
n_id_402 ::: 45.2039794921875
n_id_401 ::: 12.2459716796875
n_id_400 ::: 10.5460205078125
n_id_399 ::: 10.5460205078125
n_id_398 ::: 240.4659423828125
n_id_397 ::: 240.4659423828125
n_id_396 ::: 42.93597412109375
n_id_395 ::: 42.93597412109375
n_id_394 ::: 45.2039794921875
n_id_393 ::: 45.2039794921875
n_id_392 ::: 10.5460205078125
n_id_391 ::: 10.5460205078125
n_id_390 ::: 240.4659423828125
n_id_389 ::: 240.4659423828125
n_id_388 ::: 42.93597412109375
n_id_387 ::: 42.93597412109375
n_id_386 ::: 40.115966796875
n_id_384 ::: 10.5460205078125
n_id_383 ::: 10.5460205078125
n_id_382 ::: 240.4659423828125
n_id_381 ::: 240.4659423828125
n_id_380 ::: 42.93597412109375
n_id_379 ::: 42.93597412109375
n_id_378 ::: 12.6259765625
n_id_377 ::: 10.5460205078125
n_id_375 ::: 10.5460205078125
n_id_374 ::: 10.5460205078125
n_id_373 ::: 240.4659423828125
n_id_372 ::: 240.4659423828125
n_id_371 ::: 42.93597412109375
n_id_370 ::: 42.93597412109375
n_id_361 ::: 12.2440185546875
n_id_350 ::: 10.5460205078125
n_id_349 ::: 10.5460205078125
n_id_348 ::: 10.5460205078125
n_id_347 ::: 10.5460205078125
n_id_346 ::: 10.362060546875
n_id_345 ::: 10.362060546875
n_id_344 ::: 120.323974609375
n_id_343 ::: 97.5360107421875
n_id_342 ::: 97.5360107421875
n_id_341 ::: 42.93597412109375
n_id_340 ::: 42.93597412109375
n_id_339 ::: 10.5460205078125
n_id_338 ::: 10.5460205078125
n_id_337 ::: 10.5460205078125
n_id_336 ::: 10.5460205078125
n_id_335 ::: 10.362060546875
n_id_334 ::: 10.362060546875
n_id_333 ::: 97.5360107421875
n_id_332 ::: 97.5360107421875
n_id_331 ::: 42.93597412109375
n_id_330 ::: 42.93597412109375
n_id_329 ::: 10.5460205078125
n_id_328 ::: 10.5460205078125
n_id_327 ::: 10.5460205078125
n_id_326 ::: 10.5460205078125
n_id_325 ::: 10.362060546875
n_id_324 ::: 10.362060546875
n_id_322 ::: 97.5360107421875
n_id_321 ::: 42.93597412109375
n_id_320 ::: 42.93597412109375
n_id_309 ::: 10.5460205078125
n_id_308 ::: 12.6199951171875
n_id_297 ::: 10.5460205078125
n_id_284 ::: 10.5460205078125
n_id_283 ::: 10.5460205078125
n_id_282 ::: 10.5460205078125
n_id_281 ::: 10.362060546875
n_id_280 ::: 10.362060546875
n_id_279 ::: 10.5479736328125
n_id_278 ::: 10.5479736328125
n_id_277 ::: 25.60601806640625
n_id_276 ::: 25.60601806640625
n_id_275 ::: 4.71002197265625
n_id_274 ::: 4.71002197265625
n_id_273 ::: 19.4019775390625
n_id_271 ::: 10.362060546875
n_id_270 ::: 10.362060546875
n_id_269 ::: 10.5479736328125
n_id_268 ::: 10.5479736328125
n_id_267 ::: 25.60601806640625
n_id_266 ::: 25.60601806640625
n_id_265 ::: 4.71002197265625
n_id_264 ::: 4.71002197265625
n_id_263 ::: 19.4019775390625
n_id_262 ::: 19.4019775390625
n_id_261 ::: 10.362060546875
n_id_260 ::: 10.362060546875
n_id_259 ::: 10.5479736328125
n_id_258 ::: 10.5479736328125
n_id_257 ::: 25.60601806640625
n_id_256 ::: 25.60601806640625
n_id_255 ::: 4.71002197265625
n_id_254 ::: 4.71002197265625
n_id_253 ::: 19.4019775390625
n_id_252 ::: 19.4019775390625
n_id_251 ::: 21.4580078125
n_id_250 ::: 10.362060546875
n_id_249 ::: 10.362060546875
n_id_248 ::: 10.5479736328125
n_id_247 ::: 10.5479736328125
n_id_246 ::: 25.60601806640625
n_id_245 ::: 25.60601806640625
n_id_244 ::: 4.71002197265625
n_id_243 ::: 4.71002197265625
n_id_232 ::: 12.6199951171875
n_id_223 ::: 32.3900146484375
n_id_214 ::: 15.2559814453125
n_id_213 ::: 15.2559814453125
n_id_212 ::: 4.14599609375
n_id_211 ::: 31.8079833984375
n_id_210 ::: 31.8079833984375
n_id_209 ::: 10.5479736328125
n_id_208 ::: 10.5479736328125
n_id_207 ::: 10.5460205078125
n_id_206 ::: 10.5460205078125
n_id_205 ::: 15.2559814453125
n_id_204 ::: 15.2559814453125
n_id_203 ::: 31.8079833984375
n_id_202 ::: 31.8079833984375
n_id_201 ::: 10.5479736328125
n_id_200 ::: 10.5479736328125
n_id_199 ::: 10.5460205078125
n_id_198 ::: 10.5460205078125
n_id_197 ::: 10.5460205078125
n_id_196 ::: 10.5460205078125
n_id_195 ::: 4.7080078125
n_id_194 ::: 31.8079833984375
n_id_193 ::: 31.8079833984375
n_id_192 ::: 10.5479736328125
n_id_191 ::: 10.5479736328125
n_id_190 ::: 10.5460205078125
n_id_189 ::: 10.5460205078125
n_id_188 ::: 10.5460205078125
n_id_187 ::: 10.5460205078125
n_id_186 ::: 31.8079833984375
n_id_185 ::: 31.8079833984375
n_id_184 ::: 10.5479736328125
n_id_183 ::: 10.5479736328125
n_id_182 ::: 10.5460205078125
n_id_181 ::: 10.5460205078125
n_id_180 ::: 10.5460205078125
n_id_179 ::: 10.5460205078125
n_id_177 ::: 31.8079833984375
n_id_176 ::: 10.5479736328125
n_id_175 ::: 10.5479736328125
n_id_174 ::: 10.5460205078125
n_id_173 ::: 10.5460205078125
n_id_172 ::: 10.5460205078125
n_id_171 ::: 10.5460205078125
n_id_169 ::: 27.676025390625
n_id_168 ::: 10.5479736328125
n_id_167 ::: 10.5479736328125
n_id_166 ::: 10.5460205078125
n_id_165 ::: 10.5460205078125
n_id_156 ::: 10.5460205078125
n_id_149 ::: 10.5460205078125
n_id_144 ::: 10.5460205078125
n_id_137 ::: 32.3900146484375
n_id_136 ::: 39.5419921875
n_id_129 ::: 10.362060546875
n_id_128 ::: 10.362060546875
n_id_127 ::: 133.68402099609375
n_id_126 ::: 10.5479736328125
n_id_125 ::: 10.5479736328125
n_id_124 ::: 82.47198486328125
n_id_123 ::: 82.47198486328125
n_id_122 ::: 10.362060546875
n_id_121 ::: 10.362060546875
n_id_120 ::: 144.24200439453125
n_id_119 ::: 144.24200439453125
n_id_118 ::: 82.47198486328125
n_id_117 ::: 82.47198486328125
n_id_116 ::: 10.156005859375
n_id_109 ::: 38.416015625
n_id_102 ::: 38.416015625
n_id_95 ::: 71.93798828125
n_id_88 ::: 20.52001953125
n_id_87 ::: 20.52001953125
n_id_86 ::: 144.24200439453125
n_id_85 ::: 10.5360107421875
n_id_84 ::: 10.5360107421875
n_id_83 ::: 20.52001953125
n_id_82 ::: 20.52001953125
n_id_81 ::: 10.5360107421875
n_id_80 ::: 10.5360107421875
n_id_79 ::: 20.52001953125
n_id_78 ::: 10.5360107421875
n_id_77 ::: 10.5360107421875
n_id_74 ::: 12.60797119140625
n_id_73 ::: 35.4000244140625
n_id_70 ::: 71.93798828125
n_id_67 ::: 12.60797119140625
n_id_64 ::: 38.416015625
n_id_61 ::: 38.416015625
n_id_58 ::: 8.47802734375
n_id_55 ::: 88.3079833984375
n_id_50 ::: 10.5560302734375
n_id_49 ::: 10.5560302734375
n_id_48 ::: 10.5460205078125
n_id_45 ::: 10.5560302734375
n_id_44 ::: 10.5560302734375
n_id_43 ::: 10.5460205078125
n_id_38 ::: 88.3079833984375
n_id_35 ::: 12.6240234375
n_id_32 ::: 111.47802734375
n_id_29 ::: 12.60797119140625
n_id_26 ::: 12.60797119140625
n_id_23 ::: 50.46002197265625
n_id_22 ::: 48.3919677734375
n_id_17 ::: 12.04998779296875
n_id_12 ::: 12.6199951171875
n_id_9 ::: 14.87200927734375
n_id_8 ::: 84.73602294921875
n_id_5 ::: 10.35601806640625
n_id_2 ::: 1061.8299560546875
n_id_1 ::: 8.46600341796875
n_id_0 ::: 8.46600341796875
