Total No of Rooms: 7
single : room 1 : ensuite : [826,1164] : contour_details : [577 1109],[577 1230],[578 1231],[578 1247],[577 1248],[577 1304],[695 1304],[696 1305],[696 1322],[1010 1322],[1010 1217],[1009 1216],[1009 1118],[1010 1117],[1010 1109]

single : room 2 : masterbedroom : [1277,1146] : contour_details : [1151 1058],[1150 1059],[1150 1321],[1151 1322],[1387 1322],[1388 1321],[1388 1059],[1387 1058]

single : room 3 : unknown room : [279,891] : contour_details : [169 732],[169 953],[189 953],[190 954],[190 1058],[384 1058],[384 875],[383 874],[383 756],[384 755],[384 732]

single : room 4 : dn : [1148,385] : contour_details : [980 328],[976 332],[975 332],[971 336],[970 336],[965 341],[964 341],[960 345],[959 345],[955 349],[954 349],[950 353],[949 353],[945 357],[944 357],[940 361],[939 361],[935 365],[934 365],[930 369],[929 369],[925 373],[924 373],[920 377],[919 377],[915 381],[914 381],[910 385],[909 385],[905 389],[904 389],[899 394],[898 394],[894 398],[893 398],[889 402],[888 402],[884 406],[883 406],[879 410],[878 410],[876 412],[876 435],[1176 435],[1176 434],[1177 433],[1177 432],[1178 431],[1178 429],[1179 428],[1179 427],[1180 426],[1180 424],[1181 423],[1181 422],[1182 421],[1182 420],[1183 419],[1183 417],[1184 416],[1184 415],[1185 414],[1185 329],[1066 329],[1065 328]

open : plan 1-room 5 : wic : [872, 976] : contour_details : [730 912],[731 911],[1008  911],[1009  912],[1009 1084],[1008 1085],[ 731 1085],[ 730 1084]

open : plan 1-room 6 : masterbedroom : [1277, 1146] : contour_details : [1027  860],[1028  859],[1196  859],[1197  860],[1197  937],[1198  938],[1519  938],[1520  939],[1520 1320],[1519 1321],[1027 1321],[1026 1320],[1026 1014],[1025 1013],[1012 1013],[1011 1012],[1011  918],[1012  917],[1026  917],[1027  916]

open : plan 2-room 7 : entry : [266, 1140] : contour_details : [ 170 1078],[ 171 1077],[ 433 1077],[ 434 1078],[ 465 1078],[ 466 1079],[ 496 1079],[ 497 1080],[ 528 1080],[ 529 1081],[ 558 1081],[ 559 1082],[ 559 1228],[ 558 1229],[ 536 1229],[ 535 1230],[ 535 1248],[ 536 1249],[ 557 1249],[ 558 1250],[ 558 1320],[ 557 1321],[ 364 1321],[ 363 1320],[ 363 1250],[ 364 1249],[ 383 1249],[ 384 1248],[ 384 1231],[ 383 1230],[ 339 1230],[ 338 1231],[ 338 1281],[ 337 1282],[ 171 1282],[ 170 1281]

open : plan 2-room 8 : dn : [641, 1020] : contour_details : [634 973],[635 972],[710 972],[711 973],[ 711 1084],[ 710 1085],[ 579 1085],[ 578 1084],[ 578 1073],[ 577 1072],[ 560 1072],[ 559 1073],[ 559 1079],[ 558 1080],[ 529 1080],[ 528 1079],[ 497 1079],[ 496 1078],[ 466 1078],[ 465 1077],[ 434 1077],[ 433 1076],[ 404 1076],[ 403 1075],[403 976],[404 975],[479 975],[480 974],[557 974],[558 973]

open : plan 2-room 9 : wc : [638, 928] : contour_details : [403 842],[404 841],[560 841],[561 842],[561 877],[562 878],[577 878],[578 877],[578 866],[579 865],[710 865],[711 866],[711 970],[710 971],[635 971],[634 972],[557 972],[556 973],[480 973],[479 974],[404 974],[403 973]

open : plan 2-room 10 : kitchen : [1035, 471] : contour_details : [792 330],[793 329],[969 329],[970 330],[967 333],[966 333],[963 336],[962 336],[958 340],[957 340],[954 343],[953 343],[949 347],[948 347],[944 351],[943 351],[940 354],[939 354],[935 358],[934 358],[930 362],[929 362],[926 365],[925 365],[921 369],[920 369],[916 373],[915 373],[912 376],[911 376],[907 380],[906 380],[903 383],[902 383],[898 387],[897 387],[893 391],[892 391],[889 394],[888 394],[884 398],[883 398],[879 402],[878 402],[875 405],[874 405],[871 408],[871 439],[872 440],[1172  440],[1173  441],[1172  442],[1172  444],[1171  445],[1171  446],[1170  447],[1170  448],[1169  449],[1169  451],[1168  452],[1168  453],[1167  454],[1167  456],[1166  457],[1166  458],[1165  459],[1165  461],[1164  462],[1164  463],[1163  464],[1163  466],[1162  467],[1162  468],[1161  469],[1161  471],[1160  472],[1160  473],[1159  474],[1159  475],[1158  476],[1158  478],[1157  479],[1157  480],[1156  481],[1156  483],[1155  484],[1155  485],[1154  486],[1154  488],[1153  489],[1153  490],[1152  491],[1152  493],[1151  494],[1151  495],[1150  496],[1150  498],[1149  499],[1149  500],[1148  501],[1148  502],[1147  503],[1147  505],[1146  506],[1146  507],[1145  508],[1145  510],[1144  511],[1144  512],[1143  513],[1143  515],[1142  516],[1142  517],[1141  518],[1141  520],[1140  521],[1140  522],[1139  523],[1139  524],[1138  525],[1138  527],[1137  528],[1137  529],[1136  530],[1136  532],[1135  533],[1135  534],[1134  535],[1134  537],[1133  538],[1133  539],[1132  540],[1132  542],[1131  543],[1131  544],[1130  545],[1130  547],[1129  548],[1129  549],[1128  550],[1128  551],[1127  552],[1127  554],[1126  555],[1126  556],[1125  557],[1125  559],[1124  560],[1124  561],[1123  562],[1123  564],[1122  565],[1122  566],[1121  567],[1121  569],[1120  570],[1120  571],[1119  572],[1119  574],[1118  575],[1118  576],[1117  577],[1117  578],[1116  579],[1116  581],[1115  582],[1115  583],[1114  584],[1114  586],[1113  587],[1113  588],[1112  589],[1112  591],[1111  592],[1111  593],[1110  594],[1110  596],[1109  597],[1109  598],[1108  599],[1108  600],[1107  601],[1107  603],[1106  604],[1106  605],[1105  606],[1105  608],[1104  609],[1104  610],[1103  611],[1103  613],[1102  614],[1102  615],[1101  616],[1101  618],[1100  619],[1100  620],[1099  621],[1099  623],[1098  624],[1098  625],[1097  626],[1097  627],[1096  628],[1096  630],[1095  631],[1095  632],[1094  633],[1094  635],[1093  636],[1093  637],[1092  638],[1092  640],[1091  641],[1091  642],[1090  643],[1090  645],[1089  646],[1089  647],[1088  648],[1088  649],[1087  650],[1087  652],[1086  653],[1086  654],[1085  655],[1085  657],[1084  658],[1084  659],[1083  660],[1083  662],[1082  663],[1082  664],[1081  665],[1081  667],[1080  668],[1080  669],[1079  670],[1079  672],[1078  673],[1078  674],[1077  675],[1077  676],[1076  677],[1076  679],[1075  680],[1075  681],[1074  682],[1074  684],[1073  685],[1073  686],[1072  687],[1072  689],[1071  690],[1071  691],[1070  692],[1070  694],[1069  695],[1069  696],[1068  697],[1068  699],[1067  700],[1067  701],[1066  702],[1066  703],[1065  704],[1065  706],[1064  707],[1064  708],[1063  709],[1063  711],[1062  712],[1062  713],[1061  714],[1061  716],[1060  717],[1060  718],[1059  719],[1059  721],[1058  722],[1058  723],[1057  724],[1057  725],[1056  726],[1056  728],[1055  729],[1055  730],[1054  731],[1054  733],[1053  734],[1053  735],[1052  736],[1052  738],[1051  739],[1051  740],[1050  741],[1050  743],[1049  744],[1049  745],[1048  746],[1048  748],[1047  749],[1047  750],[1046  751],[1046  752],[1045  753],[1045  755],[1044  756],[1044  757],[1043  758],[1043  760],[1042  761],[1042  762],[1041  763],[1041  765],[1040  766],[1040  767],[1039  768],[1039  770],[1038  771],[1038  772],[1037  773],[1037  775],[1036  776],[1036  777],[1035  778],[1035  779],[1034  780],[1034  782],[1033  783],[1033  784],[1032  785],[1032  787],[1031  788],[1031  789],[1030  790],[1030  792],[1029  793],[1029  794],[1028  795],[1028  797],[1027  798],[1027  799],[1026  800],[1026  801],[1025  802],[1025  804],[1024  805],[1024  806],[1023  807],[1023  809],[1022  810],[1022  811],[1021  812],[1021  814],[1020  815],[1020  816],[1019  817],[1019  819],[1018  820],[1018  821],[1017  822],[1017  824],[1016  825],[1016  826],[1015  827],[1015  828],[1014  829],[1014  831],[1013  832],[1013  833],[1012  834],[1012  836],[1011  837],[1011  838],[1010  839],[1010  840],[1009  841],[1009  892],[1008  893],[732 893],[731 892],[731 841],[730 840],[404 840],[403 839],[403 707],[404 706],[573 706],[574 705],[574 688],[573 687],[568 687],[567 686],[567 331],[568 330],[773 330],[774 331],[774 687],[773 688],[668 688],[667 689],[667 705],[668 706],[791 706],[792 705]

open : plan 2-room 11 : bedroom : [343, 391] : contour_details : [170 212],[171 211],[541 211],[542 212],[542 686],[541 687],[518 687],[517 688],[517 703],[516 704],[427 704],[426 703],[426 688],[425 687],[403 687],[402 686],[402 624],[401 623],[375 623],[374 624],[374 640],[375 641],[382 641],[383 642],[383 713],[382 714],[171 714],[170 713],[170 641],[171 640],[175 640],[176 639],[176 625],[175 624],[171 624],[170 623]

open : plan 3-room 12 : dining : [1454, 282] : contour_details : [1190  161],[1697  161],[1698  162],[1698  433],[1697  434],[1195  434],[1194  433],[1194  432],[1195  431],[1195  429],[1196  428],[1196  426],[1197  425],[1197  423],[1198  422],[1198  420],[1199  419],[1199  417],[1200  416],[1200  415],[1201  414],[1201  293],[1200  292],[1178  292],[1177  293],[1177  302],[1176  303],[1016  303],[1015  302],[1018  299],[1019  299],[1023  295],[1024  295],[1028  291],[1029  291],[1033  287],[1034  287],[1039  282],[1040  282],[1044  278],[1045  278],[1049  274],[1050  274],[1054  270],[1055  270],[1059  266],[1060  266],[1064  262],[1065  262],[1069  258],[1070  258],[1074  254],[1075  254],[1079  250],[1080  250],[1085  245],[1086  245],[1090  241],[1091  241],[1095  237],[1096  237],[1100  233],[1101  233],[1105  229],[1106  229],[1110  225],[1111  225],[1115  221],[1116  221],[1120  217],[1121  217],[1125  213],[1126  213],[1131  208],[1132  208],[1136  204],[1137  204],[1141  200],[1142  200],[1146  196],[1147  196],[1151  192],[1152  192],[1156  188],[1157  188],[1161  184],[1162  184],[1166  180],[1167  180],[1171  176],[1172  176],[1176  172],[1177  172],[1182  167],[1183  167],[1187  163],[1188  163]

open : plan 3-room 13 : cl : [1243, 156] : contour_details : [1200  153],[1697  153],[1698  154],[1698  158],[1697  159],[1195  159],[1194  158],[1197  155],[1198  155]

