es : [1811,574] : [1750,553,1872,595] : confidence,dict,original_word,difference : [1750,SG,ew,1]
kitchen : [1205,723] : [1099,700,1311,747] : confidence,dict,original_word,difference : [86,DM,None,0]
utility : [1752,739] : [1661,710,1844,769] : confidence,dict,original_word,difference : [67,DM,None,0]
diningroom : [756,838] : [573,817,939,860] : confidence,dict,original_word,difference : [85,DM,None,0]
No Text Detected
