Wall : [1772,8147],[2352,8147],[2352,8307],[1772,8307] : [1] 
Wall : [332,6172],[996,6172],[996,6274],[332,6274] : [1] 
Wall : [332,4835],[996,4835],[996,4932],[332,4932] : [1] 
Wall : [333,1033],[429,1033],[429,3561],[333,3561] : [1] 
Wall : [2439,1033],[3409,1033],[3409,1129],[2439,1129] : [1] 
Wall : [2192,6450],[2288,6450],[2288,8307],[2192,8307] : [1] 
Wall : [4911,1033],[5007,1033],[5007,3561],[4911,3561] : [1] 
Wall : [4199,1033],[5008,1033],[5008,1129],[4199,1129] : [1] 
Wall : [2191,7176],[2677,7176],[2677,7274],[2191,7274] : [1] 
Wall : [4911,4353],[5007,4353],[5007,4931],[4911,4931] : [1] 
Wall : [333,5705],[429,5705],[429,7388],[333,7388] : [1] 
Wall : [5246,4835],[5342,4835],[5342,7272],[5246,7272] : [1] 
Wall : [1779,1033],[1940,1033],[1940,1129],[1779,1129] : [1] 
Wall : [333,4353],[429,4353],[429,5361],[333,5361] : [1] 
Wall : [2212,4835],[3121,4835],[3121,4931],[2212,4931] : [1] 
Wall : [4519,2983],[5008,2983],[5008,3079],[4519,3079] : [1] 
Wall : [4491,4835],[5343,4835],[5343,4931],[4491,4931] : [1] 
Wall : [332,1033],[598,1033],[598,1130],[332,1130] : [1] 
Wall : [2605,1033],[2700,1033],[2700,1521],[2605,1521] : [1] 
Wall : [2605,4584],[2700,4584],[2700,4931],[2605,4931] : [1] 
Wall : [3131,7177],[3421,7177],[3421,7272],[3131,7272] : [1] 
Wall : [333,7839],[428,7839],[428,8307],[333,8307] : [1] 
Wall : [4365,7177],[4655,7177],[4655,7272],[4365,7272] : [1] 
Wall : [5109,7176],[5343,7176],[5343,7272],[5109,7272] : [1] 
Wall : [2212,4835],[2281,4835],[2281,5342],[2212,5342] : [1] 
Wall : [2786,4835],[2854,4835],[2854,5480],[2786,5480] : [1] 
Wall : [927,5667],[995,5667],[995,6273],[927,6273] : [1] 
Wall : [927,4835],[995,4835],[995,5281],[927,5281] : [1] 
Wall : [332,7109],[822,7109],[822,7178],[332,7178] : [1] 
Wall : [757,6173],[817,6173],[817,7177],[757,7177] : [1] 
Wall : [618,4869],[570,4835],[522,4907],[571,4939] : [1] 
Wall : [5103,5835],[5201,5737],[5101,5637],[5003,5735] : [1] 
Wall : [5123,5845],[5226,5737],[5122,5637],[5018,5744] : [1] 
Wall : [5183,7806],[5300,7806],[5300,7922],[5183,7922] : [1] 
Wall : [2486,7806],[2603,7806],[2603,7922],[2486,7922] : [1] 
Wall : [4995,6303],[5343,6303],[5343,6476],[4995,6476] : [1] 
Wall : [4995,5637],[5343,5637],[5343,5809],[4995,5809] : [1] 
Wall : [1801,8148],[1806,8148],[1806,8335],[1801,8335] : [1] 
Wall : [2206,6450],[2211,6450],[2211,8362],[2206,8362] : [1] 
Wall : [616,6173],[621,6173],[621,7177],[616,7177] : [1] 
Wall : [423,1033],[428,1033],[428,8307],[423,8307] : [1] 
Wall : [664,4839],[660,4835],[542,4962],[546,4965] : [1] 
Wall : [815,4971],[819,4968],[708,4835],[704,4838] : [1] 
Wall : [332,1123],[2415,1123],[2415,1129],[332,1129] : [1] 
Wall : [3333,1033],[3338,1033],[3338,1216],[3333,1216] : [1] 
Wall : [3150,726],[3155,726],[3155,1129],[3150,1129] : [1] 
Wall : [3170,195],[3190,195],[3190,1129],[3170,1129] : [1] 
Wall : [1577,8238],[2352,8238],[2352,8245],[1577,8245] : [1] 
Wall : [2191,7176],[3450,7176],[3450,7182],[2191,7182] : [1] 
Wall : [1660,6624],[2289,6624],[2289,6629],[1660,6629] : [1] 
Wall : [1570,6506],[2289,6506],[2289,6511],[1570,6511] : [1] 
Wall : [1598,6478],[2289,6478],[2289,6483],[1598,6483] : [1] 
Wall : [332,8146],[2352,8146],[2352,8154],[332,8154] : [1] 
Wall : [1660,6738],[2289,6738],[2289,6754],[1660,6754] : [1] 
Wall : [4574,2102],[5008,2102],[5008,2109],[4574,2109] : [1] 
Wall : [4574,1627],[5008,1627],[5008,1633],[4574,1633] : [1] 
Wall : [4575,2437],[5008,2437],[5008,2444],[4575,2444] : [1] 
Wall : [2436,1123],[5008,1123],[5008,1129],[2436,1129] : [1] 
Wall : [4270,1033],[4275,1033],[4275,1216],[4270,1216] : [1] 
Wall : [4911,1033],[4916,1033],[4916,4931],[4911,4931] : [1] 
Wall : [2212,4866],[5343,4866],[5343,4873],[2212,4873] : [1] 
Wall : [2125,4835],[5343,4835],[5343,4841],[2125,4841] : [1] 
Wall : [2212,4894],[5343,4894],[5343,4901],[2212,4901] : [1] 
Wall : [332,6198],[1024,6198],[1024,6203],[332,6203] : [1] 
Wall : [4895,5637],[5343,5637],[5343,5644],[4895,5644] : [1] 
Wall : [4337,7177],[5343,7177],[5343,7182],[4337,7182] : [1] 
Wall : [5108,6271],[5343,6271],[5343,6281],[5108,6281] : [1] 
Wall : [5104,5828],[5343,5828],[5343,5840],[5104,5840] : [1] 
Wall : [5064,6282],[5343,6282],[5343,6314],[5064,6314] : [1] 
Wall : [5054,5791],[5343,5791],[5343,5827],[5054,5827] : [1] 
Wall : [1934,1006],[1939,1006],[1939,1129],[1934,1129] : [1] 
Wall : [1864,223],[1869,223],[1869,1129],[1864,1129] : [1] 
Wall : [1836,195],[1841,195],[1841,1129],[1836,1129] : [1] 
Wall : [332,4835],[1040,4835],[1040,4840],[332,4840] : [1] 
Wall : [246,5063],[490,5063],[490,5076],[246,5076] : [1] 
Wall : [2213,4835],[2218,4835],[2218,5644],[2213,5644] : [1] 
Wall : [2821,4835],[2826,4835],[2826,5672],[2821,5672] : [1] 
Wall : [2241,4835],[2246,4835],[2246,5672],[2241,5672] : [1] 
Wall : [2846,4835],[2854,4835],[2854,5672],[2846,5672] : [1] 
Wall : [5337,4835],[5342,4835],[5342,8363],[5337,8363] : [1] 
Wall : [5267,4835],[5272,4835],[5272,7797],[5267,7797] : [1] 
Wall : [2604,1291],[2788,1291],[2788,1298],[2604,1298] : [1] 
Wall : [2604,1460],[4581,1460],[4581,1465],[2604,1465] : [1] 
Wall : [2185,4898],[3121,4898],[3121,4903],[2185,4903] : [1] 
Wall : [1597,4920],[3121,4920],[3121,4937],[1597,4937] : [1] 
Wall : [3415,7177],[3420,7177],[3420,7300],[3415,7300] : [1] 
Wall : [332,8238],[1107,8238],[1107,8245],[332,8245] : [1] 
Wall : [4366,7177],[4371,7177],[4371,7300],[4366,7300] : [1] 
Wall : [5211,7177],[5216,7177],[5216,7796],[5211,7796] : [1] 
Wall : [2568,5407],[2570,5402],[2174,5321],[2172,5326] : [1] 
Wall : [2698,5282],[2855,5282],[2855,5288],[2698,5288] : [1] 
Wall : [2854,5494],[2857,5488],[2621,5411],[2618,5416] : [1] 
Wall : [2699,5163],[2855,5163],[2855,5170],[2699,5170] : [1] 
Wall : [2698,5044],[2855,5044],[2855,5051],[2698,5051] : [1] 
Wall : [1272,5394],[1268,5390],[927,5731],[931,5735] : [1] 
Wall : [761,7055],[766,7055],[766,8307],[761,8307] : [1] 
Wall : [4995,5637],[5001,5637],[5001,6475],[4995,6475] : [1] 
Wall : [5124,5638],[5129,5638],[5129,5845],[5124,5845] : [1] 
Wall : [878,8330],[1807,8330],[1807,8335],[878,8335] : [1] 
Wall : [2206,8358],[5343,8358],[5343,8363],[2206,8363] : [1] 
Wall : [1962,1034],[1967,1034],[1967,1187],[1962,1187] : [1] 
Wall : [2414,1128],[2410,1124],[2218,1316],[2222,1320] : [1] 
Wall : [3141,474],[3303,474],[3303,479],[3141,479] : [1] 
Wall : [1835,195],[3184,195],[3184,200],[1835,200] : [1] 
Wall : [1863,223],[3184,223],[3184,228],[1863,228] : [1] 
Wall : [1577,8098],[1582,8098],[1582,8244],[1577,8244] : [1] 
Wall : [3765,6863],[3761,6860],[3442,7179],[3445,7183] : [1] 
Wall : [1918,6543],[1924,6543],[1924,6774],[1918,6774] : [1] 
Wall : [1661,6506],[1666,6506],[1666,6776],[1661,6776] : [1] 
Wall : [1570,4898],[1575,4898],[1575,6511],[1570,6511] : [1] 
Wall : [1604,6506],[1610,6506],[1610,6776],[1604,6776] : [1] 
Wall : [1632,6506],[1639,6506],[1639,6748],[1632,6748] : [1] 
Wall : [1598,4898],[1604,4898],[1604,6483],[1598,6483] : [1] 
Wall : [332,7838],[338,7838],[338,9229],[332,9229] : [1] 
Wall : [1443,7816],[1439,7812],[1100,8151],[1104,8155] : [1] 
Wall : [878,8148],[883,8148],[883,8335],[878,8335] : [1] 
Wall : [403,7839],[408,7839],[408,9062],[403,9062] : [1] 
Wall : [459,8049],[464,8049],[464,9062],[459,9062] : [1] 
Wall : [4575,2103],[4580,2103],[4580,2443],[4575,2443] : [1] 
Wall : [4574,1460],[4580,1460],[4580,1632],[4574,1632] : [1] 
Wall : [1018,5667],[1023,5667],[1023,6203],[1018,6203] : [1] 
Wall : [4896,5638],[4901,5638],[4901,6487],[4896,6487] : [1] 
Wall : [1779,1033],[1967,1033],[1967,1038],[1779,1038] : [1] 
Wall : [247,5067],[253,5067],[253,5316],[247,5316] : [1] 
Wall : [2240,5633],[2827,5633],[2827,5649],[2240,5649] : [1] 
Wall : [2240,5520],[2827,5520],[2827,5525],[2240,5525] : [1] 
Wall : [2240,5401],[2710,5401],[2710,5408],[2240,5408] : [1] 
Wall : [2185,4898],[2190,4898],[2190,5672],[2185,5672] : [1] 
Wall : [1913,4891],[1919,4891],[1919,5622],[1913,5622] : [1] 
Wall : [3414,7295],[4372,7295],[4372,7300],[3414,7300] : [1] 
Wall : [3131,7267],[3449,7267],[3449,7272],[3131,7272] : [1] 
Wall : [4337,7267],[4655,7267],[4655,7272],[4337,7272] : [1] 
Wall : [2220,8358],[2225,8358],[2225,9062],[2220,9062] : [1] 
Wall : [2276,8358],[2281,8358],[2281,9062],[2276,9062] : [1] 
Wall : [1017,6165],[1576,6165],[1576,6181],[1017,6181] : [1] 
Wall : [1017,5932],[1576,5932],[1576,5938],[1017,5938] : [1] 
Wall : [1017,5814],[1576,5814],[1576,5819],[1017,5819] : [1] 
Wall : [1017,5695],[1576,5695],[1576,5700],[1017,5700] : [1] 
Wall : [1017,6051],[1576,6051],[1576,6056],[1017,6056] : [1] 
Wall : [1597,5164],[2191,5164],[2191,5169],[1597,5169] : [1] 
Wall : [1597,5639],[2191,5639],[2191,5644],[1597,5644] : [1] 
Wall : [1597,5045],[2191,5045],[2191,5050],[1597,5050] : [1] 
Wall : [1597,5400],[2191,5400],[2191,5406],[1597,5406] : [1] 
Wall : [1597,5520],[2191,5520],[2191,5525],[1597,5525] : [1] 
Wall : [332,9224],[940,9224],[940,9229],[332,9229] : [1] 
Wall : [2540,5451],[2547,5451],[2547,5680],[2540,5680] : [1] 
Wall : [1302,5748],[1308,5748],[1308,6202],[1302,6202] : [1] 
Wall : [934,9155],[939,9155],[939,9634],[934,9634] : [1] 
Wall : [905,9224],[911,9224],[911,9634],[905,9634] : [1] 
Wall : [500,9154],[940,9154],[940,9159],[500,9159] : [1] 
Wall : [501,9057],[506,9057],[506,9201],[501,9201] : [1] 
Wall : [500,9098],[996,9098],[996,9103],[500,9103] : [1] 
Wall : [361,9196],[507,9196],[507,9201],[361,9201] : [1] 
Wall : [905,9078],[1779,9078],[1779,9096],[905,9096] : [1] 
Wall : [989,9098],[995,9098],[995,9634],[989,9634] : [1] 
Wall : [361,9057],[366,9057],[366,9201],[361,9201] : [1] 
Wall : [1689,9098],[2184,9098],[2184,9103],[1689,9103] : [1] 
Wall : [1689,9098],[1695,9098],[1695,9634],[1689,9634] : [1] 
Wall : [1338,9057],[1345,9057],[1345,9509],[1338,9509] : [1] 
Wall : [989,9500],[1695,9500],[1695,9509],[989,9509] : [1] 
Wall : [989,9364],[1695,9364],[1695,9369],[989,9369] : [1] 
Wall : [989,9224],[1695,9224],[1695,9229],[989,9229] : [1] 
Wall : [2178,9057],[2183,9057],[2183,9201],[2178,9201] : [1] 
Wall : [2177,9196],[2324,9196],[2324,9201],[2177,9201] : [1] 
Wall : [1744,9154],[2184,9154],[2184,9159],[1744,9159] : [1] 
Wall : [2318,9057],[2323,9057],[2323,9201],[2318,9201] : [1] 
Wall : [1745,9155],[1750,9155],[1750,9634],[1745,9634] : [1] 
Wall : [1744,9224],[2352,9224],[2352,9229],[1744,9229] : [1] 
Wall : [1773,9224],[1779,9224],[1779,9634],[1773,9634] : [1] 
Wall : [1421,7419],[1446,7419],[1446,7537],[1421,7537] : [1] 
Wall : [1502,7525],[1519,7515],[1476,7392],[1459,7402] : [1] 
Wall : [1574,7393],[1600,7393],[1600,7563],[1574,7563] : [1] 
