Unknown : [1043,1733],[1154,1733],[1154,1788],[1043,1788] : [0.3] 
Unknown : [1398,1603],[1509,1603],[1509,1658],[1398,1658] : [0.3] 
Unknown : [1315,1603],[1426,1603],[1426,1658],[1315,1658] : [0.3] 
Unknown : [899,1439],[1010,1439],[1010,1494],[899,1494] : [0.3] 
Unknown : [1164,1153],[1275,1153],[1275,1208],[1164,1208] : [0.3] 
Unknown : [1158,878],[1269,878],[1269,933],[1158,933] : [0.3] 
Unknown : [776,190],[887,190],[887,245],[776,245] : [0.3] 
