Window : [1178,276],[1295,276],[1295,323],[1178,323] : [1] 
Window : [1411,276],[1527,276],[1527,324],[1411,324] : [1] 
Window : [691,276],[808,276],[808,323],[691,323] : [1] 
Window : [225,276],[458,276],[458,323],[225,323] : [1] 
