n_id_859 ::: 21.4000244140625
n_id_858 ::: 25.08026123046875
n_id_857 ::: 29.553022384643555
n_id_854 ::: 43.73440933227539
n_id_853 ::: 77.24005889892578
n_id_852 ::: 51.09035110473633
n_id_851 ::: 51.090335845947266
n_id_850 ::: 51.87915802001953
n_id_849 ::: 52.00844955444336
n_id_848 ::: 53.60005187988281
n_id_847 ::: 57.303096771240234
n_id_844 ::: 44.74334716796875
n_id_843 ::: 77.24007415771484
n_id_842 ::: 51.044395446777344
n_id_841 ::: 51.044395446777344
n_id_840 ::: 51.87919616699219
n_id_839 ::: 52.008487701416016
n_id_838 ::: 53.60002136230469
n_id_837 ::: 57.30322265625
n_id_834 ::: 25.522010803222656
n_id_833 ::: 77.24002838134766
n_id_832 ::: 51.09036636352539
n_id_831 ::: 51.06275177001953
n_id_830 ::: 51.879310607910156
n_id_829 ::: 52.008426666259766
n_id_828 ::: 53.60003662109375
n_id_827 ::: 57.303260803222656
n_id_824 ::: 63.500640869140625
n_id_823 ::: 40.508018493652344
n_id_822 ::: 40.48152542114258
n_id_821 ::: 41.6055793762207
n_id_820 ::: 41.600006103515625
n_id_819 ::: 26.999969482421875
n_id_818 ::: 37.318084716796875
n_id_817 ::: 45.57728576660156
n_id_814 ::: 48.83845138549805
n_id_813 ::: 46.78777313232422
n_id_812 ::: 19.20001220703125
n_id_811 ::: 43.24411392211914
n_id_810 ::: 43.4217643737793
n_id_809 ::: 44.999969482421875
n_id_808 ::: 43.24554443359375
n_id_807 ::: 43.27470016479492
n_id_804 ::: 42
n_id_803 ::: 26.999969482421875
n_id_802 ::: 18.79998779296875
n_id_801 ::: 38.727882385253906
n_id_800 ::: 40.42188262939453
n_id_799 ::: 7.800018310546875
n_id_798 ::: 45.67540740966797
n_id_797 ::: 42
n_id_794 ::: 48.62684631347656
n_id_793 ::: 46.78777313232422
n_id_792 ::: 19.20001220703125
n_id_791 ::: 43.27470016479492
n_id_790 ::: 46.78777313232422
n_id_789 ::: 38.35416030883789
n_id_788 ::: 25.800018310546875
n_id_783 ::: 1.9015964269638062
n_id_782 ::: 1.9015964269638062
n_id_778 ::: 1.9015964269638062
n_id_777 ::: 1.9015964269638062
n_id_776 ::: 1.9015964269638062
n_id_772 ::: 29.30457305908203
n_id_771 ::: 29.902231216430664
n_id_770 ::: 44.271244049072266
n_id_766 ::: 3.7593626976013184
n_id_765 ::: 3.7593626976013184
n_id_759 ::: 1.9015964269638062
n_id_757 ::: 1.9015964269638062
n_id_755 ::: 1.9015878438949585
n_id_754 ::: 1.9015862941741943
n_id_750 ::: 1.9015862941741943
n_id_749 ::: 1.9015862941741943
n_id_748 ::: 1.9015878438949585
n_id_744 ::: 29.30457305908203
n_id_743 ::: 29.902238845825195
n_id_742 ::: 44.271202087402344
n_id_738 ::: 3.7593705654144287
n_id_737 ::: 3.759370803833008
n_id_731 ::: 1.901587724685669
n_id_729 ::: 1.9015843868255615
n_id_725 ::: 1.901573657989502
n_id_724 ::: 1.9015737771987915
n_id_720 ::: 1.9015737771987915
n_id_719 ::: 1.9015737771987915
n_id_718 ::: 1.901573657989502
n_id_714 ::: 29.3045711517334
n_id_713 ::: 29.9022216796875
n_id_712 ::: 44.27119445800781
n_id_708 ::: 3.759371519088745
n_id_707 ::: 3.7593748569488525
n_id_701 ::: 1.9015734195709229
n_id_699 ::: 1.9015710353851318
n_id_686 ::: 45.1541862487793
n_id_682 ::: 45.125946044921875
n_id_626 ::: 39.20328140258789
n_id_615 ::: 61.56208038330078
n_id_613 ::: 7.518725872039795
n_id_605 ::: 0.9972296953201294
n_id_604 ::: 0.9972296953201294
n_id_596 ::: 0.9810767769813538
n_id_594 ::: 0.9810767769813538
n_id_584 ::: 0.9810768961906433
n_id_582 ::: 0.9810768961906433
n_id_576 ::: 0.9972243309020996
n_id_574 ::: 0.9972243309020996
n_id_560 ::: 0.9972243309020996
n_id_558 ::: 0.9972243309020996
n_id_552 ::: 0.9810929298400879
n_id_550 ::: 0.9810929298400879
n_id_544 ::: 0.9972329139709473
n_id_542 ::: 0.9972329139709473
n_id_513 ::: 45.1541862487793
n_id_499 ::: 46.96757507324219
n_id_478 ::: 46.96757507324219
n_id_470 ::: 0.9810767769813538
n_id_468 ::: 0.9810767769813538
n_id_457 ::: 0.9972203373908997
n_id_456 ::: 0.9972203373908997
n_id_442 ::: 0.9972288608551025
n_id_440 ::: 0.9972288608551025
n_id_429 ::: 0.9810875654220581
n_id_427 ::: 0.9810875654220581
n_id_280 ::: 0.9972329139709473
n_id_278 ::: 0.9972329139709473
n_id_268 ::: 0.9810885190963745
n_id_267 ::: 0.9810885190963745
n_id_233 ::: 4.4221367835998535
n_id_232 ::: 5.660537242889404
n_id_217 ::: 4.4221367835998535
n_id_216 ::: 5.6605401039123535
n_id_161 ::: 2.7427139282226562
n_id_160 ::: 2.7660374641418457
n_id_148 ::: 8.844402313232422
n_id_137 ::: 4.401244640350342
n_id_136 ::: 5.660543441772461
n_id_81 ::: 2.742719888687134
n_id_80 ::: 2.7660419940948486
n_id_69 ::: 8.795075416564941
n_id_63 ::: 5.360869407653809
n_id_62 ::: 5.360869884490967
n_id_61 ::: 12.308006286621094
n_id_60 ::: 14.585829734802246
n_id_59 ::: 20.111377716064453
n_id_58 ::: 15.974578857421875
n_id_57 ::: 32.48973083496094
n_id_56 ::: 1.9354557991027832
n_id_54 ::: 1.9313064813613892
n_id_52 ::: 6.611245155334473
n_id_51 ::: 8.001832962036133
n_id_50 ::: 8.337850570678711
n_id_49 ::: 1.9313064813613892
n_id_48 ::: 1.9354557991027832
n_id_47 ::: 8.001832962036133
n_id_46 ::: 6.61124324798584
n_id_45 ::: 8.337848663330078
n_id_43 ::: 9.431024551391602
n_id_42 ::: 6.337107181549072
