Total No of Rooms: 3
single : room 1 : unknown room : [1217,1181] : contour_details : [1137 1160],[1138 1160],[1139 1161],[1140 1161],[1142 1163],[1143 1163],[1144 1164],[1145 1164],[1146 1165],[1147 1165],[1148 1166],[1149 1166],[1150 1167],[1151 1167],[1153 1169],[1154 1169],[1155 1170],[1156 1170],[1157 1171],[1158 1171],[1159 1172],[1160 1172],[1161 1173],[1162 1173],[1164 1175],[1165 1175],[1166 1176],[1167 1176],[1168 1177],[1169 1177],[1170 1178],[1171 1178],[1172 1179],[1173 1179],[1175 1181],[1176 1181],[1177 1182],[1178 1182],[1179 1183],[1180 1183],[1181 1184],[1182 1184],[1183 1185],[1184 1185],[1186 1187],[1187 1187],[1188 1188],[1189 1188],[1190 1189],[1191 1189],[1192 1190],[1193 1190],[1194 1191],[1195 1191],[1197 1193],[1198 1193],[1199 1194],[1200 1194],[1201 1195],[1202 1195],[1203 1196],[1204 1196],[1205 1197],[1206 1197],[1208 1199],[1209 1199],[1210 1200],[1211 1200],[1212 1201],[1213 1201],[1214 1202],[1215 1202],[1216 1203],[1217 1203],[1219 1205],[1220 1205],[1221 1206],[1222 1206],[1223 1207],[1224 1207],[1225 1208],[1226 1208],[1227 1209],[1228 1209],[1230 1211],[1231 1211],[1232 1212],[1233 1212],[1234 1213],[1235 1213],[1236 1214],[1237 1214],[1238 1215],[1239 1215],[1241 1217],[1242 1217],[1243 1218],[1244 1218],[1245 1219],[1246 1219],[1247 1220],[1248 1220],[1250 1222],[1251 1222],[1252 1223],[1253 1223],[1254 1224],[1255 1224],[1256 1225],[1257 1225],[1258 1226],[1258 1160]

single : room 2 : unknown room : [1320,1538] : contour_details : [1123 1378],[1122 1379],[1122 1482],[1123 1483],[1123 1525],[1124 1526],[1124 1613],[1125 1614],[1125 1657],[1126 1658],[1155 1658],[1156 1657],[1155 1656],[1155 1655],[1154 1654],[1154 1653],[1153 1652],[1153 1651],[1152 1650],[1152 1649],[1150 1647],[1150 1646],[1149 1645],[1149 1644],[1148 1643],[1148 1642],[1146 1640],[1146 1639],[1145 1638],[1145 1637],[1144 1636],[1144 1635],[1143 1634],[1144 1633],[1492 1633],[1493 1632],[1493 1409],[1492 1408],[1357 1408],[1356 1409],[1356 1413],[1355 1414],[1355 1422],[1354 1423],[1354 1432],[1353 1433],[1353 1441],[1352 1442],[1352 1450],[1351 1451],[1351 1460],[1350 1461],[1350 1469],[1349 1470],[1349 1478],[1348 1479],[1348 1488],[1347 1489],[1347 1491],[1346 1492],[1338 1492],[1337 1491],[1318 1491],[1317 1490],[1298 1490],[1297 1489],[1277 1489],[1276 1488],[1257 1488],[1256 1487],[1237 1487],[1236 1486],[1216 1486],[1215 1485],[1196 1485],[1195 1484],[1175 1484],[1174 1483],[1155 1483],[1154 1482],[1140 1482],[1139 1481],[1139 1379],[1138 1378]

open : plan 1-room 3 : diningroom : [838, 1982] : contour_details : [ 953 1668],[ 954 1667],[ 957 1670],[ 957 1671],[ 959 1673],[ 959 1674],[ 962 1677],[ 962 1678],[ 964 1680],[ 964 1681],[ 966 1683],[ 966 1684],[ 969 1687],[ 969 1688],[ 971 1690],[ 971 1691],[ 974 1694],[ 974 1695],[ 976 1697],[ 976 1698],[ 979 1701],[ 979 1702],[ 981 1704],[ 981 1705],[ 983 1707],[ 983 1708],[ 986 1711],[ 986 1712],[ 988 1714],[ 988 1715],[ 991 1718],[ 991 1719],[ 993 1721],[ 993 1722],[ 995 1724],[ 995 1725],[ 998 1728],[ 998 1729],[1000 1731],[1000 1732],[1003 1735],[1003 1736],[1005 1738],[1005 1739],[1008 1742],[1008 1743],[1010 1745],[1010 1746],[1012 1748],[1012 1749],[1015 1752],[1015 1753],[1017 1755],[1017 1756],[1020 1759],[1020 1760],[1022 1762],[1022 1763],[1024 1765],[1024 1766],[1027 1769],[1027 1770],[1029 1772],[1029 1773],[1032 1776],[1032 1777],[1034 1779],[1034 1780],[1037 1783],[1037 1784],[1039 1786],[1039 1787],[1041 1789],[1041 1790],[1044 1793],[1044 1794],[1046 1796],[1046 1797],[1049 1800],[1049 1801],[1051 1803],[1051 1804],[1053 1806],[1053 1807],[1056 1810],[1056 1811],[1058 1813],[1058 1814],[1061 1817],[1061 1818],[1063 1820],[1063 1821],[1066 1824],[1066 1825],[1068 1827],[1068 1828],[1070 1830],[1070 1831],[1073 1834],[1073 1835],[1075 1837],[1075 1838],[1078 1841],[1078 1842],[1080 1844],[1080 1845],[1082 1847],[1082 1848],[1085 1851],[1085 1852],[1087 1854],[1087 1855],[1090 1858],[1090 1859],[1092 1861],[1092 1862],[1095 1865],[1095 1866],[1097 1868],[1097 1869],[1099 1871],[1099 1872],[1102 1875],[1102 1876],[1104 1878],[1104 1879],[1107 1882],[1107 1883],[1109 1885],[1109 1886],[1111 1888],[1111 1889],[1114 1892],[1114 1893],[1116 1895],[1116 1896],[1119 1899],[1119 1900],[1120 1901],[1120 2275],[1119 2276],[1115 2276],[1114 2275],[ 984 2275],[ 983 2276],[ 813 2276],[ 812 2275],[ 610 2275],[ 609 2274],[ 609 1669],[ 610 1668]

open : plan 1-room 4 : livingroom : [1259, 1982] : contour_details : [1140 1255],[1141 1254],[1491 1254],[1492 1255],[1492 1631],[1491 1632],[1268 1632],[1267 1633],[1267 1650],[1268 1651],[1491 1651],[1492 1652],[1492 2274],[1491 2275],[1286 2275],[1285 2276],[1123 2276],[1122 2275],[1122 1281],[1123 1280],[1139 1280],[1140 1279]

open : plan 1-room 5 : linen : [1201, 1200] : contour_details : [1199 1200],[1200 1199],[1201 1199],[1202 1200],[1201 1201],[1200 1201]

open : plan 1-room 6 : kitchen : [876, 1390] : contour_details : [ 973 1015],[ 974 1014],[1070 1014],[1071 1015],[1071 1390],[ 888 1573],[ 889 1574],[ 889 1575],[ 892 1578],[ 892 1579],[ 894 1581],[ 894 1582],[ 896 1584],[ 896 1585],[ 899 1588],[ 899 1589],[ 901 1591],[ 901 1592],[ 904 1595],[ 904 1596],[ 906 1598],[ 906 1599],[ 908 1601],[ 908 1602],[ 911 1605],[ 911 1606],[ 913 1608],[ 913 1609],[ 916 1612],[ 916 1613],[ 918 1615],[ 918 1616],[ 921 1619],[ 921 1620],[ 923 1622],[ 923 1623],[ 925 1625],[ 925 1626],[ 928 1629],[ 928 1630],[ 930 1632],[ 930 1633],[ 933 1636],[ 933 1637],[ 935 1639],[ 935 1640],[ 937 1642],[ 937 1643],[ 940 1646],[ 940 1647],[ 942 1649],[ 942 1650],[ 945 1653],[ 945 1654],[ 947 1656],[ 947 1657],[ 950 1660],[ 950 1661],[ 952 1663],[ 952 1664],[ 953 1665],[ 952 1666],[ 610 1666],[ 609 1665],[ 609 1132],[ 610 1131],[ 972 1131],[ 973 1130]

open : plan 1-room 7 : up : [1083, 1573] : contour_details : [1126 1014],[1127 1013],[1237 1013],[1239 1015],[1259 1015],[1260 1016],[1260 1028],[1261 1029],[1274 1029],[1288 1015],[1491 1015],[1492 1016],[1492 1140],[1491 1141],[1481 1141],[1480 1142],[1480 1149],[1481 1150],[1491 1150],[1492 1151],[1492 1227],[1491 1228],[1278 1228],[1277 1227],[1277 1127],[1276 1126],[1260 1126],[1259 1127],[1259 1154],[1258 1155],[1130 1155],[1127 1158],[1129 1160],[1130 1160],[1132 1162],[1133 1162],[1134 1163],[1135 1163],[1136 1164],[1137 1164],[1139 1166],[1140 1166],[1141 1167],[1142 1167],[1143 1168],[1144 1168],[1146 1170],[1147 1170],[1148 1171],[1149 1171],[1151 1173],[1152 1173],[1153 1174],[1154 1174],[1156 1176],[1157 1176],[1158 1177],[1159 1177],[1161 1179],[1162 1179],[1163 1180],[1164 1180],[1166 1182],[1167 1182],[1168 1183],[1169 1183],[1171 1185],[1172 1185],[1173 1186],[1174 1186],[1176 1188],[1177 1188],[1178 1189],[1179 1189],[1181 1191],[1182 1191],[1184 1193],[1185 1193],[1186 1194],[1187 1194],[1189 1196],[1190 1196],[1191 1197],[1192 1197],[1194 1199],[1195 1199],[1196 1200],[1197 1200],[1199 1202],[1200 1202],[1201 1203],[1202 1203],[1204 1205],[1205 1205],[1206 1206],[1207 1206],[1209 1208],[1210 1208],[1211 1209],[1212 1209],[1214 1211],[1215 1211],[1216 1212],[1217 1212],[1219 1214],[1220 1214],[1221 1215],[1222 1215],[1224 1217],[1225 1217],[1226 1218],[1227 1218],[1229 1220],[1230 1220],[1231 1221],[1232 1221],[1234 1223],[1235 1223],[1236 1224],[1237 1224],[1239 1226],[1240 1226],[1241 1227],[1240 1228],[1121 1228],[1120 1229],[1120 1896],[1119 1897],[1118 1896],[1118 1895],[1116 1893],[1116 1892],[1114 1890],[1114 1889],[1111 1886],[1111 1885],[1109 1883],[1109 1882],[1106 1879],[1106 1878],[1104 1876],[1104 1875],[1102 1873],[1102 1872],[1099 1869],[1099 1868],[1097 1866],[1097 1865],[1094 1862],[1094 1861],[1092 1859],[1092 1858],[1089 1855],[1089 1854],[1087 1852],[1087 1851],[1085 1849],[1085 1848],[1082 1845],[1082 1844],[1080 1842],[1080 1841],[1077 1838],[1077 1837],[1075 1835],[1075 1834],[1073 1832],[1073 1831],[1070 1828],[1070 1827],[1068 1825],[1068 1824],[1065 1821],[1065 1820],[1063 1818],[1063 1817],[1060 1814],[1060 1813],[1058 1811],[1058 1810],[1056 1808],[1056 1807],[1053 1804],[1053 1803],[1051 1801],[1051 1800],[1048 1797],[1048 1796],[1046 1794],[1046 1793],[1044 1791],[1044 1790],[1041 1787],[1041 1786],[1039 1784],[1039 1783],[1036 1780],[1036 1779],[1034 1777],[1034 1776],[1031 1773],[1031 1772],[1029 1770],[1029 1769],[1027 1767],[1027 1766],[1024 1763],[1024 1762],[1022 1760],[1022 1759],[1019 1756],[1019 1755],[1017 1753],[1017 1752],[1015 1750],[1015 1749],[1012 1746],[1012 1745],[1010 1743],[1010 1742],[1007 1739],[1007 1738],[1005 1736],[1005 1735],[1002 1732],[1002 1731],[1000 1729],[1000 1728],[ 998 1726],[ 998 1725],[ 995 1722],[ 995 1721],[ 993 1719],[ 993 1718],[ 990 1715],[ 990 1714],[ 988 1712],[ 988 1711],[ 986 1709],[ 986 1708],[ 983 1705],[ 983 1704],[ 981 1702],[ 981 1701],[ 978 1698],[ 978 1697],[ 976 1695],[ 976 1694],[ 973 1691],[ 973 1690],[ 971 1688],[ 971 1687],[ 969 1685],[ 969 1684],[ 966 1681],[ 966 1680],[ 964 1678],[ 964 1677],[ 961 1674],[ 961 1673],[ 959 1671],[ 959 1670],[ 957 1668],[ 957 1667],[ 954 1664],[ 954 1663],[ 952 1661],[ 952 1660],[ 949 1657],[ 949 1656],[ 947 1654],[ 947 1653],[ 944 1650],[ 944 1649],[ 942 1647],[ 942 1646],[ 940 1644],[ 940 1643],[ 937 1640],[ 937 1639],[ 935 1637],[ 935 1636],[ 932 1633],[ 932 1632],[ 930 1630],[ 930 1629],[ 928 1627],[ 928 1626],[ 925 1623],[ 925 1622],[ 923 1620],[ 923 1619],[ 920 1616],[ 920 1615],[ 918 1613],[ 918 1612],[ 915 1609],[ 915 1608],[ 913 1606],[ 913 1605],[ 911 1603],[ 911 1602],[ 908 1599],[ 908 1598],[ 906 1596],[ 906 1595],[ 903 1592],[ 903 1591],[ 901 1589],[ 901 1588],[ 899 1586],[ 899 1585],[ 896 1582],[ 896 1581],[ 894 1579],[ 894 1578],[ 891 1575],[ 891 1574],[ 890 1573],[1073 1390],[1073 1015],[1074 1014]

