Window : [1888,2048],[2110,2048],[2110,2110],[1888,2110] : [1] 
Window : [739,2048],[1072,2048],[1072,2110],[739,2110] : [1] 
Window : [2402,2048],[2615,2048],[2615,2110],[2402,2110] : [1] 
Window : [1552,781],[1663,781],[1663,844],[1552,844] : [1] 
Window : [854,781],[1193,781],[1193,844],[854,844] : [1] 
Window : [1888,2048],[2093,2048],[2093,2110],[1888,2110] : [1] 
Window : [1480,2048],[1592,2048],[1592,2110],[1480,2110] : [1] 
