Total No of Rooms: 1
open : plan 1-room 1 : masterbedroom : [1230, 2000] : contour_details : [ 937 1679],[ 938 1678],[1460 1678],[1461 1679],[1461 1736],[1462 1737],[1520 1737],[1521 1738],[1521 2248],[1520 2249],[1463 2249],[1462 2250],[1462 2307],[1461 2308],[1451 2308],[1450 2309],[1450 2325],[1449 2326],[1023 2326],[1022 2325],[1022 2309],[1021 2308],[ 972 2308],[ 971 2307],[ 971 2038],[ 970 2037],[ 938 2037],[ 937 2036]

open : plan 1-room 2 : masterbath : [814, 1964] : contour_details : [ 630 1074],[ 631 1073],[ 889 1073],[ 890 1074],[ 890 1130],[ 891 1131],[ 934 1131],[ 935 1132],[ 935 2036],[ 934 2037],[ 909 2037],[ 908 2038],[ 908 2306],[ 907 2307],[ 646 2307],[ 645 2306],[ 645 2154],[ 646 2153],[ 805 2153],[ 806 2152],[ 806 2136],[ 805 2135],[ 646 2135],[ 645 2134],[ 645 1766],[ 646 1765],[ 790 1765],[ 791 1764],[ 791 1740],[ 790 1739],[ 691 1739],[ 690 1738],[ 690 1480],[ 691 1479],[ 820 1479],[ 821 1478],[ 821 1460],[ 820 1459],[ 690 1459],[ 689 1458],[ 689 1402],[ 688 1401],[ 631 1401],[ 630 1400]

open : plan 1-room 3 : laundry : [759, 868] : contour_details : [630 786],[631 785],[932 785],[933 786],[933 849],[934 850],[ 934 1045],[ 933 1046],[ 631 1046],[ 630 1045]

open : plan 1-room 4 : dn : [1109, 1357] : contour_details : [1174  771],[1175  770],[1187  770],[1188  771],[1188  785],[1189  786],[1504  786],[1505  787],[1505  986],[1504  987],[1381  987],[1380  988],[1380 1006],[1381 1007],[1504 1007],[1505 1008],[1505 1257],[1504 1258],[1292 1258],[1291 1257],[1291 1135],[1290 1134],[1269 1134],[1268 1133],[1268  900],[1267  899],[1249  899],[1248  900],[1248  943],[1247  944],[1185  944],[1184  945],[1184  958],[1183  959],[1183  972],[1182  973],[1182  986],[1181  987],[1181 1000],[1180 1001],[1180 1014],[1179 1015],[1179 1028],[1178 1029],[1178 1042],[1177 1043],[1177 1056],[1176 1057],[1176 1070],[1175 1071],[1175 1084],[1174 1085],[1174 1098],[1173 1099],[1173 1112],[1172 1113],[1172 1125],[1171 1126],[1171 1139],[1170 1140],[1170 1153],[1169 1154],[1169 1167],[1168 1168],[1168 1181],[1167 1182],[1167 1195],[1166 1196],[1166 1209],[1165 1210],[1165 1223],[1164 1224],[1164 1237],[1163 1238],[1163 1251],[1162 1252],[1162 1265],[1161 1266],[1161 1278],[1160 1279],[1160 1292],[1159 1293],[1159 1306],[1158 1307],[1158 1320],[1157 1321],[1157 1334],[1156 1335],[1156 1348],[1155 1349],[1155 1362],[1154 1363],[1154 1376],[1153 1377],[1153 1390],[1152 1391],[1152 1404],[1151 1405],[1151 1417],[1150 1418],[1151 1419],[1374 1419],[1375 1420],[1375 1431],[1376 1432],[1376 1444],[1377 1445],[1377 1457],[1378 1458],[1378 1470],[1379 1471],[1379 1483],[1380 1484],[1380 1496],[1381 1497],[1381 1509],[1380 1510],[1351 1510],[1350 1511],[1320 1511],[1319 1512],[1289 1512],[1288 1513],[1258 1513],[1257 1514],[1227 1514],[1226 1515],[1196 1515],[1195 1516],[1167 1516],[1166 1515],[1166 1506],[1165 1505],[1146 1505],[1145 1506],[1145 1676],[1144 1677],[ 938 1677],[ 937 1676],[ 937 1531],[ 938 1530],[ 966 1530],[ 967 1529],[967 916],[966 915],[936 915],[935 914],[935 851],[934 850],[934 786],[935 785],[967 785],[968 784],[981 784],[982 783],[996 783],[997 782],[1011  782],[1012  781],[1026  781],[1027  780],[1041  780],[1042  779],[1055  779],[1056  778],[1070  778],[1071  777],[1085  777],[1086  776],[1100  776],[1101  775],[1115  775],[1116  774],[1129  774],[1130  773],[1144  773],[1145  772],[1159  772],[1160  771]

open : plan 1-room 5 : bedroom 3 : [1308, 418] : contour_details : [1085  142],[1086  141],[1520  141],[1521  142],[1521  766],[1520  767],[1241  767],[1240  766],[1240  718],[1252  706],[1253  706],[1281  678],[1268  665],[1262  671],[1261  671],[1244  688],[1243  688],[1226  705],[1225  705],[1214  716],[1193  716],[1192  717],[1192  736],[1186  742],[1185  742],[1171  756],[1175  760],[1175  761],[1182  768],[1181  769],[1175  769],[1174  770],[1160  770],[1159  771],[1145  771],[1144  772],[1130  772],[1129  773],[1115  773],[1114  774],[1101  774],[1100  775],[1086  775],[1085  774]

open : plan 1-room 6 : bedroom 2 : [850, 417] : contour_details : [630 142],[631 141],[1065  141],[1066  142],[1066  662],[1067  663],[1082  663],[1083  664],[1083  775],[1082  776],[1071  776],[1070  777],[1056  777],[1055  778],[1041  778],[1040  779],[1027  779],[1026  780],[1012  780],[1011  781],[997 781],[996 782],[982 782],[981 783],[968 783],[967 782],[967 781],[966 780],[966 778],[965 777],[965 775],[964 774],[964 772],[963 771],[963 767],[964 766],[968 770],[981 757],[974 750],[973 750],[964 741],[963 741],[960 738],[960 718],[959 717],[938 717],[926 705],[925 705],[908 688],[907 688],[889 670],[888 670],[882 664],[873 673],[873 674],[869 678],[877 686],[878 686],[889 697],[890 697],[901 708],[902 708],[906 712],[906 713],[909 716],[909 717],[911 719],[911 766],[910 767],[631 767],[630 766]

