lin : [1695,1153] : [1655,1131,1735,1175] : confidence,dict,original_word,difference : [74,SG,liv,1]
cl : [951,2416] : [804,2401,1099,2432] : confidence,dict,original_word,difference : [87,SG,il,1]
cl : [2287,3211] : [2258,3198,2317,3224] : confidence,dict,original_word,difference : [85,DM,None,0]
ac : [2006,3656] : [1974,3640,2039,3672] : confidence,dict,original_word,difference : [80,SG,at,1]
No Text Detected
