n_id_503 ::: 468.0114440917969
n_id_500 ::: 19.44335174560547
n_id_499 ::: 47.36992645263672
n_id_498 ::: 72.55143737792969
n_id_496 ::: 122.94784545898438
n_id_491 ::: 383.2271728515625
n_id_476 ::: 22.908151626586914
n_id_448 ::: 776.4497680664062
n_id_392 ::: 1002.2747802734375
n_id_380 ::: 91.88252258300781
n_id_378 ::: 91.87212371826172
n_id_374 ::: 91.86246490478516
n_id_367 ::: 270.9681091308594
n_id_362 ::: 634.975341796875
n_id_350 ::: 634.9820556640625
n_id_338 ::: 634.9661254882812
n_id_323 ::: 96.67807006835938
n_id_322 ::: 60.4649658203125
n_id_317 ::: 719.9002685546875
n_id_304 ::: 96.67366790771484
n_id_303 ::: 60.467872619628906
n_id_298 ::: 719.9095458984375
n_id_285 ::: 61.23511505126953
n_id_284 ::: 106.67919158935547
n_id_276 ::: 61.4049072265625
n_id_275 ::: 106.68040466308594
n_id_270 ::: 889.778076171875
n_id_268 ::: 18.947206497192383
n_id_267 ::: 18.947206497192383
n_id_266 ::: 18.947202682495117
n_id_265 ::: 18.947202682495117
n_id_245 ::: 258.0461120605469
n_id_239 ::: 41.41323471069336
n_id_238 ::: 18.441354751586914
n_id_237 ::: 15.746678352355957
n_id_236 ::: 18.443328857421875
n_id_235 ::: 15.74866008758545
n_id_234 ::: 18.48331069946289
n_id_233 ::: 15.746678352355957
n_id_232 ::: 18.481332778930664
n_id_231 ::: 15.748671531677246
n_id_230 ::: 26.407482147216797
n_id_229 ::: 30.05986785888672
n_id_228 ::: 35.3591423034668
n_id_227 ::: 6.852451801300049
n_id_226 ::: 6.866144180297852
n_id_225 ::: 6.864345073699951
n_id_224 ::: 6.8637895584106445
n_id_223 ::: 30.08866310119629
n_id_222 ::: 124.36669921875
n_id_221 ::: 4.168586254119873
n_id_220 ::: 4.17104959487915
n_id_219 ::: 185.48776245117188
n_id_218 ::: 60.701904296875
n_id_217 ::: 72.03912353515625
n_id_216 ::: 10.532689094543457
n_id_215 ::: 15.748692512512207
n_id_214 ::: 15.750465393066406
n_id_213 ::: 15.742680549621582
n_id_212 ::: 15.742469787597656
n_id_211 ::: 15.786686897277832
n_id_210 ::: 15.788670539855957
n_id_209 ::: 10.572697639465332
n_id_208 ::: 400.38671875
n_id_207 ::: 14524.8154296875
n_id_206 ::: 7.427073955535889
n_id_205 ::: 104.22996520996094
n_id_204 ::: 28.43937873840332
n_id_203 ::: 28.43916893005371
n_id_202 ::: 28.395381927490234
n_id_201 ::: 28.395381927490234
n_id_198 ::: 76.23490905761719
n_id_192 ::: 76.23490905761719
n_id_188 ::: 10.11157512664795
n_id_187 ::: 220.98110961914062
n_id_185 ::: 274.691162109375
n_id_182 ::: 12.564778327941895
n_id_177 ::: 12.563904762268066
