n_id_182 ::: 25.70767593383789
n_id_181 ::: 43.67279052734375
n_id_180 ::: 43.67274475097656
n_id_179 ::: 55.50638198852539
n_id_178 ::: 25.707862854003906
n_id_177 ::: 48.6926155090332
n_id_175 ::: 43.67326354980469
n_id_174 ::: 44.5179557800293
n_id_173 ::: 55.14826583862305
n_id_172 ::: 43.67274475097656
n_id_171 ::: 42.25929641723633
n_id_170 ::: 49.949851989746094
n_id_169 ::: 47.02420425415039
n_id_72 ::: 68.1640625
n_id_71 ::: 19964.6796875
n_id_70 ::: 111.37738037109375
n_id_69 ::: 73.64370727539062
n_id_68 ::: 73.64241027832031
n_id_67 ::: 103.79206085205078
n_id_66 ::: 108.10480499267578
n_id_65 ::: 71.26476287841797
n_id_63 ::: 9.121941566467285
n_id_60 ::: 9.121429443359375
n_id_58 ::: 47.03971862792969
n_id_57 ::: 47.03971862792969
n_id_56 ::: 84.22994995117188
n_id_54 ::: 75.07292938232422
n_id_53 ::: 93.59940338134766
n_id_52 ::: 71.26754760742188
n_id_51 ::: 58.669456481933594
n_id_50 ::: 87.71805572509766
n_id_49 ::: 84.23365020751953
n_id_48 ::: 82.1117172241211
n_id_47 ::: 43.35374069213867
n_id_46 ::: 91.57553100585938
n_id_45 ::: 108.10594940185547
n_id_44 ::: 71.26424407958984
n_id_42 ::: 9.121952056884766
n_id_41 ::: 71.26424407958984
n_id_39 ::: 9.121129989624023
n_id_38 ::: 104.51637268066406
n_id_37 ::: 48.69142150878906
n_id_36 ::: 25.70751953125
n_id_35 ::: 43.67257308959961
n_id_34 ::: 34.791297912597656
n_id_33 ::: 52.012596130371094
n_id_32 ::: 44.51792526245117
n_id_31 ::: 34.79240036010742
n_id_30 ::: 5.407360076904297
n_id_28 ::: 27.895177841186523
n_id_27 ::: 5.407376289367676
n_id_25 ::: 34.792171478271484
n_id_24 ::: 53.84092330932617
n_id_23 ::: 71.26422119140625
n_id_22 ::: 82.1127700805664
n_id_21 ::: 83.12030792236328
n_id_20 ::: 57.79014205932617
n_id_19 ::: 58.669551849365234
n_id_18 ::: 9.12251091003418
n_id_15 ::: 51.53733825683594
n_id_14 ::: 51.54138946533203
n_id_13 ::: 64.22958374023438
n_id_12 ::: 54.71415328979492
n_id_11 ::: 198.4361572265625
n_id_10 ::: 338.4857482910156
n_id_9 ::: 102.9825668334961
n_id_8 ::: 143.86366271972656
n_id_7 ::: 338.4878234863281
n_id_6 ::: 102.98471069335938
n_id_5 ::: 143.8643341064453
n_id_3 ::: 47.02463150024414
