Window : [370,564],[407,564],[407,569],[370,569] : [1] 
Window : [380,302],[391,302],[391,404],[380,404] : [1] 
Window : [672,952],[822,952],[822,960],[672,960] : [1] 
Window : [607,35],[661,35],[661,46],[607,46] : [1] 
Window : [102,607],[151,607],[151,618],[102,618] : [1] 
Window : [833,356],[844,356],[844,412],[833,412] : [1] 
Window : [760,35],[815,35],[815,46],[760,46] : [1] 
Window : [361,419],[369,419],[369,511],[361,511] : [1] 
Window : [184,713],[285,713],[285,727],[184,727] : [1] 
Window : [5,402],[16,402],[16,440],[5,440] : [1] 
Window : [4,458],[16,458],[16,496],[4,496] : [1] 
Window : [5,514],[16,514],[16,552],[5,552] : [1] 
Window : [28,713],[169,713],[169,727],[28,727] : [1] 
Window : [96,72],[150,72],[150,83],[96,83] : [1] 
Window : [227,619],[264,619],[264,627],[227,627] : [1] 
Window : [241,72],[293,72],[293,78],[241,78] : [1] 
Window : [322,988],[620,988],[620,997],[322,997] : [1] 
