masterbedroom : [1083,126] : [989,117,1177,135] : confidence,dict,original_word,difference : [74,DM,None,0]
breakfast : [727,305] : [675,296,779,315] : confidence,dict,original_word,difference : [65,DM,None,0]
dn : [895,676] : [878,669,912,683] : confidence,dict,original_word,difference : [65,SG,on,1]
dining : [405,972] : [372,960,439,984] : confidence,dict,original_word,difference : [86,DM,None,0]
garage : [1066,1266] : [1027,1257,1105,1276] : confidence,dict,original_word,difference : [83,DM,None,0]
up : [553,1290] : [540,1281,567,1300] : confidence,dict,original_word,difference : [86,DM,None,0]
storage : [502,1390] : [460,1379,545,1401] : confidence,dict,original_word,difference : [74,DM,None,0]
foyer : [613,1540] : [585,1528,641,1552] : confidence,dict,original_word,difference : [83,DM,None,0]
library : [401,1596] : [367,1585,435,1608] : confidence,dict,original_word,difference : [87,DM,None,0]
porch : [608,1759] : [576,1747,640,1771] : confidence,dict,original_word,difference : [87,DM,None,0]
No Text Detected
