bed : [2256,789] : [2183,756,2329,823] : confidence,dict,original_word,difference : [88,DM,None,0]
bedroom : [979,1117] : [793,1084,1166,1151] : confidence,dict,original_word,difference : [88,DM,None,0]
ac : [2052,1159] : [2019,1140,2086,1178] : confidence,dict,original_word,difference : [71,DM,None,0]
landing : [1952,1511] : [1860,1485,2045,1537] : confidence,dict,original_word,difference : [90,DM,None,0]
bedroom : [979,1727] : [793,1694,1166,1761] : confidence,dict,original_word,difference : [91,DM,None,0]
bedroom : [2474,1727] : [2288,1694,2661,1761] : confidence,dict,original_word,difference : [93,DM,None,0]
bath : [1654,1816] : [1601,1796,1707,1836] : confidence,dict,original_word,difference : [90,DM,None,0]
void : [1981,1893] : [1930,1873,2033,1913] : confidence,dict,original_word,difference : [94,DM,None,0]
No Text Detected
