n_id_237 ::: 7.790905475616455
n_id_236 ::: 28.607776641845703
n_id_235 ::: 16.710996627807617
n_id_234 ::: 30.74459457397461
n_id_233 ::: 7.7909159660339355
n_id_232 ::: 16.710996627807617
n_id_231 ::: 16.710996627807617
n_id_229 ::: 57.43077087402344
n_id_228 ::: 36.859317779541016
n_id_227 ::: 36.85932540893555
n_id_226 ::: 38.320194244384766
n_id_225 ::: 37.94244384765625
n_id_224 ::: 38.79998779296875
n_id_223 ::: 42.687355041503906
n_id_221 ::: 37.40000915527344
n_id_220 ::: 33.55994415283203
n_id_219 ::: 38.80000305175781
n_id_218 ::: 57.230743408203125
n_id_216 ::: 24.599990844726562
n_id_215 ::: 38.80000305175781
n_id_214 ::: 38.286746978759766
n_id_213 ::: 36.84108352661133
n_id_212 ::: 22.59998321533203
n_id_211 ::: 33.55995178222656
n_id_208 ::: 37.400054931640625
n_id_207 ::: 24.600013732910156
n_id_206 ::: 33.797733306884766
n_id_205 ::: 42.68720626831055
n_id_203 ::: 26.378772735595703
n_id_202 ::: 41.033836364746094
n_id_201 ::: 36.84103012084961
n_id_200 ::: 33.5599250793457
n_id_199 ::: 22.599994659423828
n_id_198 ::: 33.86630630493164
n_id_197 ::: 42.708984375
n_id_194 ::: 37.94241714477539
n_id_193 ::: 18.669363021850586
n_id_192 ::: 54.62793731689453
n_id_190 ::: 41.03387451171875
n_id_189 ::: 38.800048828125
n_id_188 ::: 37.40008544921875
n_id_187 ::: 33.55992889404297
n_id_186 ::: 24.600006103515625
n_id_185 ::: 16.800018310546875
n_id_184 ::: 36.47037887573242
n_id_182 ::: 15.581816673278809
n_id_181 ::: 28.607751846313477
n_id_180 ::: 7.790908336639404
n_id_179 ::: 29.9300479888916
n_id_178 ::: 16.711009979248047
n_id_177 ::: 30.744529724121094
n_id_176 ::: 15.581816673278809
n_id_175 ::: 29.952369689941406
n_id_174 ::: 7.790908336639404
n_id_173 ::: 16.711009979248047
n_id_172 ::: 16.711009979248047
n_id_170 ::: 57.43074035644531
n_id_169 ::: 36.84103012084961
n_id_168 ::: 36.84103012084961
n_id_167 ::: 38.320247650146484
n_id_166 ::: 42.55794906616211
n_id_165 ::: 41.03387451171875
n_id_164 ::: 16.800018310546875
n_id_163 ::: 31.248714447021484
n_id_162 ::: 16.800018310546875
n_id_161 ::: 22.5999755859375
n_id_153 ::: 63.4375
n_id_145 ::: 8.129525184631348
n_id_144 ::: 7.8171186447143555
n_id_143 ::: 1.6329030990600586
n_id_142 ::: 1.629252552986145
n_id_141 ::: 10.323678970336914
n_id_140 ::: 2.291227102279663
n_id_139 ::: 2.6929168701171875
n_id_138 ::: 30.751365661621094
n_id_137 ::: 0.3268025815486908
n_id_136 ::: 2.720374822616577
n_id_135 ::: 2.3463661670684814
n_id_134 ::: 10.304878234863281
n_id_133 ::: 7.842576026916504
n_id_131 ::: 8.129525184631348
n_id_130 ::: 7.8171186447143555
n_id_129 ::: 1.6329030990600586
n_id_128 ::: 1.629252552986145
n_id_127 ::: 10.323678970336914
n_id_126 ::: 2.291227102279663
n_id_125 ::: 2.6929168701171875
n_id_124 ::: 30.751365661621094
n_id_123 ::: 0.3268025815486908
n_id_122 ::: 2.720374822616577
n_id_121 ::: 2.3463661670684814
n_id_120 ::: 10.304878234863281
n_id_119 ::: 7.842576026916504
n_id_102 ::: 74.55850982666016
n_id_99 ::: 74.55850982666016
n_id_51 ::: 0
n_id_35 ::: 41.56081008911133
n_id_31 ::: 39.5272331237793
n_id_27 ::: 39.5272331237793
n_id_23 ::: 39.52724075317383
n_id_19 ::: 39.52724838256836
n_id_15 ::: 39.52724075317383
n_id_11 ::: 46.5748291015625
n_id_7 ::: 43.19155502319336
