Window : [487,2499],[491,2499],[491,2506],[487,2506] : [1] 
Window : [1771,1066],[1776,1066],[1776,1069],[1771,1069] : [1] 
Window : [725,1723],[1444,1723],[1444,1733],[725,1733] : [1] 
Window : [480,998],[485,998],[485,1060],[480,1060] : [1] 
Window : [714,1442],[726,1442],[726,1724],[714,1724] : [1] 
Window : [725,1726],[1444,1726],[1444,1733],[725,1733] : [1] 
Window : [553,1561],[585,1561],[585,1564],[553,1564] : [1] 
Window : [1495,1100],[1526,1100],[1526,1104],[1495,1104] : [1] 
Window : [829,1600],[853,1600],[853,1607],[829,1607] : [1] 
