n_id_861 ::: 291.988037109375
n_id_852 ::: 2637.656005859375
n_id_849 ::: 61.521270751953125
n_id_848 ::: 92.73001861572266
n_id_847 ::: 90.7525863647461
n_id_846 ::: 84.44983673095703
n_id_845 ::: 53.198028564453125
n_id_844 ::: 75.6247787475586
n_id_843 ::: 97.18250274658203
n_id_808 ::: 2861.298095703125
n_id_804 ::: 28.701045989990234
n_id_802 ::: 21.8156795501709
n_id_790 ::: 30.04108428955078
n_id_789 ::: 12.882721900939941
n_id_788 ::: 44.82988739013672
n_id_786 ::: 22.03994369506836
n_id_764 ::: 15.286344528198242
n_id_759 ::: 44.823760986328125
n_id_758 ::: 30.040874481201172
n_id_756 ::: 20.9520263671875
n_id_744 ::: 3.8472366333007812
n_id_743 ::: 23.666845321655273
n_id_742 ::: 7.548730850219727
n_id_741 ::: 3.822828769683838
n_id_740 ::: 8.866619110107422
n_id_739 ::: 6.126860618591309
n_id_738 ::: 6.132484436035156
n_id_737 ::: 4.591819763183594
n_id_736 ::: 15.904147148132324
n_id_735 ::: 7.649499416351318
n_id_734 ::: 4.0806427001953125
n_id_733 ::: 3.7293167114257812
n_id_732 ::: 7.339134693145752
n_id_731 ::: 4.072155952453613
n_id_730 ::: 5.316074848175049
n_id_729 ::: 3.841679096221924
n_id_728 ::: 5.705643177032471
n_id_727 ::: 6.201549053192139
n_id_726 ::: 5.813486576080322
n_id_725 ::: 12.42273998260498
n_id_724 ::: 3.2405378818511963
n_id_723 ::: 4.95025634765625
n_id_722 ::: 10.682811737060547
n_id_721 ::: 8.106056213378906
n_id_720 ::: 5.0925469398498535
n_id_719 ::: 4.286097526550293
n_id_718 ::: 3.574432611465454
n_id_717 ::: 11.749307632446289
n_id_716 ::: 8.427650451660156
n_id_715 ::: 14.81482982635498
n_id_714 ::: 7.142480373382568
n_id_712 ::: 3.8501334190368652
n_id_711 ::: 23.667646408081055
n_id_710 ::: 7.546540260314941
n_id_709 ::: 3.821913003921509
n_id_708 ::: 8.86534595489502
n_id_707 ::: 6.129549026489258
n_id_706 ::: 6.133420944213867
n_id_705 ::: 4.591117858886719
n_id_704 ::: 15.903104782104492
n_id_703 ::: 7.650280952453613
n_id_702 ::: 7.346189975738525
n_id_701 ::: 4.081738471984863
n_id_700 ::: 3.7319772243499756
n_id_699 ::: 6.864428520202637
n_id_698 ::: 7.338836669921875
n_id_697 ::: 4.072024345397949
n_id_696 ::: 6.867210865020752
n_id_695 ::: 2.7019035816192627
n_id_694 ::: 13.460556030273438
n_id_693 ::: 5.656580448150635
n_id_692 ::: 7.429450035095215
n_id_691 ::: 8.473123550415039
n_id_690 ::: 6.281561851501465
n_id_689 ::: 5.314925670623779
n_id_688 ::: 8.923171997070312
n_id_687 ::: 7.516104221343994
n_id_686 ::: 3.844022512435913
n_id_685 ::: 8.871573448181152
n_id_684 ::: 5.707710266113281
n_id_683 ::: 6.088503360748291
n_id_682 ::: 4.271564483642578
n_id_681 ::: 6.202038764953613
n_id_680 ::: 5.809804916381836
n_id_679 ::: 5.814720630645752
n_id_678 ::: 12.421792030334473
n_id_677 ::: 3.238313913345337
n_id_676 ::: 4.950544834136963
n_id_675 ::: 10.683799743652344
n_id_674 ::: 8.104378700256348
n_id_673 ::: 5.0917067527771
n_id_672 ::: 4.286423206329346
n_id_671 ::: 3.572036027908325
n_id_670 ::: 11.749714851379395
n_id_669 ::: 8.428728103637695
n_id_668 ::: 14.81583309173584
n_id_667 ::: 7.139186859130859
n_id_665 ::: 7.344438076019287
n_id_664 ::: 3.7291905879974365
n_id_663 ::: 6.865643501281738
n_id_662 ::: 7.337491989135742
n_id_661 ::: 4.073399066925049
n_id_660 ::: 3.7313663959503174
n_id_659 ::: 6.866518974304199
n_id_658 ::: 2.7001984119415283
n_id_657 ::: 3.841984987258911
n_id_656 ::: 8.87275218963623
n_id_649 ::: 14.645545959472656
n_id_648 ::: 36.75953674316406
n_id_647 ::: 7.327335834503174
n_id_646 ::: 38.21564865112305
n_id_645 ::: 29.027984619140625
n_id_644 ::: 14.645545959472656
n_id_643 ::: 20.480514526367188
n_id_642 ::: 20.480514526367188
n_id_641 ::: 7.327335834503174
n_id_640 ::: 38.21589660644531
n_id_639 ::: 92.49726867675781
n_id_638 ::: 83.17232513427734
n_id_637 ::: 83.1723403930664
n_id_636 ::: 84.32102966308594
n_id_635 ::: 83.73558807373047
n_id_634 ::: 76.30194091796875
n_id_633 ::: 89.05928039550781
n_id_622 ::: 14.64659309387207
n_id_621 ::: 20.481136322021484
n_id_620 ::: 20.482236862182617
n_id_619 ::: 7.329350471496582
n_id_618 ::: 42.052635192871094
n_id_617 ::: 29.026580810546875
n_id_616 ::: 14.645546913146973
n_id_615 ::: 20.482236862182617
n_id_614 ::: 7.329350471496582
n_id_613 ::: 38.21417999267578
n_id_612 ::: 100.9234390258789
n_id_611 ::: 90.75507354736328
n_id_610 ::: 90.75486755371094
n_id_609 ::: 92.00958251953125
n_id_608 ::: 91.37140655517578
n_id_607 ::: 83.26190185546875
n_id_606 ::: 97.17573547363281
n_id_605 ::: 92.00958251953125
n_id_604 ::: 83.26190185546875
n_id_603 ::: 57.8160400390625
n_id_602 ::: 84.10523986816406
n_id_601 ::: 75.6234130859375
n_id_600 ::: 100.92545318603516
n_id_597 ::: 14.645424842834473
n_id_596 ::: 35.01819610595703
n_id_595 ::: 7.327275276184082
n_id_594 ::: 26.48737335205078
n_id_593 ::: 20.481077194213867
n_id_592 ::: 29.0291690826416
n_id_591 ::: 14.645424842834473
n_id_590 ::: 26.48737335205078
n_id_589 ::: 7.327275276184082
n_id_588 ::: 33.54873275756836
n_id_587 ::: 20.481077194213867
n_id_586 ::: 101.33785247802734
n_id_585 ::: 92.73002624511719
n_id_584 ::: 62.196044921875
n_id_583 ::: 92.72801208496094
n_id_582 ::: 62.194091796875
n_id_581 ::: 91.37364196777344
n_id_580 ::: 39.792701721191406
n_id_579 ::: 101.33795166015625
n_id_578 ::: 92.72801208496094
n_id_577 ::: 62.194091796875
n_id_576 ::: 69.0042724609375
n_id_575 ::: 62.194091796875
n_id_574 ::: 53.19805908203125
n_id_571 ::: 14.645421981811523
n_id_570 ::: 20.481088638305664
n_id_569 ::: 20.481088638305664
n_id_568 ::: 7.327305316925049
n_id_567 ::: 36.760990142822266
n_id_566 ::: 20.481088638305664
n_id_565 ::: 29.027320861816406
n_id_564 ::: 14.645421981811523
n_id_563 ::: 26.48737144470215
n_id_562 ::: 7.327305316925049
n_id_561 ::: 42.05143356323242
n_id_560 ::: 100.92496490478516
n_id_559 ::: 90.7528305053711
n_id_558 ::: 90.75444793701172
n_id_557 ::: 92.0111083984375
n_id_556 ::: 91.37358093261719
n_id_555 ::: 83.26197814941406
n_id_554 ::: 97.18241882324219
n_id_537 ::: 7.344155311584473
n_id_536 ::: 4.081529140472412
n_id_535 ::: 3.7294225692749023
n_id_534 ::: 6.863731861114502
n_id_533 ::: 7.340628623962402
n_id_532 ::: 4.072160243988037
n_id_531 ::: 3.732974052429199
n_id_530 ::: 6.868436813354492
n_id_529 ::: 2.7010128498077393
n_id_528 ::: 13.46125316619873
n_id_527 ::: 8.472421646118164
n_id_526 ::: 6.281643867492676
n_id_525 ::: 5.3165082931518555
n_id_524 ::: 8.925615310668945
n_id_523 ::: 3.842010259628296
n_id_522 ::: 8.873766899108887
n_id_521 ::: 6.088324546813965
n_id_520 ::: 4.270312309265137
n_id_519 ::: 6.2049150466918945
n_id_518 ::: 5.809159755706787
n_id_517 ::: 4.287485122680664
n_id_516 ::: 3.5738372802734375
n_id_515 ::: 8.428160667419434
n_id_514 ::: 14.81692886352539
n_id_512 ::: 3.851069688796997
n_id_511 ::: 23.66697120666504
n_id_510 ::: 7.5486860275268555
n_id_509 ::: 3.8218462467193604
n_id_508 ::: 8.867424964904785
n_id_507 ::: 6.130782604217529
n_id_506 ::: 6.131959438323975
n_id_505 ::: 4.591823577880859
n_id_504 ::: 15.904474258422852
n_id_503 ::: 7.648381233215332
n_id_502 ::: 7.342854022979736
n_id_501 ::: 4.080993175506592
n_id_500 ::: 3.729192018508911
n_id_499 ::: 6.863168716430664
n_id_498 ::: 7.337675094604492
n_id_497 ::: 4.074996471405029
n_id_496 ::: 6.865926742553711
n_id_495 ::: 2.7014567852020264
n_id_494 ::: 13.460782051086426
n_id_493 ::: 5.656625747680664
n_id_492 ::: 7.429558753967285
n_id_491 ::: 8.47171401977539
n_id_490 ::: 6.280209064483643
n_id_489 ::: 5.315887928009033
n_id_488 ::: 8.924643516540527
n_id_487 ::: 7.5146050453186035
n_id_486 ::: 3.8423495292663574
n_id_485 ::: 8.873613357543945
n_id_484 ::: 5.70714807510376
n_id_483 ::: 6.087107181549072
n_id_482 ::: 4.270624160766602
n_id_481 ::: 6.2042951583862305
n_id_480 ::: 5.810052394866943
n_id_479 ::: 5.814322471618652
n_id_478 ::: 12.423643112182617
n_id_477 ::: 3.239837408065796
n_id_476 ::: 4.950620651245117
n_id_475 ::: 10.683140754699707
n_id_474 ::: 8.106793403625488
n_id_473 ::: 5.092780113220215
n_id_472 ::: 4.285723686218262
n_id_471 ::: 3.5733513832092285
n_id_470 ::: 11.748462677001953
n_id_469 ::: 8.42996597290039
n_id_468 ::: 14.814953804016113
n_id_467 ::: 7.140913963317871
n_id_465 ::: 7.345310688018799
n_id_464 ::: 3.7304508686065674
n_id_463 ::: 6.863296031951904
n_id_462 ::: 7.338319301605225
n_id_461 ::: 4.075328350067139
n_id_460 ::: 3.7312633991241455
n_id_459 ::: 6.8677659034729
n_id_458 ::: 2.7003560066223145
n_id_457 ::: 3.8413500785827637
n_id_456 ::: 8.871105194091797
n_id_455 ::: 7.139315605163574
n_id_453 ::: 7.344939231872559
n_id_452 ::: 4.080095291137695
n_id_451 ::: 3.73042631149292
n_id_450 ::: 6.868924617767334
n_id_449 ::: 7.341847896575928
n_id_448 ::: 4.072624683380127
n_id_447 ::: 3.7322680950164795
n_id_446 ::: 6.867166042327881
n_id_445 ::: 2.7031548023223877
n_id_444 ::: 13.460819244384766
n_id_443 ::: 5.6543450355529785
n_id_442 ::: 8.474767684936523
n_id_441 ::: 3.8380143642425537
n_id_440 ::: 8.869216918945312
n_id_439 ::: 6.089167594909668
n_id_438 ::: 4.274397373199463
n_id_437 ::: 6.204324245452881
n_id_436 ::: 5.808130264282227
n_id_435 ::: 11.746516227722168
n_id_433 ::: 13.461481094360352
n_id_432 ::: 5.655328273773193
n_id_431 ::: 7.428274154663086
n_id_430 ::: 8.472667694091797
n_id_429 ::: 6.282773971557617
n_id_428 ::: 5.316185474395752
n_id_427 ::: 8.921884536743164
n_id_426 ::: 7.516531467437744
n_id_425 ::: 6.089100360870361
n_id_424 ::: 4.270367622375488
n_id_423 ::: 6.2016448974609375
n_id_422 ::: 5.8094072341918945
n_id_421 ::: 8.429769515991211
n_id_420 ::: 14.81400203704834
n_id_419 ::: 7.1399149894714355
n_id_411 ::: 13.461074829101562
n_id_410 ::: 5.655399799346924
n_id_409 ::: 7.4287028312683105
n_id_408 ::: 8.473673820495605
n_id_407 ::: 6.283107757568359
n_id_406 ::: 5.3150787353515625
n_id_405 ::: 8.924895286560059
n_id_404 ::: 7.513961315155029
n_id_403 ::: 6.087873935699463
n_id_402 ::: 4.272071838378906
n_id_401 ::: 6.201427936553955
n_id_400 ::: 5.808719158172607
n_id_399 ::: 8.428665161132812
n_id_398 ::: 14.815168380737305
n_id_397 ::: 7.141340255737305
n_id_395 ::: 4.227550506591797
n_id_394 ::: 26.00078773498535
n_id_393 ::: 8.291877746582031
n_id_392 ::: 4.196377754211426
n_id_391 ::: 9.739002227783203
n_id_390 ::: 6.7313642501831055
n_id_389 ::: 6.7363481521606445
n_id_388 ::: 5.044097900390625
n_id_387 ::: 17.46957015991211
n_id_386 ::: 8.406200408935547
n_id_385 ::: 8.070642471313477
n_id_384 ::: 4.483311176300049
n_id_383 ::: 4.098589897155762
n_id_382 ::: 7.538734436035156
n_id_381 ::: 8.061745643615723
n_id_380 ::: 4.473917007446289
n_id_379 ::: 4.098698139190674
n_id_378 ::: 7.541199207305908
n_id_377 ::: 2.967223644256592
n_id_376 ::: 14.787443161010742
n_id_375 ::: 6.213254928588867
n_id_374 ::: 8.162282943725586
n_id_373 ::: 9.309489250183105
n_id_372 ::: 6.903822422027588
n_id_371 ::: 5.839909553527832
n_id_370 ::: 9.800276756286621
n_id_369 ::: 8.25512981414795
n_id_368 ::: 4.220554351806641
n_id_367 ::: 9.747586250305176
n_id_366 ::: 6.26634407043457
n_id_365 ::: 6.687923908233643
n_id_364 ::: 4.689584732055664
n_id_363 ::: 6.8132853507995605
n_id_362 ::: 6.380425453186035
n_id_361 ::: 6.684544563293457
n_id_360 ::: 4.702544212341309
n_id_359 ::: 6.382864952087402
n_id_358 ::: 13.647530555725098
n_id_357 ::: 3.558317184448242
n_id_356 ::: 5.440127372741699
n_id_355 ::: 11.733613014221191
n_id_354 ::: 8.90253734588623
n_id_353 ::: 5.595035076141357
n_id_352 ::: 4.708395004272461
n_id_351 ::: 3.924823045730591
n_id_350 ::: 12.90368938446045
n_id_349 ::: 9.256999969482422
n_id_348 ::: 16.271154403686523
n_id_347 ::: 7.8413848876953125
n_id_345 ::: 4.228723526000977
n_id_344 ::: 26.000999450683594
n_id_343 ::: 8.289514541625977
n_id_342 ::: 4.198209285736084
n_id_341 ::: 9.740939140319824
n_id_340 ::: 6.732180118560791
n_id_339 ::: 6.73557710647583
n_id_338 ::: 5.0458478927612305
n_id_337 ::: 17.469581604003906
n_id_336 ::: 8.404122352600098
n_id_335 ::: 8.065531730651855
n_id_334 ::: 4.485270977020264
n_id_333 ::: 4.097541332244873
n_id_332 ::: 7.537943363189697
n_id_331 ::: 8.063528060913086
n_id_330 ::: 4.475249767303467
n_id_329 ::: 4.096869468688965
n_id_328 ::: 7.543496608734131
n_id_327 ::: 2.9673991203308105
n_id_326 ::: 14.787886619567871
n_id_325 ::: 6.214564323425293
n_id_324 ::: 8.158613204956055
n_id_323 ::: 9.308356285095215
n_id_322 ::: 6.900654315948486
n_id_321 ::: 5.841086387634277
n_id_320 ::: 9.801324844360352
n_id_319 ::: 8.254637718200684
n_id_318 ::: 4.222010135650635
n_id_317 ::: 9.746967315673828
n_id_316 ::: 6.263679027557373
n_id_315 ::: 6.686964511871338
n_id_314 ::: 4.695448398590088
n_id_313 ::: 6.8129754066467285
n_id_312 ::: 6.379448890686035
n_id_311 ::: 6.686214923858643
n_id_310 ::: 4.702582836151123
n_id_309 ::: 6.384799480438232
n_id_308 ::: 13.647177696228027
n_id_307 ::: 3.5563182830810547
n_id_306 ::: 5.438884258270264
n_id_305 ::: 11.733713150024414
n_id_304 ::: 8.903888702392578
n_id_303 ::: 5.593039512634277
n_id_302 ::: 4.708556652069092
n_id_301 ::: 3.9226157665252686
n_id_300 ::: 12.905220031738281
n_id_299 ::: 9.256999015808105
n_id_298 ::: 16.271320343017578
n_id_297 ::: 7.84516716003418
n_id_295 ::: 4.2292327880859375
n_id_294 ::: 25.998973846435547
n_id_293 ::: 8.287534713745117
n_id_292 ::: 4.19935941696167
n_id_291 ::: 17.467159271240234
n_id_290 ::: 8.404582023620605
n_id_282 ::: 22.212900161743164
n_id_281 ::: 6.486680507659912
n_id_280 ::: 10.36035442352295
n_id_276 ::: 11.68238353729248
n_id_275 ::: 12.169416427612305
n_id_274 ::: 10.531113624572754
n_id_273 ::: 6.9408979415893555
n_id_272 ::: 4.006179332733154
n_id_271 ::: 6.6098222732543945
n_id_270 ::: 10.529254913330078
n_id_269 ::: 12.167110443115234
n_id_268 ::: 6.935237407684326
n_id_267 ::: 11.681416511535645
n_id_266 ::: 6.786174297332764
n_id_265 ::: 4.129851341247559
n_id_262 ::: 0.31812557578086853
n_id_259 ::: 6.617929458618164
n_id_258 ::: 0.9649786949157715
n_id_255 ::: 2.2072291374206543
n_id_254 ::: 15.352572441101074
n_id_250 ::: 0.6325209736824036
n_id_247 ::: 14.251620292663574
n_id_241 ::: 0.32850486040115356
n_id_240 ::: 2.8255441188812256
n_id_239 ::: 6.613685131072998
n_id_237 ::: 2.2020812034606934
n_id_236 ::: 4.902788162231445
n_id_235 ::: 12.091083526611328
n_id_233 ::: 0.6352202892303467
n_id_220 ::: 15.341571807861328
n_id_219 ::: 0.9687442183494568
n_id_218 ::: 1.057870626449585
n_id_217 ::: 13.195895195007324
n_id_216 ::: 12.104777336120605
n_id_215 ::: 4.907865047454834
n_id_213 ::: 2.9527058601379395
n_id_212 ::: 14.580195426940918
n_id_211 ::: 14.581245422363281
n_id_210 ::: 17.531614303588867
n_id_209 ::: 14.738511085510254
n_id_208 ::: 17.541767120361328
n_id_207 ::: 10.878433227539062
n_id_206 ::: 14.735562324523926
n_id_205 ::: 10.878313064575195
n_id_204 ::: 138.94996643066406
n_id_187 ::: 11.682684898376465
n_id_186 ::: 12.170167922973633
n_id_185 ::: 10.531670570373535
n_id_184 ::: 6.9421868324279785
n_id_183 ::: 4.006898880004883
n_id_182 ::: 6.609373092651367
n_id_181 ::: 10.530121803283691
n_id_180 ::: 12.16819953918457
n_id_179 ::: 6.935996055603027
n_id_178 ::: 11.681161880493164
n_id_177 ::: 6.7858686447143555
n_id_176 ::: 4.130802154541016
n_id_173 ::: 0.3204694986343384
n_id_170 ::: 6.617841720581055
n_id_169 ::: 0.9643932580947876
n_id_166 ::: 2.2071824073791504
n_id_165 ::: 15.352636337280273
n_id_161 ::: 0.6327326893806458
n_id_158 ::: 14.252082824707031
n_id_152 ::: 0.3287874758243561
n_id_151 ::: 2.826603412628174
n_id_150 ::: 6.612687110900879
n_id_148 ::: 2.2039215564727783
n_id_147 ::: 4.902768611907959
n_id_146 ::: 12.091706275939941
n_id_144 ::: 0.636051595211029
n_id_131 ::: 15.341856956481934
n_id_130 ::: 0.9665408730506897
n_id_129 ::: 1.058068037033081
n_id_128 ::: 13.197906494140625
n_id_127 ::: 12.106451034545898
n_id_126 ::: 4.907849311828613
n_id_124 ::: 2.952773332595825
n_id_123 ::: 14.579902648925781
n_id_122 ::: 14.581472396850586
n_id_121 ::: 17.530126571655273
n_id_120 ::: 14.73810863494873
n_id_119 ::: 17.539997100830078
n_id_118 ::: 10.877050399780273
n_id_117 ::: 14.735426902770996
n_id_116 ::: 10.87652587890625
n_id_115 ::: 138.94873046875
n_id_100 ::: 22.78559684753418
n_id_98 ::: 23.841201782226562
n_id_91 ::: 10.769354820251465
n_id_90 ::: 21.308486938476562
n_id_78 ::: 307.48583984375
n_id_75 ::: 22.213735580444336
n_id_74 ::: 6.487332820892334
n_id_73 ::: 10.363374710083008
n_id_70 ::: 22.21582794189453
n_id_68 ::: 10.362517356872559
n_id_46 ::: 16.190326690673828
n_id_44 ::: 16.19159698486328
n_id_41 ::: 34.69268035888672
n_id_39 ::: 34.69096374511719
n_id_33 ::: 6.865001678466797
n_id_32 ::: 6.868408679962158
n_id_14 ::: 0
