Wall : [1411,559],[1424,559],[1424,857],[1411,857] : [1] 
Wall : [1584,166],[1597,166],[1597,464],[1584,464] : [1] 
Wall : [1765,166],[1778,166],[1778,857],[1765,857] : [1] 
Wall : [1932,166],[1942,166],[1942,1122],[1932,1122] : [1] 
Wall : [1584,453],[1943,453],[1943,464],[1584,464] : [1] 
Wall : [993,559],[1779,559],[1779,569],[993,569] : [1] 
Wall : [381,402],[1005,402],[1005,412],[381,412] : [1] 
Wall : [709,402],[719,402],[719,687],[709,687] : [1] 
Wall : [994,340],[1004,340],[1004,687],[994,687] : [1] 
Wall : [116,361],[126,361],[126,786],[116,786] : [1] 
Wall : [115,528],[392,528],[392,538],[115,538] : [1] 
Wall : [115,361],[392,361],[392,371],[115,371] : [1] 
Wall : [1411,847],[1943,847],[1943,857],[1411,857] : [1] 
Wall : [846,166],[857,166],[857,412],[846,412] : [1] 
Wall : [993,166],[1005,166],[1005,237],[993,237] : [1] 
Wall : [115,776],[779,776],[779,786],[115,786] : [1] 
Wall : [708,678],[1005,678],[1005,687],[708,687] : [1] 
Wall : [846,166],[1943,166],[1943,175],[846,175] : [1] 
Wall : [510,402],[519,402],[519,786],[510,786] : [1] 
Wall : [382,361],[391,361],[391,538],[382,538] : [1] 
Wall : [769,678],[778,678],[778,786],[769,786] : [1] 
Wall : [1464,372],[1477,372],[1477,420],[1464,420] : [1] 
Wall : [1403,370],[1477,370],[1477,381],[1403,381] : [1] 
Wall : [1403,410],[1478,410],[1478,420],[1403,420] : [1] 
Wall : [1164,386],[1176,386],[1176,433],[1164,433] : [1] 
Wall : [1105,382],[1174,382],[1174,394],[1105,394] : [1] 
Wall : [1102,425],[1177,425],[1177,433],[1102,433] : [1] 
Wall : [1439,385],[1455,385],[1455,407],[1439,407] : [1] 
Wall : [1139,399],[1155,399],[1155,421],[1139,421] : [1] 
Wall : [877,567],[889,567],[889,614],[877,614] : [1] 
Wall : [842,560],[874,560],[874,573],[842,573] : [1] 
Wall : [814,604],[889,604],[889,614],[814,614] : [1] 
Wall : [851,580],[867,580],[867,601],[851,601] : [1] 
Wall : [1193,680],[1223,680],[1223,695],[1193,695] : [1] 
Wall : [1225,689],[1237,689],[1237,736],[1225,736] : [1] 
Wall : [1165,728],[1239,728],[1239,736],[1165,736] : [1] 
Wall : [1197,704],[1220,704],[1220,720],[1197,720] : [1] 
Wall : [753,1175],[763,1175],[763,1569],[753,1569] : [1] 
Wall : [1540,1175],[1550,1175],[1550,1569],[1540,1569] : [1] 
Wall : [1056,1519],[1053,1509],[995,1517],[997,1527] : [1] 
Wall : [1546,1569],[1549,1560],[1151,1490],[1148,1500] : [1] 
Wall : [975,1533],[972,1523],[932,1528],[935,1538] : [1] 
Wall : [1152,1253],[1155,1244],[755,1174],[752,1183] : [1] 
Wall : [1540,1184],[1537,1175],[1146,1243],[1149,1252] : [1] 
Wall : [752,1554],[809,1554],[809,1565],[752,1565] : [1] 
Wall : [958,1536],[955,1526],[897,1534],[899,1544] : [1] 
Wall : [965,1519],[1016,1519],[1016,1530],[965,1530] : [1] 
Wall : [1161,1502],[1158,1493],[1058,1506],[1061,1516] : [1] 
Wall : [854,1554],[851,1545],[753,1557],[756,1567] : [1] 
Wall : [900,1546],[897,1537],[839,1544],[842,1554] : [1] 
Wall : [1135,1403],[1166,1403],[1166,1418],[1135,1418] : [1] 
Wall : [1167,1412],[1179,1412],[1179,1459],[1167,1459] : [1] 
Wall : [1107,1449],[1182,1449],[1182,1459],[1107,1459] : [1] 
Wall : [1135,1426],[1142,1416],[1135,1411],[1128,1421] : [1] 
Wall : [1143,1425],[1159,1425],[1159,1446],[1143,1446] : [1] 
Wall : [1205,702],[1212,702],[1212,723],[1205,723] : [1] 
Wall : [847,587],[870,587],[870,594],[847,594] : [1] 
Wall : [1135,406],[1158,406],[1158,414],[1135,414] : [1] 
Wall : [1927,1117],[1939,1117],[1939,1121],[1927,1121] : [1] 
Wall : [873,600],[890,600],[890,604],[873,604] : [1] 
Wall : [870,574],[890,574],[890,579],[870,579] : [1] 
Wall : [814,574],[847,574],[847,579],[814,579] : [1] 
Wall : [1056,1519],[1061,1515],[1059,1507],[1053,1509] : [1] 
