Unknown : [193,367],[314,367],[314,428],[193,428] : [0.3] 
Unknown : [192,366],[313,366],[313,427],[192,427] : [0.3] 
Unknown : [193,366],[314,366],[314,427],[193,427] : [0.3] 
Unknown : [384,1369],[505,1369],[505,1430],[384,1430] : [0.3] 
Unknown : [53,1318],[174,1318],[174,1379],[53,1379] : [0.3] 
Unknown : [426,1285],[547,1285],[547,1346],[426,1346] : [0.3] 
Unknown : [225,834],[346,834],[346,895],[225,895] : [0.3] 
Unknown : [838,686],[959,686],[959,747],[838,747] : [0.3] 
Unknown : [884,686],[1005,686],[1005,747],[884,747] : [0.3] 
Unknown : [786,683],[907,683],[907,744],[786,744] : [0.3] 
Unknown : [700,696],[821,696],[821,757],[700,757] : [0.3] 
Unknown : [700,692],[821,692],[821,753],[700,753] : [0.3] 
Unknown : [33,196],[154,196],[154,257],[33,257] : [0.3] 
Unknown : [34,196],[155,196],[155,257],[34,257] : [0.3] 
