Total No of Rooms: 15
single : room 1 : unknown room : [2142,2062] : contour_details : [1888 1967],[1888 2064],[1889 2065],[1889 2075],[1888 2076],[1888 2158],[1987 2158],[1988 2159],[2050 2159],[2051 2158],[2398 2158],[2398 1967]

single : room 2 : unknown room : [2176,1601] : contour_details : [2136 1560],[2136 1642],[2217 1642],[2217 1560]

single : room 3 : unknown room : [2186,1498] : contour_details : [1982 1447],[1982 1548],[2397 1548],[2397 1456],[2309 1456],[2307 1454],[2307 1447]

single : room 4 : unknown room : [1862,1646] : contour_details : [1889 1404],[1889 1456],[1888 1457],[1887 1457],[1887 1474],[1885 1476],[1883 1474],[1883 1457],[1878 1457],[1878 1474],[1876 1476],[1874 1474],[1874 1457],[1685 1457],[1685 1963],[1875 1963],[1875 1672],[1877 1670],[1879 1672],[1879 1689],[1884 1689],[1884 1672],[1886 1670],[1888 1672],[1888 1752],[1893 1752],[1894 1753],[1972 1753],[1973 1752],[1978 1752],[1978 1445],[1980 1443],[2309 1443],[2311 1445],[2311 1452],[2396 1452],[2396 1404]

single : room 5 : unknown room : [1665,1255] : contour_details : [1792 1071],[1791 1072],[1466 1072],[1466 1181],[1465 1182],[1465 1317],[1466 1318],[1466 1445],[1757 1445],[1757 1357],[1758 1356],[1769 1356],[1770 1357],[1770 1445],[1825 1445],[1825 1407],[1824 1406],[1824 1395],[1825 1394],[1876 1394],[1876 1185],[1771 1185],[1770 1184],[1770 1174],[1771 1173],[1876 1173],[1876 1073],[1870 1073],[1869 1072],[1869 1071]

single : room 6 : bed : [2240,777] : contour_details : [2093 614],[2093 976],[2092 977],[2091 977],[2091 1053],[2092 1054],[2092 1060],[2184 1060],[2184 955],[2183 954],[2183 944],[2184 943],[2255 943],[2256 944],[2256 954],[2255 955],[2197 955],[2197 1060],[2398 1060],[2398 956],[2338 956],[2337 955],[2337 943],[2338 942],[2398 942],[2398 851],[2397 850],[2397 713],[2398 712],[2398 614]

single : room 7 : bed : [1628,780] : contour_details : [1466 614],[1466 714],[1465 715],[1465 849],[1466 850],[1466 942],[1526 942],[1527 943],[1527 955],[1526 956],[1466 956],[1466 1060],[1668 1060],[1668 955],[1603 955],[1602 954],[1602 944],[1603 943],[1680 943],[1681 944],[1681 954],[1680 955],[1680 1060],[1770 1060],[1770 975],[1771 974],[1771 819],[1770 818],[1770 806],[1771 805],[1771 614]

single : room 8 : bath : [1990,782] : contour_details : [1898 613],[1898 822],[1897 823],[1871 823],[1870 822],[1870 819],[1865 819],[1864 818],[1796 818],[1795 819],[1784 819],[1784 976],[1783 977],[1783 1054],[1784 1054],[1785 1055],[1785 1060],[1789 1060],[1790 1059],[1869 1059],[1870 1060],[1888 1060],[1889 1061],[1889 1400],[2397 1400],[2397 1123],[2398 1122],[2398 1072],[1980 1072],[1979 1071],[1979 1061],[1980 1060],[2079 1060],[2079 975],[2080 974],[2080 969],[2018 969],[2017 968],[2017 957],[2018 956],[2029 956],[2029 912],[1888 912],[1888 956],[1899 956],[1900 957],[1900 968],[1899 969],[1876 969],[1875 968],[1875 957],[1876 956],[1876 912],[1875 911],[1875 900],[1876 899],[1876 895],[1877 894],[1887 894],[1888 895],[1888 899],[2080 899],[2080 614],[2057 614],[2056 613]

single : room 9 : unknown room : [1827,708] : contour_details : [1809 613],[1808 614],[1784 614],[1784 805],[1793 805],[1794 804],[1864 804],[1865 805],[1870 805],[1870 613]

single : room 10 : garage : [329,1734] : contour_details : [91 1456],[91 1457],[90 1458],[81 1458],[81 2021],[109 2021],[110 2020],[562 2020],[563 2021],[597 2021],[597 1546],[596 1545],[596 1463],[597 1462],[597 1457],[165 1457],[164 1456]

single : room 11 : unknown room : [507,1402] : contour_details : [516 1362],[515 1363],[418 1363],[418 1442],[597 1442],[597 1364],[586 1364],[585 1363],[585 1362]

single : room 12 : unknown room : [320,1321] : contour_details : [237 1202],[237 1226],[236 1227],[236 1396],[237 1397],[237 1442],[378 1442],[378 1399],[379 1398],[384 1398],[385 1399],[385 1442],[406 1442],[406 1363],[405 1362],[405 1351],[406 1350],[406 1281],[405 1280],[405 1209],[406 1208],[406 1202]

open : plan 1-room 13 : ens : [1063, 1692] : contour_details : [ 906 1564],[ 907 1563],[1165 1563],[1166 1564],[1166 1751],[1165 1752],[ 982 1752],[ 906 1676]

open : plan 1-room 14 : wc : [820, 1683] : contour_details : [ 814 1564],[ 815 1563],[ 863 1563],[ 864 1564],[ 864 1604],[ 865 1605],[ 892 1605],[ 893 1606],[ 893 1676],[ 894 1677],[ 905 1677],[ 981 1753],[ 981 1765],[ 982 1766],[1165 1766],[1166 1767],[1166 2156],[1165 2157],[1111 2157],[1110 2156],[ 831 2156],[ 830 2157],[ 798 2157],[ 797 2156],[ 797 1854],[ 796 1853],[ 795 1853],[ 794 1852],[ 794 1842],[ 793 1841],[ 792 1841],[ 791 1840],[ 791 1831],[ 790 1830],[ 789 1830],[ 788 1829],[ 788 1819],[ 787 1818],[ 786 1818],[ 785 1817],[ 785 1808],[ 784 1807],[ 783 1807],[ 782 1806],[ 782 1796],[ 781 1795],[ 780 1795],[ 779 1794],[ 779 1785],[ 778 1784],[ 777 1784],[ 776 1783],[ 776 1773],[ 775 1772],[ 774 1772],[ 773 1771],[ 773 1766],[ 774 1765],[ 782 1773],[ 784 1771],[ 785 1771],[ 792 1764],[ 787 1759],[ 787 1758],[ 772 1743],[ 772 1742],[ 762 1732],[ 762 1614],[ 763 1613],[ 813 1613],[ 814 1612]

open : plan 2-room 15 : ens : [2293, 1694] : contour_details : [2111 1562],[2112 1561],[2119 1561],[2120 1562],[2120 1698],[2121 1699],[2125 1699],[2126 1698],[2126 1679],[2127 1678],[2130 1678],[2131 1679],[2131 1696],[2132 1697],[2136 1697],[2137 1696],[2137 1648],[2138 1647],[2170 1647],[2171 1648],[2171 1658],[2172 1659],[2180 1659],[2181 1658],[2181 1654],[2178 1651],[2178 1648],[2179 1647],[2221 1647],[2222 1646],[2222 1562],[2223 1561],[2226 1561],[2227 1562],[2227 1612],[2228 1613],[2305 1613],[2306 1612],[2306 1562],[2307 1561],[2334 1561],[2335 1562],[2335 1599],[2336 1600],[2337 1600],[2338 1601],[2338 1612],[2339 1613],[2340 1613],[2342 1615],[2343 1615],[2344 1616],[2345 1616],[2346 1617],[2347 1617],[2350 1620],[2350 1621],[2351 1622],[2363 1622],[2366 1619],[2367 1619],[2374 1612],[2374 1608],[2375 1607],[2376 1607],[2377 1606],[2377 1562],[2378 1561],[2394 1561],[2395 1562],[2395 1750],[2394 1751],[2190 1751],[2189 1752],[2189 1756],[2190 1757],[2208 1757],[2209 1758],[2208 1759],[2191 1759],[2190 1760],[2190 1765],[2191 1766],[2211 1766],[2212 1767],[2363 1767],[2364 1768],[2394 1768],[2395 1769],[2395 1961],[2394 1962],[1890 1962],[1889 1961],[1889 1768],[1890 1767],[1891 1768],[1891 1777],[1892 1778],[1893 1778],[1894 1779],[1894 1842],[1895 1843],[1899 1843],[1900 1842],[1900 1767],[1901 1766],[1972 1766],[1973 1767],[2154 1767],[2155 1766],[2155 1762],[2154 1761],[2151 1761],[2150 1760],[2144 1760],[2143 1759],[2144 1758],[2155 1758],[2156 1757],[2156 1753],[2155 1752],[2137 1752],[2136 1751],[2136 1730],[2135 1729],[2131 1729],[2130 1730],[2130 1750],[2129 1751],[2128 1751],[2127 1750],[2127 1730],[2126 1729],[2122 1729],[2121 1730],[2121 1750],[2120 1751],[2112 1751],[2111 1750]

open : plan 2-room 16 : wir : [2051, 1683] : contour_details : [2044 1562],[2045 1561],[2108 1561],[2109 1562],[2109 1750],[2108 1751],[2035 1751],[2034 1750],[2034 1744],[2033 1743],[2029 1743],[2028 1744],[2028 1750],[2027 1751],[1994 1751],[1993 1750],[1993 1614],[1994 1613],[2027 1613],[2028 1614],[2028 1620],[2029 1621],[2033 1621],[2034 1620],[2034 1614],[2035 1613],[2043 1613],[2044 1612]

open : plan 3-room 17 : retreat : [1678, 1788] : contour_details : [1467 1761],[1468 1760],[1681 1760],[1682 1761],[1682 1967],[1683 1968],[1874 1968],[1875 1969],[1875 2062],[1874 2063],[1749 2063],[1748 2062],[1531 2062],[1530 2063],[1468 2063],[1467 2062]

open : plan 3-room 18 : family : [1678, 1731] : contour_details : [1467 1459],[1468 1458],[1681 1458],[1682 1459],[1682 1757],[1681 1758],[1468 1758],[1467 1757]

