Door : [1794,805],[1865,805],[1865,818],[1794,818] : [1] 
Door : [1794,805],[1865,805],[1865,818],[1794,818] : [1] 
Door : [1790,1060],[1870,1060],[1870,1071],[1790,1071] : [1] 
Door : [1790,1060],[1870,1060],[1870,1071],[1790,1071] : [1] 
Door : [547,1388],[558,1388],[558,1394],[547,1394] : [1] 
Door : [491,1413],[527,1413],[527,1419],[491,1419] : [1] 
Door : [514,1350],[586,1350],[586,1362],[514,1362] : [1] 
Door : [464,987],[475,987],[475,993],[464,993] : [1] 
Door : [1886,1754],[1973,1754],[1973,1765],[1886,1765] : [1] 
Door : [1886,1754],[1973,1754],[1973,1765],[1886,1765] : [1] 
Door : [427,991],[441,991],[441,993],[427,993] : [1] 
Door : [464,987],[475,987],[475,993],[464,993] : [1] 
Door : [314,1297],[326,1297],[326,1303],[314,1303] : [1] 
Door : [89,1440],[165,1440],[165,1456],[89,1456] : [1] 
Door : [756,1741],[760,1741],[760,1860],[756,1860] : [1] 
Door : [406,1209],[417,1209],[417,1281],[406,1281] : [1] 
Door : [1771,975],[1783,975],[1783,1055],[1771,1055] : [1] 
Door : [2080,975],[2091,975],[2091,1054],[2080,1054] : [1] 
Door : [1771,975],[1783,975],[1783,1055],[1771,1055] : [1] 
Door : [908,1680],[977,1749],[988,1738],[919,1669] : [1] 
Door : [898,1690],[967,1759],[978,1748],[909,1679] : [1] 
