Stairs : [211 1405],[212 1404],[213 1405],[213 1418],[212 1419],[211 1418] : [1] 
Stairs : [210 1391],[211 1390],[212 1391],[212 1404],[211 1405],[210 1404] : [1] 
Stairs : [209 1377],[210 1376],[211 1377],[211 1390],[210 1391],[209 1390] : [1] 
Stairs : [208 1370],[209 1369],[210 1370],[210 1376],[209 1377],[208 1376] : [1] 
Stairs : [224 1339],[225 1338],[484 1338],[485 1339],[485 1345],[484 1346],[484 1357],[483 1358],[483 1369],[482 1370],[482 1381],[481 1382],[481 1393],[480 1394],[480 1405],[479 1406],[479 1417],[478 1418],[478 1429],[477 1430],[477 1441],[476 1442],[476 1448],[475 1449],[473 1449],[472 1450],[467 1450],[466 1451],[461 1451],[460 1452],[455 1452],[454 1453],[450 1453],[449 1454],[444 1454],[443 1455],[438 1455],[437 1456],[432 1456],[431 1457],[426 1457],[425 1458],[421 1458],[420 1459],[415 1459],[414 1460],[409 1460],[408 1461],[403 1461],[402 1462],[398 1462],[397 1463],[392 1463],[391 1464],[386 1464],[385 1465],[380 1465],[379 1466],[374 1466],[373 1467],[369 1467],[368 1468],[363 1468],[362 1469],[357 1469],[356 1470],[351 1470],[350 1471],[346 1471],[345 1472],[340 1472],[339 1473],[334 1473],[340 1473],[341 1472],[354 1472],[355 1471],[368 1471],[369 1470],[382 1470],[383 1469],[396 1469],[397 1468],[410 1468],[411 1467],[424 1467],[425 1466],[438 1466],[439 1465],[452 1465],[453 1464],[466 1464],[467 1463],[480 1463],[481 1462],[494 1462],[495 1461],[508 1461],[509 1460],[522 1460],[523 1459],[536 1459],[537 1458],[544 1458],[545 1459],[545 1466],[544 1467],[544 1481],[543 1482],[543 1495],[542 1496],[542 1510],[541 1511],[541 1525],[540 1526],[540 1540],[539 1541],[539 1554],[538 1555],[538 1569],[537 1570],[537 1577],[536 1578],[527 1578],[526 1579],[507 1579],[506 1580],[488 1580],[487 1581],[468 1581],[467 1582],[449 1582],[448 1583],[430 1583],[429 1584],[410 1584],[409 1585],[391 1585],[390 1586],[371 1586],[370 1587],[352 1587],[351 1588],[332 1588],[331 1589],[313 1589],[312 1590],[294 1590],[293 1591],[274 1591],[273 1592],[255 1592],[254 1593],[235 1593],[234 1594],[225 1594],[224 1593],[224 1587],[223 1586],[223 1573],[222 1572],[222 1559],[221 1558],[221 1545],[220 1544],[220 1531],[219 1530],[219 1517],[218 1516],[218 1503],[217 1502],[217 1489],[216 1488],[216 1475],[215 1474],[215 1461],[214 1460],[214 1447],[213 1446],[213 1433],[212 1432],[212 1419],[213 1418],[214 1419],[214 1431],[215 1432],[215 1445],[216 1446],[216 1459],[217 1460],[217 1473],[218 1474],[218 1486],[219 1487],[219 1500],[220 1501],[220 1514],[221 1515],[221 1527],[222 1528],[222 1541],[223 1542],[223 1555],[224 1556],[224 1569],[225 1570],[225 1575],[280 1575],[281 1576],[336 1576],[336 1530],[280 1530],[279 1529],[279 1403],[280 1402],[309 1402],[310 1401],[337 1401],[337 1346],[329 1346],[328 1345],[310 1345],[309 1344],[291 1344],[290 1343],[273 1343],[272 1342],[254 1342],[253 1341],[235 1341],[234 1340],[225 1340] : [1] 
