n_id_76 ::: 18523.923828125
n_id_75 ::: 82.11409759521484
n_id_74 ::: 108.10723114013672
n_id_73 ::: 84.22917175292969
n_id_72 ::: 43.35040283203125
n_id_71 ::: 84.22888946533203
n_id_70 ::: 104.69442749023438
n_id_69 ::: 338.4845886230469
n_id_68 ::: 102.98787689208984
n_id_67 ::: 143.86199951171875
n_id_65 ::: 59.70518112182617
n_id_64 ::: 73.07162475585938
n_id_63 ::: 59.69916915893555
n_id_62 ::: 73.07572174072266
n_id_61 ::: 267.3719482421875
n_id_60 ::: 338.4848937988281
n_id_59 ::: 102.98473358154297
n_id_58 ::: 143.86126708984375
n_id_57 ::: 71.26370239257812
n_id_56 ::: 82.109619140625
n_id_55 ::: 83.12063598632812
n_id_54 ::: 57.79244613647461
n_id_53 ::: 58.66570281982422
n_id_51 ::: 9.120390892028809
n_id_49 ::: 44.51779556274414
n_id_48 ::: 34.78876876831055
n_id_46 ::: 5.406932830810547
n_id_45 ::: 27.894559860229492
n_id_43 ::: 5.4083991050720215
n_id_42 ::: 34.78868865966797
n_id_41 ::: 53.841033935546875
n_id_40 ::: 84.22872161865234
n_id_39 ::: 82.11186981201172
n_id_38 ::: 43.35032653808594
n_id_37 ::: 91.57537078857422
n_id_36 ::: 108.10277557373047
n_id_35 ::: 71.26364135742188
n_id_34 ::: 9.120694160461426
n_id_32 ::: 71.26364135742188
n_id_30 ::: 9.122695922851562
n_id_29 ::: 104.51573181152344
n_id_28 ::: 27.89689826965332
n_id_27 ::: 27.894081115722656
n_id_26 ::: 49.95025634765625
n_id_24 ::: 75.0726547241211
n_id_23 ::: 93.60297393798828
n_id_22 ::: 71.26823425292969
n_id_21 ::: 58.66586685180664
n_id_20 ::: 87.71566009521484
n_id_19 ::: 111.37516021728516
n_id_18 ::: 73.64141845703125
n_id_17 ::: 73.64412689208984
n_id_16 ::: 103.79066467285156
n_id_15 ::: 108.10338592529297
n_id_14 ::: 71.26197814941406
n_id_13 ::: 9.12250804901123
n_id_9 ::: 9.12067985534668
n_id_7 ::: 38.019554138183594
n_id_5 ::: 49.949092864990234
n_id_4 ::: 43.67268753051758
n_id_3 ::: 27.893075942993164
n_id_2 ::: 47.02819061279297
