n_id_668 ::: 25.4844970703125
n_id_667 ::: 15.43990707397461
n_id_666 ::: 19.34914779663086
n_id_665 ::: 25.48816680908203
n_id_664 ::: 32.23004150390625
n_id_662 ::: 8.694091796875
n_id_661 ::: 31.761075973510742
n_id_660 ::: 4.347900390625
n_id_659 ::: 4.3480224609375
n_id_658 ::: 29.54490089416504
n_id_657 ::: 19.704547882080078
n_id_656 ::: 8.696044921875
n_id_655 ::: 15.299660682678223
n_id_654 ::: 15.299148559570312
n_id_653 ::: 4.3480224609375
n_id_652 ::: 4.345947265625
n_id_651 ::: 29.544208526611328
n_id_649 ::: 8.6939697265625
n_id_648 ::: 25.764245986938477
n_id_647 ::: 4.3480224609375
n_id_646 ::: 4.3480224609375
n_id_645 ::: 27.637006759643555
n_id_644 ::: 19.702482223510742
n_id_642 ::: 8.69189453125
n_id_641 ::: 27.95562171936035
n_id_640 ::: 15.299859046936035
n_id_639 ::: 4.3480224609375
n_id_638 ::: 4.3480224609375
n_id_637 ::: 27.63646125793457
n_id_635 ::: 45.10184860229492
n_id_634 ::: 28.931991577148438
n_id_633 ::: 28.930295944213867
n_id_632 ::: 17.97881507873535
n_id_631 ::: 34.60441589355469
n_id_630 ::: 22.53598403930664
n_id_629 ::: 32.70862579345703
n_id_628 ::: 46.814918518066406
n_id_624 ::: 34.979820251464844
n_id_622 ::: 17.514232635498047
n_id_621 ::: 56.1027946472168
n_id_619 ::: 29.784805297851562
n_id_618 ::: 22.7740478515625
n_id_616 ::: 28.316143035888672
n_id_615 ::: 17.512908935546875
n_id_614 ::: 25.40802001953125
n_id_612 ::: 29.687482833862305
n_id_611 ::: 32.16282272338867
n_id_610 ::: 34.60264587402344
n_id_609 ::: 25.859682083129883
n_id_608 ::: 22.533863067626953
n_id_607 ::: 17.55389404296875
n_id_606 ::: 41.06888961791992
n_id_604 ::: 20.581939697265625
n_id_603 ::: 29.280590057373047
n_id_601 ::: 45.10173034667969
n_id_600 ::: 28.931928634643555
n_id_599 ::: 28.930339813232422
n_id_598 ::: 17.97686004638672
n_id_597 ::: 36.576908111572266
n_id_596 ::: 32.161102294921875
n_id_595 ::: 46.8150749206543
n_id_591 ::: 56.100730895996094
n_id_590 ::: 34.979793548583984
n_id_588 ::: 32.243507385253906
n_id_586 ::: 29.26806640625
n_id_584 ::: 3.108001708984375
n_id_583 ::: 19.561222076416016
n_id_582 ::: 25.92401123046875
n_id_581 ::: 3.108001708984375
n_id_580 ::: 33.5517692565918
n_id_579 ::: 34.5158805847168
n_id_578 ::: 34.5100212097168
n_id_577 ::: 29.984275817871094
n_id_576 ::: 18.888582229614258
n_id_574 ::: 34.9991340637207
n_id_573 ::: 26.033048629760742
n_id_572 ::: 32.37318420410156
n_id_571 ::: 42.251914978027344
n_id_569 ::: 8.6939697265625
n_id_568 ::: 15.297540664672852
n_id_567 ::: 4.3480224609375
n_id_566 ::: 4.345947265625
n_id_565 ::: 15.297540664672852
n_id_564 ::: 15.297540664672852
n_id_563 ::: 19.7030029296875
n_id_561 ::: 8.69189453125
n_id_560 ::: 24.289335250854492
n_id_559 ::: 4.3480224609375
n_id_558 ::: 4.345947265625
n_id_557 ::: 24.289335250854492
n_id_556 ::: 15.297540664672852
n_id_554 ::: 45.10732650756836
n_id_553 ::: 28.929349899291992
n_id_552 ::: 28.929683685302734
n_id_551 ::: 43.554317474365234
n_id_550 ::: 41.15030288696289
n_id_549 ::: 29.688812255859375
n_id_548 ::: 17.553955078125
n_id_547 ::: 25.52745819091797
n_id_546 ::: 17.553955078125
n_id_545 ::: 24.697998046875
n_id_537 ::: 36.499752044677734
n_id_533 ::: 78.20500946044922
n_id_532 ::: 26.138444900512695
n_id_531 ::: 746.6689453125
n_id_530 ::: 36.41280746459961
n_id_527 ::: 545.8927001953125
n_id_504 ::: 178.13400268554688
n_id_500 ::: 340.6889343261719
n_id_491 ::: 341.178955078125
n_id_489 ::: 842.5198974609375
n_id_485 ::: 869.2620239257812
n_id_475 ::: 909.2801513671875
n_id_445 ::: 120.94306945800781
n_id_443 ::: 119.18968200683594
n_id_441 ::: 597.5783081054688
n_id_440 ::: 407.2621765136719
n_id_439 ::: 344.2937927246094
n_id_438 ::: 324.72320556640625
n_id_437 ::: 160.93226623535156
n_id_398 ::: 99.5611801147461
n_id_397 ::: 147.74319458007812
n_id_396 ::: 348.7064208984375
n_id_393 ::: 136.1446533203125
n_id_390 ::: 386.4612731933594
n_id_389 ::: 134.2985076904297
n_id_385 ::: 48.571319580078125
n_id_384 ::: 455.9726867675781
n_id_327 ::: 172.754150390625
n_id_326 ::: 134.30238342285156
n_id_280 ::: 86.42699432373047
n_id_269 ::: 557.91845703125
n_id_268 ::: 22.688495635986328
n_id_267 ::: 437.3383483886719
n_id_266 ::: 15.227265357971191
n_id_265 ::: 479.562744140625
n_id_264 ::: 25.34512710571289
n_id_262 ::: 43.756561279296875
n_id_261 ::: 361.5862731933594
n_id_260 ::: 66.49790954589844
n_id_259 ::: 77.66094207763672
