dn : [224,42] : [206,29,242,55] : confidence,dict,original_word,difference : [64,SG,dj,1]
kitchen : [162,152] : [101,142,224,163] : confidence,dict,original_word,difference : [85,DM,None,0]
bath : [808,143] : [771,133,846,153] : confidence,dict,original_word,difference : [76,DM,None,0]
entry : [513,174] : [466,164,560,184] : confidence,dict,original_word,difference : [82,DM,None,0]
dining : [369,416] : [321,406,417,427] : confidence,dict,original_word,difference : [82,DM,None,0]
bedroom 2 : [594,559] : [511,549,678,569] : confidence,dict,original_word,difference : [84,DM,None,0]
bedroom 1 : [890,559] : [808,549,972,569] : confidence,dict,original_word,difference : [86,DM,None,0]
living : [191,696] : [145,686,237,706] : confidence,dict,original_word,difference : [80,DM,None,0]
deck : [195,919] : [156,909,234,930] : confidence,dict,original_word,difference : [83,DM,None,0]
No Text Detected
