kitchen : [994,241] : [874,212,1114,270] : confidence,dict,original_word,difference : [88,DM,None,0]
diningroom : [2241,295] : [2047,266,2436,324] : confidence,dict,original_word,difference : [90,DM,None,0]
closet : [209,631] : [124,608,295,655] : confidence,dict,original_word,difference : [81,DM,None,0]
closet : [526,734] : [441,711,612,758] : confidence,dict,original_word,difference : [80,DM,None,0]
closet : [1192,872] : [1107,849,1278,896] : confidence,dict,original_word,difference : [87,DM,None,0]
closet : [1458,872] : [1373,849,1544,896] : confidence,dict,original_word,difference : [88,DM,None,0]
entry : [2212,839] : [2123,811,2302,868] : confidence,dict,original_word,difference : [75,DM,None,0]
closet : [1325,1044] : [1240,1021,1411,1068] : confidence,dict,original_word,difference : [81,DM,None,0]
closet : [2435,1054] : [2350,1031,2521,1078] : confidence,dict,original_word,difference : [91,DM,None,0]
masterbedroom : [449,1550] : [324,1485,574,1616] : confidence,dict,original_word,difference : [89,DM,None,0]
bedroom : [1224,1514] : [1085,1485,1364,1543] : confidence,dict,original_word,difference : [90,DM,None,0]
livingroom : [2094,1514] : [1906,1485,2283,1543] : confidence,dict,original_word,difference : [91,DM,None,0]
patiobalcony : [2187,2237] : [1959,2208,2415,2266] : confidence,dict,original_word,difference : [91,DM,None,0]
No Text Detected
