Total No of Rooms: 23
single : room 1 : unknown room : [920,216] : contour_details : [912 208],[911 209],[911 223],[912 224],[928 224],[929 223],[929 209],[928 208]

single : room 2 : unknown room : [954,211] : contour_details : [946 207],[945 208],[932 208],[931 209],[931 214],[932 215],[947 215],[948 214],[963 214],[964 215],[978 215],[979 214],[979 209],[978 208],[964 208],[963 207]

single : room 3 : unknown room : [1066,108] : contour_details : [1053 81],[1052 82],[1052 98],[1050 100],[1049 100],[1046 103],[1048 105],[1048 106],[1052 110],[1052 139],[1053 140],[1072 140],[1073 139],[1073 120],[1077 116],[1078 116],[1083 111],[1084 111],[1088 107],[1089 107],[1092 104],[1090 102],[1090 101],[1085 96],[1085 95],[1081 91],[1081 90],[1076 85],[1076 84],[1073 81]

single : room 4 : unknown room : [1452,866] : contour_details : [1448 859],[1447 860],[1447 872],[1448 873],[1457 873],[1458 872],[1458 860],[1457 859]

single : room 5 : unknown room : [738,874] : contour_details : [721 855],[720 856],[720 881],[721 882],[726 882],[727 881],[750 881],[752 883],[768 883],[769 882],[769 877],[768 876],[752 876],[751 875],[728 875],[727 874],[727 856],[726 855]

single : room 6 : unknown room : [807,862] : contour_details : [796 854],[795 855],[791 855],[790 856],[790 881],[791 882],[797 882],[798 881],[798 866],[799 865],[822 865],[823 866],[832 866],[833 865],[833 856],[832 855],[823 855],[822 854]

single : room 7 : unknown room : [258,844] : contour_details : [242 826],[241 827],[241 852],[242 853],[250 853],[251 852],[274 852],[276 854],[291 854],[292 853],[292 848],[291 847],[276 847],[275 846],[252 846],[251 845],[251 827],[250 826]

single : room 8 : unknown room : [1029,789] : contour_details : [990 774],[989 775],[989 803],[990 804],[1069 804],[1070 803],[1070 775],[1069 774]

single : room 9 : unknown room : [1029,716] : contour_details : [990 699],[989 700],[989 732],[990 733],[1069 733],[1070 732],[1070 700],[1069 699]

single : room 10 : unknown room : [1084,604] : contour_details : [1080 539],[1079 540],[1079 669],[1080 670],[1088 670],[1089 669],[1089 540],[1088 539]

single : room 11 : unknown room : [158,446] : contour_details : [143 430],[142 431],[137 431],[136 432],[136 449],[135 450],[115 450],[114 451],[99 451],[98 452],[98 457],[99 458],[116 458],[117 457],[136 457],[137 458],[144 458],[145 457],[150 457],[151 458],[158 458],[159 457],[159 440],[160 439],[173 439],[174 440],[174 457],[175 458],[182 458],[183 457],[206 457],[208 459],[224 459],[225 458],[225 453],[224 452],[208 452],[207 451],[184 451],[183 450],[183 432],[182 431],[175 431],[174 430]

single : room 12 : unknown room : [553,419] : contour_details : [526 416],[525 417],[525 422],[526 423],[581 423],[582 422],[582 417],[581 416]

single : room 13 : unknown room : [554,408] : contour_details : [525 401],[524 402],[524 415],[525 416],[583 416],[584 415],[584 402],[583 401]

single : room 14 : unknown room : [1656,490] : contour_details : [1628 380],[1627 381],[1627 515],[1628 516],[1629 516],[1630 517],[1630 533],[1631 534],[1716 534],[1717 533],[1717 512],[1716 511],[1639 511],[1638 510],[1638 381],[1637 380]

single : room 15 : unknown room : [1400,281] : contour_details : [1398 277],[1397 278],[1383 278],[1382 279],[1382 284],[1383 285],[1399 285],[1400 284],[1412 284],[1413 285],[1418 285],[1419 284],[1419 278],[1418 277]

single : room 16 : unknown room : [1454,275] : contour_details : [1458 257],[1457 258],[1457 276],[1456 277],[1449 277],[1448 278],[1435 278],[1434 279],[1434 284],[1435 285],[1450 285],[1451 284],[1457 284],[1458 285],[1464 285],[1465 284],[1465 258],[1464 257]

single : room 17 : unknown room : [1308,263] : contour_details : [1304 257],[1303 258],[1303 268],[1304 269],[1313 269],[1314 268],[1314 258],[1313 257]

single : room 18 : unknown room : [1502,261] : contour_details : [1497 256],[1496 257],[1484 257],[1483 258],[1483 263],[1484 264],[1498 264],[1499 263],[1506 263],[1507 264],[1507 268],[1508 269],[1516 269],[1517 268],[1517 258],[1516 257],[1508 257],[1507 256]

single : room 19 : unknown room : [585,272] : contour_details : [579 244],[578 245],[578 300],[579 301],[592 301],[593 300],[593 245],[592 244]

single : room 20 : unknown room : [537,272] : contour_details : [517 236],[516 237],[516 309],[517 310],[550 310],[551 309],[551 306],[552 305],[558 305],[559 304],[559 241],[558 240],[552 240],[551 239],[551 237],[550 236]

single : room 21 : unknown room : [182,224] : contour_details : [168 216],[167 217],[167 242],[168 243],[173 243],[174 242],[174 225],[175 224],[197 224],[198 225],[198 229],[199 230],[204 230],[205 229],[205 219],[204 218],[199 218],[198 217],[174 217],[173 216]

single : room 22 : unknown room : [474,352] : contour_details : [490 156],[489 157],[489 326],[488 327],[376 327],[375 326],[375 320],[374 319],[359 319],[358 318],[358 312],[357 311],[251 311],[250 312],[250 319],[251 320],[352 320],[353 321],[353 327],[352 328],[352 349],[353 350],[486 350],[487 351],[487 473],[488 474],[488 494],[489 495],[601 495],[602 494],[602 474],[601 473],[512 473],[511 472],[511 157],[510 156]

single : room 23 : unknown room : [461,118] : contour_details : [454 83],[453 84],[453 152],[454 153],[469 153],[470 152],[470 84],[469 83]

