livingroom : [893,1033] : [775,952,1012,1114] : confidence,dict,original_word,difference : [77,DM,None,0]
utility : [1690,983] : [1619,957,1762,1009] : confidence,dict,original_word,difference : [85,DM,None,0]
diningarea : [2100,1152] : [1989,1071,2212,1234] : confidence,dict,original_word,difference : [90,DM,None,0]
garage : [2782,1468] : [2634,1426,2931,1510] : confidence,dict,original_word,difference : [88,DM,None,0]
hall : [1541,1562] : [1495,1542,1587,1582] : confidence,dict,original_word,difference : [84,DM,None,0]
kitchen : [2116,1630] : [1965,1597,2268,1664] : confidence,dict,original_word,difference : [88,DM,None,0]
studyarea : [1034,1777] : [925,1695,1143,1860] : confidence,dict,original_word,difference : [83,DM,None,0]
cloaks : [1416,1819] : [1338,1799,1494,1839] : confidence,dict,original_word,difference : [88,DM,None,0]
No Text Detected
