[
    {
        "annotations": [
            {
                "class": "Room", 
                "type": "single", 
                "xn": "537;537;536;513;513;512;512;513;513;846;846;845;845;846;846;628;627", 
                "yn": "1548;1549;1550;1550;1689;1690;1830;1831;1918;1918;1843;1842;1741;1740;1549;1549;1548", 
                "text": "office", 
                "x": 667, 
                "y": 1711
            }, 
            {
                "class": "Room", 
                "type": "single", 
                "xn": "1179;1179;1180;1180;1179;995;995;1418;1418;1419;1419", 
                "yn": "1301;1399;1400;1406;1407;1407;1505;1505;1311;1310;1301", 
                "text": "unknown room", 
                "x": 1241, 
                "y": 1417
            }, 
            {
                "class": "Room", 
                "type": "single", 
                "xn": "1115;1114;1091;1091;1092;1092;1091;959;959;1419;1419;1418;1418;1419;1419;1183;1182", 
                "yn": "745;746;746;1186;1187;1193;1194;1194;1293;1293;1028;1027;885;884;746;746;745", 
                "text": "bedroom 1", 
                "x": 1259, 
                "y": 985
            }, 
            {
                "class": "Room", 
                "type": "single", 
                "xn": "985;984;748;748;747;747;748;749;749;952;953;1083;1083;1053;1052", 
                "yn": "745;746;746;886;887;1027;1027;1028;1185;1185;1186;1186;746;746;745", 
                "text": "bedroom 2", 
                "x": 918, 
                "y": 937
            }, 
            {
                "class": "Room", 
                "type": "open", 
                "xn": "1060;1061;1297;1298;1416;1417;1535;1536;1652;1653;1653;1652;1061;1060", 
                "yn": "1945;1944;1944;1945;1945;1946;1946;1947;1947;1948;2417;2418;2418;2417", 
                "text": "living", 
                "x": 1411, 
                "y": 2177
            }, 
            {
                "class": "Room", 
                "type": "open", 
                "xn": "514;515;1057;1058;1058;1057;515;514", 
                "yn": "1945;1944;1944;1945;2417;2418;2418;2417", 
                "text": "dining", 
                "x": 707, 
                "y": 2177
            }, 
            {
                "class": "Room", 
                "type": "open", 
                "xn": "1180;1181;1652;1653;1653;1652;1536;1535;1417;1416;1298;1297;1181;1180", 
                "yn": "1552;1551;1551;1552;1945;1946;1946;1945;1945;1944;1944;1943;1943;1942", 
                "text": "kitchen", 
                "x": 1403, 
                "y": 1687
            }, 
            {
                "class": "Room", 
                "type": "open", 
                "xn": "855;856;951;952;952;953;1060;1061;1061;1062;1069;1070;1070;1071;1168;1169;1169;1168;953;952;952;951;856;855", 
                "yn": "1507;1506;1506;1507;1741;1742;1742;1741;1632;1631;1631;1632;1734;1735;1735;1736;1841;1842;1842;1843;1941;1942;1942;1941", 
                "text": "corridor", 
                "x": 932, 
                "y": 1788
            }, 
            {
                "class": "Room", 
                "type": "open", 
                "xn": "954;955;1169;1170;1170;1169;955;954", 
                "yn": "1303;1302;1302;1303;1397;1398;1398;1397", 
                "text": "toilet", 
                "x": 999, 
                "y": 1327
            }, 
            {
                "class": "Room", 
                "type": "open", 
                "xn": "750;751;950;951;951;952;952;951;751;750", 
                "yn": "1195;1194;1194;1195;1301;1302;1503;1504;1504;1503", 
                "text": "corridor", 
                "x": 890, 
                "y": 1256
            }, 
            {
                "class": "Door", 
                "xn": "853;953;953;853", 
                "yn": "1186;1186;1193;1193", 
                "confidence": 1.0
            }, 
            {
                "class": "Door", 
                "xn": "1538;1638;1638;1538", 
                "yn": "1531;1531;1548;1548", 
                "confidence": 1.0
            }, 
            {
                "class": "Door", 
                "xn": "1479;1573;1573;1479", 
                "yn": "2420;2420;2463;2463", 
                "confidence": 1.0
            }, 
            {
                "class": "Door", 
                "xn": "535;628;628;535", 
                "yn": "1538;1538;1548;1548", 
                "confidence": 1.0
            }, 
            {
                "class": "Door", 
                "xn": "594;687;687;594", 
                "yn": "2420;2420;2463;2463", 
                "confidence": 1.0
            }, 
            {
                "class": "Door", 
                "xn": "952;959;959;952", 
                "yn": "1192;1192;1294;1294", 
                "confidence": 1.0
            }, 
            {
                "class": "Door", 
                "xn": "846;854;854;846", 
                "yn": "1741;1741;1843;1843", 
                "confidence": 1.0
            }, 
            {
                "class": "Door", 
                "xn": "1171;1178;1178;1171", 
                "yn": "1741;1741;1843;1843", 
                "confidence": 1.0
            }, 
            {
                "class": "Door", 
                "xn": "952;995;995;952", 
                "yn": "1405;1405;1506;1506", 
                "confidence": 1.0
            }, 
            {
                "class": "Door", 
                "xn": "932;932;953;953", 
                "yn": "1309;1392;1392;1309", 
                "confidence": 0.866666666667
            }, 
            {
                "class": "Window", 
                "xn": "705;747;747;705", 
                "yn": "885;885;1028;1028", 
                "confidence": 1.0
            }, 
            {
                "class": "Window", 
                "xn": "1655;1698;1698;1655", 
                "yn": "1688;1688;1831;1831", 
                "confidence": 1.0
            }, 
            {
                "class": "Window", 
                "xn": "1419;1462;1462;1419", 
                "yn": "885;885;1028;1028", 
                "confidence": 1.0
            }, 
            {
                "class": "Window", 
                "xn": "918;1248;1248;918", 
                "yn": "2420;2420;2463;2463", 
                "confidence": 1.0
            }, 
            {
                "class": "Window", 
                "xn": "468;511;511;468", 
                "yn": "2137;2137;2280;2280", 
                "confidence": 1.0
            }, 
            {
                "class": "Window", 
                "xn": "983;1053;1053;983", 
                "yn": "702;702;745;745", 
                "confidence": 1.0
            }, 
            {
                "class": "Window", 
                "xn": "1113;1183;1183;1113", 
                "yn": "702;702;745;745", 
                "confidence": 1.0
            }, 
            {
                "class": "Window", 
                "xn": "468;512;512;468", 
                "yn": "1688;1688;1831;1831", 
                "confidence": 1.0
            }, 
            {
                "class": "Window", 
                "xn": "1655;1698;1698;1655", 
                "yn": "2137;2137;2280;2280", 
                "confidence": 1.0
            }, 
            {
                "class": "Window", 
                "xn": "1419;1462;1462;1419", 
                "yn": "1311;1311;1382;1382", 
                "confidence": 1.0
            }, 
            {
                "class": "Window", 
                "xn": "1538;1632;1632;1538", 
                "yn": "1507;1507;1530;1530", 
                "confidence": 1.0
            }, 
            {
                "class": "Window", 
                "xn": "535;628;628;535", 
                "yn": "1507;1507;1530;1530", 
                "confidence": 1.0
            }, 
            {
                "class": "Wall", 
                "xn": "687;919;919;687", 
                "yn": "2421;2421;2463;2463", 
                "confidence": 1.0
            }, 
            {
                "class": "Wall", 
                "xn": "1183;1463;1463;1183", 
                "yn": "703;703;745;745", 
                "confidence": 1.0
            }, 
            {
                "class": "Wall", 
                "xn": "628;854;854;628", 
                "yn": "1506;1506;1548;1548", 
                "confidence": 1.0
            }, 
            {
                "class": "Wall", 
                "xn": "469;512;512;469", 
                "yn": "1831;1831;2138;2138", 
                "confidence": 1.0
            }, 
            {
                "class": "Wall", 
                "xn": "953;1539;1539;953", 
                "yn": "1506;1506;1548;1548", 
                "confidence": 1.0
            }, 
            {
                "class": "Wall", 
                "xn": "469;511;511;469", 
                "yn": "2280;2280;2463;2463", 
                "confidence": 1.0
            }, 
            {
                "class": "Wall", 
                "xn": "1656;1698;1698;1656", 
                "yn": "1831;1831;2138;2138", 
                "confidence": 1.0
            }, 
            {
                "class": "Wall", 
                "xn": "1248;1480;1480;1248", 
                "yn": "2421;2421;2463;2463", 
                "confidence": 1.0
            }, 
            {
                "class": "Wall", 
                "xn": "1655;1698;1698;1655", 
                "yn": "2280;2280;2463;2463", 
                "confidence": 1.0
            }, 
            {
                "class": "Wall", 
                "xn": "469;512;512;469", 
                "yn": "1506;1506;1689;1689", 
                "confidence": 1.0
            }, 
            {
                "class": "Wall", 
                "xn": "1420;1462;1462;1420", 
                "yn": "1028;1028;1312;1312", 
                "confidence": 1.0
            }, 
            {
                "class": "Wall", 
                "xn": "705;984;984;705", 
                "yn": "703;703;745;745", 
                "confidence": 1.0
            }, 
            {
                "class": "Wall", 
                "xn": "1656;1698;1698;1656", 
                "yn": "1506;1506;1689;1689", 
                "confidence": 1.0
            }, 
            {
                "class": "Wall", 
                "xn": "468;595;595;468", 
                "yn": "2420;2420;2463;2463", 
                "confidence": 1.0
            }, 
            {
                "class": "Wall", 
                "xn": "1573;1699;1699;1573", 
                "yn": "2420;2420;2463;2463", 
                "confidence": 1.0
            }, 
            {
                "class": "Wall", 
                "xn": "1420;1462;1462;1420", 
                "yn": "703;703;886;886", 
                "confidence": 1.0
            }, 
            {
                "class": "Wall", 
                "xn": "1419;1462;1462;1419", 
                "yn": "1382;1382;1548;1548", 
                "confidence": 1.0
            }, 
            {
                "class": "Wall", 
                "xn": "1053;1114;1114;1053", 
                "yn": "703;703;745;745", 
                "confidence": 1.0
            }, 
            {
                "class": "Wall", 
                "xn": "706;748;748;706", 
                "yn": "1028;1028;1548;1548", 
                "confidence": 1.0
            }, 
            {
                "class": "Wall", 
                "xn": "706;747;747;706", 
                "yn": "703;703;886;886", 
                "confidence": 1.0
            }, 
            {
                "class": "Wall", 
                "xn": "953;1179;1179;953", 
                "yn": "1919;1919;1943;1943", 
                "confidence": 1.0
            }, 
            {
                "class": "Wall", 
                "xn": "468;854;854;468", 
                "yn": "1919;1919;1943;1943", 
                "confidence": 1.0
            }, 
            {
                "class": "Wall", 
                "xn": "468;536;536;468", 
                "yn": "1508;1508;1530;1530", 
                "confidence": 1.0
            }, 
            {
                "class": "Wall", 
                "xn": "1632;1699;1699;1632", 
                "yn": "1508;1508;1530;1530", 
                "confidence": 1.0
            }, 
            {
                "class": "Wall", 
                "xn": "847;854;854;847", 
                "yn": "1506;1506;1742;1742", 
                "confidence": 1.0
            }, 
            {
                "class": "Wall", 
                "xn": "954;960;960;954", 
                "yn": "1549;1549;1742;1742", 
                "confidence": 1.0
            }, 
            {
                "class": "Wall", 
                "xn": "1172;1178;1178;1172", 
                "yn": "1506;1506;1742;1742", 
                "confidence": 1.0
            }, 
            {
                "class": "Wall", 
                "xn": "468;536;536;468", 
                "yn": "1539;1539;1549;1549", 
                "confidence": 1.0
            }, 
            {
                "class": "Wall", 
                "xn": "468;530;530;468", 
                "yn": "1532;1532;1549;1549", 
                "confidence": 1.0
            }, 
            {
                "class": "Wall", 
                "xn": "953;1463;1463;953", 
                "yn": "1294;1294;1300;1300", 
                "confidence": 1.0
            }, 
            {
                "class": "Wall", 
                "xn": "1638;1699;1699;1638", 
                "yn": "1532;1532;1549;1549", 
                "confidence": 1.0
            }, 
            {
                "class": "Wall", 
                "xn": "1084;1090;1090;1084", 
                "yn": "703;703;1193;1193", 
                "confidence": 1.0
            }, 
            {
                "class": "Wall", 
                "xn": "705;854;854;705", 
                "yn": "1186;1186;1194;1194", 
                "confidence": 1.0
            }, 
            {
                "class": "Wall", 
                "xn": "1172;1179;1179;1172", 
                "yn": "1843;1843;1943;1943", 
                "confidence": 1.0
            }, 
            {
                "class": "Wall", 
                "xn": "954;960;960;954", 
                "yn": "1843;1843;1943;1943", 
                "confidence": 1.0
            }, 
            {
                "class": "Wall", 
                "xn": "847;854;854;847", 
                "yn": "1843;1843;1943;1943", 
                "confidence": 1.0
            }, 
            {
                "class": "Wall", 
                "xn": "1172;1178;1178;1172", 
                "yn": "1294;1294;1406;1406", 
                "confidence": 1.0
            }, 
            {
                "class": "Wall", 
                "xn": "953;1091;1091;953", 
                "yn": "1187;1187;1193;1193", 
                "confidence": 1.0
            }, 
            {
                "class": "Wall", 
                "xn": "953;1179;1179;953", 
                "yn": "1400;1400;1406;1406", 
                "confidence": 1.0
            }, 
            {
                "class": "Wall", 
                "xn": "959;1171;1171;959", 
                "yn": "1845;1845;1841;1841", 
                "confidence": 1.0
            }, 
            {
                "class": "Stair", 
                "xn": "953;954;1170;1171;1171;1169;1168;1167;1166;1164;1163;1162;1161;1159;1158;1157;1156;1155;1154;1152;1151;1150;1149;1147;1146;1145;1144;1142;1141;1140;1139;1137;1136;1135;1134;1132;1131;1130;1129;1128;1127;1125;1124;1123;1122;1120;1119;1118;1117;1115;1114;1113;1112;1110;1109;1108;1107;1105;1104;1103;1102;1101;1100;1098;1097;1096;1095;1093;1092;1091;1090;1089;1088;1088;1087;1087;1086;1086;1085;1085;1084;1084;1083;1083;1082;1082;1081;1081;1080;1080;1079;1079;1078;1078;1077;1077;1076;1076;1075;1075;1074;1074;1073;1073;1072;1072;1071;1071;1066;1065;1060;1060;1059;1059;1058;954;953", 
                "yn": "1530;1529;1529;1530;1734;1736;1736;1737;1737;1739;1739;1740;1740;1742;1742;1743;1743;1744;1744;1746;1746;1747;1747;1749;1749;1750;1750;1752;1752;1753;1753;1755;1755;1756;1756;1758;1758;1759;1759;1760;1760;1762;1762;1763;1763;1765;1765;1766;1766;1768;1768;1769;1769;1771;1771;1772;1772;1774;1774;1775;1775;1776;1776;1778;1778;1779;1779;1781;1781;1782;1782;1783;1782;1781;1780;1778;1777;1775;1774;1773;1772;1770;1769;1767;1766;1764;1763;1761;1760;1759;1758;1756;1755;1753;1752;1750;1749;1747;1746;1744;1743;1742;1741;1739;1738;1736;1735;1630;1630;1629;1629;1683;1684;1740;1741;1741;1740", 
                "confidence": 1.0
            }, 
            {
                "class": "Text", 
                "height": 25, 
                "width": 185, 
                "x": 826, 
                "y": 925, 
                "text": "chambre 2", 
                "confidence": "0.92"
            }, 
            {
                "class": "Text", 
                "height": 24, 
                "width": 182, 
                "x": 1168, 
                "y": 973, 
                "text": "chambre 1", 
                "confidence": "0.96"
            }, 
            {
                "class": "Text", 
                "height": 25, 
                "width": 93, 
                "x": 844, 
                "y": 1244, 
                "text": "degt", 
                "confidence": "0.94"
            }, 
            {
                "class": "Text", 
                "height": 25, 
                "width": 55, 
                "x": 972, 
                "y": 1315, 
                "text": "wc", 
                "confidence": "0.94"
            }, 
            {
                "class": "Text", 
                "height": 25, 
                "width": 129, 
                "x": 1742, 
                "y": 1427, 
                "text": "balcon", 
                "confidence": "0.92"
            }, 
            {
                "class": "Text", 
                "height": 25, 
                "width": 131, 
                "x": 602, 
                "y": 1699, 
                "text": "bureau", 
                "confidence": "0.8"
            }, 
            {
                "class": "Text", 
                "height": 25, 
                "width": 128, 
                "x": 1339, 
                "y": 1675, 
                "text": "cuisine", 
                "confidence": "0.92"
            }, 
            {
                "class": "Text", 
                "height": 25, 
                "width": 92, 
                "x": 886, 
                "y": 1776, 
                "text": "degt", 
                "confidence": "0.79"
            }, 
            {
                "class": "Text", 
                "height": 25, 
                "width": 150, 
                "x": 980, 
                "y": 1864, 
                "text": "placard", 
                "confidence": "0.93"
            }, 
            {
                "class": "Text", 
                "height": 25, 
                "width": 131, 
                "x": 642, 
                "y": 2165, 
                "text": "sejour", 
                "confidence": "0.91"
            }, 
            {
                "class": "Text", 
                "height": 25, 
                "width": 106, 
                "x": 1358, 
                "y": 2165, 
                "text": "repas", 
                "confidence": "0.89"
            }, 
            {
                "class": "Text", 
                "height": 63, 
                "width": 175, 
                "x": 993, 
                "y": 2505, 
                "text": "terrassecouverte", 
                "confidence": "0.91"
            }, 
            {
                "class": "Unknown", 
                "xn": "1186;1295;1295;1186", 
                "yn": "1389;1389;1444;1444"
            }
        ], 
        "class": "image", 
        "filename": "fp_25.png"
    }
]