[
    {
        "annotations": [
            {
                "class": "Room", 
                "type": "single", 
                "xn": "1501;1500;1348;1348;1347;1347;1348;1348;1347;1347;1650;1651;1817;1817;1816;1816;1817;1817;1598;1597", 
                "yn": "1757;1758;1758;1916;1917;2015;2016;2059;2060;2109;2109;2110;2110;1951;1950;1856;1855;1758;1758;1757", 
                "text": "kitchen", 
                "x": 1546, 
                "y": 1921
            }, 
            {
                "class": "Room", 
                "type": "single", 
                "xn": "1488;1488;1487;1487;1816;1816;1817;1817", 
                "yn": "1073;1420;1421;1519;1519;1266;1265;1073", 
                "text": "bedroom 1", 
                "x": 1656, 
                "y": 1284
            }, 
            {
                "class": "Room", 
                "type": "single", 
                "xn": "555;555;554;554;555;555;807;808;906;906;907;907", 
                "yn": "1073;1220;1221;1360;1361;1537;1537;1536;1536;1419;1418;1073", 
                "text": "bedroom", 
                "x": 714, 
                "y": 1289
            }, 
            {
                "class": "Room", 
                "type": "single", 
                "xn": "1389;1388;1276;1276;1379;1380;1480;1480;1457;1456", 
                "yn": "1072;1073;1073;1260;1260;1259;1259;1073;1073;1072", 
                "text": "bathroom", 
                "x": 1372, 
                "y": 1148
            }, 
            {
                "class": "Room", 
                "type": "single", 
                "xn": "940;939;916;916;915;915;1267;1267;1268;1268;1267;1267;1268;1268;1031;1030", 
                "yn": "1072;1073;1073;1420;1421;1519;1519;1419;1418;1268;1267;1261;1260;1073;1073;1072", 
                "text": "bedroom 2", 
                "x": 1104, 
                "y": 1284
            }, 
            {
                "class": "Room", 
                "type": "open", 
                "xn": "1489;1490;1815;1816;1816;1815;1339;1338;1338;1339;1488;1489", 
                "yn": "1547;1546;1546;1547;1749;1750;1750;1749;1646;1645;1645;1644", 
                "text": "entry", 
                "x": 1588, 
                "y": 1661
            }, 
            {
                "class": "Room", 
                "type": "open", 
                "xn": "556;557;1172;1173;1173;1172;1102;1101;1101;1102;1335;1336;1336;1335;557;556", 
                "yn": "1547;1546;1546;1547;1636;1637;1637;1638;1644;1645;1645;1646;2012;2013;2013;2012", 
                "text": "dining", 
                "x": 956, 
                "y": 1762
            }, 
            {
                "class": "Room", 
                "type": "open", 
                "xn": "1383;1384;1477;1478;1478;1477;1351;1350;1350;1349;1278;1277;1277;1278;1382;1383", 
                "yn": "1270;1269;1269;1270;1636;1637;1637;1636;1543;1542;1542;1541;1416;1415;1415;1414", 
                "text": "corridor", 
                "x": 1366, 
                "y": 1472
            }, 
            {
                "class": "Room", 
                "type": "open", 
                "xn": "1277;1278;1372;1373;1373;1372;1278;1277", 
                "yn": "1270;1269;1269;1270;1412;1413;1413;1412", 
                "text": "toilet", 
                "x": 1332, 
                "y": 1319
            }, 
            {
                "class": "Door", 
                "xn": "1381;1480;1480;1381", 
                "yn": "1637;1637;1644;1644", 
                "confidence": 1.0
            }, 
            {
                "class": "Door", 
                "xn": "938;1031;1031;938", 
                "yn": "1029;1029;1072;1072", 
                "confidence": 1.0
            }, 
            {
                "class": "Door", 
                "xn": "1380;1481;1481;1380", 
                "yn": "1260;1260;1268;1268", 
                "confidence": 1.0
            }, 
            {
                "class": "Door", 
                "xn": "808;907;907;808", 
                "yn": "1537;1537;1544;1544", 
                "confidence": 1.0
            }, 
            {
                "class": "Door", 
                "xn": "1499;1598;1598;1499", 
                "yn": "1750;1750;1757;1757", 
                "confidence": 1.0
            }, 
            {
                "class": "Door", 
                "xn": "907;915;915;907", 
                "yn": "1419;1419;1520;1520", 
                "confidence": 1.0
            }, 
            {
                "class": "Door", 
                "xn": "1268;1275;1275;1268", 
                "yn": "1419;1419;1520;1520", 
                "confidence": 1.0
            }, 
            {
                "class": "Door", 
                "xn": "1480;1487;1487;1480", 
                "yn": "1419;1419;1520;1520", 
                "confidence": 1.0
            }, 
            {
                "class": "Door", 
                "xn": "512;554;554;512", 
                "yn": "1555;1555;1650;1650", 
                "confidence": 1.0
            }, 
            {
                "class": "Door", 
                "xn": "1817;1859;1859;1817", 
                "yn": "1632;1632;1739;1739", 
                "confidence": 1.0
            }, 
            {
                "class": "Door", 
                "xn": "1338;1347;1347;1338", 
                "yn": "1915;1915;2016;2016", 
                "confidence": 1.0
            }, 
            {
                "class": "Window", 
                "xn": "1817;1859;1859;1817", 
                "yn": "1856;1856;1951;1951", 
                "confidence": 1.0
            }, 
            {
                "class": "Window", 
                "xn": "1817;1859;1859;1817", 
                "yn": "1266;1266;1408;1408", 
                "confidence": 1.0
            }, 
            {
                "class": "Window", 
                "xn": "997;1209;1209;997", 
                "yn": "2015;2015;2058;2058", 
                "confidence": 1.0
            }, 
            {
                "class": "Window", 
                "xn": "512;554;554;512", 
                "yn": "1219;1219;1361;1361", 
                "confidence": 1.0
            }, 
            {
                "class": "Window", 
                "xn": "1387;1457;1457;1387", 
                "yn": "1029;1029;1072;1072", 
                "confidence": 1.0
            }, 
            {
                "class": "Window", 
                "xn": "631;772;772;631", 
                "yn": "2015;2015;2058;2058", 
                "confidence": 1.0
            }, 
            {
                "class": "Window", 
                "xn": "1511;1651;1651;1511", 
                "yn": "2110;2110;2152;2152", 
                "confidence": 1.0
            }, 
            {
                "class": "Wall", 
                "xn": "1031;1388;1388;1031", 
                "yn": "1030;1030;1072;1072", 
                "confidence": 1.0
            }, 
            {
                "class": "Wall", 
                "xn": "512;939;939;512", 
                "yn": "1030;1030;1072;1072", 
                "confidence": 1.0
            }, 
            {
                "class": "Wall", 
                "xn": "1457;1860;1860;1457", 
                "yn": "1030;1030;1072;1072", 
                "confidence": 1.0
            }, 
            {
                "class": "Wall", 
                "xn": "1209;1347;1347;1209", 
                "yn": "2016;2016;2059;2059", 
                "confidence": 1.0
            }, 
            {
                "class": "Wall", 
                "xn": "1304;1346;1346;1304", 
                "yn": "2016;2016;2152;2152", 
                "confidence": 1.0
            }, 
            {
                "class": "Wall", 
                "xn": "772;998;998;772", 
                "yn": "2016;2016;2058;2058", 
                "confidence": 1.0
            }, 
            {
                "class": "Wall", 
                "xn": "512;632;632;512", 
                "yn": "2015;2015;2058;2058", 
                "confidence": 1.0
            }, 
            {
                "class": "Wall", 
                "xn": "1818;1859;1859;1818", 
                "yn": "1739;1739;1857;1857", 
                "confidence": 1.0
            }, 
            {
                "class": "Wall", 
                "xn": "513;554;554;513", 
                "yn": "1650;1650;2058;2058", 
                "confidence": 1.0
            }, 
            {
                "class": "Wall", 
                "xn": "1818;1859;1859;1818", 
                "yn": "1030;1030;1267;1267", 
                "confidence": 1.0
            }, 
            {
                "class": "Wall", 
                "xn": "1303;1512;1512;1303", 
                "yn": "2110;2110;2152;2152", 
                "confidence": 1.0
            }, 
            {
                "class": "Wall", 
                "xn": "513;554;554;513", 
                "yn": "1030;1030;1220;1220", 
                "confidence": 1.0
            }, 
            {
                "class": "Wall", 
                "xn": "513;554;554;513", 
                "yn": "1361;1361;1556;1556", 
                "confidence": 1.0
            }, 
            {
                "class": "Wall", 
                "xn": "1651;1860;1860;1651", 
                "yn": "2111;2111;2152;2152", 
                "confidence": 1.0
            }, 
            {
                "class": "Wall", 
                "xn": "1817;1859;1859;1817", 
                "yn": "1408;1408;1633;1633", 
                "confidence": 1.0
            }, 
            {
                "class": "Wall", 
                "xn": "1818;1859;1859;1818", 
                "yn": "1951;1951;2152;2152", 
                "confidence": 1.0
            }, 
            {
                "class": "Wall", 
                "xn": "1480;1860;1860;1480", 
                "yn": "1520;1520;1544;1544", 
                "confidence": 1.0
            }, 
            {
                "class": "Wall", 
                "xn": "907;1276;1276;907", 
                "yn": "1520;1520;1544;1544", 
                "confidence": 1.0
            }, 
            {
                "class": "Wall", 
                "xn": "1269;1275;1275;1269", 
                "yn": "1030;1030;1420;1420", 
                "confidence": 1.0
            }, 
            {
                "class": "Wall", 
                "xn": "908;915;915;908", 
                "yn": "1030;1030;1420;1420", 
                "confidence": 1.0
            }, 
            {
                "class": "Wall", 
                "xn": "1481;1487;1487;1481", 
                "yn": "1030;1030;1420;1420", 
                "confidence": 1.0
            }, 
            {
                "class": "Wall", 
                "xn": "1598;1860;1860;1598", 
                "yn": "1751;1751;1757;1757", 
                "confidence": 1.0
            }, 
            {
                "class": "Wall", 
                "xn": "512;809;809;512", 
                "yn": "1538;1538;1544;1544", 
                "confidence": 1.0
            }, 
            {
                "class": "Wall", 
                "xn": "1480;1487;1487;1480", 
                "yn": "1520;1520;1644;1644", 
                "confidence": 1.0
            }, 
            {
                "class": "Wall", 
                "xn": "1268;1382;1382;1268", 
                "yn": "1261;1261;1267;1267", 
                "confidence": 1.0
            }, 
            {
                "class": "Wall", 
                "xn": "1374;1381;1381;1374", 
                "yn": "1261;1261;1414;1414", 
                "confidence": 1.0
            }, 
            {
                "class": "Wall", 
                "xn": "1102;1382;1382;1102", 
                "yn": "1638;1638;1644;1644", 
                "confidence": 1.0
            }, 
            {
                "class": "Wall", 
                "xn": "1338;1500;1500;1338", 
                "yn": "1751;1751;1757;1757", 
                "confidence": 1.0
            }, 
            {
                "class": "Wall", 
                "xn": "1339;1347;1347;1339", 
                "yn": "1751;1751;1916;1916", 
                "confidence": 1.0
            }, 
            {
                "class": "Stair", 
                "xn": "1173;1174;1349;1350;1350;1349;1174;1173", 
                "yn": "1544;1543;1543;1544;1636;1637;1637;1636", 
                "confidence": 1.0
            }, 
            {
                "class": "Text", 
                "height": 30, 
                "width": 116, 
                "x": 1314, 
                "y": 1133, 
                "text": "bains", 
                "confidence": "0.92"
            }, 
            {
                "class": "Text", 
                "height": 31, 
                "width": 90, 
                "x": 669, 
                "y": 1274, 
                "text": "ch", 
                "confidence": "0.87"
            }, 
            {
                "class": "Text", 
                "height": 30, 
                "width": 90, 
                "x": 1059, 
                "y": 1269, 
                "text": "ch 2", 
                "confidence": "0.94"
            }, 
            {
                "class": "Text", 
                "height": 31, 
                "width": 84, 
                "x": 1614, 
                "y": 1269, 
                "text": "ch 1", 
                "confidence": "0.93"
            }, 
            {
                "class": "Text", 
                "height": 31, 
                "width": 77, 
                "x": 1294, 
                "y": 1304, 
                "text": "wc", 
                "confidence": "0.82"
            }, 
            {
                "class": "Text", 
                "height": 31, 
                "width": 115, 
                "x": 1309, 
                "y": 1457, 
                "text": "degt", 
                "confidence": "0.93"
            }, 
            {
                "class": "Text", 
                "height": 29, 
                "width": 98, 
                "x": 1539, 
                "y": 1647, 
                "text": "hall", 
                "confidence": "0.96"
            }, 
            {
                "class": "Text", 
                "height": 30, 
                "width": 163, 
                "x": 875, 
                "y": 1747, 
                "text": "sejour", 
                "confidence": "0.88"
            }, 
            {
                "class": "Text", 
                "height": 31, 
                "width": 160, 
                "x": 1466, 
                "y": 1906, 
                "text": "cuisine", 
                "confidence": "0.88"
            }, 
            {
                "class": "Unknown", 
                "xn": "1289;1367;1367;1289", 
                "yn": "1413;1413;1434;1434"
            }
        ], 
        "class": "image", 
        "filename": "fp_36.png"
    }
]