[
    {
        "annotations": [
            {
                "class": "Room", 
                "type": "single", 
                "xn": "1983;1983;1984;1984;2215;2216;2311;2311;2310;2310;2311;2311;2081;2080", 
                "yn": "1007;1118;1119;1524;1524;1525;1525;1481;1480;1473;1472;1008;1008;1007", 
                "text": "bedroom 1", 
                "x": 2121, 
                "y": 1160
            }, 
            {
                "class": "Room", 
                "type": "single", 
                "xn": "2320;2320;2319;2319;2320;2320;2319;2318;2318;2319;2320;2320;2319;2319;2372;2373;2373;2372;2372;2660;2661;2728;2728;2729;2734;2735;2735;2800;2801;2907;2907;2906;2906;2907;2907", 
                "yn": "789;806;807;898;899;908;909;909;1000;1000;1001;1007;1008;1472;1472;1473;1480;1481;1525;1525;1524;1524;1507;1506;1506;1507;1523;1523;1524;1524;1084;1083;941;940;789", 
                "text": "dining", 
                "x": 2615, 
                "y": 1177
            }, 
            {
                "class": "Room", 
                "type": "single", 
                "xn": "1989;1988;1727;1727;1805;1806;1806;1805;1729;1729;1809;1810;1918;1919;1974;1974;1975;1980;1981;2080;2081;2310;2310;2309;2309;2310;2310;2208;2207;2087;2086", 
                "yn": "788;789;789;888;888;889;895;896;896;1118;1118;1117;1117;1118;1118;1001;1000;1000;999;999;1000;1000;899;898;805;804;788;788;789;789;788", 
                "text": "entry", 
                "x": 2067, 
                "y": 912
            }, 
            {
                "class": "Room", 
                "type": "single", 
                "xn": "1440;1439;1104;1104;1103;1102;1102;1103;1103;1319;1320;1460;1461;1720;1720;1719;1719;1718;1718;1537;1536", 
                "yn": "788;789;789;883;884;884;1023;1024;1118;1118;1117;1117;1118;1118;896;895;889;888;789;789;788", 
                "text": "kitchen", 
                "x": 1393, 
                "y": 923
            }, 
            {
                "class": "Room", 
                "type": "single", 
                "xn": "2207;2207;2309;2309", 
                "yn": "682;780;780;682", 
                "text": "unknown room", 
                "x": 2258, 
                "y": 731
            }, 
            {
                "class": "Room", 
                "type": "single", 
                "xn": "2467;2467;2468;2468;2467;2317;2317;2907;2907;2906;2906;2907;2907", 
                "yn": "412;675;676;682;683;683;781;781;688;687;545;544;412", 
                "text": "bedroom 2", 
                "x": 2684, 
                "y": 569
            }, 
            {
                "class": "Room", 
                "type": "single", 
                "xn": "2291;2290;2095;2095;2198;2198;2199;2204;2205;2310;2311;2459;2459;2358;2357", 
                "yn": "411;412;412;781;781;676;675;675;674;674;675;675;412;412;411", 
                "text": "unknown room", 
                "x": 2263, 
                "y": 562
            }, 
            {
                "class": "Room", 
                "type": "single", 
                "xn": "1700;1699;1652;1652;1653;1653;2086;2087;2087;1839;1838", 
                "yn": "411;412;412;763;764;780;780;781;412;412;411", 
                "text": "bedroom 3", 
                "x": 1934, 
                "y": 581
            }, 
            {
                "class": "Room", 
                "type": "single", 
                "xn": "1470;1469;1427;1427;1426;1426;1437;1438;1626;1626;1537;1536;1536", 
                "yn": "393;394;394;664;665;764;764;763;763;412;412;411;393", 
                "text": "cellar", 
                "x": 1514, 
                "y": 569
            }, 
            {
                "class": "Room", 
                "type": "single", 
                "xn": "1021;1020;642;642;641;641;642;642;822;823;829;830;836;837;843;844;850;851;856;857;863;864;870;871;885;886;886;1418;1418;1419;1419;1089;1088", 
                "yn": "393;394;394;440;441;722;723;754;754;755;755;756;756;757;757;758;758;759;759;760;760;761;761;762;762;763;764;764;663;662;394;394;393", 
                "text": "unknown room", 
                "x": 1032, 
                "y": 577
            }, 
            {
                "class": "Door", 
                "xn": "2205;2311;2311;2205", 
                "yn": "675;675;682;682", 
                "confidence": 1.0
            }, 
            {
                "class": "Door", 
                "xn": "1438;1537;1537;1438", 
                "yn": "764;764;788;788", 
                "confidence": 1.0
            }, 
            {
                "class": "Door", 
                "xn": "1987;2087;2087;1987", 
                "yn": "781;781;788;788", 
                "confidence": 1.0
            }, 
            {
                "class": "Door", 
                "xn": "2733;2801;2801;2733", 
                "yn": "1524;1524;1530;1530", 
                "confidence": 1.0
            }, 
            {
                "class": "Door", 
                "xn": "2206;2311;2311;2206", 
                "yn": "781;781;788;788", 
                "confidence": 1.0
            }, 
            {
                "class": "Door", 
                "xn": "1981;2081;2081;1981", 
                "yn": "1000;1000;1007;1007", 
                "confidence": 1.0
            }, 
            {
                "class": "Door", 
                "xn": "1810;1919;1919;1810", 
                "yn": "1118;1118;1161;1161", 
                "confidence": 1.0
            }, 
            {
                "class": "Door", 
                "xn": "2661;2729;2729;2661", 
                "yn": "1525;1525;1530;1530", 
                "confidence": 1.0
            }, 
            {
                "class": "Door", 
                "xn": "1719;1727;1727;1719", 
                "yn": "787;787;889;889", 
                "confidence": 1.0
            }, 
            {
                "class": "Door", 
                "xn": "2310;2319;2319;2310", 
                "yn": "805;805;899;899", 
                "confidence": 1.0
            }, 
            {
                "class": "Door", 
                "xn": "1419;1426;1426;1419", 
                "yn": "663;663;765;765", 
                "confidence": 1.0
            }, 
            {
                "class": "Door", 
                "xn": "2310;2317;2317;2310", 
                "yn": "681;681;782;782", 
                "confidence": 1.0
            }, 
            {
                "class": "Door", 
                "xn": "2311;2318;2318;2311", 
                "yn": "907;907;1001;1001", 
                "confidence": 1.0
            }, 
            {
                "class": "Window", 
                "xn": "1468;1537;1537;1468", 
                "yn": "368;368;393;393", 
                "confidence": 1.0
            }, 
            {
                "class": "Window", 
                "xn": "1698;1839;1839;1698", 
                "yn": "368;368;411;411", 
                "confidence": 1.0
            }, 
            {
                "class": "Window", 
                "xn": "2076;2216;2216;2076", 
                "yn": "1525;1525;1568;1568", 
                "confidence": 1.0
            }, 
            {
                "class": "Window", 
                "xn": "1059;1102;1102;1059", 
                "yn": "882;882;1024;1024", 
                "confidence": 1.0
            }, 
            {
                "class": "Window", 
                "xn": "2907;2950;2950;2907", 
                "yn": "941;941;1084;1084", 
                "confidence": 1.0
            }, 
            {
                "class": "Window", 
                "xn": "1019;1089;1089;1019", 
                "yn": "368;368;393;393", 
                "confidence": 1.0
            }, 
            {
                "class": "Window", 
                "xn": "2907;2950;2950;2907", 
                "yn": "545;545;688;688", 
                "confidence": 1.0
            }, 
            {
                "class": "Window", 
                "xn": "2289;2358;2358;2289", 
                "yn": "368;368;411;411", 
                "confidence": 1.0
            }, 
            {
                "class": "Window", 
                "xn": "1320;1461;1461;1320", 
                "yn": "1118;1118;1161;1161", 
                "confidence": 1.0
            }, 
            {
                "class": "Window", 
                "xn": "616;641;641;616", 
                "yn": "439;439;723;723", 
                "confidence": 1.0
            }, 
            {
                "class": "Window", 
                "xn": "2662;2801;2801;2662", 
                "yn": "1568;1568;1525;1526", 
                "confidence": 0.6
            }, 
            {
                "class": "Wall", 
                "xn": "2908;2950;2950;2908", 
                "yn": "1084;1084;1568;1568", 
                "confidence": 1.0
            }, 
            {
                "class": "Wall", 
                "xn": "2216;2662;2662;2216", 
                "yn": "1526;1526;1568;1568", 
                "confidence": 1.0
            }, 
            {
                "class": "Wall", 
                "xn": "1939;1983;1983;1939", 
                "yn": "1119;1119;1568;1568", 
                "confidence": 1.0
            }, 
            {
                "class": "Wall", 
                "xn": "1839;2290;2290;1839", 
                "yn": "369;369;411;411", 
                "confidence": 1.0
            }, 
            {
                "class": "Wall", 
                "xn": "1059;1321;1321;1059", 
                "yn": "1119;1119;1161;1161", 
                "confidence": 1.0
            }, 
            {
                "class": "Wall", 
                "xn": "1461;1811;1811;1461", 
                "yn": "1119;1119;1161;1161", 
                "confidence": 1.0
            }, 
            {
                "class": "Wall", 
                "xn": "2358;2951;2951;2358", 
                "yn": "369;369;411;411", 
                "confidence": 1.0
            }, 
            {
                "class": "Wall", 
                "xn": "2908;2950;2950;2908", 
                "yn": "369;369;546;546", 
                "confidence": 1.0
            }, 
            {
                "class": "Wall", 
                "xn": "2908;2950;2950;2908", 
                "yn": "688;688;942;942", 
                "confidence": 1.0
            }, 
            {
                "class": "Wall", 
                "xn": "1059;1103;1103;1059", 
                "yn": "765;765;883;883", 
                "confidence": 1.0
            }, 
            {
                "class": "Wall", 
                "xn": "2801;2951;2951;2801", 
                "yn": "1525;1525;1568;1568", 
                "confidence": 1.0
            }, 
            {
                "class": "Wall", 
                "xn": "1939;2077;2077;1939", 
                "yn": "1525;1525;1568;1568", 
                "confidence": 1.0
            }, 
            {
                "class": "Wall", 
                "xn": "1537;1699;1699;1537", 
                "yn": "369;369;411;411", 
                "confidence": 1.0
            }, 
            {
                "class": "Wall", 
                "xn": "1060;1102;1102;1060", 
                "yn": "1024;1024;1161;1161", 
                "confidence": 1.0
            }, 
            {
                "class": "Wall", 
                "xn": "1089;1469;1469;1089", 
                "yn": "369;369;393;393", 
                "confidence": 1.0
            }, 
            {
                "class": "Wall", 
                "xn": "1627;1651;1651;1627", 
                "yn": "369;369;788;788", 
                "confidence": 1.0
            }, 
            {
                "class": "Wall", 
                "xn": "616;1020;1020;616", 
                "yn": "369;369;393;393", 
                "confidence": 1.0
            }, 
            {
                "class": "Wall", 
                "xn": "617;641;641;617", 
                "yn": "369;369;440;440", 
                "confidence": 1.0
            }, 
            {
                "class": "Wall", 
                "xn": "617;641;641;617", 
                "yn": "723;723;788;788", 
                "confidence": 1.0
            }, 
            {
                "class": "Wall", 
                "xn": "1537;1652;1652;1537", 
                "yn": "764;764;788;788", 
                "confidence": 1.0
            }, 
            {
                "class": "Wall", 
                "xn": "888;1439;1439;888", 
                "yn": "765;765;788;788", 
                "confidence": 1.0
            }, 
            {
                "class": "Wall", 
                "xn": "1919;1939;1939;1919", 
                "yn": "1119;1119;1161;1161", 
                "confidence": 1.0
            }, 
            {
                "class": "Wall", 
                "xn": "616;819;819;616", 
                "yn": "755;755;788;788", 
                "confidence": 1.0
            }, 
            {
                "class": "Wall", 
                "xn": "1915;1983;1983;1915", 
                "yn": "1119;1119;1158;1158", 
                "confidence": 1.0
            }, 
            {
                "class": "Wall", 
                "xn": "2365;2371;2371;2365", 
                "yn": "1473;1473;1568;1568", 
                "confidence": 1.0
            }, 
            {
                "class": "Wall", 
                "xn": "2312;2318;2318;2312", 
                "yn": "1001;1001;1568;1568", 
                "confidence": 1.0
            }, 
            {
                "class": "Wall", 
                "xn": "2088;2094;2094;2088", 
                "yn": "369;369;788;788", 
                "confidence": 1.0
            }, 
            {
                "class": "Wall", 
                "xn": "1721;1728;1728;1721", 
                "yn": "889;889;1161;1161", 
                "confidence": 1.0
            }, 
            {
                "class": "Wall", 
                "xn": "2460;2466;2466;2460", 
                "yn": "369;369;682;682", 
                "confidence": 1.0
            }, 
            {
                "class": "Wall", 
                "xn": "2311;2951;2951;2311", 
                "yn": "782;782;788;788", 
                "confidence": 1.0
            }, 
            {
                "class": "Wall", 
                "xn": "1975;1982;1982;1975", 
                "yn": "1001;1001;1568;1568", 
                "confidence": 1.0
            }, 
            {
                "class": "Wall", 
                "xn": "1420;1426;1426;1420", 
                "yn": "369;369;664;664", 
                "confidence": 1.0
            }, 
            {
                "class": "Wall", 
                "xn": "1537;1988;1988;1537", 
                "yn": "781;781;788;788", 
                "confidence": 1.0
            }, 
            {
                "class": "Wall", 
                "xn": "823;885;885;823", 
                "yn": "763;763;768;768", 
                "confidence": 1.0
            }, 
            {
                "class": "Wall", 
                "xn": "2311;2372;2372;2311", 
                "yn": "1473;1473;1480;1480", 
                "confidence": 1.0
            }, 
            {
                "class": "Wall", 
                "xn": "2081;2319;2319;2081", 
                "yn": "1001;1001;1007;1007", 
                "confidence": 1.0
            }, 
            {
                "class": "Wall", 
                "xn": "2087;2207;2207;2087", 
                "yn": "782;782;788;788", 
                "confidence": 1.0
            }, 
            {
                "class": "Wall", 
                "xn": "1720;1805;1805;1720", 
                "yn": "889;889;895;895", 
                "confidence": 1.0
            }, 
            {
                "class": "Wall", 
                "xn": "2311;2467;2467;2311", 
                "yn": "676;676;682;682", 
                "confidence": 1.0
            }, 
            {
                "class": "Wall", 
                "xn": "2199;2206;2206;2199", 
                "yn": "676;676;788;788", 
                "confidence": 1.0
            }, 
            {
                "class": "Text", 
                "height": 31, 
                "width": 167, 
                "x": 1431, 
                "y": 554, 
                "text": "cellier", 
                "confidence": "0.88"
            }, 
            {
                "class": "Text", 
                "height": 31, 
                "width": 233, 
                "x": 1818, 
                "y": 566, 
                "text": "chambre 3", 
                "confidence": "0.78"
            }, 
            {
                "class": "Text", 
                "height": 30, 
                "width": 233, 
                "x": 2568, 
                "y": 554, 
                "text": "chambre 2", 
                "confidence": "0.91"
            }, 
            {
                "class": "Text", 
                "height": 31, 
                "width": 161, 
                "x": 1313, 
                "y": 908, 
                "text": "cuisine", 
                "confidence": "0.83"
            }, 
            {
                "class": "Text", 
                "height": 30, 
                "width": 97, 
                "x": 2019, 
                "y": 897, 
                "text": "hall", 
                "confidence": "0.82"
            }, 
            {
                "class": "Text", 
                "height": 30, 
                "width": 228, 
                "x": 2007, 
                "y": 1145, 
                "text": "chambre 1", 
                "confidence": "0.9"
            }, 
            {
                "class": "Text", 
                "height": 31, 
                "width": 162, 
                "x": 2534, 
                "y": 1162, 
                "text": "sejour", 
                "confidence": "0.71"
            }, 
            {
                "class": "Unknown", 
                "xn": "819;888;888;819", 
                "yn": "788;788;765;755"
            }, 
            {
                "class": "Unknown", 
                "xn": "2200;2315;2315;2200", 
                "yn": "702;702;759;759"
            }, 
            {
                "class": "Unknown", 
                "xn": "2205;2320;2320;2205", 
                "yn": "533;533;590;590"
            }, 
            {
                "class": "Unknown", 
                "xn": "974;1089;1089;974", 
                "yn": "548;548;605;605"
            }
        ], 
        "class": "image", 
        "filename": "fp_45.png"
    }
]