[
    {
        "annotations": [
            {
                "class": "Room", 
                "type": "single", 
                "xn": "655;657;658;660;661;664;665;667;668;670;671;674;675;677;678;680;681;683;684;687;688;690;691;693;694;697;698;700;701;703;704;706;707;710;711;713;714;716;717;720;721;723;724;726;727;729;730;733;734;736;737;739;740;743;744;746;747;749;750;752;753;756;757;759;760;762;763;766;767;769;770;772;773;775;776;779;780;782;783;785;786;789;790;792;793;795;796;798;799;802;803;805;806;808;809;812;813;815;816;818;819;821;822;825;826;828;829;831;832;835;836;838;839;841;842;844;845;848;849;851;852;854;855;858;859;861;862;864;865;867;868;871;872;874;875;877;878;881;882;884;885;887;888;890;891;894;894", 
                "yn": "2726;2726;2727;2727;2728;2728;2729;2729;2730;2730;2731;2731;2732;2732;2733;2733;2734;2734;2735;2735;2736;2736;2737;2737;2738;2738;2739;2739;2740;2740;2741;2741;2742;2742;2743;2743;2744;2744;2745;2745;2746;2746;2747;2747;2748;2748;2749;2749;2750;2750;2751;2751;2752;2752;2753;2753;2754;2754;2755;2755;2756;2756;2757;2757;2758;2758;2759;2759;2760;2760;2761;2761;2762;2762;2763;2763;2764;2764;2765;2765;2766;2766;2767;2767;2768;2768;2769;2769;2770;2770;2771;2771;2772;2772;2773;2773;2774;2774;2775;2775;2776;2776;2777;2777;2778;2778;2779;2779;2780;2780;2781;2781;2782;2782;2783;2783;2784;2784;2785;2785;2786;2786;2787;2787;2788;2788;2789;2789;2790;2790;2791;2791;2792;2792;2793;2793;2794;2794;2795;2795;2796;2796;2797;2797;2798;2798;2726", 
                "text": "unknown room", 
                "x": 814, 
                "y": 2750
            }, 
            {
                "class": "Room", 
                "type": "single", 
                "xn": "904;904;903;903;904;904;1020;1020;1019;1019;1020;1020", 
                "yn": "2543;2613;2614;2712;2713;2801;2801;2713;2712;2612;2611;2543", 
                "text": "bathroom", 
                "x": 951, 
                "y": 2646
            }, 
            {
                "class": "Room", 
                "type": "single", 
                "xn": "687;686;568;568;567;567;568;568;895;895;896;896", 
                "yn": "2006;2007;2007;2093;2094;2186;2187;2299;2299;2080;2079;2006", 
                "text": "office", 
                "x": 730, 
                "y": 2162
            }, 
            {
                "class": "Room", 
                "type": "single", 
                "xn": "1012;1012;1085;1086;1185;1185;1184;1184;1185;1522;1522;1521;1521", 
                "yn": "1947;2358;2358;2357;2357;2283;2282;2276;2275;2275;1983;1982;1947", 
                "text": "bedroom 1", 
                "x": 1280, 
                "y": 2121
            }, 
            {
                "class": "Room", 
                "type": "single", 
                "xn": "793;793;792;568;568;567;567;568;568;790;791;896;896;890;889;888;888;887;887;886;886;885;885;884;884;883;883;882;881;880;879;878;877;876;875;874;873;872;871;870;869;868;867;866;865;864;863;862;861;860;859;858;857;856;855;854;853;852;851;850;849;848;847;846;845;844;843;842;841;840;839;838;837;836;835;834;833;832;831;830;829;828;827;826;825;824;823;822;821;820;819;818;817;816;814;814;813;813;812;812;811;811;810;810;809;809;808;808;807;807;806;806", 
                "yn": "1119;1124;1125;1125;1208;1209;1277;1278;1301;1301;1300;1300;1120;1120;1119;1119;1130;1131;1146;1147;1162;1163;1178;1179;1194;1195;1203;1204;1203;1203;1202;1202;1201;1201;1200;1200;1199;1199;1198;1198;1197;1197;1196;1196;1195;1195;1194;1194;1193;1193;1192;1192;1191;1191;1190;1190;1189;1189;1188;1188;1187;1187;1186;1186;1185;1185;1184;1184;1183;1183;1182;1182;1181;1181;1180;1180;1179;1179;1178;1178;1177;1177;1176;1176;1175;1175;1174;1174;1173;1173;1172;1172;1171;1171;1169;1166;1165;1160;1159;1154;1153;1148;1147;1141;1140;1135;1134;1129;1128;1123;1122;1119", 
                "text": "cellar", 
                "x": 725, 
                "y": 1229
            }, 
            {
                "class": "Room", 
                "type": "single", 
                "xn": "1130;1129;786;786;785;785;786;786;790;791;799;799;798;798;797;797;796;796;795;795;794;794;793;793;792;792;791;791;790;790;791;1539;1540;1540;1539;891;1540;1540;1539;1539;1540;1540;1197;1196", 
                "yn": "440;441;441;464;465;1053;1054;1076;1076;1075;1075;1073;1072;1066;1065;1060;1059;1054;1053;1048;1047;1041;1040;1035;1034;1029;1028;1023;1022;1019;1018;1018;1019;1075;1076;1076;1076;953;952;740;739;441;441;440", 
                "text": "garage", 
                "x": 1266, 
                "y": 863
            }, 
            {
                "class": "Room", 
                "type": "open", 
                "xn": "569;570;894;895;895;894;643;642;642;641;615;614;570;569", 
                "yn": "2309;2308;2308;2309;2720;2721;2721;2722;2726;2727;2727;2728;2728;2727", 
                "text": "bedroom 3", 
                "x": 697, 
                "y": 2487
            }, 
            {
                "class": "Room", 
                "type": "open", 
                "xn": "1195;1196;1520;1521;1521;1520;1196;1195", 
                "yn": "2285;2284;2284;2285;2462;2463;2463;2462", 
                "text": "bathroom", 
                "x": 1364, 
                "y": 2410
            }, 
            {
                "class": "Room", 
                "type": "open", 
                "xn": "905;906;999;1000;1000;1001;1192;1193;1193;1192;1184;1183;1183;1184;1520;1521;1521;1520;1031;1030;1030;1031;1087;1088;1088;1087;906;905", 
                "yn": "1998;1997;1997;1998;2366;2367;2367;2368;2462;2463;2463;2464;2472;2473;2473;2474;2799;2800;2800;2799;2473;2472;2472;2471;2463;2462;2462;2461", 
                "text": "bedroom 2", 
                "x": 1187, 
                "y": 2587
            }, 
            {
                "class": "Room", 
                "type": "open", 
                "xn": "682;683;999;1000;1000;999;688;687;687;686;686;685;685;684;684;683;683;682", 
                "yn": "1906;1905;1905;1906;1994;1995;1995;1994;1961;1960;1951;1950;1940;1939;1930;1929;1919;1918", 
                "text": "toilet", 
                "x": 833, 
                "y": 1938
            }, 
            {
                "class": "Room", 
                "type": "open", 
                "xn": "1012;1013;1791;1792;1779;1779;1751;1751;1723;1723;1696;1696;1668;1668;1640;1640;1612;1612;1585;1585;1579;1578;1578;1577;1013;1012;1012;1011;906;905;905;904;689;688;688;689;1011;1012", 
                "yn": "1721;1720;1720;1721;1734;1735;1763;1764;1792;1793;1820;1821;1849;1850;1878;1879;1907;1908;1935;1936;1942;1941;1938;1937;1937;1936;1890;1889;1889;1888;1885;1884;1884;1883;1730;1729;1729;1728", 
                "text": "entry", 
                "x": 917, 
                "y": 1796
            }, 
            {
                "class": "Room", 
                "type": "open", 
                "xn": "1785;1786;1797;1798;1798;1795;906;905;905;906;917;918;930;931;943;944;956;957;969;970;983;984;996;997;1009;1010;1022;1023;1035;1036;1048;1049;1062;1063;1075;1076;1088;1089;1101;1102;1114;1115;1127;1128;1140;1141;1154;1155;1167;1168;1180;1181;1193;1194;1206;1207;1219;1220;1233;1234;1246;1247;1259;1260;1272;1273;1285;1286;1298;1299;1312;1313;1325;1326;1338;1339;1351;1352;1364;1365;1377;1378;1391;1392;1404;1405;1417;1418;1430;1431;1443;1444;1456;1457;1470;1471;1483;1484;1496;1497;1509;1510;1522;1523;1535;1536;1549;1550;1562;1563;1575;1576;1588;1589;1601;1602;1614;1615;1627;1628;1641;1642;1654;1655;1667;1668;1680;1681;1693;1694;1706;1707;1720;1721;1733;1734;1746;1747;1759;1760;1772;1773", 
                "yn": "1407;1406;1406;1407;1715;1718;1718;1717;1474;1473;1473;1472;1472;1471;1471;1470;1470;1469;1469;1468;1468;1467;1467;1466;1466;1465;1465;1464;1464;1463;1463;1462;1462;1461;1461;1460;1460;1459;1459;1458;1458;1457;1457;1456;1456;1455;1455;1454;1454;1453;1453;1452;1452;1451;1451;1450;1450;1449;1449;1448;1448;1447;1447;1446;1446;1445;1445;1444;1444;1443;1443;1442;1442;1441;1441;1440;1440;1439;1439;1438;1438;1437;1437;1436;1436;1435;1435;1434;1434;1433;1433;1432;1432;1431;1431;1430;1430;1429;1429;1428;1428;1427;1427;1426;1426;1425;1425;1424;1424;1423;1423;1422;1422;1421;1421;1420;1420;1419;1419;1418;1418;1417;1417;1416;1416;1415;1415;1414;1414;1413;1413;1412;1412;1411;1411;1410;1410;1409;1409;1408;1408;1407", 
                "text": "dining", 
                "x": 1483, 
                "y": 1702
            }, 
            {
                "class": "Room", 
                "type": "open", 
                "xn": "569;570;902;903;903;902;570;569", 
                "yn": "1310;1309;1309;1310;1717;1718;1718;1717", 
                "text": "kitchen", 
                "x": 792, 
                "y": 1507
            }, 
            {
                "class": "Room", 
                "type": "open", 
                "xn": "905;906;1797;1798;1798;1797;1786;1785;1773;1772;1760;1759;1747;1746;1734;1733;1720;1719;1707;1706;1694;1693;1681;1680;1668;1667;1655;1654;1641;1640;1628;1627;1615;1614;1602;1601;1589;1588;1576;1575;1563;1562;1549;1548;1536;1535;1523;1522;1510;1509;1497;1496;1484;1483;1470;1469;1457;1456;1444;1443;1431;1430;1418;1417;1405;1404;1391;1390;1378;1377;1365;1364;1352;1351;1339;1338;1326;1325;1312;1311;1299;1298;1286;1285;1273;1272;1260;1259;1247;1246;1233;1232;1220;1219;1207;1206;1194;1193;1181;1180;1168;1167;1154;1153;1141;1140;1128;1127;1115;1114;1102;1101;1089;1088;1076;1075;1062;1061;1049;1048;1036;1035;1023;1022;1010;1009;997;996;983;982;970;969;957;956;944;943;931;930;918;917;906;905", 
                "yn": "1122;1121;1121;1122;1404;1405;1405;1406;1406;1407;1407;1408;1408;1409;1409;1410;1410;1411;1411;1412;1412;1413;1413;1414;1414;1415;1415;1416;1416;1417;1417;1418;1418;1419;1419;1420;1420;1421;1421;1422;1422;1423;1423;1424;1424;1425;1425;1426;1426;1427;1427;1428;1428;1429;1429;1430;1430;1431;1431;1432;1432;1433;1433;1434;1434;1435;1435;1436;1436;1437;1437;1438;1438;1439;1439;1440;1440;1441;1441;1442;1442;1443;1443;1444;1444;1445;1445;1446;1446;1447;1447;1448;1448;1449;1449;1450;1450;1451;1451;1452;1452;1453;1453;1454;1454;1455;1455;1456;1456;1457;1457;1458;1458;1459;1459;1460;1460;1461;1461;1462;1462;1463;1463;1464;1464;1465;1465;1466;1466;1467;1467;1468;1468;1469;1469;1470;1470;1471;1471;1472;1472;1471", 
                "text": "living", 
                "x": 1275, 
                "y": 1318
            }, 
            {
                "class": "Door", 
                "xn": "902;1020;1020;902", 
                "yn": "2464;2464;2471;2471", 
                "confidence": 1.0
            }, 
            {
                "class": "Door", 
                "xn": "791;890;890;791", 
                "yn": "1076;1076;1119;1119", 
                "confidence": 1.0
            }, 
            {
                "class": "Door", 
                "xn": "791;897;897;791", 
                "yn": "1301;1301;1308;1308", 
                "confidence": 1.0
            }, 
            {
                "class": "Door", 
                "xn": "903;1003;1003;903", 
                "yn": "1891;1891;1904;1904", 
                "confidence": 1.0
            }, 
            {
                "class": "Door", 
                "xn": "1086;1186;1186;1086", 
                "yn": "2358;2358;2365;2365", 
                "confidence": 1.0
            }, 
            {
                "class": "Door", 
                "xn": "896;903;903;896", 
                "yn": "2080;2080;2182;2182", 
                "confidence": 1.0
            }, 
            {
                "class": "Door", 
                "xn": "896;903;903;896", 
                "yn": "2612;2612;2713;2713", 
                "confidence": 1.0
            }, 
            {
                "class": "Door", 
                "xn": "1020;1027;1027;1020", 
                "yn": "2612;2612;2713;2713", 
                "confidence": 1.0
            }, 
            {
                "class": "Door", 
                "xn": "2081;2089;2089;2081", 
                "yn": "1477;1477;1577;1577", 
                "confidence": 1.0
            }, 
            {
                "class": "Door", 
                "xn": "895;903;903;895", 
                "yn": "2364;2364;2465;2465", 
                "confidence": 1.0
            }, 
            {
                "class": "Door", 
                "xn": "643;685;685;643", 
                "yn": "1886;1886;1780;1780", 
                "confidence": 0.8
            }, 
            {
                "class": "Door", 
                "xn": "580;581;642;641", 
                "yn": "2730;2749;2748;2729", 
                "confidence": 0.866666666667
            }, 
            {
                "class": "Door", 
                "xn": "1196;1196;1215;1215", 
                "yn": "2366;2451;2451;2366", 
                "confidence": 1.0
            }, 
            {
                "class": "Door", 
                "xn": "904;988;988;904", 
                "yn": "1974;1974;1993;1993", 
                "confidence": 1.0
            }, 
            {
                "class": "Window", 
                "xn": "524;567;567;524", 
                "yn": "1207;1207;1278;1278", 
                "confidence": 1.0
            }, 
            {
                "class": "Window", 
                "xn": "524;567;567;524", 
                "yn": "1431;1431;1573;1573", 
                "confidence": 1.0
            }, 
            {
                "class": "Window", 
                "xn": "1540;1565;1565;1540", 
                "yn": "740;740;953;953", 
                "confidence": 1.0
            }, 
            {
                "class": "Window", 
                "xn": "1175;1315;1315;1175", 
                "yn": "2801;2801;2843;2843", 
                "confidence": 1.0
            }, 
            {
                "class": "Window", 
                "xn": "524;567;567;524", 
                "yn": "2452;2452;2595;2595", 
                "confidence": 1.0
            }, 
            {
                "class": "Window", 
                "xn": "1128;1197;1197;1128", 
                "yn": "415;415;440;440", 
                "confidence": 1.0
            }, 
            {
                "class": "Window", 
                "xn": "524;567;567;524", 
                "yn": "2092;2092;2187;2187", 
                "confidence": 1.0
            }, 
            {
                "class": "Window", 
                "xn": "1799;1843;1843;1799", 
                "yn": "1118;1118;1343;1343", 
                "confidence": 1.0
            }, 
            {
                "class": "Window", 
                "xn": "1522;1565;1565;1522", 
                "yn": "2388;2388;2459;2459", 
                "confidence": 1.0
            }, 
            {
                "class": "Window", 
                "xn": "762;785;785;762", 
                "yn": "463;463;1054;1054", 
                "confidence": 1.0
            }, 
            {
                "class": "Window", 
                "xn": "1523;1565;1569;1523", 
                "yn": "2193;2193;2052;2052", 
                "confidence": 0.8
            }, 
            {
                "class": "Window", 
                "xn": "643;685;680;638", 
                "yn": "1951;1951;1904;1904", 
                "confidence": 0.8
            }, 
            {
                "class": "Window", 
                "xn": "1577;1577;1843;1800", 
                "yn": "1947;1982;1715;1715", 
                "confidence": 0.5
            }, 
            {
                "class": "Wall", 
                "xn": "525;567;567;525", 
                "yn": "1573;1573;1763;1763", 
                "confidence": 1.0
            }, 
            {
                "class": "Wall", 
                "xn": "525;567;567;525", 
                "yn": "2595;2595;2843;2843", 
                "confidence": 1.0
            }, 
            {
                "class": "Wall", 
                "xn": "1523;1565;1565;1523", 
                "yn": "2459;2459;2843;2843", 
                "confidence": 1.0
            }, 
            {
                "class": "Wall", 
                "xn": "890;1843;1843;890", 
                "yn": "1077;1077;1119;1119", 
                "confidence": 1.0
            }, 
            {
                "class": "Wall", 
                "xn": "1523;1565;1565;1523", 
                "yn": "2193;2193;2389;2389", 
                "confidence": 1.0
            }, 
            {
                "class": "Wall", 
                "xn": "524;686;686;524", 
                "yn": "1962;1962;2006;2006", 
                "confidence": 1.0
            }, 
            {
                "class": "Wall", 
                "xn": "525;567;567;525", 
                "yn": "1963;1963;2093;2093", 
                "confidence": 1.0
            }, 
            {
                "class": "Wall", 
                "xn": "525;567;567;525", 
                "yn": "1278;1278;1432;1432", 
                "confidence": 1.0
            }, 
            {
                "class": "Wall", 
                "xn": "525;567;567;525", 
                "yn": "2187;2187;2453;2453", 
                "confidence": 1.0
            }, 
            {
                "class": "Wall", 
                "xn": "524;686;686;524", 
                "yn": "1720;1720;1764;1764", 
                "confidence": 1.0
            }, 
            {
                "class": "Wall", 
                "xn": "525;567;567;525", 
                "yn": "1077;1077;1208;1208", 
                "confidence": 1.0
            }, 
            {
                "class": "Wall", 
                "xn": "524;1176;1176;524", 
                "yn": "2802;2802;2843;2843", 
                "confidence": 1.0
            }, 
            {
                "class": "Wall", 
                "xn": "1800;1843;1843;1800", 
                "yn": "1343;1343;1715;1715", 
                "confidence": 1.0
            }, 
            {
                "class": "Wall", 
                "xn": "1315;1566;1566;1315", 
                "yn": "2802;2802;2843;2843", 
                "confidence": 1.0
            }, 
            {
                "class": "Wall", 
                "xn": "1541;1565;1565;1541", 
                "yn": "416;416;741;741", 
                "confidence": 1.0
            }, 
            {
                "class": "Wall", 
                "xn": "1541;1565;1565;1541", 
                "yn": "953;953;1119;1119", 
                "confidence": 1.0
            }, 
            {
                "class": "Wall", 
                "xn": "1197;1566;1566;1197", 
                "yn": "416;416;440;440", 
                "confidence": 1.0
            }, 
            {
                "class": "Wall", 
                "xn": "760;1129;1129;760", 
                "yn": "416;416;440;440", 
                "confidence": 1.0
            }, 
            {
                "class": "Wall", 
                "xn": "761;785;785;761", 
                "yn": "1054;1054;1119;1119", 
                "confidence": 1.0
            }, 
            {
                "class": "Wall", 
                "xn": "763;785;785;763", 
                "yn": "416;416;464;464", 
                "confidence": 1.0
            }, 
            {
                "class": "Wall", 
                "xn": "642;904;904;642", 
                "yn": "1886;1886;1904;1904", 
                "confidence": 1.0
            }, 
            {
                "class": "Wall", 
                "xn": "643;685;685;643", 
                "yn": "1721;1721;1780;1780", 
                "confidence": 1.0
            }, 
            {
                "class": "Wall", 
                "xn": "643;685;685;643", 
                "yn": "1951;1951;2005;2005", 
                "confidence": 1.0
            }, 
            {
                "class": "Wall", 
                "xn": "1523;1569;1569;1523", 
                "yn": "1939;1939;2052;2052", 
                "confidence": 1.0
            }, 
            {
                "class": "Wall", 
                "xn": "1522;1577;1577;1522", 
                "yn": "1947;1947;1982;1982", 
                "confidence": 1.0
            }, 
            {
                "class": "Wall", 
                "xn": "524;792;792;524", 
                "yn": "1077;1077;1124;1124", 
                "confidence": 1.0
            }, 
            {
                "class": "Wall", 
                "xn": "1801;1842;1842;1801", 
                "yn": "1077;1077;1131;1131", 
                "confidence": 1.0
            }, 
            {
                "class": "Wall", 
                "xn": "524;1011;1011;524", 
                "yn": "1721;1721;1728;1728", 
                "confidence": 1.0
            }, 
            {
                "class": "Wall", 
                "xn": "1185;1566;1566;1185", 
                "yn": "2465;2465;2471;2471", 
                "confidence": 1.0
            }, 
            {
                "class": "Wall", 
                "xn": "897;903;903;897", 
                "yn": "1077;1077;1308;1308", 
                "confidence": 1.0
            }, 
            {
                "class": "Wall", 
                "xn": "1185;1566;1566;1185", 
                "yn": "2276;2276;2282;2282", 
                "confidence": 1.0
            }, 
            {
                "class": "Wall", 
                "xn": "524;904;904;524", 
                "yn": "1997;1997;2005;2005", 
                "confidence": 1.0
            }, 
            {
                "class": "Wall", 
                "xn": "524;792;792;524", 
                "yn": "1302;1302;1308;1308", 
                "confidence": 1.0
            }, 
            {
                "class": "Wall", 
                "xn": "524;904;904;524", 
                "yn": "2300;2300;2306;2306", 
                "confidence": 1.0
            }, 
            {
                "class": "Wall", 
                "xn": "1021;1027;1027;1021", 
                "yn": "2713;2713;2843;2843", 
                "confidence": 1.0
            }, 
            {
                "class": "Wall", 
                "xn": "897;903;903;897", 
                "yn": "2713;2713;2843;2843", 
                "confidence": 1.0
            }, 
            {
                "class": "Wall", 
                "xn": "1002;1577;1577;1002", 
                "yn": "1939;1939;1946;1946", 
                "confidence": 1.0
            }, 
            {
                "class": "Wall", 
                "xn": "1186;1193;1193;1186", 
                "yn": "2276;2276;2365;2365", 
                "confidence": 1.0
            }, 
            {
                "class": "Wall", 
                "xn": "897;903;903;897", 
                "yn": "1998;1998;2081;2081", 
                "confidence": 1.0
            }, 
            {
                "class": "Wall", 
                "xn": "896;903;903;896", 
                "yn": "2182;2182;2365;2365", 
                "confidence": 1.0
            }, 
            {
                "class": "Wall", 
                "xn": "1003;1011;1011;1003", 
                "yn": "1892;1892;2365;2365", 
                "confidence": 1.0
            }, 
            {
                "class": "Wall", 
                "xn": "1002;1087;1087;1002", 
                "yn": "2359;2359;2365;2365", 
                "confidence": 1.0
            }, 
            {
                "class": "Wall", 
                "xn": "1020;1087;1087;1020", 
                "yn": "2465;2465;2471;2471", 
                "confidence": 1.0
            }, 
            {
                "class": "Wall", 
                "xn": "896;903;903;896", 
                "yn": "2465;2465;2613;2613", 
                "confidence": 1.0
            }, 
            {
                "class": "Wall", 
                "xn": "1021;1028;1028;1021", 
                "yn": "2465;2465;2613;2613", 
                "confidence": 1.0
            }, 
            {
                "class": "Wall", 
                "xn": "896;1028;1028;896", 
                "yn": "2542;2542;2548;2548", 
                "confidence": 1.0
            }, 
            {
                "class": "Wall", 
                "xn": "903;1020;1020;903", 
                "yn": "2543;2543;2539;2539", 
                "confidence": 1.0
            }, 
            {
                "class": "Wall", 
                "xn": "643;896;896;643", 
                "yn": "2726;2726;2722;2722", 
                "confidence": 1.0
            }, 
            {
                "class": "Wall", 
                "xn": "895;896;643;642", 
                "yn": "2802;2799;2722;2725", 
                "confidence": 1.0
            }, 
            {
                "class": "Stair", 
                "xn": "790;791;1539;1540;1540;1539;891;891;890;890;889;889;888;888;887;887;886;886;885;885;884;884;883;883;882;881;880;879;878;877;876;875;874;873;872;871;870;869;868;867;866;865;864;863;862;861;860;859;858;857;856;855;854;853;852;851;850;849;848;847;846;845;844;843;842;841;840;839;838;837;836;835;834;833;832;831;830;829;828;827;826;825;824;823;822;821;820;819;818;817;816;814;814;813;813;812;812;811;811;810;810;809;809;808;808;807;807;806;806;805;805;804;804;803;803;802;802;801;801;800;800;799;799;798;798;797;797;796;796;795;795;794;794;793;793;792;792;791;791;790", 
                "yn": "1019;1018;1018;1019;1075;1076;1076;1082;1083;1098;1099;1114;1115;1130;1131;1146;1147;1162;1163;1178;1179;1194;1195;1203;1204;1203;1203;1202;1202;1201;1201;1200;1200;1199;1199;1198;1198;1197;1197;1196;1196;1195;1195;1194;1194;1193;1193;1192;1192;1191;1191;1190;1190;1189;1189;1188;1188;1187;1187;1186;1186;1185;1185;1184;1184;1183;1183;1182;1182;1181;1181;1180;1180;1179;1179;1178;1178;1177;1177;1176;1176;1175;1175;1174;1174;1173;1173;1172;1172;1171;1171;1169;1166;1165;1160;1159;1154;1153;1148;1147;1141;1140;1135;1134;1129;1128;1123;1122;1116;1115;1110;1109;1104;1103;1098;1097;1091;1090;1085;1084;1079;1078;1073;1072;1066;1065;1060;1059;1054;1053;1048;1047;1041;1040;1035;1034;1029;1028;1023;1022", 
                "confidence": 1.0
            }, 
            {
                "class": "Text", 
                "height": 25, 
                "width": 137, 
                "x": 1198, 
                "y": 851, 
                "text": "garage", 
                "confidence": "0.93"
            }, 
            {
                "class": "Text", 
                "height": 25, 
                "width": 133, 
                "x": 659, 
                "y": 1217, 
                "text": "cellier", 
                "confidence": "0.93"
            }, 
            {
                "class": "Text", 
                "height": 24, 
                "width": 107, 
                "x": 1222, 
                "y": 1306, 
                "text": "repas", 
                "confidence": "0.92"
            }, 
            {
                "class": "Text", 
                "height": 24, 
                "width": 129, 
                "x": 728, 
                "y": 1495, 
                "text": "cuisine", 
                "confidence": "0.9"
            }, 
            {
                "class": "Text", 
                "height": 24, 
                "width": 130, 
                "x": 1418, 
                "y": 1690, 
                "text": "sejour", 
                "confidence": "0.9"
            }, 
            {
                "class": "Text", 
                "height": 24, 
                "width": 80, 
                "x": 877, 
                "y": 1784, 
                "text": "hall", 
                "confidence": "0.97"
            }, 
            {
                "class": "Text", 
                "height": 24, 
                "width": 101, 
                "x": 513, 
                "y": 1855, 
                "text": "porche", 
                "confidence": "0.9"
            }, 
            {
                "class": "Text", 
                "height": 24, 
                "width": 54, 
                "x": 806, 
                "y": 1926, 
                "text": "wc", 
                "confidence": "0.9"
            }, 
            {
                "class": "Text", 
                "height": 24, 
                "width": 184, 
                "x": 1188, 
                "y": 2109, 
                "text": "chambre 1", 
                "confidence": "0.85"
            }, 
            {
                "class": "Text", 
                "height": 25, 
                "width": 132, 
                "x": 664, 
                "y": 2150, 
                "text": "bureau", 
                "confidence": "0.85"
            }, 
            {
                "class": "Text", 
                "height": 25, 
                "width": 95, 
                "x": 1317, 
                "y": 2398, 
                "text": "bains", 
                "confidence": "0.87"
            }, 
            {
                "class": "Text", 
                "height": 25, 
                "width": 187, 
                "x": 604, 
                "y": 2475, 
                "text": "chambre 3", 
                "confidence": "0.87"
            }, 
            {
                "class": "Text", 
                "height": 24, 
                "width": 106, 
                "x": 908, 
                "y": 2487, 
                "text": "placard", 
                "confidence": "0.64"
            }, 
            {
                "class": "Text", 
                "height": 25, 
                "width": 187, 
                "x": 1094, 
                "y": 2575, 
                "text": "chambre 2", 
                "confidence": "0.9"
            }, 
            {
                "class": "Text", 
                "height": 25, 
                "width": 137, 
                "x": 883, 
                "y": 2634, 
                "text": "douche", 
                "confidence": "0.84"
            }, 
            {
                "class": "Text", 
                "height": 24, 
                "width": 106, 
                "x": 684, 
                "y": 2753, 
                "text": "placard", 
                "confidence": "0.91"
            }, 
            {
                "class": "Unknown", 
                "xn": "764;863;863;764", 
                "yn": "2725;2725;2774;2774"
            }, 
            {
                "class": "Unknown", 
                "xn": "580;769;770;581", 
                "yn": "2770;2789;2770;2751"
            }
        ], 
        "class": "image", 
        "filename": "fp_54.png"
    }
]