[
    {
        "annotations": [
            {
                "class": "Room", 
                "type": "single", 
                "xn": "1015;1014;679;679;922;923;1124;1124", 
                "yn": "1217;1218;1218;1546;1546;1547;1547;1217", 
                "text": "bedroom 3", 
                "x": 925, 
                "y": 1363
            }, 
            {
                "class": "Room", 
                "type": "single", 
                "xn": "1132;1132;1165;1166;1306;1307;1490;1490;1242;1241;1241", 
                "yn": "1122;1547;1547;1546;1546;1547;1547;1200;1200;1199;1122", 
                "text": "bedroom 2", 
                "x": 1290, 
                "y": 1374
            }, 
            {
                "class": "Room", 
                "type": "single", 
                "xn": "678;678;677;677;678;679;679;1005;1005;1004;1004", 
                "yn": "1005;1016;1017;1086;1086;1087;1210;1210;1117;1116;1005", 
                "text": "bathroom", 
                "x": 832, 
                "y": 1067
            }, 
            {
                "class": "Room", 
                "type": "single", 
                "xn": "1015;1014;1014;1015;1015;1124;1124;1125;1129;1130;1241;1242;1488;1488;1112;1111", 
                "yn": "1004;1005;1116;1117;1209;1209;1117;1116;1116;1115;1115;1116;1116;1005;1005;1004", 
                "text": "unknown room", 
                "x": 1221, 
                "y": 1076
            }, 
            {
                "class": "Room", 
                "type": "single", 
                "xn": "1788;1788;1787;1776;1776;1777;1777;1956;1956;1957;1957;1862;1861", 
                "yn": "555;798;799;799;909;910;995;995;797;796;556;556;555", 
                "text": "unknown room", 
                "x": 1869, 
                "y": 778
            }, 
            {
                "class": "Room", 
                "type": "open", 
                "xn": "1499;1500;1502;1503;1506;1507;1511;1512;1515;1516;1519;1520;1524;1525;1528;1529;1533;1534;1537;1538;1542;1543;1546;1547;1550;1551;1555;1556;1559;1560;1564;1565;1568;1569;1573;1574;1577;1578;1582;1583;1586;1587;1590;1591;1595;1596;1599;1600;1604;1605;1608;1609;1613;1614;1617;1618;1621;1622;1626;1627;1630;1631;1635;1636;1639;1640;1644;1645;1648;1649;1652;1653;1657;1658;1661;1662;1666;1667;1670;1671;1675;1676;1679;1680;1683;1684;1688;1689;1692;1693;1697;1698;1701;1702;1706;1707;1710;1711;1715;1716;1719;1720;1723;1724;1728;1729;1732;1733;1737;1738;1741;1742;1746;1747;1750;1751;1754;1755;1759;1760;1763;1764;1768;1769;1772;1773;1777;1778;1781;1782;1785;1786;1790;1791;1794;1795;1799;1800;1803;1804;1808;1809;1812;1813;1816;1817;1821;1822;1825;1826;1830;1831;1834;1835;1839;1840;1843;1844;1848;1849;1852;1853;1856;1857;1861;1862;1865;1866;1870;1871;1874;1875;1879;1880;1883;1884;1887;1888;1892;1893;1896;1897;1901;1902;1905;1906;1910;1911;1914;1915;1918;1919;1923;1924;1927;1928;1932;1933;1936;1937;1941;1942;1945;1946;1949;1950;1954;1955;1958;1959;1963;1964;1967;1968;1972;1973;1976;1977;1981;1982;1985;1986;1989;1990;1994;1995;1998;1999;2003;2004;2007;2008;2012;2013;2016;2017;2020;2021;2025;2026;2029;2030;2034;2035;2038;2039;2043;2044;2047;2048;2051;2052;2056;2057;2060;2061;2065;2066;2069;2070;2074;2075;2078;2079;2082;2083;2087;2088;2091;2092;2096;2097;2100;2101;2105;2106;2109;2110;2114;2115;2118;2119;2122;2123;2127;2128;2131;2132;2136;2137;2140;2141;2145;2146;2149;2150;2153;2154;2158;2159;2161;2162;2162;2161;1500;1499", 
                "yn": "1502;1501;1501;1502;1502;1503;1503;1504;1504;1505;1505;1506;1506;1507;1507;1508;1508;1509;1509;1510;1510;1511;1511;1512;1512;1513;1513;1514;1514;1515;1515;1516;1516;1517;1517;1518;1518;1519;1519;1520;1520;1521;1521;1522;1522;1523;1523;1524;1524;1525;1525;1526;1526;1527;1527;1528;1528;1529;1529;1530;1530;1531;1531;1532;1532;1533;1533;1534;1534;1535;1535;1536;1536;1537;1537;1538;1538;1539;1539;1540;1540;1541;1541;1542;1542;1543;1543;1544;1544;1545;1545;1546;1546;1547;1547;1548;1548;1549;1549;1550;1550;1551;1551;1552;1552;1553;1553;1554;1554;1555;1555;1556;1556;1557;1557;1558;1558;1559;1559;1560;1560;1561;1561;1562;1562;1563;1563;1564;1564;1565;1565;1566;1566;1567;1567;1568;1568;1569;1569;1570;1570;1571;1571;1572;1572;1573;1573;1574;1574;1575;1575;1576;1576;1577;1577;1578;1578;1579;1579;1580;1580;1581;1581;1582;1582;1583;1583;1584;1584;1585;1585;1586;1586;1587;1587;1588;1588;1589;1589;1590;1590;1591;1591;1592;1592;1593;1593;1594;1594;1595;1595;1596;1596;1597;1597;1598;1598;1599;1599;1600;1600;1601;1601;1602;1602;1603;1603;1604;1604;1605;1605;1606;1606;1607;1607;1608;1608;1609;1609;1610;1610;1611;1611;1612;1612;1613;1613;1614;1614;1615;1615;1616;1616;1617;1617;1618;1618;1619;1619;1620;1620;1621;1621;1622;1622;1623;1623;1624;1624;1625;1625;1626;1626;1627;1627;1628;1628;1629;1629;1630;1630;1631;1631;1632;1632;1633;1633;1634;1634;1635;1635;1636;1636;1637;1637;1638;1638;1639;1639;1640;1640;1641;1641;1642;1642;1643;1643;1644;1644;1645;1645;1646;1646;1647;1647;1648;1648;1649;1649;1650;1650;1651;1945;1946;1946;1945", 
                "text": "dining", 
                "x": 1741, 
                "y": 1758
            }, 
            {
                "class": "Room", 
                "type": "open", 
                "xn": "2164;2165;2486;2487;2487;2486;2165;2164", 
                "yn": "1202;1201;1201;1202;1611;1612;1612;1611", 
                "text": "kitchen", 
                "x": 2295, 
                "y": 1374
            }, 
            {
                "class": "Room", 
                "type": "open", 
                "xn": "1499;1500;1744;1745;1955;1956;1956;1957;2161;2162;2162;2161;2159;2158;2155;2154;2150;2149;2146;2145;2142;2141;2137;2136;2133;2132;2128;2127;2124;2123;2119;2118;2115;2114;2111;2110;2106;2105;2102;2101;2097;2096;2093;2092;2088;2087;2084;2083;2079;2078;2075;2074;2071;2070;2066;2065;2062;2061;2057;2056;2053;2052;2048;2047;2044;2043;2040;2039;2035;2034;2031;2030;2026;2025;2022;2021;2017;2016;2013;2012;2009;2008;2004;2003;2000;1999;1995;1994;1991;1990;1986;1985;1982;1981;1978;1977;1973;1972;1969;1968;1964;1963;1960;1959;1955;1954;1951;1950;1946;1945;1942;1941;1938;1937;1933;1932;1929;1928;1924;1923;1920;1919;1915;1914;1911;1910;1907;1906;1902;1901;1898;1897;1893;1892;1889;1888;1884;1883;1880;1879;1876;1875;1871;1870;1867;1866;1862;1861;1858;1857;1853;1852;1849;1848;1845;1844;1840;1839;1836;1835;1831;1830;1827;1826;1822;1821;1818;1817;1813;1812;1809;1808;1805;1804;1800;1799;1796;1795;1791;1790;1787;1786;1782;1781;1778;1777;1774;1773;1769;1768;1765;1764;1760;1759;1756;1755;1751;1750;1747;1746;1743;1742;1738;1737;1734;1733;1729;1728;1725;1724;1720;1719;1716;1715;1712;1711;1707;1706;1703;1702;1698;1697;1694;1693;1689;1688;1685;1684;1680;1679;1676;1675;1672;1671;1667;1666;1663;1662;1658;1657;1654;1653;1649;1648;1645;1644;1641;1640;1636;1635;1632;1631;1627;1626;1623;1622;1618;1617;1614;1613;1610;1609;1605;1604;1601;1600;1596;1595;1592;1591;1587;1586;1583;1582;1579;1578;1574;1573;1570;1569;1565;1564;1561;1560;1556;1555;1552;1551;1547;1546;1543;1542;1539;1538;1534;1533;1530;1529;1525;1524;1521;1520;1516;1515;1512;1511;1508;1507;1503;1502;1500;1499", 
                "yn": "1117;1116;1116;1117;1117;1118;1200;1201;1201;1202;1648;1649;1649;1648;1648;1647;1647;1646;1646;1645;1645;1644;1644;1643;1643;1642;1642;1641;1641;1640;1640;1639;1639;1638;1638;1637;1637;1636;1636;1635;1635;1634;1634;1633;1633;1632;1632;1631;1631;1630;1630;1629;1629;1628;1628;1627;1627;1626;1626;1625;1625;1624;1624;1623;1623;1622;1622;1621;1621;1620;1620;1619;1619;1618;1618;1617;1617;1616;1616;1615;1615;1614;1614;1613;1613;1612;1612;1611;1611;1610;1610;1609;1609;1608;1608;1607;1607;1606;1606;1605;1605;1604;1604;1603;1603;1602;1602;1601;1601;1600;1600;1599;1599;1598;1598;1597;1597;1596;1596;1595;1595;1594;1594;1593;1593;1592;1592;1591;1591;1590;1590;1589;1589;1588;1588;1587;1587;1586;1586;1585;1585;1584;1584;1583;1583;1582;1582;1581;1581;1580;1580;1579;1579;1578;1578;1577;1577;1576;1576;1575;1575;1574;1574;1573;1573;1572;1572;1571;1571;1570;1570;1569;1569;1568;1568;1567;1567;1566;1566;1565;1565;1564;1564;1563;1563;1562;1562;1561;1561;1560;1560;1559;1559;1558;1558;1557;1557;1556;1556;1555;1555;1554;1554;1553;1553;1552;1552;1551;1551;1550;1550;1549;1549;1548;1548;1547;1547;1546;1546;1545;1545;1544;1544;1543;1543;1542;1542;1541;1541;1540;1540;1539;1539;1538;1538;1537;1537;1536;1536;1535;1535;1534;1534;1533;1533;1532;1532;1531;1531;1530;1530;1529;1529;1528;1528;1527;1527;1526;1526;1525;1525;1524;1524;1523;1523;1522;1522;1521;1521;1520;1520;1519;1519;1518;1518;1517;1517;1516;1516;1515;1515;1514;1514;1513;1513;1512;1512;1511;1511;1510;1510;1509;1509;1508;1508;1507;1507;1506;1506;1505;1505;1504;1504;1503;1503;1502;1502;1501;1501;1500;1500;1499", 
                "text": "living", 
                "x": 1889, 
                "y": 1392
            }, 
            {
                "class": "Room", 
                "type": "open", 
                "xn": "2160;2161;2486;2487;2487;2486;2133;2128;2128;2121;2121;2119;2119;2116;2116;2110;2110;2108;2108;2105;2105;2099;2099;2097;2097;2096;2096;2095;2095;2094;2094;2093;2093;2092;2092;2091;2091;2090;2085;2084;2084;2083;2076;2075;2075;2076;2159;2160", 
                "yn": "560;559;559;560;905;906;906;911;912;919;920;922;925;928;929;935;936;938;941;944;945;951;952;954;959;960;961;962;963;964;965;966;967;968;969;970;971;972;972;971;909;908;908;907;801;800;800;799", 
                "text": "bedroom 1", 
                "x": 2304, 
                "y": 760
            }, 
            {
                "class": "Room", 
                "type": "open", 
                "xn": "1966;1967;2150;2151;2151;2150;2074;2073;2073;2074;2368;2369;2369;2368;1745;1744;1500;1499;1499;1500;1965;1966", 
                "yn": "560;559;559;560;789;790;790;791;994;995;995;996;1115;1116;1116;1115;1115;1114;1006;1005;1005;1004", 
                "text": "entry", 
                "x": 2099, 
                "y": 1032
            }, 
            {
                "class": "Room", 
                "type": "open", 
                "xn": "678;679;1005;1006;1006;1007;1012;1013;1013;1012;1012;1011;1011;1010;1010;1009;1009;1008;1008;1007;1007;1006;1006;1005;679;678", 
                "yn": "559;558;558;559;809;810;810;811;822;823;836;837;850;851;864;865;878;879;892;893;906;907;918;919;919;918", 
                "text": "bedroom 4", 
                "x": 812, 
                "y": 790
            }, 
            {
                "class": "Room", 
                "type": "open", 
                "xn": "1015;1016;1109;1110;1110;1109;1008;1007;1007;1008;1008;1009;1009;1010;1010;1011;1011;1012;1012;1013;1013;1014;1014;1015", 
                "yn": "558;557;557;558;995;996;996;995;907;906;893;892;879;878;865;864;851;850;837;836;823;822;810;809", 
                "text": "toilet", 
                "x": 1054, 
                "y": 724
            }, 
            {
                "class": "Door", 
                "xn": "1130;1242;1242;1130", 
                "yn": "1116;1116;1122;1122", 
                "confidence": 1.0
            }, 
            {
                "class": "Door", 
                "xn": "1013;1125;1125;1013", 
                "yn": "1210;1210;1217;1217", 
                "confidence": 1.0
            }, 
            {
                "class": "Door", 
                "xn": "1013;1112;1112;1013", 
                "yn": "997;997;1004;1004", 
                "confidence": 1.0
            }, 
            {
                "class": "Door", 
                "xn": "1130;1242;1242;1130", 
                "yn": "1116;1116;1122;1122", 
                "confidence": 1.0
            }, 
            {
                "class": "Door", 
                "xn": "1005;1014;1014;1005", 
                "yn": "1003;1003;1117;1117", 
                "confidence": 1.0
            }, 
            {
                "class": "Door", 
                "xn": "1489;1498;1498;1489", 
                "yn": "1003;1003;1117;1117", 
                "confidence": 1.0
            }, 
            {
                "class": "Door", 
                "xn": "1750;1776;1776;1750", 
                "yn": "797;797;910;910", 
                "confidence": 1.0
            }, 
            {
                "class": "Door", 
                "xn": "1957;1964;1964;1957", 
                "yn": "797;797;910;910", 
                "confidence": 1.0
            }, 
            {
                "class": "Door", 
                "xn": "1006;1029;1036;1013", 
                "yn": "918;919;815;814", 
                "confidence": 1.0
            }, 
            {
                "class": "Window", 
                "xn": "633;676;676;633", 
                "yn": "661;661;804;804", 
                "confidence": 1.0
            }, 
            {
                "class": "Window", 
                "xn": "2163;2206;2206;2163", 
                "yn": "1736;1736;1878;1878", 
                "confidence": 1.0
            }, 
            {
                "class": "Window", 
                "xn": "1455;1497;1497;1455", 
                "yn": "1718;1718;1861;1861", 
                "confidence": 1.0
            }, 
            {
                "class": "Window", 
                "xn": "2488;2531;2531;2488", 
                "yn": "661;661;804;804", 
                "confidence": 1.0
            }, 
            {
                "class": "Window", 
                "xn": "1036;1112;1112;1036", 
                "yn": "513;513;556;556", 
                "confidence": 1.0
            }, 
            {
                "class": "Window", 
                "xn": "2370;2412;2412;2370", 
                "yn": "997;997;1105;1105", 
                "confidence": 1.0
            }, 
            {
                "class": "Window", 
                "xn": "2294;2435;2435;2294", 
                "yn": "1612;1612;1654;1654", 
                "confidence": 1.0
            }, 
            {
                "class": "Window", 
                "xn": "633;677;677;633", 
                "yn": "1015;1015;1211;1211", 
                "confidence": 1.0
            }, 
            {
                "class": "Window", 
                "xn": "782;923;923;782", 
                "yn": "1547;1547;1589;1589", 
                "confidence": 1.0
            }, 
            {
                "class": "Window", 
                "xn": "1963;2039;2039;1963", 
                "yn": "513;513;557;557", 
                "confidence": 1.0
            }, 
            {
                "class": "Window", 
                "xn": "1166;1307;1307;1166", 
                "yn": "1547;1547;1589;1589", 
                "confidence": 1.0
            }, 
            {
                "class": "Window", 
                "xn": "1786;1862;1862;1786", 
                "yn": "513;513;555;555", 
                "confidence": 1.0
            }, 
            {
                "class": "Window", 
                "xn": "1922;2063;2063;1922", 
                "yn": "1948;1948;1991;1991", 
                "confidence": 1.0
            }, 
            {
                "class": "Window", 
                "xn": "1550;1691;1691;1550", 
                "yn": "1948;1948;1991;1991", 
                "confidence": 1.0
            }, 
            {
                "class": "Window", 
                "xn": "2488;2531;2531;2488", 
                "yn": "1334;1334;1477;1477", 
                "confidence": 1.0
            }, 
            {
                "class": "Window", 
                "xn": "1969;2039;2039;1969", 
                "yn": "513;513;555;555", 
                "confidence": 1.0
            }, 
            {
                "class": "Wall", 
                "xn": "2063;2206;2206;2063", 
                "yn": "1948;1948;1991;1991", 
                "confidence": 1.0
            }, 
            {
                "class": "Wall", 
                "xn": "1455;1551;1551;1455", 
                "yn": "1948;1948;1991;1991", 
                "confidence": 1.0
            }, 
            {
                "class": "Wall", 
                "xn": "1691;1923;1923;1691", 
                "yn": "1949;1949;1991;1991", 
                "confidence": 1.0
            }, 
            {
                "class": "Wall", 
                "xn": "2164;2207;2207;2164", 
                "yn": "1878;1878;1991;1991", 
                "confidence": 1.0
            }, 
            {
                "class": "Wall", 
                "xn": "2039;2531;2531;2039", 
                "yn": "514;514;557;557", 
                "confidence": 1.0
            }, 
            {
                "class": "Wall", 
                "xn": "634;1037;1037;634", 
                "yn": "514;514;556;556", 
                "confidence": 1.0
            }, 
            {
                "class": "Wall", 
                "xn": "1307;1498;1498;1307", 
                "yn": "1548;1548;1591;1591", 
                "confidence": 1.0
            }, 
            {
                "class": "Wall", 
                "xn": "2164;2206;2206;2164", 
                "yn": "1613;1613;1737;1737", 
                "confidence": 1.0
            }, 
            {
                "class": "Wall", 
                "xn": "635;678;678;635", 
                "yn": "1087;1087;1589;1589", 
                "confidence": 1.0
            }, 
            {
                "class": "Wall", 
                "xn": "634;676;676;634", 
                "yn": "514;514;662;662", 
                "confidence": 1.0
            }, 
            {
                "class": "Wall", 
                "xn": "1456;1497;1497;1456", 
                "yn": "1548;1548;1719;1719", 
                "confidence": 1.0
            }, 
            {
                "class": "Wall", 
                "xn": "634;677;677;634", 
                "yn": "804;804;1016;1016", 
                "confidence": 1.0
            }, 
            {
                "class": "Wall", 
                "xn": "2370;2531;2531;2370", 
                "yn": "909;909;952;952", 
                "confidence": 1.0
            }, 
            {
                "class": "Wall", 
                "xn": "2371;2412;2412;2371", 
                "yn": "1105;1105;1199;1199", 
                "confidence": 1.0
            }, 
            {
                "class": "Wall", 
                "xn": "2370;2531;2531;2370", 
                "yn": "1157;1157;1198;1198", 
                "confidence": 1.0
            }, 
            {
                "class": "Wall", 
                "xn": "2163;2295;2295;2163", 
                "yn": "1613;1613;1655;1655", 
                "confidence": 1.0
            }, 
            {
                "class": "Wall", 
                "xn": "2489;2531;2531;2489", 
                "yn": "1158;1158;1335;1335", 
                "confidence": 1.0
            }, 
            {
                "class": "Wall", 
                "xn": "2489;2531;2531;2489", 
                "yn": "1477;1477;1654;1654", 
                "confidence": 1.0
            }, 
            {
                "class": "Wall", 
                "xn": "2489;2531;2531;2489", 
                "yn": "514;514;662;662", 
                "confidence": 1.0
            }, 
            {
                "class": "Wall", 
                "xn": "1862;1970;1970;1862", 
                "yn": "514;514;555;555", 
                "confidence": 1.0
            }, 
            {
                "class": "Wall", 
                "xn": "2489;2531;2531;2489", 
                "yn": "804;804;951;951", 
                "confidence": 1.0
            }, 
            {
                "class": "Wall", 
                "xn": "1455;1497;1497;1455", 
                "yn": "1861;1861;1991;1991", 
                "confidence": 1.0
            }, 
            {
                "class": "Wall", 
                "xn": "634;783;783;634", 
                "yn": "1547;1547;1589;1589", 
                "confidence": 1.0
            }, 
            {
                "class": "Wall", 
                "xn": "923;1167;1167;923", 
                "yn": "1548;1548;1589;1589", 
                "confidence": 1.0
            }, 
            {
                "class": "Wall", 
                "xn": "2435;2531;2531;2435", 
                "yn": "1612;1612;1654;1654", 
                "confidence": 1.0
            }, 
            {
                "class": "Wall", 
                "xn": "2371;2412;2412;2371", 
                "yn": "910;910;998;998", 
                "confidence": 1.0
            }, 
            {
                "class": "Wall", 
                "xn": "1112;1149;1149;1112", 
                "yn": "307;307;1004;1004", 
                "confidence": 1.0
            }, 
            {
                "class": "Wall", 
                "xn": "1750;1787;1787;1750", 
                "yn": "307;307;798;798", 
                "confidence": 1.0
            }, 
            {
                "class": "Wall", 
                "xn": "1124;1776;1776;1124", 
                "yn": "972;972;996;996", 
                "confidence": 1.0
            }, 
            {
                "class": "Wall", 
                "xn": "1751;1776;1776;1751", 
                "yn": "910;910;1004;1004", 
                "confidence": 1.0
            }, 
            {
                "class": "Wall", 
                "xn": "1124;1215;1215;1124", 
                "yn": "307;307;332;332", 
                "confidence": 1.0
            }, 
            {
                "class": "Wall", 
                "xn": "1685;1776;1776;1685", 
                "yn": "307;307;332;332", 
                "confidence": 1.0
            }, 
            {
                "class": "Wall", 
                "xn": "1750;1793;1793;1750", 
                "yn": "513;513;538;538", 
                "confidence": 1.0
            }, 
            {
                "class": "Wall", 
                "xn": "1106;1150;1150;1106", 
                "yn": "515;515;538;538", 
                "confidence": 1.0
            }, 
            {
                "class": "Wall", 
                "xn": "2153;2158;2158;2153", 
                "yn": "514;514;798;798", 
                "confidence": 1.0
            }, 
            {
                "class": "Wall", 
                "xn": "1007;1013;1013;1007", 
                "yn": "514;514;809;809", 
                "confidence": 1.0
            }, 
            {
                "class": "Wall", 
                "xn": "1491;1498;1498;1491", 
                "yn": "1117;1117;1713;1713", 
                "confidence": 1.0
            }, 
            {
                "class": "Wall", 
                "xn": "2207;2213;2213;2207", 
                "yn": "1666;1666;1737;1737", 
                "confidence": 1.0
            }, 
            {
                "class": "Wall", 
                "xn": "634;1014;1014;634", 
                "yn": "1211;1211;1217;1217", 
                "confidence": 1.0
            }, 
            {
                "class": "Wall", 
                "xn": "634;1014;1014;634", 
                "yn": "998;998;1004;1004", 
                "confidence": 1.0
            }, 
            {
                "class": "Wall", 
                "xn": "1957;2531;2531;1957", 
                "yn": "1192;1192;1199;1199", 
                "confidence": 1.0
            }, 
            {
                "class": "Wall", 
                "xn": "1958;1964;1964;1958", 
                "yn": "514;514;798;798", 
                "confidence": 1.0
            }, 
            {
                "class": "Wall", 
                "xn": "1125;1131;1131;1125", 
                "yn": "1117;1117;1589;1589", 
                "confidence": 1.0
            }, 
            {
                "class": "Wall", 
                "xn": "2075;2413;2413;2075", 
                "yn": "987;987;993;993", 
                "confidence": 1.0
            }, 
            {
                "class": "Wall", 
                "xn": "1124;1965;1965;1124", 
                "yn": "996;996;1004;1004", 
                "confidence": 1.0
            }, 
            {
                "class": "Wall", 
                "xn": "2075;2159;2159;2075", 
                "yn": "792;792;798;798", 
                "confidence": 1.0
            }, 
            {
                "class": "Wall", 
                "xn": "1242;1498;1498;1242", 
                "yn": "1117;1117;1122;1122", 
                "confidence": 1.0
            }, 
            {
                "class": "Wall", 
                "xn": "1006;1014;1014;1006", 
                "yn": "1117;1117;1217;1217", 
                "confidence": 1.0
            }, 
            {
                "class": "Wall", 
                "xn": "1006;1013;1013;1006", 
                "yn": "922;922;1004;1004", 
                "confidence": 1.0
            }, 
            {
                "class": "Wall", 
                "xn": "1958;1964;1964;1958", 
                "yn": "1117;1117;1199;1199", 
                "confidence": 1.0
            }, 
            {
                "class": "Wall", 
                "xn": "2076;2082;2082;2076", 
                "yn": "910;910;993;993", 
                "confidence": 1.0
            }, 
            {
                "class": "Wall", 
                "xn": "1957;1964;1964;1957", 
                "yn": "910;910;1004;1004", 
                "confidence": 1.0
            }, 
            {
                "class": "Wall", 
                "xn": "1242;1250;1250;1242", 
                "yn": "1117;1117;1199;1199", 
                "confidence": 1.0
            }, 
            {
                "class": "Wall", 
                "xn": "675;1006;1006;675", 
                "yn": "924;924;920;920", 
                "confidence": 1.0
            }, 
            {
                "class": "Wall", 
                "xn": "1004;1008;1008;1004", 
                "yn": "997;997;922;922", 
                "confidence": 1.0
            }, 
            {
                "class": "Wall", 
                "xn": "2134;2370;2370;2134", 
                "yn": "911;911;907;907", 
                "confidence": 1.0
            }, 
            {
                "class": "Wall", 
                "xn": "2079;2082;2135;2132", 
                "yn": "984;987;910;907", 
                "confidence": 1.0
            }, 
            {
                "class": "Wall", 
                "xn": "1249;1490;1490;1249", 
                "yn": "1200;1200;1196;1196", 
                "confidence": 1.0
            }, 
            {
                "class": "Wall", 
                "xn": "1992;2370;2370;1992", 
                "yn": "1119;1119;1115;1115", 
                "confidence": 1.0
            }, 
            {
                "class": "Wall", 
                "xn": "1991;1994;1993;1990", 
                "yn": "1192;1191;1116;1117", 
                "confidence": 1.0
            }, 
            {
                "class": "Stair", 
                "xn": "1454;1455;1455;1454;1454;1453;1453;1452;1452;1451;1451;1450;1450;1449;1449;1468;1469;1489;1490;1490;1489;1469;1468;1449;1449;1450;1450;1451;1451;1452;1452;1453;1453;1454;1454;1455;1455;1397;1396;1396", 
                "yn": "1589;1590;1600;1601;1621;1622;1643;1644;1664;1665;1685;1686;1707;1708;1717;1717;1718;1718;1719;1859;1860;1860;1861;1861;1870;1871;1892;1893;1913;1914;1935;1936;1956;1957;1978;1979;1989;2047;2046;1647", 
                "confidence": 1.0
            }, 
            {
                "class": "Text", 
                "height": 25, 
                "width": 136, 
                "x": 1236, 
                "y": 477, 
                "text": "garage", 
                "confidence": "0.88"
            }, 
            {
                "class": "Text", 
                "height": 25, 
                "width": 53, 
                "x": 1028, 
                "y": 712, 
                "text": "wc", 
                "confidence": "0.89"
            }, 
            {
                "class": "Text", 
                "height": 25, 
                "width": 182, 
                "x": 2213, 
                "y": 748, 
                "text": "chambre 1", 
                "confidence": "0.96"
            }, 
            {
                "class": "Text", 
                "height": 24, 
                "width": 186, 
                "x": 719, 
                "y": 778, 
                "text": "chambre 4", 
                "confidence": "0.87"
            }, 
            {
                "class": "Text", 
                "height": 25, 
                "width": 149, 
                "x": 761, 
                "y": 949, 
                "text": "placard", 
                "confidence": "0.85"
            }, 
            {
                "class": "Text", 
                "height": 25, 
                "width": 149, 
                "x": 2155, 
                "y": 937, 
                "text": "placard", 
                "confidence": "0.88"
            }, 
            {
                "class": "Text", 
                "height": 24, 
                "width": 77, 
                "x": 2061, 
                "y": 1020, 
                "text": "hall", 
                "confidence": "0.92"
            }, 
            {
                "class": "Text", 
                "height": 25, 
                "width": 94, 
                "x": 785, 
                "y": 1055, 
                "text": "bains", 
                "confidence": "0.82"
            }, 
            {
                "class": "Text", 
                "height": 25, 
                "width": 149, 
                "x": 1293, 
                "y": 1150, 
                "text": "placard", 
                "confidence": "0.86"
            }, 
            {
                "class": "Text", 
                "height": 25, 
                "width": 149, 
                "x": 2025, 
                "y": 1150, 
                "text": "placard", 
                "confidence": "0.94"
            }, 
            {
                "class": "Text", 
                "height": 25, 
                "width": 186, 
                "x": 832, 
                "y": 1351, 
                "text": "chambre 3", 
                "confidence": "0.88"
            }, 
            {
                "class": "Text", 
                "height": 25, 
                "width": 185, 
                "x": 1198, 
                "y": 1362, 
                "text": "chambre 2", 
                "confidence": "0.89"
            }, 
            {
                "class": "Text", 
                "height": 25, 
                "width": 106, 
                "x": 1836, 
                "y": 1380, 
                "text": "repas", 
                "confidence": "0.76"
            }, 
            {
                "class": "Text", 
                "height": 25, 
                "width": 128, 
                "x": 2231, 
                "y": 1362, 
                "text": "cuisine", 
                "confidence": "0.87"
            }, 
            {
                "class": "Text", 
                "height": 62, 
                "width": 172, 
                "x": 2248, 
                "y": 1715, 
                "text": "terrassecouverte", 
                "confidence": "0.88"
            }, 
            {
                "class": "Text", 
                "height": 25, 
                "width": 130, 
                "x": 1676, 
                "y": 1746, 
                "text": "sejour", 
                "confidence": "0.83"
            }, 
            {
                "class": "Unknown", 
                "xn": "1165;1276;1276;1165", 
                "yn": "1048;1048;1103;1103"
            }, 
            {
                "class": "Unknown", 
                "xn": "1813;1924;1924;1813", 
                "yn": "750;750;805;805"
            }
        ], 
        "class": "image", 
        "filename": "fp_66.png"
    }
]