[
    {
        "annotations": [
            {
                "class": "Room", 
                "type": "single", 
                "xn": "1592;1591;1497;1317;1326;1327;1327;1365;1366;1387;1387;1398;1398;1423;1423;1448;1448;1473;1473;1483;1484;1500;1501;1534;1535;1541;1874;1874;1873;1873;1872;1872;1689;1688;1688", 
                "yn": "1881;1882;1882;2062;2062;2063;2084;2122;2122;2143;2144;2155;2156;2181;2182;2207;2208;2233;2234;2244;2244;2260;2260;2293;2293;2299;2299;2286;2285;2271;2270;1964;1964;1963;1881", 
                "text": "unknown room", 
                "x": 1628, 
                "y": 2099
            }, 
            {
                "class": "Room", 
                "type": "single", 
                "xn": "1206;1205;1205;1206;1298;1299;1299;1298;1296;1295;1292;1291;1288;1287;1284;1283;1280;1279;1276;1275;1271;1270;1267;1266;1263;1262;1259;1258;1255;1254;1251;1250", 
                "yn": "1407;1408;1554;1555;1555;1554;1420;1419;1419;1418;1418;1417;1417;1416;1416;1415;1415;1414;1414;1413;1413;1412;1412;1411;1411;1410;1410;1409;1409;1408;1408;1407", 
                "text": "unknown room", 
                "x": 1251, 
                "y": 1482
            }, 
            {
                "class": "Room", 
                "type": "single", 
                "xn": "1431;1431;1432;1432;1431;1244;1244;1455;1456;1456;1455;1455;2102;2102", 
                "yn": "955;1046;1047;1072;1073;1073;1324;1324;1325;1367;1368;1625;1625;955", 
                "text": "other room", 
                "x": 1791, 
                "y": 1160
            }, 
            {
                "class": "Room", 
                "type": "open", 
                "xn": "798;799;1500;1501;1501;1500;1489;1488;1488;1305;1080;993;993", 
                "yn": "1778;1777;1777;1778;1871;1872;1872;1873;1878;2061;2061;1974;1973", 
                "text": "dining", 
                "x": 1212, 
                "y": 1876
            }, 
            {
                "class": "Room", 
                "type": "open", 
                "xn": "1698;1699;1870;1871;1871;1870;1700;1699;1699;1698;1637;1636;1636;1637;1697;1698", 
                "yn": "1671;1670;1670;1671;1953;1954;1954;1953;1873;1872;1872;1871;1778;1777;1777;1776", 
                "text": "bathroom", 
                "x": 1779, 
                "y": 1834
            }, 
            {
                "class": "Room", 
                "type": "open", 
                "xn": "1503;1504;1687;1688;1688;1687;1635;1634;1634;1633;1504;1503", 
                "yn": "1671;1670;1670;1671;1765;1766;1766;1767;1871;1872;1872;1871", 
                "text": "toilet", 
                "x": 1558, 
                "y": 1715
            }, 
            {
                "class": "Room", 
                "type": "open", 
                "xn": "816;817;1408;1409;1409;1410;1472;1473;1473;1474;1492;1493;1493;1492;796;783;783;782;774;773;765;764;756;755;747;746;739;738;735;734;734;731;731;725;725;722;722;716;716;714;714;708;708;705;705;703;703;702;702;701;701;700;700;699;699;698;695;694;694;650;650;615;616", 
                "yn": "1370;1369;1369;1370;1722;1723;1723;1722;1671;1670;1670;1671;1775;1776;1776;1763;1519;1518;1518;1517;1517;1516;1516;1515;1515;1514;1514;1513;1513;1512;1511;1508;1507;1501;1498;1495;1494;1488;1485;1483;1482;1476;1475;1472;1469;1467;1465;1464;1463;1462;1461;1460;1459;1458;1456;1455;1455;1454;1451;1407;1406;1371;1370", 
                "text": "living", 
                "x": 974, 
                "y": 1492
            }, 
            {
                "class": "Room", 
                "type": "open", 
                "xn": "950;951;1019;1020;1020;1021;1030;1031;1031;1032;1196;1197;1197;1196;1033;1032;1032;1031;1020;1019;1019;1018;1017;1017;1016;1016;1015;1015;1014;1014;1013;1013;1012;1012;1011;1011;1010;1010;1009;1009;1008;1008;1007;1007;1006;1006;1005;1005;1004;1004;1003;1003;1002;1002;1001;1001;1000;1000;999;999;998;998;997;997;996;996;995;995;994;994;993;993;992;992;991;991;990;990;989;989;988;988;987;987;986;986;985;985;984;984;983;983;982;982;981;981;980;980;979;979;978;978;977;977;976;976;975;975;974;974;973;973;972;972;971;971;970;970;969;969;968;968;967;967;966;966;965;965;964;964;963;963;962;962;961;961;960;960;959;959;958;958;957;957;956;956;955;955;954;954;953;953;952;952;951;951;950", 
                "yn": "974;973;973;974;1123;1124;1124;1123;974;973;973;974;1322;1323;1323;1322;1221;1220;1220;1221;1314;1315;1314;1310;1309;1305;1304;1300;1299;1295;1294;1290;1289;1285;1284;1280;1279;1275;1274;1270;1269;1265;1264;1260;1259;1255;1254;1250;1249;1245;1244;1240;1239;1235;1234;1230;1229;1225;1224;1220;1219;1215;1214;1210;1209;1205;1204;1200;1199;1194;1193;1189;1188;1184;1183;1179;1178;1174;1173;1169;1168;1164;1163;1159;1158;1154;1153;1149;1148;1144;1143;1139;1138;1134;1133;1129;1128;1124;1123;1119;1118;1114;1113;1109;1108;1104;1103;1099;1098;1094;1093;1089;1088;1084;1083;1078;1077;1073;1072;1068;1067;1063;1062;1058;1057;1053;1052;1048;1047;1043;1042;1038;1037;1033;1032;1028;1027;1023;1022;1018;1017;1013;1012;1008;1007;1003;1002;998;997;993;992;988;987;983;982;978;977", 
                "text": "cellar", 
                "x": 1090, 
                "y": 1185
            }, 
            {
                "class": "Room", 
                "type": "open", 
                "xn": "546;547;948;949;949;950;950;951;951;952;952;953;953;954;954;955;955;956;956;957;957;958;958;959;959;960;960;961;961;962;962;963;963;964;964;965;965;966;966;967;967;968;968;969;969;970;970;971;971;972;972;973;973;974;974;975;975;976;976;977;977;978;978;979;979;980;980;981;981;982;982;983;983;984;984;985;985;986;986;987;987;988;988;989;989;990;990;991;991;992;992;993;993;994;994;995;995;996;996;997;997;998;998;999;999;1000;1000;1001;1001;1002;1002;1003;1003;1004;1004;1005;1005;1006;1006;1007;1007;1008;1008;1009;1009;1010;1010;1011;1011;1012;1012;1013;1013;1014;1014;1015;1015;1016;1016;1017;1017;1018;1018;1019;1019;1018;816;815;613;546", 
                "yn": "974;973;973;974;976;977;981;982;987;988;992;993;997;998;1002;1003;1007;1008;1012;1013;1017;1018;1022;1023;1027;1028;1032;1033;1037;1038;1042;1043;1047;1048;1052;1053;1057;1058;1062;1063;1067;1068;1072;1073;1077;1078;1082;1083;1087;1088;1092;1093;1097;1098;1103;1104;1108;1109;1113;1114;1118;1119;1123;1124;1128;1129;1133;1134;1138;1139;1143;1144;1148;1149;1153;1154;1158;1159;1163;1164;1168;1169;1173;1174;1178;1179;1183;1184;1188;1189;1193;1194;1198;1199;1203;1204;1208;1209;1213;1214;1218;1219;1224;1225;1229;1230;1234;1235;1239;1240;1244;1245;1249;1250;1254;1255;1259;1260;1264;1265;1269;1270;1274;1275;1279;1280;1284;1285;1289;1290;1294;1295;1299;1300;1304;1305;1309;1310;1314;1315;1319;1320;1324;1325;1367;1368;1368;1369;1369;1302", 
                "text": "kitchen", 
                "x": 756, 
                "y": 1132
            }, 
            {
                "class": "Door", 
                "xn": "1590;1689;1689;1590", 
                "yn": "1873;1873;1881;1881", 
                "confidence": 1.0
            }, 
            {
                "class": "Door", 
                "xn": "736;738;691;662", 
                "yn": "1538;1519;1451;1480", 
                "confidence": 0.6
            }, 
            {
                "class": "Door", 
                "xn": "1614;1614;1635;1635", 
                "yn": "1783;1860;1860;1783", 
                "confidence": 0.866666666667
            }, 
            {
                "class": "Window", 
                "xn": "1410;1472;1472;1410", 
                "yn": "1667;1667;1714;1714", 
                "confidence": 1.0
            }, 
            {
                "class": "Window", 
                "xn": "502;544;544;502", 
                "yn": "1018;1018;1231;1231", 
                "confidence": 1.0
            }, 
            {
                "class": "Window", 
                "xn": "1872;1914;1914;1872", 
                "yn": "1809;1809;1880;1880", 
                "confidence": 1.0
            }, 
            {
                "class": "Window", 
                "xn": "1456;1484;1385;1357", 
                "yn": "2274;2246;2143;2173", 
                "confidence": 0.9
            }, 
            {
                "class": "Window", 
                "xn": "1080;1080;781;738", 
                "yn": "2105;2063;1763;1763", 
                "confidence": 0.5
            }, 
            {
                "class": "Wall", 
                "xn": "1412;1454;1454;1412", 
                "yn": "1325;1325;1668;1668", 
                "confidence": 1.0
            }, 
            {
                "class": "Wall", 
                "xn": "738;781;781;738", 
                "yn": "1519;1519;1763;1763", 
                "confidence": 1.0
            }, 
            {
                "class": "Wall", 
                "xn": "1199;1243;1243;1199", 
                "yn": "930;930;1367;1367", 
                "confidence": 1.0
            }, 
            {
                "class": "Wall", 
                "xn": "1080;1326;1326;1080", 
                "yn": "2063;2063;2105;2105", 
                "confidence": 1.0
            }, 
            {
                "class": "Wall", 
                "xn": "1411;2128;2128;1411", 
                "yn": "1626;1626;1668;1668", 
                "confidence": 1.0
            }, 
            {
                "class": "Wall", 
                "xn": "1021;1455;1455;1021", 
                "yn": "1325;1325;1367;1367", 
                "confidence": 1.0
            }, 
            {
                "class": "Wall", 
                "xn": "1503;1915;1915;1503", 
                "yn": "2300;2300;2341;2341", 
                "confidence": 1.0
            }, 
            {
                "class": "Wall", 
                "xn": "502;1243;1243;502", 
                "yn": "930;930;971;971", 
                "confidence": 1.0
            }, 
            {
                "class": "Wall", 
                "xn": "1873;1915;1915;1873", 
                "yn": "1626;1626;1810;1810", 
                "confidence": 1.0
            }, 
            {
                "class": "Wall", 
                "xn": "1873;1914;1914;1873", 
                "yn": "1880;1880;2263;2263", 
                "confidence": 1.0
            }, 
            {
                "class": "Wall", 
                "xn": "503;544;544;503", 
                "yn": "1231;1231;1339;1339", 
                "confidence": 1.0
            }, 
            {
                "class": "Wall", 
                "xn": "503;544;544;503", 
                "yn": "930;930;1019;1019", 
                "confidence": 1.0
            }, 
            {
                "class": "Wall", 
                "xn": "1357;1386;1303;1274", 
                "yn": "2174;2143;2062;2092", 
                "confidence": 1.0
            }, 
            {
                "class": "Wall", 
                "xn": "662;692;532;502", 
                "yn": "1480;1451;1290;1318", 
                "confidence": 1.0
            }, 
            {
                "class": "Wall", 
                "xn": "1524;1552;1484;1456", 
                "yn": "2340;2311;2245;2274", 
                "confidence": 1.0
            }, 
            {
                "class": "Wall", 
                "xn": "2103;2127;2127;2103", 
                "yn": "930;930;1650;1650", 
                "confidence": 1.0
            }, 
            {
                "class": "Wall", 
                "xn": "1199;1431;1431;1199", 
                "yn": "1047;1047;1072;1072", 
                "confidence": 1.0
            }, 
            {
                "class": "Wall", 
                "xn": "1405;2128;2128;1405", 
                "yn": "930;930;954;954", 
                "confidence": 1.0
            }, 
            {
                "class": "Wall", 
                "xn": "1406;1430;1430;1406", 
                "yn": "930;930;1072;1072", 
                "confidence": 1.0
            }, 
            {
                "class": "Wall", 
                "xn": "1875;1914;1914;1875", 
                "yn": "2293;2293;2341;2341", 
                "confidence": 1.0
            }, 
            {
                "class": "Wall", 
                "xn": "776;782;735;728", 
                "yn": "1592;1584;1539;1545", 
                "confidence": 1.0
            }, 
            {
                "class": "Wall", 
                "xn": "731;782;782;731", 
                "yn": "1540;1540;1545;1545", 
                "confidence": 1.0
            }, 
            {
                "class": "Wall", 
                "xn": "1499;1494;1268;1273", 
                "yn": "1879;1874;2100;2105", 
                "confidence": 1.0
            }, 
            {
                "class": "Wall", 
                "xn": "1465;1471;1471;1465", 
                "yn": "1626;1626;1721;1721", 
                "confidence": 1.0
            }, 
            {
                "class": "Wall", 
                "xn": "1412;1418;1418;1412", 
                "yn": "1325;1325;1721;1721", 
                "confidence": 1.0
            }, 
            {
                "class": "Wall", 
                "xn": "1495;1501;1501;1495", 
                "yn": "1626;1626;1775;1775", 
                "confidence": 1.0
            }, 
            {
                "class": "Wall", 
                "xn": "1690;1696;1696;1690", 
                "yn": "1626;1626;1774;1774", 
                "confidence": 1.0
            }, 
            {
                "class": "Wall", 
                "xn": "1022;1030;1030;1022", 
                "yn": "1222;1222;1349;1349", 
                "confidence": 1.0
            }, 
            {
                "class": "Wall", 
                "xn": "1022;1029;1029;1022", 
                "yn": "930;930;1122;1122", 
                "confidence": 1.0
            }, 
            {
                "class": "Wall", 
                "xn": "1689;1915;1915;1689", 
                "yn": "1956;1956;1963;1963", 
                "confidence": 1.0
            }, 
            {
                "class": "Wall", 
                "xn": "1490;1591;1591;1490", 
                "yn": "1874;1874;1881;1881", 
                "confidence": 1.0
            }, 
            {
                "class": "Wall", 
                "xn": "1411;1472;1472;1411", 
                "yn": "1714;1714;1721;1721", 
                "confidence": 1.0
            }, 
            {
                "class": "Wall", 
                "xn": "1636;1697;1697;1636", 
                "yn": "1768;1768;1775;1775", 
                "confidence": 1.0
            }, 
            {
                "class": "Wall", 
                "xn": "1689;1697;1697;1689", 
                "yn": "1874;1874;1963;1963", 
                "confidence": 1.0
            }, 
            {
                "class": "Wall", 
                "xn": "1875;1914;1914;1873", 
                "yn": "2293;2293;2263;2263", 
                "confidence": 1.0
            }, 
            {
                "class": "Stair", 
                "xn": "1205;1206;1250;1251;1254;1255;1258;1259;1262;1263;1266;1267;1270;1271;1275;1276;1279;1280;1283;1284;1287;1288;1291;1292;1295;1296;1298;1299;1299;1298;1206;1205", 
                "yn": "1408;1407;1407;1408;1408;1409;1409;1410;1410;1411;1411;1412;1412;1413;1413;1414;1414;1415;1415;1416;1416;1417;1417;1418;1418;1419;1419;1420;1554;1555;1555;1554", 
                "confidence": 1.0
            }, 
            {
                "class": "Text", 
                "height": 30, 
                "width": 161, 
                "x": 676, 
                "y": 1117, 
                "text": "cuisine", 
                "confidence": "0.93"
            }, 
            {
                "class": "Text", 
                "height": 31, 
                "width": 166, 
                "x": 1007, 
                "y": 1170, 
                "text": "cellier", 
                "confidence": "0.71"
            }, 
            {
                "class": "Text", 
                "height": 38, 
                "width": 178, 
                "x": 1702, 
                "y": 1141, 
                "text": "terreplein", 
                "confidence": "0.8"
            }, 
            {
                "class": "Text", 
                "height": 30, 
                "width": 132, 
                "x": 908, 
                "y": 1477, 
                "text": "repas", 
                "confidence": "0.91"
            }, 
            {
                "class": "Text", 
                "height": 39, 
                "width": 66, 
                "x": 1525, 
                "y": 1696, 
                "text": "wc", 
                "confidence": "0.9"
            }, 
            {
                "class": "Text", 
                "height": 32, 
                "width": 172, 
                "x": 1693, 
                "y": 1818, 
                "text": "douche", 
                "confidence": "0.85"
            }, 
            {
                "class": "Text", 
                "height": 30, 
                "width": 163, 
                "x": 1131, 
                "y": 1861, 
                "text": "sejour", 
                "confidence": "0.9"
            }, 
            {
                "class": "Unknown", 
                "xn": "1574;1681;1681;1574", 
                "yn": "2072;2072;2125;2125"
            }, 
            {
                "class": "Unknown", 
                "xn": "1197;1304;1304;1197", 
                "yn": "1455;1455;1508;1508"
            }, 
            {
                "class": "Unknown", 
                "xn": "1481;1503;1524;1502", 
                "yn": "1791;1863;1856;1784"
            }, 
            {
                "class": "Unknown", 
                "xn": "931;996;1017;952", 
                "yn": "988;1320;1315;983"
            }
        ], 
        "class": "image", 
        "filename": "fp_86.png"
    }
]