[
    {
        "annotations": [
            {
                "class": "Room", 
                "type": "single", 
                "xn": "2055;2054;2054;2288;2288;2289;2293;2294;2524;2524;2523;2523;2524;2524;2164;2163", 
                "yn": "1178;1179;1648;1648;1574;1573;1573;1572;1572;1450;1449;1307;1306;1179;1179;1178", 
                "text": "bedroom 1", 
                "x": 2305, 
                "y": 1318
            }, 
            {
                "class": "Room", 
                "type": "single", 
                "xn": "1754;1753;1753;1816;1817;1909;1910;2046;2046;1851;1850", 
                "yn": "1178;1179;1649;1649;1648;1648;1649;1649;1179;1179;1178", 
                "text": "office", 
                "x": 1872, 
                "y": 1330
            }, 
            {
                "class": "Room", 
                "type": "single", 
                "xn": "2172;2172;2171;2171;2524;2524;2523;2523;2524;2524", 
                "yn": "707;1072;1073;1171;1171;1048;1047;906;905;707", 
                "text": "bedroom 2", 
                "x": 2349, 
                "y": 845
            }, 
            {
                "class": "Room", 
                "type": "single", 
                "xn": "1960;1959;1812;1812;2052;2053;2164;2164;2028;2027", 
                "yn": "706;707;707;1058;1058;1057;1057;707;707;706", 
                "text": "bathroom", 
                "x": 1960, 
                "y": 863
            }, 
            {
                "class": "Room", 
                "type": "single", 
                "xn": "1701;1700;1611;1611;1704;1705;1804;1804;1768;1767", 
                "yn": "706;707;707;1059;1059;1058;1058;707;707;706", 
                "text": "unknown room", 
                "x": 1707, 
                "y": 882
            }, 
            {
                "class": "Room", 
                "type": "single", 
                "xn": "1488;1487;1398;1398;1507;1508;1603;1603;1556;1555", 
                "yn": "706;707;707;1058;1058;1059;1059;707;707;706", 
                "text": "cellar", 
                "x": 1489, 
                "y": 863
            }, 
            {
                "class": "Room", 
                "type": "single", 
                "xn": "1234;1233;690;690;689;689;690;690;1272;1273;1373;1373;1302;1301;1301", 
                "yn": "688;689;689;724;725;1006;1007;1041;1041;1040;1040;707;707;706;688", 
                "text": "garage", 
                "x": 1041, 
                "y": 845
            }, 
            {
                "class": "Room", 
                "type": "open", 
                "xn": "1061;1062;1081;1082;1082;1081;710;709;709;710;884;885", 
                "yn": "1436;1435;1435;1436;1930;1931;1931;1930;1438;1437;1437;1436", 
                "text": "dining", 
                "x": 856, 
                "y": 1696
            }, 
            {
                "class": "Room", 
                "type": "open", 
                "xn": "1239;1240;1274;1275;1275;1276;1743;1744;1744;1743;1239;1238;1239;1743;1744;1744;1743;1508;1507;1507;1506;1401;1400;1400;1399;1085;1084;1084;1085;1238;1239", 
                "yn": "1173;1172;1172;1173;1179;1180;1180;1181;1436;1437;1437;1438;1439;1439;1440;1648;1649;1649;1650;1923;1924;1924;1925;1930;1931;1931;1930;1436;1435;1435;1434", 
                "text": "living", 
                "x": 1311, 
                "y": 1696
            }, 
            {
                "class": "Room", 
                "type": "open", 
                "xn": "1027;1028;1150;1151;1236;1237;1237;1236;1084;1083;1082;1062;1061;885;884;710;709;709;710;826;827;827;828;1026;1027", 
                "yn": "1172;1171;1171;1172;1172;1173;1433;1434;1434;1433;1434;1434;1435;1435;1436;1436;1435;1423;1422;1422;1421;1251;1250;1250;1249", 
                "text": "entry", 
                "x": 1008, 
                "y": 1330
            }, 
            {
                "class": "Room", 
                "type": "open", 
                "xn": "827;828;1024;1025;1025;1024;828;827", 
                "yn": "1081;1080;1080;1081;1163;1164;1164;1163", 
                "text": "toilet", 
                "x": 952, 
                "y": 1093
            }, 
            {
                "class": "Room", 
                "type": "open", 
                "xn": "1276;1277;2161;2162;2162;2161;1239;1238;1237;1152;1151;1028;1027;1027;1028;1275;1276", 
                "yn": "1068;1067;1067;1068;1170;1171;1171;1170;1171;1171;1170;1170;1169;1081;1080;1080;1079", 
                "text": "corridor", 
                "x": 1590, 
                "y": 1123
            }, 
            {
                "class": "Door", 
                "xn": "1273;1374;1374;1273", 
                "yn": "1041;1041;1066;1066", 
                "confidence": 1.0
            }, 
            {
                "class": "Door", 
                "xn": "2053;2165;2165;2053", 
                "yn": "1058;1058;1066;1066", 
                "confidence": 1.0
            }, 
            {
                "class": "Door", 
                "xn": "1705;1804;1804;1705", 
                "yn": "1059;1059;1066;1066", 
                "confidence": 1.0
            }, 
            {
                "class": "Door", 
                "xn": "1396;1508;1508;1396", 
                "yn": "1059;1059;1066;1066", 
                "confidence": 1.0
            }, 
            {
                "class": "Door", 
                "xn": "1397;1508;1508;1397", 
                "yn": "1171;1171;1178;1178", 
                "confidence": 1.0
            }, 
            {
                "class": "Door", 
                "xn": "1752;1851;1851;1752", 
                "yn": "1171;1171;1178;1178", 
                "confidence": 1.0
            }, 
            {
                "class": "Door", 
                "xn": "2053;2164;2164;2053", 
                "yn": "1171;1171;1178;1178", 
                "confidence": 1.0
            }, 
            {
                "class": "Door", 
                "xn": "1397;1508;1508;1397", 
                "yn": "1171;1171;1178;1178", 
                "confidence": 1.0
            }, 
            {
                "class": "Door", 
                "xn": "1817;1910;1910;1817", 
                "yn": "1649;1649;1692;1692", 
                "confidence": 1.0
            }, 
            {
                "class": "Door", 
                "xn": "782;825;825;782", 
                "yn": "1260;1260;1367;1367", 
                "confidence": 1.0
            }, 
            {
                "class": "Door", 
                "xn": "2164;2171;2171;2164", 
                "yn": "1071;1071;1172;1172", 
                "confidence": 1.0
            }, 
            {
                "class": "Door", 
                "xn": "1570;1662;1662;1570", 
                "yn": "1703;1692;1650;1650", 
                "confidence": 0.5
            }, 
            {
                "class": "Door", 
                "xn": "1024;1024;1047;1047", 
                "yn": "1092;1158;1158;1092", 
                "confidence": 0.866666666667
            }, 
            {
                "class": "Window", 
                "xn": "2112;2253;2253;2112", 
                "yn": "1649;1649;1692;1692", 
                "confidence": 1.0
            }, 
            {
                "class": "Window", 
                "xn": "2524;2568;2568;2524", 
                "yn": "1307;1307;1450;1450", 
                "confidence": 1.0
            }, 
            {
                "class": "Window", 
                "xn": "1699;1768;1768;1699", 
                "yn": "663;663;706;706", 
                "confidence": 1.0
            }, 
            {
                "class": "Window", 
                "xn": "2052;2253;2253;2052", 
                "yn": "1649;1649;1692;1692", 
                "confidence": 1.0
            }, 
            {
                "class": "Window", 
                "xn": "1232;1302;1302;1232", 
                "yn": "663;663;688;688", 
                "confidence": 1.0
            }, 
            {
                "class": "Window", 
                "xn": "2524;2568;2568;2524", 
                "yn": "906;906;1048;1048", 
                "confidence": 1.0
            }, 
            {
                "class": "Window", 
                "xn": "1486;1556;1556;1486", 
                "yn": "663;663;706;706", 
                "confidence": 1.0
            }, 
            {
                "class": "Window", 
                "xn": "813;953;953;813", 
                "yn": "1933;1933;1975;1975", 
                "confidence": 1.0
            }, 
            {
                "class": "Window", 
                "xn": "663;707;707;663", 
                "yn": "1585;1585;1727;1727", 
                "confidence": 1.0
            }, 
            {
                "class": "Window", 
                "xn": "2112;2289;2289;2112", 
                "yn": "1649;1649;1692;1692", 
                "confidence": 1.0
            }, 
            {
                "class": "Window", 
                "xn": "1256;1402;1402;1256", 
                "yn": "1933;1933;1968;1968", 
                "confidence": 1.0
            }, 
            {
                "class": "Window", 
                "xn": "664;689;689;664", 
                "yn": "723;723;1007;1007", 
                "confidence": 1.0
            }, 
            {
                "class": "Window", 
                "xn": "1958;2028;2028;1958", 
                "yn": "663;663;706;706", 
                "confidence": 1.0
            }, 
            {
                "class": "Window", 
                "xn": "1509;1551;1570;1508", 
                "yn": "1916;1916;1703;1703", 
                "confidence": 0.5
            }, 
            {
                "class": "Wall", 
                "xn": "664;707;707;664", 
                "yn": "1727;1727;1975;1975", 
                "confidence": 1.0
            }, 
            {
                "class": "Wall", 
                "xn": "2525;2568;2568;2525", 
                "yn": "664;664;907;907", 
                "confidence": 1.0
            }, 
            {
                "class": "Wall", 
                "xn": "2525;2568;2568;2525", 
                "yn": "1048;1048;1308;1308", 
                "confidence": 1.0
            }, 
            {
                "class": "Wall", 
                "xn": "2253;2568;2568;2253", 
                "yn": "1650;1650;1692;1692", 
                "confidence": 1.0
            }, 
            {
                "class": "Wall", 
                "xn": "2525;2568;2568;2525", 
                "yn": "1450;1450;1692;1692", 
                "confidence": 1.0
            }, 
            {
                "class": "Wall", 
                "xn": "2028;2568;2568;2028", 
                "yn": "664;664;706;706", 
                "confidence": 1.0
            }, 
            {
                "class": "Wall", 
                "xn": "1910;2113;2113;1910", 
                "yn": "1650;1650;1692;1692", 
                "confidence": 1.0
            }, 
            {
                "class": "Wall", 
                "xn": "664;707;707;664", 
                "yn": "1379;1379;1586;1586", 
                "confidence": 1.0
            }, 
            {
                "class": "Wall", 
                "xn": "1768;1959;1959;1768", 
                "yn": "664;664;706;706", 
                "confidence": 1.0
            }, 
            {
                "class": "Wall", 
                "xn": "783;825;825;783", 
                "yn": "1154;1154;1261;1261", 
                "confidence": 1.0
            }, 
            {
                "class": "Wall", 
                "xn": "1402;1552;1552;1402", 
                "yn": "1925;1925;1968;1968", 
                "confidence": 1.0
            }, 
            {
                "class": "Wall", 
                "xn": "1662;1818;1818;1662", 
                "yn": "1650;1650;1692;1692", 
                "confidence": 1.0
            }, 
            {
                "class": "Wall", 
                "xn": "1302;1487;1487;1302", 
                "yn": "664;664;706;706", 
                "confidence": 1.0
            }, 
            {
                "class": "Wall", 
                "xn": "1556;1700;1700;1556", 
                "yn": "664;664;706;706", 
                "confidence": 1.0
            }, 
            {
                "class": "Wall", 
                "xn": "953;1257;1257;953", 
                "yn": "1934;1934;1975;1975", 
                "confidence": 1.0
            }, 
            {
                "class": "Wall", 
                "xn": "664;814;814;664", 
                "yn": "1933;1933;1975;1975", 
                "confidence": 1.0
            }, 
            {
                "class": "Wall", 
                "xn": "664;1274;1274;664", 
                "yn": "1042;1042;1079;1079", 
                "confidence": 1.0
            }, 
            {
                "class": "Wall", 
                "xn": "664;1233;1233;664", 
                "yn": "664;664;688;688", 
                "confidence": 1.0
            }, 
            {
                "class": "Wall", 
                "xn": "665;689;689;665", 
                "yn": "1007;1007;1066;1066", 
                "confidence": 1.0
            }, 
            {
                "class": "Wall", 
                "xn": "665;689;689;665", 
                "yn": "664;664;724;724", 
                "confidence": 1.0
            }, 
            {
                "class": "Wall", 
                "xn": "1374;1397;1397;1374", 
                "yn": "664;664;1066;1066", 
                "confidence": 1.0
            }, 
            {
                "class": "Wall", 
                "xn": "1509;1551;1551;1509", 
                "yn": "1916;1916;1975;1975", 
                "confidence": 1.0
            }, 
            {
                "class": "Wall", 
                "xn": "783;825;825;783", 
                "yn": "1367;1367;1420;1420", 
                "confidence": 1.0
            }, 
            {
                "class": "Wall", 
                "xn": "1396;1552;1552;1396", 
                "yn": "1953;1953;1975;1975", 
                "confidence": 1.0
            }, 
            {
                "class": "Wall", 
                "xn": "664;826;826;664", 
                "yn": "1372;1372;1421;1421", 
                "confidence": 1.0
            }, 
            {
                "class": "Wall", 
                "xn": "1508;1570;1570;1508", 
                "yn": "1650;1650;1703;1703", 
                "confidence": 1.0
            }, 
            {
                "class": "Wall", 
                "xn": "2164;2568;2568;2164", 
                "yn": "1172;1172;1178;1178", 
                "confidence": 1.0
            }, 
            {
                "class": "Wall", 
                "xn": "2289;2295;2295;2289", 
                "yn": "1574;1574;1692;1692", 
                "confidence": 1.0
            }, 
            {
                "class": "Wall", 
                "xn": "2165;2171;2171;2165", 
                "yn": "664;664;1072;1072", 
                "confidence": 1.0
            }, 
            {
                "class": "Wall", 
                "xn": "2047;2053;2053;2047", 
                "yn": "1172;1172;1692;1692", 
                "confidence": 1.0
            }, 
            {
                "class": "Wall", 
                "xn": "1805;1811;1811;1805", 
                "yn": "664;664;1066;1066", 
                "confidence": 1.0
            }, 
            {
                "class": "Wall", 
                "xn": "782;1026;1026;782", 
                "yn": "1166;1166;1173;1173", 
                "confidence": 1.0
            }, 
            {
                "class": "Wall", 
                "xn": "1746;1752;1752;1746", 
                "yn": "1172;1172;1692;1692", 
                "confidence": 1.0
            }, 
            {
                "class": "Wall", 
                "xn": "1604;1610;1610;1604", 
                "yn": "664;664;1066;1066", 
                "confidence": 1.0
            }, 
            {
                "class": "Wall", 
                "xn": "1396;1552;1552;1396", 
                "yn": "1936;1936;1941;1941", 
                "confidence": 1.0
            }, 
            {
                "class": "Wall", 
                "xn": "1851;2054;2054;1851", 
                "yn": "1172;1172;1178;1178", 
                "confidence": 1.0
            }, 
            {
                "class": "Wall", 
                "xn": "1804;2054;2054;1804", 
                "yn": "1059;1059;1066;1066", 
                "confidence": 1.0
            }, 
            {
                "class": "Wall", 
                "xn": "1018;1025;1025;1018", 
                "yn": "1166;1166;1249;1249", 
                "confidence": 1.0
            }, 
            {
                "class": "Wall", 
                "xn": "1508;1753;1753;1508", 
                "yn": "1172;1172;1178;1178", 
                "confidence": 1.0
            }, 
            {
                "class": "Wall", 
                "xn": "1508;1706;1706;1508", 
                "yn": "1060;1060;1066;1066", 
                "confidence": 1.0
            }, 
            {
                "class": "Wall", 
                "xn": "1276;1398;1398;1276", 
                "yn": "1172;1172;1178;1178", 
                "confidence": 1.0
            }, 
            {
                "class": "Wall", 
                "xn": "1284;1279;1202;1206", 
                "yn": "1176;1172;1249;1254", 
                "confidence": 1.0
            }, 
            {
                "class": "Wall", 
                "xn": "1202;1209;1209;1202", 
                "yn": "1247;1247;1521;1521", 
                "confidence": 1.0
            }, 
            {
                "class": "Wall", 
                "xn": "825;1018;1018;825", 
                "yn": "1250;1250;1246;1246", 
                "confidence": 1.0
            }, 
            {
                "class": "Wall", 
                "xn": "2294;2524;2524;2294", 
                "yn": "1576;1576;1572;1572", 
                "confidence": 1.0
            }, 
            {
                "class": "Stair", 
                "xn": "1910;1911;2003;2004;2004;2003;1911;1910", 
                "yn": "1692;1691;1691;1692;1696;1697;1697;1696", 
                "confidence": 1.0
            }, 
            {
                "class": "Text", 
                "height": 24, 
                "width": 225, 
                "x": 1309, 
                "y": 456, 
                "text": "abrivoiture", 
                "confidence": "0.93"
            }, 
            {
                "class": "Text", 
                "height": 25, 
                "width": 135, 
                "x": 974, 
                "y": 833, 
                "text": "garage", 
                "confidence": "0.92"
            }, 
            {
                "class": "Text", 
                "height": 25, 
                "width": 132, 
                "x": 1423, 
                "y": 851, 
                "text": "cellier", 
                "confidence": "0.72"
            }, 
            {
                "class": "Text", 
                "height": 25, 
                "width": 93, 
                "x": 1914, 
                "y": 851, 
                "text": "bains", 
                "confidence": "0.72"
            }, 
            {
                "class": "Text", 
                "height": 25, 
                "width": 186, 
                "x": 2256, 
                "y": 833, 
                "text": "chambre 2", 
                "confidence": "0.93"
            }, 
            {
                "class": "Text", 
                "height": 25, 
                "width": 55, 
                "x": 925, 
                "y": 1081, 
                "text": "wc", 
                "confidence": "0.95"
            }, 
            {
                "class": "Text", 
                "height": 25, 
                "width": 226, 
                "x": 1477, 
                "y": 1111, 
                "text": "degagement", 
                "confidence": "0.92"
            }, 
            {
                "class": "Text", 
                "height": 25, 
                "width": 135, 
                "x": 627, 
                "y": 1170, 
                "text": "porche", 
                "confidence": "0.92"
            }, 
            {
                "class": "Text", 
                "height": 25, 
                "width": 150, 
                "x": 851, 
                "y": 1200, 
                "text": "placard", 
                "confidence": "0.93"
            }, 
            {
                "class": "Text", 
                "height": 24, 
                "width": 79, 
                "x": 969, 
                "y": 1318, 
                "text": "hall", 
                "confidence": "0.96"
            }, 
            {
                "class": "Text", 
                "height": 25, 
                "width": 127, 
                "x": 1405, 
                "y": 1318, 
                "text": "cuisine", 
                "confidence": "0.87"
            }, 
            {
                "class": "Text", 
                "height": 25, 
                "width": 131, 
                "x": 1807, 
                "y": 1318, 
                "text": "bureau", 
                "confidence": "0.95"
            }, 
            {
                "class": "Text", 
                "height": 24, 
                "width": 182, 
                "x": 2214, 
                "y": 1306, 
                "text": "chambre 1", 
                "confidence": "0.91"
            }, 
            {
                "class": "Text", 
                "height": 25, 
                "width": 151, 
                "x": 2315, 
                "y": 1607, 
                "text": "placard", 
                "confidence": "0.95"
            }, 
            {
                "class": "Text", 
                "height": 25, 
                "width": 130, 
                "x": 791, 
                "y": 1684, 
                "text": "sejour", 
                "confidence": "0.9"
            }, 
            {
                "class": "Text", 
                "height": 25, 
                "width": 107, 
                "x": 1258, 
                "y": 1684, 
                "text": "repas", 
                "confidence": "0.84"
            }, 
            {
                "class": "Text", 
                "height": 63, 
                "width": 175, 
                "x": 1572, 
                "y": 1752, 
                "text": "terrassecouverte", 
                "confidence": "0.91"
            }, 
            {
                "class": "Unknown", 
                "xn": "783;825;825;783", 
                "yn": "1154;1154;1079;1079"
            }, 
            {
                "class": "Unknown", 
                "xn": "1650;1763;1763;1650", 
                "yn": "853;853;910;910"
            }
        ], 
        "class": "image", 
        "filename": "fp_9.png"
    }
]