[
    {
        "annotations": [
            {
                "class": "Wall",
                "xn": "663.0;1230.0;1230.0;663.0",
                "yn": "730.0;730.0;772.0;773.0"
            },
            {
                "class": "Wall",
                "xn": "1372.0;1372.0;1940.0;1938.0",
                "yn": "730.0;772.0;775.0;730.0"
            },
            {
                "class": "Wall",
                "xn": "1897.0;1944.0;1940.0;1894.0",
                "yn": "859.0;856.0;730.0;728.0"
            },
            {
                "class": "Wall",
                "xn": "1899.0;1943.0;1943.0;1899.0",
                "yn": "998.0;998.0;1207.0;1211.0"
            },
            {
                "class": "Wall",
                "xn": "1899.0;1941.0;1943.0;1899.0",
                "yn": "1348.0;1348.0;1479.0;1476.0"
            },
            {
                "class": "Wall",
                "xn": "1768.0;1770.0;1944.0;1940.0",
                "yn": "1437.0;1481.0;1485.0;1437.0"
            },
            {
                "class": "Wall",
                "xn": "1769.0;1816.0;1814.0;1769.0",
                "yn": "1515.0;1518.0;1436.0;1434.0"
            },
            {
                "class": "Wall",
                "xn": "1769.0;1810.0;1811.0;1769.0",
                "yn": "1622.0;1620.0;1745.0;1745.0"
            },
            {
                "class": "Wall",
                "xn": "1769.0;1811.0;1814.0;1774.0",
                "yn": "1887.0;1886.0;2030.0;2029.0"
            },
            {
                "class": "Wall",
                "xn": "1633.0;1633.0;1811.0;1808.0",
                "yn": "1987.0;2028.0;2036.0;1984.0"
            },
            {
                "class": "Wall",
                "xn": "1491.0;1491.0;1055.0;1052.0",
                "yn": "1987.0;2028.0;2032.0;1990.0"
            },
            {
                "class": "Wall",
                "xn": "844.0;846.0;663.0;663.0",
                "yn": "1990.0;2034.0;2032.0;1986.0"
            },
            {
                "class": "Wall",
                "xn": "663.0;707.0;710.0;666.0",
                "yn": "1662.0;1664.0;2026.0;2025.0"
            },
            {
                "class": "Wall",
                "xn": "662.0;707.0;707.0;665.0",
                "yn": "1012.0;1012.0;1520.0;1522.0"
            },
            {
                "class": "Wall",
                "xn": "663.0;707.0;705.0;661.0",
                "yn": "872.0;872.0;726.0;726.0"
            },
            {
                "class": "Wall",
                "xn": "1406.5;1406.5;982.5;979.5",
                "yn": "1205.5;1231.5;1233.5;1206.5"
            },
            {
                "class": "Wall",
                "xn": "985.0;1010.0;1007.0;980.0",
                "yn": "1356.0;1356.0;1206.0;1207.0"
            },
            {
                "class": "Wall",
                "xn": "1408.0;1408.0;987.0;985.0",
                "yn": "1329.0;1357.0;1356.0;1329.0"
            },
            {
                "class": "Wall",
                "xn": "1036.0;1047.0;1046.0;1035.0",
                "yn": "1107.0;1107.0;773.0;772.0"
            },
            {
                "class": "Wall",
                "xn": "1103.0;1103.0;1035.0;1035.0",
                "yn": "1100.0;1111.0;1111.0;1101.0"
            },
            {
                "class": "Wall",
                "xn": "1196.0;1207.0;1207.0;1195.0",
                "yn": "995.0;994.0;1110.0;1110.0"
            },
            {
                "class": "Wall",
                "xn": "1296.0;1297.0;1411.0;1408.0",
                "yn": "1101.0;1111.0;1110.0;1096.0"
            },
            {
                "class": "Wall",
                "xn": "1409.5;1410.5;1194.5;1194.5",
                "yn": "993.5;1005.5;1003.5;992.5"
            },
            {
                "class": "Wall",
                "xn": "1401.0;1410.0;1414.0;1403.0",
                "yn": "770.5;771.5;1110.5;1111.5"
            },
            {
                "class": "Wall",
                "xn": "1501.0;1502.0;1898.0;1896.0",
                "yn": "1101.0;1111.0;1112.0;1100.0"
            },
            {
                "class": "Wall",
                "xn": "1507.0;1519.0;1519.0;1510.0",
                "yn": "1201.0;1201.0;1448.0;1448.0"
            },
            {
                "class": "Wall",
                "xn": "1507.5;1507.5;1766.5;1766.5",
                "yn": "1436.0;1446.0;1446.0;1436.0"
            },
            {
                "class": "Wall",
                "xn": "1410.0;1409.0;1325.0;1326.0",
                "yn": "1460.0;1472.0;1473.0;1461.0"
            },
            {
                "class": "Wall",
                "xn": "1335.0;1323.0;1325.0;1337.0",
                "yn": "1474.0;1470.0;1358.0;1356.0"
            },
            {
                "class": "Wall",
                "xn": "1502.0;1502.0;1769.0;1768.0",
                "yn": "1642.0;1653.0;1654.0;1643.0"
            },
            {
                "class": "Wall",
                "xn": "1270.5;1282.5;1282.5;1271.5",
                "yn": "1645.0;1645.0;1987.0;1987.0"
            },
            {
                "class": "Wall",
                "xn": "1416.0;1416.0;1269.0;1268.0",
                "yn": "1643.0;1653.0;1652.0;1643.0"
            },
            {
                "class": "Wall",
                "xn": "979.0;981.0;706.0;705.0",
                "yn": "1206.0;1216.0;1216.0;1205.0"
            },
            {
                "class": "Window",
                "xn": "658.0;658.0;712.0;715.0",
                "yn": "871.0;1012.0;1011.0;871.0"
            },
            {
                "class": "Window",
                "xn": "1228.0;1227.0;1373.0;1372.0",
                "yn": "722.0;775.0;778.0;723.0"
            },
            {
                "class": "Window",
                "xn": "1951.0;1894.0;1894.0;1951.0",
                "yn": "858.0;857.0;995.0;996.0"
            },
            {
                "class": "Window",
                "xn": "1950.0;1948.0;1892.0;1891.0",
                "yn": "1211.0;1345.0;1348.0;1209.0"
            },
            {
                "class": "Window",
                "xn": "1821.0;1818.0;1763.0;1764.0",
                "yn": "1743.0;1887.0;1887.0;1740.0"
            },
            {
                "class": "Window",
                "xn": "1494.0;1631.0;1631.0;1590.0;1562.0;1535.0;1494.0",
                "yn": "2033.0;2030.0;1915.0;1921.0;1953.0;1921.0;1907.0"
            },
            {
                "class": "Window",
                "xn": "846.0;1052.0;1049.0;1004.0;985.0;960.0;916.0;915.0;843.0",
                "yn": "2037.0;2035.0;1918.0;1921.0;1957.0;1922.0;1915.0;1983.0;1981.0"
            },
            {
                "class": "Window",
                "xn": "653.0;652.0;715.0;715.0",
                "yn": "1515.0;1662.0;1663.0;1515.0"
            },
            {
                "class": "Door",
                "xn": "998.0;1097.0;1103.0;1033.0;1005.0",
                "yn": "1200.0;1199.0;1111.0;1123.0;1147.0"
            },
            {
                "class": "Door",
                "xn": "1206.0;1208.0;1297.0;1292.0;1265.0",
                "yn": "1014.0;1111.0;1111.0;1060.0;1025.0"
            },
            {
                "class": "Door",
                "xn": "1415.0;1416.0;1506.0;1497.0;1468.0",
                "yn": "1011.0;1112.0;1114.0;1052.0;1023.0"
            },
            {
                "class": "Door",
                "xn": "1324.0;1408.0;1412.0;1354.0;1326.0",
                "yn": "1476.0;1480.0;1561.0;1549.0;1521.0"
            },
            {
                "class": "Door",
                "xn": "1323.0;1419.0;1410.0;1369.0;1336.0",
                "yn": "1640.0;1642.0;1561.0;1561.0;1587.0"
            },
            {
                "class": "Door",
                "xn": "1415.0;1415.0;1502.0;1498.0;1447.0",
                "yn": "1739.0;1649.0;1650.0;1696.0;1733.0"
            },
            {
                "class": "Door",
                "xn": "1670.0;1813.0;1814.0;1736.0;1680.0",
                "yn": "1622.0;1618.0;1515.0;1518.0;1553.0"
            },
            {
                "class": "Door",
                "xn": "1453.0;1405.0;1402.0;1429.0",
                "yn": "1313.0;1229.0;1329.0;1325.0"
            },
            {
                "class": "Door",
                "xn": "1608.0;1500.0;1504.0;1569.0;1593.0",
                "yn": "1106.0;1110.0;1201.0;1198.0;1168.0"
            },
            {
                "class": "Wall",
                "xn": "1917.0;1941.0;1943.0;1917.0",
                "yn": "2005.0;2005.0;2031.0;2034.0"
            },
            {
                "class": "Door",
                "xn": "1099.0;1195.0;1192.0;1140.0;1110.0",
                "yn": "1112.0;1113.0;1014.0;1021.0;1049.0"
            },
            {
                "class": "Text",
                "height": 25,
                "text": "bains",
                "width": 94,
                "x": 1159,
                "y": 854
            },
            {
                "class": "Text",
                "height": 24,
                "text": "wc",
                "width": 63,
                "x": 1234,
                "y": 1020
            },
            {
                "class": "Text",
                "height": 25,
                "text": "degt",
                "width": 94,
                "x": 1248,
                "y": 1161
            },
            {
                "class": "Text",
                "height": 24,
                "text": "pl",
                "width": 44,
                "x": 1343,
                "y": 1427
            },
            {
                "class": "Text",
                "height": 24,
                "text": "hall",
                "width": 78,
                "x": 1503,
                "y": 1527
            },
            {
                "class": "Text",
                "height": 26,
                "text": "sejour",
                "width": 130,
                "x": 852,
                "y": 1580
            },
            {
                "class": "Text",
                "height": 24,
                "text": "cuisine",
                "width": 128,
                "x": 1401,
                "y": 1811
            },
            {
                "class": "Text",
                "height": 21.246641552916117,
                "text": "ch 1",
                "width": 73.18287646004467,
                "x": 819.1760687624349,
                "y": 960.8203457818761
            },
            {
                "class": "Text",
                "height": 33.050331304536485,
                "text": "ch 2",
                "width": 70.82213850972039,
                "x": 1647.795089326166,
                "y": 1244.1088998207583
            },
            {
                "class": "Text",
                "height": 25.96811745356422,
                "text": "ch 3",
                "width": 73.18287646004478,
                "x": 1588.7766405680652,
                "y": 918.3270626760437
            },
            {
                "class": "Stairs",
                "xn": "1368.0;1368.0;1006.0;1009.0",
                "yn": "1237.0;1332.0;1332.0;1232.0"
            }
        ],
        "class": "image",
        "filename": "fp_15.png"
    }
]
