[
    {
        "annotations": [
            {
                "class": "Wall",
                "xn": "817.0;905.0;904.0;816.0",
                "yn": "1403.0;1402.0;1444.0;1444.0"
            },
            {
                "class": "Wall",
                "xn": "237.0;280.0;279.0;237.0",
                "yn": "1447.0;1447.0;1603.0;1602.0"
            },
            {
                "class": "Wall",
                "xn": "279.0;531.0;532.0;278.0",
                "yn": "1946.0;1946.0;1952.0;1953.0"
            },
            {
                "class": "Wall",
                "xn": "651.0;656.0;656.0;650.0",
                "yn": "1989.0;1995.0;2400.0;2400.0"
            },
            {
                "class": "Wall",
                "xn": "1784.0;1825.0;1827.0;1785.0",
                "yn": "2293.0;2293.0;2400.0;2400.0"
            },
            {
                "class": "Wall",
                "xn": "2192.0;2216.0;2215.0;2192.0",
                "yn": "2342.0;2341.0;2418.0;2419.0"
            },
            {
                "class": "Wall",
                "xn": "1829.0;1892.0;1892.0;1829.0",
                "yn": "2419.0;2420.0;2444.0;2444.0"
            },
            {
                "class": "Wall",
                "xn": "1317.0;1519.0;1519.0;1319.0",
                "yn": "2402.0;2401.0;2444.0;2444.0"
            },
            {
                "class": "Wall",
                "xn": "1684.0;1827.0;1828.0;1685.0",
                "yn": "2401.0;2401.0;2444.0;2444.0"
            },
            {
                "class": "Wall",
                "xn": "1235.0;1260.0;1260.0;1236.0",
                "yn": "649.0;649.0;832.0;833.0"
            },
            {
                "class": "Wall",
                "xn": "1260.0;1583.0;1584.0;1257.0",
                "yn": "1422.0;1424.0;1447.0;1445.0"
            },
            {
                "class": "Wall",
                "xn": "1684.0;1726.0;1725.0;1684.0",
                "yn": "1422.0;1423.0;1527.0;1528.0"
            },
            {
                "class": "Wall",
                "xn": "1235.0;1276.0;1276.0;1235.0",
                "yn": "1516.0;1515.0;1570.0;1570.0"
            },
            {
                "class": "Wall",
                "xn": "1683.0;1709.0;1710.0;1684.0",
                "yn": "1843.0;1842.0;2018.0;2018.0"
            },
            {
                "class": "Wall",
                "xn": "746.0;745.0;659.0;237.0;237.0",
                "yn": "1406.0;1444.0;1445.0;1446.0;1403.0"
            },
            {
                "class": "Wall",
                "xn": "397.0;397.0;279.0;279.0",
                "yn": "2400.0;2443.0;2444.0;2402.0"
            },
            {
                "class": "Wall",
                "xn": "237.0;279.0;279.0;236.0",
                "yn": "2444.0;2445.0;1767.0;1767.0"
            },
            {
                "class": "Wall",
                "xn": "562.0;563.0;763.0;763.0",
                "yn": "2400.0;2444.0;2443.0;2401.0"
            },
            {
                "class": "Wall",
                "xn": "658.0;665.0;665.0;659.0",
                "yn": "1759.0;1754.0;1444.0;1445.0"
            },
            {
                "class": "Wall",
                "xn": "928.0;928.0;905.0;905.0",
                "yn": "1428.0;1402.0;1402.0;1428.0"
            },
            {
                "class": "Wall",
                "xn": "1017.0;1017.0;1040.0;1040.0",
                "yn": "1526.0;1568.0;1569.0;1527.0"
            },
            {
                "class": "Wall",
                "xn": "1145.0;1146.0;1235.0;1235.0",
                "yn": "1526.0;1569.0;1570.0;1526.0"
            },
            {
                "class": "Wall",
                "xn": "905.0;863.0;863.0;905.0",
                "yn": "1526.0;1526.0;1441.0;1441.0"
            },
            {
                "class": "Wall",
                "xn": "928.0;929.0;1152.0;1152.0",
                "yn": "2400.0;2444.0;2445.0;2400.0"
            },
            {
                "class": "Wall",
                "xn": "1784.0;1784.0;1711.0;1709.0",
                "yn": "1993.0;2018.0;2017.0;1993.0"
            },
            {
                "class": "Wall",
                "xn": "1926.0;1926.0;1828.0;1828.0",
                "yn": "2017.0;1975.0;1976.0;2018.0"
            },
            {
                "class": "Wall",
                "xn": "1784.0;1827.0;1829.0;1784.0",
                "yn": "2129.0;2128.0;1976.0;1976.0"
            },
            {
                "class": "Wall",
                "xn": "1683.0;1683.0;1277.0;1277.0",
                "yn": "1636.0;1628.0;1628.0;1635.0"
            },
            {
                "class": "Wall",
                "xn": "1709.0;1683.0;1683.0;1708.0",
                "yn": "1626.0;1627.0;1742.0;1743.0"
            },
            {
                "class": "Wall",
                "xn": "1027.0;1035.0;1035.0;1034.0;1027.0",
                "yn": "1882.0;1883.0;1978.0;2399.0;2399.0"
            },
            {
                "class": "Wall",
                "xn": "863.0;863.0;946.0;947.0;922.0",
                "yn": "1568.0;1526.0;1526.0;1569.0;1569.0"
            },
            {
                "class": "Wall",
                "xn": "1027.0;1035.0;1036.0;1027.0",
                "yn": "1775.0;1775.0;1567.0;1568.0"
            },
            {
                "class": "Wall",
                "xn": "2215.0;2216.0;1724.0;1725.0",
                "yn": "1527.0;1486.0;1486.0;1527.0"
            },
            {
                "class": "Wall",
                "xn": "2215.0;2190.0;2191.0;2214.0",
                "yn": "1235.0;1235.0;1484.0;1484.0"
            },
            {
                "class": "Wall",
                "xn": "2193.0;2216.0;2216.0;2193.0",
                "yn": "1077.0;1076.0;1166.0;1165.0"
            },
            {
                "class": "Wall",
                "xn": "1260.0;1236.0;1236.0;1260.0",
                "yn": "1319.0;1319.0;1444.0;1446.0"
            },
            {
                "class": "Wall",
                "xn": "1210.0;1210.0;1236.0;1235.0",
                "yn": "1427.0;1403.0;1402.0;1427.0"
            },
            {
                "class": "Wall",
                "xn": "821.0;821.0;929.0;930.0",
                "yn": "1757.0;1764.0;1763.0;1756.0"
            },
            {
                "class": "Wall",
                "xn": "922.0;928.0;929.0;922.0",
                "yn": "1756.0;1754.0;1568.0;1569.0"
            },
            {
                "class": "Wall",
                "xn": "716.0;721.0;695.0;688.0",
                "yn": "1759.0;1765.0;1793.0;1787.0"
            },
            {
                "class": "Wall",
                "xn": "763.0;773.0;1033.0;1034.0",
                "yn": "1874.0;1883.0;1883.0;1875.0"
            },
            {
                "class": "Wall",
                "xn": "683.0;688.0;699.0;694.0",
                "yn": "1947.0;1940.0;1952.0;1957.0"
            },
            {
                "class": "Wall",
                "xn": "617.0;622.0;532.0;532.0",
                "yn": "1859.0;1865.0;1952.0;1946.0"
            },
            {
                "class": "Wall",
                "xn": "656.0;652.0;690.0;694.0",
                "yn": "1994.0;1989.0;1952.0;1956.0"
            },
            {
                "class": "Wall",
                "xn": "2216.0;2174.0;2175.0;2215.0",
                "yn": "1669.0;1667.0;1528.0;1525.0"
            },
            {
                "class": "Wall",
                "xn": "2092.0;2091.0;2173.0;2173.0",
                "yn": "1977.0;2018.0;2017.0;1976.0"
            },
            {
                "class": "Wall",
                "xn": "2215.0;2174.0;2174.0;2216.0",
                "yn": "2016.0;2016.0;1833.0;1834.0"
            },
            {
                "class": "Wall",
                "xn": "2192.0;2216.0;2216.0;2192.0",
                "yn": "2060.0;2061.0;2013.0;2016.0"
            },
            {
                "class": "Wall",
                "xn": "2215.0;2215.0;2174.0;2175.0",
                "yn": "2444.0;2418.0;2418.0;2444.0"
            },
            {
                "class": "Wall",
                "xn": "2192.0;2217.0;2216.0;2192.0",
                "yn": "648.0;647.0;1007.0;1007.0"
            },
            {
                "class": "Wall",
                "xn": "2216.0;2217.0;1233.0;1233.0",
                "yn": "624.0;647.0;647.0;622.0"
            },
            {
                "class": "Wall",
                "xn": "665.0;658.0;687.0;691.0",
                "yn": "1755.0;1759.0;1787.0;1783.0"
            },
            {
                "class": "Wall",
                "xn": "1277.0;1269.0;1270.0;1277.0",
                "yn": "1571.0;1570.0;1636.0;1635.0"
            },
            {
                "class": "Wall",
                "xn": "1082.0;1081.0;1036.0;1035.0",
                "yn": "1979.0;1988.0;1988.0;1979.0"
            },
            {
                "class": "Wall",
                "xn": "1080.0;1088.0;1088.0;1081.0",
                "yn": "1935.0;1935.0;1988.0;1988.0"
            },
            {
                "class": "Wall",
                "xn": "1088.0;1088.0;1036.0;1037.0",
                "yn": "1928.0;1935.0;1935.0;1927.0"
            },
            {
                "class": "Window",
                "xn": "748.0;814.0;814.0;746.0",
                "yn": "1449.0;1446.0;1399.0;1399.0"
            },
            {
                "class": "Window",
                "xn": "284.0;231.0;231.0;282.0",
                "yn": "1603.0;1603.0;1767.0;1771.0"
            },
            {
                "class": "Window",
                "xn": "395.0;397.0;561.0;561.0",
                "yn": "2395.0;2446.0;2447.0;2395.0"
            },
            {
                "class": "Window",
                "xn": "928.0;928.0;763.0;763.0",
                "yn": "2397.0;2444.0;2444.0;2396.0"
            },
            {
                "class": "Window",
                "xn": "1156.0;1156.0;1320.0;1313.0;1264.0;1235.0;1205.0",
                "yn": "2322.0;2445.0;2445.0;2318.0;2325.0;2377.0;2322.0"
            },
            {
                "class": "Window",
                "xn": "1682.0;1679.0;1524.0;1527.0;1578.0;1599.0;1626.0",
                "yn": "2318.0;2444.0;2446.0;2316.0;2324.0;2384.0;2330.0"
            },
            {
                "class": "Window",
                "xn": "1700.0;1829.0;1829.0;1700.0;1704.0;1756.0;1708.0",
                "yn": "2289.0;2288.0;2128.0;2131.0;2181.0;2210.0;2245.0"
            },
            {
                "class": "Window",
                "xn": "1929.0;1926.0;2095.0;2087.0;2019.0;2009.0;1976.0",
                "yn": "1894.0;2020.0;2019.0;1893.0;1909.0;1953.0;1899.0"
            },
            {
                "class": "Window",
                "xn": "2173.0;2221.0;2219.0;2172.0",
                "yn": "1832.0;1832.0;1668.0;1668.0"
            },
            {
                "class": "Window",
                "xn": "2186.0;2219.0;2224.0;2186.0",
                "yn": "1163.0;1165.0;1235.0;1234.0"
            },
            {
                "class": "Window",
                "xn": "2189.0;2221.0;2224.0;2188.0",
                "yn": "1008.0;1008.0;1079.0;1080.0"
            },
            {
                "class": "Door",
                "xn": "1682.0;1680.0;1584.0;1592.0;1631.0",
                "yn": "1540.0;1438.0;1434.0;1486.0;1530.0"
            },
            {
                "class": "Door",
                "xn": "1591.0;1698.0;1696.0;1629.0;1604.0",
                "yn": "1622.0;1626.0;1528.0;1538.0;1570.0"
            },
            {
                "class": "Door",
                "xn": "1796.0;1685.0;1681.0;1729.0;1763.0;1788.0",
                "yn": "1835.0;1841.0;1743.0;1741.0;1761.0;1790.0"
            },
            {
                "class": "Door",
                "xn": "1042.0;1041.0;1043.0;1142.0;1147.0;1137.0;1094.0",
                "yn": "1669.0;1569.0;1524.0;1525.0;1571.0;1625.0;1659.0"
            },
            {
                "class": "Door",
                "xn": "945.0;1026.0;931.0;933.0",
                "yn": "1807.0;1758.0;1761.0;1788.0"
            },
            {
                "class": "Door",
                "xn": "936.0;1031.0;1034.0;980.0;943.0",
                "yn": "1871.0;1872.0;1771.0;1788.0;1827.0"
            },
            {
                "class": "Door",
                "xn": "827.0;761.0;693.0;722.0;777.0",
                "yn": "1948.0;1877.0;1949.0;1971.0;1977.0"
            },
            {
                "class": "Door",
                "xn": "617.0;685.0;621.0;585.0;582.0",
                "yn": "2006.0;1933.0;1866.0;1919.0;1960.0"
            },
            {
                "class": "Door",
                "xn": "558.0;620.0;693.0;650.0;594.0",
                "yn": "1794.0;1861.0;1791.0;1762.0;1768.0"
            },
            {
                "class": "Door",
                "xn": "727.0;721.0;825.0;817.0;770.0",
                "yn": "1672.0;1763.0;1761.0;1720.0;1670.0"
            },
            {
                "class": "Window",
                "xn": "952.0;1013.0;1015.0;946.0",
                "yn": "1569.0;1565.0;1522.0;1526.0"
            },
            {
                "class": "Window",
                "xn": "1225.0;1277.0;1277.0;1225.0",
                "yn": "1440.0;1440.0;1516.0;1516.0"
            },
            {
                "class": "Text",
                "height": 31,
                "text": "garage",
                "width": 169,
                "x": 1660,
                "y": 1016
            },
            {
                "class": "Text",
                "height": 31,
                "text": "porche",
                "width": 169,
                "x": 1004,
                "y": 1468
            },
            {
                "class": "Text",
                "height": 31,
                "text": "cellier",
                "width": 166,
                "x": 1392,
                "y": 1525
            },
            {
                "class": "Text",
                "height": 31,
                "text": "chambre 1",
                "width": 227,
                "x": 311,
                "y": 1575
            },
            {
                "class": "Text",
                "height": 31,
                "text": "cuisine",
                "width": 159,
                "x": 1873,
                "y": 1658
            },
            {
                "class": "Text",
                "height": 30,
                "text": "hall",
                "width": 98,
                "x": 1131,
                "y": 1688
            },
            {
                "class": "Text",
                "height": 31,
                "text": "chambre 2",
                "width": 232,
                "x": 317,
                "y": 2071
            },
            {
                "class": "Text",
                "height": 31,
                "text": "chambre 3",
                "width": 232,
                "x": 719,
                "y": 2077
            },
            {
                "class": "Text",
                "height": 23.607379503240054,
                "text": "bains",
                "width": 115.67615956587713,
                "x": 710.5821230475304,
                "y": 1555.7263092635303
            },
            {
                "class": "Text",
                "height": 33.05033130453626,
                "text": "wc",
                "width": 68.46140055939657,
                "x": 944.2951801296086,
                "y": 1678.4846826803794
            },
            {
                "class": "Text",
                "height": 40.132545155508296,
                "text": "sejour",
                "width": 172.33387037365355,
                "x": 1180.3689751620109,
                "y": 1895.6725741101893
            },
            {
                "class": "Text",
                "height": 89.7080421123128,
                "text": "terrasse couverte",
                "width": 226.63084323110616,
                "x": 1893.3118361598654,
                "y": 2188.404079950368
            },
            {
                "class": "Stairs",
                "xn": "1679.62598377;1269.87305705;1269.87305705;1680.52852326",
                "yn": "1635.40154895;1636.30408844;1741.90120832;1741.90120832"
            }
        ],
        "class": "image",
        "filename": "fp_35.png"
    }
]
