[
    {
        "annotations": [
            {
                "class": "Window", 
                "xn": "679.0;558.0;560.0;679.0", 
                "yn": "545.0;548.0;686.0;687.0"
            }, 
            {
                "class": "Window", 
                "xn": "677.0;553.0;553.0;677.0", 
                "yn": "941.5;938.5;1082.5;1082.5"
            }, 
            {
                "class": "Window", 
                "xn": "709.0;853.0;852.0;711.0", 
                "yn": "1454.0;1451.0;1573.0;1574.0"
            }, 
            {
                "class": "Window", 
                "xn": "1294.0;1435.0;1437.0;1292.0", 
                "yn": "1454.5;1451.5;1573.5;1573.5"
            }, 
            {
                "class": "Window", 
                "xn": "1670.5;1670.5;1816.5;1813.5", 
                "yn": "483.5;361.5;361.5;480.5"
            }, 
            {
                "class": "Window", 
                "xn": "2051.0;2191.0;2192.0;2054.0", 
                "yn": "1048.0;1048.0;1164.0;1168.0"
            }, 
            {
                "class": "Window", 
                "xn": "2401.0;2461.0;2464.0;2400.0", 
                "yn": "883.0;883.0;1024.0;1021.0"
            }, 
            {
                "class": "Window", 
                "xn": "2860.0;2903.0;2905.0;2858.0", 
                "yn": "437.0;434.0;718.0;715.0"
            }, 
            {
                "class": "Window", 
                "xn": "1970.0;2042.0;2044.0;1970.0", 
                "yn": "357.0;359.0;399.0;400.0"
            }, 
            {
                "class": "Window", 
                "xn": "2423.0;2498.0;2501.0;2421.0", 
                "yn": "360.0;359.0;400.0;399.0"
            }, 
            {
                "class": "Window", 
                "xn": "2620.0;2693.0;2700.0;2620.0", 
                "yn": "753.0;756.0;798.0;796.0"
            }, 
            {
                "class": "Door", 
                "xn": "2127.0;2172.0;2185.0;2087.0;2081.0", 
                "yn": "668.0;702.0;756.0;761.0;662.0"
            }, 
            {
                "class": "Door", 
                "xn": "1972.5;2011.5;2043.5;2062.5;2073.5;1975.5", 
                "yn": "670.5;674.5;698.5;722.5;767.5;765.5"
            }, 
            {
                "class": "Door", 
                "xn": "1699.0;1646.0;1606.0;1585.0;1699.0", 
                "yn": "1013.0;1023.0;1058.0;1138.0;1125.0"
            }, 
            {
                "class": "Door", 
                "xn": "1436.0;1463.0;1494.0;1529.0;1531.0;1434.0", 
                "yn": "1045.0;1075.0;1096.0;1099.0;994.0;993.0"
            }, 
            {
                "class": "Door", 
                "xn": "1515.0;1475.0;1428.0;1425.0;1529.0", 
                "yn": "732.0;695.0;689.0;788.0;790.0"
            }, 
            {
                "class": "Door", 
                "xn": "1204.5;1251.5;1288.5;1304.5;1203.5", 
                "yn": "579.5;585.5;622.5;680.5;680.5"
            }, 
            {
                "class": "Door", 
                "xn": "1152.0;1114.0;1101.0;1202.0;1207.0", 
                "yn": "692.0;723.0;776.0;779.0;673.0"
            }, 
            {
                "class": "Door", 
                "xn": "1100.5;1105.5;1140.5;1201.5;1199.5", 
                "yn": "803.5;848.5;887.5;901.5;802.5"
            }, 
            {
                "class": "Door", 
                "xn": "1153.5;1116.5;1103.5;1207.5;1206.5", 
                "yn": "909.5;938.5;997.5;999.5;900.5"
            }, 
            {
                "class": "Door", 
                "xn": "1876.0;1837.0;1784.0;1784.0;1884.0", 
                "yn": "836.5;877.5;884.5;791.5;789.5"
            }, 
            {
                "class": "Wall", 
                "xn": "560.0;1154.0;1153.0;562.0", 
                "yn": "367.0;369.0;410.0;413.0"
            }, 
            {
                "class": "Window", 
                "xn": "1224.0;1226.0;1156.0;1151.0", 
                "yn": "360.0;410.0;408.0;363.0"
            }, 
            {
                "class": "Wall", 
                "xn": "1226.0;1674.0;1674.0;1228.0", 
                "yn": "366.5;368.5;409.5;407.5"
            }, 
            {
                "class": "Wall", 
                "xn": "1886.0;1816.0;1814.5;1813.0;1886.0", 
                "yn": "367.0;366.0;387.0;408.0;413.0"
            }, 
            {
                "class": "Wall", 
                "xn": "1888.75;1887.0;1859.25;1859.25", 
                "yn": "788.0;357.0;366.0;788.0"
            }, 
            {
                "class": "Wall", 
                "xn": "1883.0;1974.0;1975.0;1888.0", 
                "yn": "366.0;366.0;392.0;392.0"
            }, 
            {
                "class": "Wall", 
                "xn": "2418.5;2423.5;2044.5;2041.5", 
                "yn": "367.0;394.0;394.0;367.0"
            }, 
            {
                "class": "Wall", 
                "xn": "2895.0;2494.0;2497.0;2897.0", 
                "yn": "366.5;368.5;390.5;391.5"
            }, 
            {
                "class": "Wall", 
                "xn": "2895.0;2694.0;2694.0;2895.0", 
                "yn": "787.0;787.0;762.0;763.0"
            }, 
            {
                "class": "Wall", 
                "xn": "2897.0;2895.0;2867.0;2866.0", 
                "yn": "363.0;435.0;432.0;364.0"
            }, 
            {
                "class": "Wall", 
                "xn": "2900.0;2894.0;2867.0;2870.0", 
                "yn": "719.0;788.0;785.0;719.0"
            }, 
            {
                "class": "Wall", 
                "xn": "2074.0;2620.0;2619.0;2072.0", 
                "yn": "788.0;786.0;763.0;760.0"
            }, 
            {
                "class": "Wall", 
                "xn": "2457.0;2409.0;2412.0;2456.0", 
                "yn": "761.0;763.0;883.0;881.0"
            }, 
            {
                "class": "Wall", 
                "xn": "2455.0;2455.0;2409.0;2409.0", 
                "yn": "1164.0;1017.0;1019.0;1161.0"
            }, 
            {
                "class": "Wall", 
                "xn": "2191.5;2451.5;2448.5;2194.5", 
                "yn": "1116.0;1116.0;1163.0;1160.0"
            }, 
            {
                "class": "Wall", 
                "xn": "1699.0;2055.0;2052.0;1702.0", 
                "yn": "1114.0;1116.0;1156.0;1158.0"
            }, 
            {
                "class": "Wall", 
                "xn": "1594.0;1561.5;1520.0;1529.0;1530.0;1563.5;1597.0", 
                "yn": "1167.0;1156.0;1167.0;1136.0;1116.0;1116.5;1117.0"
            }, 
            {
                "class": "Wall", 
                "xn": "1573.0;1571.0;1528.0;1531.0", 
                "yn": "1566.0;1119.0;1119.0;1566.0"
            }, 
            {
                "class": "Wall", 
                "xn": "1433.5;1438.5;1575.5;1572.5", 
                "yn": "1525.0;1569.0;1569.0;1523.0"
            }, 
            {
                "class": "Wall", 
                "xn": "851.0;850.0;1293.0;1295.0", 
                "yn": "1523.0;1570.0;1569.0;1525.0"
            }, 
            {
                "class": "Wall", 
                "xn": "561.0;709.0;709.0;561.0", 
                "yn": "1566.5;1565.5;1524.5;1519.5"
            }, 
            {
                "class": "Wall", 
                "xn": "561.0;559.0;609.0;609.0", 
                "yn": "1079.5;1565.5;1566.0;1082.0"
            }, 
            {
                "class": "Wall", 
                "xn": "564.0;562.0;604.0;604.0", 
                "yn": "685.5;936.5;938.5;688.5"
            }, 
            {
                "class": "Wall", 
                "xn": "561.0;562.0;603.0;607.0", 
                "yn": "367.0;547.0;547.0;367.0"
            }, 
            {
                "class": "Wall", 
                "xn": "1046.0;1046.0;1058.0;1057.0", 
                "yn": "682.0;409.0;410.0;682.0"
            }, 
            {
                "class": "Wall", 
                "xn": "1208.0;1209.0;1044.0;1044.0", 
                "yn": "672.5;683.5;682.5;669.5"
            }, 
            {
                "class": "Wall", 
                "xn": "1316.0;1316.0;1305.0;1305.0", 
                "yn": "676.0;788.0;789.0;676.0"
            }, 
            {
                "class": "Wall", 
                "xn": "1424.0;1424.0;1304.0;1304.0", 
                "yn": "779.0;789.0;788.0;777.0"
            }, 
            {
                "class": "Wall", 
                "xn": "1427.0;1415.0;1415.0;1429.0", 
                "yn": "405.0;403.0;788.0;788.0"
            }, 
            {
                "class": "Wall", 
                "xn": "603.0;1198.0;1200.0;603.0", 
                "yn": "779.0;780.0;789.0;789.0"
            }, 
            {
                "class": "Wall", 
                "xn": "1974.0;1974.0;1883.0;1882.0", 
                "yn": "762.0;786.0;787.0;761.0"
            }, 
            {
                "class": "Wall", 
                "xn": "1524.0;1524.0;1861.0;1860.0", 
                "yn": "778.0;789.0;790.0;777.0"
            }, 
            {
                "class": "Wall", 
                "xn": "1708.0;1708.0;1792.0;1793.0", 
                "yn": "885.0;897.0;897.0;885.0"
            }, 
            {
                "class": "Wall", 
                "xn": "1795.5;1783.5;1783.5;1794.5", 
                "yn": "1118.0;1118.0;887.0;888.0"
            }, 
            {
                "class": "Wall", 
                "xn": "1539.0;1539.0;1527.0;1526.0", 
                "yn": "994.0;1115.0;1116.0;995.0"
            }, 
            {
                "class": "Wall", 
                "xn": "1194.0;1437.0;1437.0;1194.0", 
                "yn": "997.5;996.5;1006.5;1006.5"
            }, 
            {
                "class": "Wall", 
                "xn": "1192.0;1194.0;1205.0;1202.0", 
                "yn": "998.5;1521.5;1521.5;999.5"
            }, 
            {
                "class": "Wall", 
                "xn": "1139.0;1205.0;1204.0;1139.0", 
                "yn": "1469.0;1469.0;1480.0;1480.0"
            }, 
            {
                "class": "Wall", 
                "xn": "1138.0;1149.0;1151.0;1139.0", 
                "yn": "1465.0;1465.0;1522.0;1523.0"
            }, 
            {
                "class": "Wall", 
                "xn": "2084.0;2084.0;2097.0;2095.0", 
                "yn": "392.0;666.0;667.0;393.0"
            }, 
            {
                "class": "Text", 
                "height": 30, 
                "width": 233, 
                "x": 714, 
                "y": 554, 
                "text": "chambre 2"
            }, 
            {
                "class": "Text", 
                "height": 31, 
                "width": 233, 
                "x": 1464, 
                "y": 566, 
                "text": "chambre 3"
            }, 
            {
                "class": "Text", 
                "height": 31, 
                "width": 166, 
                "x": 1919, 
                "y": 554, 
                "text": "cellier"
            }, 
            {
                "class": "Text", 
                "height": 42, 
                "width": 170, 
                "x": 2332, 
                "y": 557, 
                "text": "garage"
            }, 
            {
                "class": "Text", 
                "height": 30, 
                "width": 98, 
                "x": 1400, 
                "y": 897, 
                "text": "hall"
            }, 
            {
                "class": "Text", 
                "height": 31, 
                "width": 160, 
                "x": 2043, 
                "y": 908, 
                "text": "cuisine"
            }, 
            {
                "class": "Text", 
                "height": 31, 
                "width": 162, 
                "x": 820, 
                "y": 1162, 
                "text": "sejour"
            }, 
            {
                "class": "Text", 
                "height": 30, 
                "width": 227, 
                "x": 1275, 
                "y": 1145, 
                "text": "chambre 1"
            }, 
            {
                "class": "Text", 
                "height": 36.8104604698176, 
                "width": 119.93085507908313, 
                "x": 1103.1263798858236, 
                "y": 537.9076965428181, 
                "text": "bains"
            }, 
            {
                "class": "Text", 
                "height": 193.06114957749753, 
                "width": 33.28640509956858, 
                "x": 1724.2357841576506, 
                "y": 912.0474997281782, 
                "text": "placard"
            }, 
            {
                "class": "Text", 
                "height": 39.943686119482436, 
                "width": 123.15969886840367, 
                "x": 1690.949379058082, 
                "y": 1511.202791520412, 
                "text": "shon"
            }
        ], 
        "class": "image", 
        "filename": "fp_3.png"
    }
]