[
    {
        "annotations": [
            {
                "class": "Wall", 
                "xn": "509.0;534.0;534.0;508.0", 
                "yn": "200.0;201.0;577.0;577.0"
            }, 
            {
                "class": "Wall", 
                "xn": "988.0;1356.0;1356.0;988.0", 
                "yn": "199.0;200.0;225.0;225.0"
            }, 
            {
                "class": "Wall", 
                "xn": "1701.0;1708.0;1708.0;1700.0", 
                "yn": "645.0;645.0;860.0;860.0"
            }, 
            {
                "class": "Wall", 
                "xn": "2062.0;2069.0;2069.0;2060.0", 
                "yn": "645.0;645.0;890.0;891.0"
            }, 
            {
                "class": "Wall", 
                "xn": "1340.0;1382.0;1382.0;1339.0", 
                "yn": "710.0;709.0;762.0;763.0"
            }, 
            {
                "class": "Wall", 
                "xn": "2068.0;2537.0;2538.0;2068.0", 
                "yn": "991.0;991.0;998.0;998.0"
            }, 
            {
                "class": "Wall", 
                "xn": "2069.0;2538.0;2539.0;2069.0", 
                "yn": "1345.0;1345.0;1352.0;1351.0"
            }, 
            {
                "class": "Wall", 
                "xn": "508.0;550.0;550.0;509.0", 
                "yn": "1192.0;1192.0;1214.0;1213.0"
            }, 
            {
                "class": "Wall", 
                "xn": "833.0;905.0;905.0;833.0", 
                "yn": "1215.0;1215.0;1258.0;1258.0"
            }, 
            {
                "class": "Wall", 
                "xn": "1731.0;2026.0;2026.0;1731.0", 
                "yn": "1452.0;1452.0;1460.0;1459.0"
            }, 
            {
                "class": "Wall", 
                "xn": "862.0;906.0;906.0;862.0", 
                "yn": "1433.0;1433.0;1494.0;1494.0"
            }, 
            {
                "class": "Wall", 
                "xn": "2201.0;2209.0;2209.0;2202.0", 
                "yn": "1460.0;1459.0;1786.0;1785.0"
            }, 
            {
                "class": "Wall", 
                "xn": "903.0;904.0;535.0;534.0", 
                "yn": "226.0;199.0;200.0;225.0"
            }, 
            {
                "class": "Wall", 
                "xn": "508.0;550.0;550.0;509.0", 
                "yn": "909.0;909.0;601.0;601.0"
            }, 
            {
                "class": "Wall", 
                "xn": "1083.0;1074.0;1073.0;1082.0", 
                "yn": "859.0;860.0;600.0;601.0"
            }, 
            {
                "class": "Wall", 
                "xn": "1346.0;1346.0;1074.0;1072.0", 
                "yn": "860.0;869.0;868.0;861.0"
            }, 
            {
                "class": "Wall", 
                "xn": "1358.0;1383.0;1382.0;1359.0", 
                "yn": "578.0;579.0;549.0;549.0"
            }, 
            {
                "class": "Wall", 
                "xn": "1340.0;1382.0;1382.0;1341.0", 
                "yn": "625.0;625.0;579.0;579.0"
            }, 
            {
                "class": "Wall", 
                "xn": "1418.0;1417.0;1382.0;1382.0", 
                "yn": "718.0;761.0;761.0;719.0"
            }, 
            {
                "class": "Wall", 
                "xn": "1523.0;1522.0;1600.0;1601.0", 
                "yn": "720.0;761.0;761.0;719.0"
            }, 
            {
                "class": "Wall", 
                "xn": "1600.0;1559.0;1559.0;1601.0", 
                "yn": "643.0;642.0;718.0;717.0"
            }, 
            {
                "class": "Wall", 
                "xn": "1612.0;1613.0;1559.0;1558.0", 
                "yn": "602.0;644.0;642.0;602.0"
            }, 
            {
                "class": "Wall", 
                "xn": "1593.0;1600.0;1600.0;1594.0", 
                "yn": "867.0;867.0;760.0;762.0"
            }, 
            {
                "class": "Wall", 
                "xn": "1358.0;1383.0;1382.0;1357.0", 
                "yn": "253.0;253.0;199.0;199.0"
            }, 
            {
                "class": "Wall", 
                "xn": "1836.0;1837.0;1700.0;1700.0", 
                "yn": "861.0;869.0;868.0;860.0"
            }, 
            {
                "class": "Wall", 
                "xn": "1938.0;1938.0;2060.0;2060.0", 
                "yn": "861.0;868.0;867.0;861.0"
            }, 
            {
                "class": "Wall", 
                "xn": "1836.0;1837.0;1695.0;1695.0", 
                "yn": "601.0;644.0;643.0;602.0"
            }, 
            {
                "class": "Wall", 
                "xn": "1921.0;1920.0;2538.0;2538.0", 
                "yn": "601.0;644.0;644.0;600.0"
            }, 
            {
                "class": "Wall", 
                "xn": "2539.0;2582.0;2582.0;2538.0", 
                "yn": "746.0;747.0;601.0;600.0"
            }, 
            {
                "class": "Wall", 
                "xn": "2539.0;2582.0;2581.0;2540.0", 
                "yn": "889.0;888.0;1101.0;1100.0"
            }, 
            {
                "class": "Wall", 
                "xn": "2539.0;2582.0;2582.0;2538.0", 
                "yn": "1499.0;1500.0;1241.0;1242.0"
            }, 
            {
                "class": "Wall", 
                "xn": "2538.0;2582.0;2581.0;2539.0", 
                "yn": "1641.0;1642.0;1787.0;1786.0"
            }, 
            {
                "class": "Wall", 
                "xn": "2581.0;2581.0;2038.0;2037.0", 
                "yn": "1832.0;1787.0;1788.0;1831.0"
            }, 
            {
                "class": "Wall", 
                "xn": "2126.0;2127.0;2208.0;2209.0", 
                "yn": "1451.0;1458.0;1458.0;1452.0"
            }, 
            {
                "class": "Wall", 
                "xn": "2062.0;2068.0;2069.0;2061.0", 
                "yn": "1174.0;1174.0;1351.0;1351.0"
            }, 
            {
                "class": "Wall", 
                "xn": "2068.0;2061.0;2060.0;2068.0", 
                "yn": "1074.0;1075.0;991.0;992.0"
            }, 
            {
                "class": "Wall", 
                "xn": "1954.0;1961.0;1962.0;1954.0", 
                "yn": "1375.0;1374.0;1452.0;1452.0"
            }, 
            {
                "class": "Wall", 
                "xn": "1690.0;1730.0;1731.0;1689.0", 
                "yn": "1494.0;1494.0;1787.0;1787.0"
            }, 
            {
                "class": "Wall", 
                "xn": "1678.0;1678.0;1730.0;1730.0", 
                "yn": "1452.0;1493.0;1494.0;1452.0"
            }, 
            {
                "class": "Wall", 
                "xn": "1689.0;1689.0;1895.0;1895.0", 
                "yn": "1830.0;1787.0;1787.0;1830.0"
            }, 
            {
                "class": "Wall", 
                "xn": "1594.0;1594.0;1476.0;1476.0", 
                "yn": "1494.0;1452.0;1452.0;1493.0"
            }, 
            {
                "class": "Wall", 
                "xn": "1582.0;1589.0;1589.0;1582.0", 
                "yn": "981.0;981.0;1451.0;1451.0"
            }, 
            {
                "class": "Wall", 
                "xn": "1954.0;1962.0;1961.0;1953.0", 
                "yn": "1276.0;1275.0;980.0;980.0"
            }, 
            {
                "class": "Wall", 
                "xn": "1230.0;1230.0;1961.0;1961.0", 
                "yn": "972.0;980.0;980.0;973.0"
            }, 
            {
                "class": "Wall", 
                "xn": "1229.0;1222.0;1221.0;1229.0", 
                "yn": "1151.0;1151.0;972.0;974.0"
            }, 
            {
                "class": "Wall", 
                "xn": "1221.0;1229.0;1228.0;1221.0", 
                "yn": "1451.0;1451.0;1250.0;1250.0"
            }, 
            {
                "class": "Wall", 
                "xn": "1334.0;1334.0;905.0;904.0;1218.0", 
                "yn": "1452.0;1493.0;1494.0;1451.0;1452.0"
            }, 
            {
                "class": "Wall", 
                "xn": "904.0;863.0;862.0;905.0", 
                "yn": "1340.0;1340.0;1258.0;1258.0"
            }, 
            {
                "class": "Wall", 
                "xn": "574.0;573.0;509.0;509.0", 
                "yn": "1215.0;1257.0;1257.0;1213.0"
            }, 
            {
                "class": "Window", 
                "xn": "918.0;985.0;984.0;905.0;906.0;908.0", 
                "yn": "265.0;229.0;196.0;190.0;227.0;246.0"
            }, 
            {
                "class": "Window", 
                "xn": "1306.0;1339.0;1387.0;1388.0;1343.0;1319.0", 
                "yn": "693.0;632.0;629.0;706.0;707.0;699.0"
            }, 
            {
                "class": "Door", 
                "xn": "1519.0;1521.0;1417.0;1417.0;1433.0;1470.0", 
                "yn": "858.0;719.0;719.0;765.0;815.0;847.0"
            }, 
            {
                "class": "Window", 
                "xn": "1628.0;1689.0;1692.0;1616.0;1614.0", 
                "yn": "676.0;645.0;599.0;600.0;643.0"
            }, 
            {
                "class": "Window", 
                "xn": "1851.0;1918.0;1919.0;1840.0;1840.0", 
                "yn": "678.0;643.0;598.0;594.0;645.0"
            }, 
            {
                "class": "Window", 
                "xn": "2500.0;2536.0;2582.0;2583.0;2537.0;2505.0;2519.0", 
                "yn": "806.0;749.0;747.0;890.0;890.0;824.0;817.0"
            }, 
            {
                "class": "Window", 
                "xn": "2501.0;2538.0;2582.0;2585.0;2534.0;2501.0;2520.0", 
                "yn": "1163.0;1104.0;1103.0;1239.0;1241.0;1180.0;1170.0"
            }, 
            {
                "class": "Window", 
                "xn": "2502.0;2535.0;2582.0;2585.0;2534.0;2504.0;2513.0", 
                "yn": "1561.0;1505.0;1502.0;1641.0;1641.0;1580.0;1568.0"
            }, 
            {
                "class": "Window", 
                "xn": "1959.0;1894.0;1893.0;2039.0;2038.0;1974.0;1964.0", 
                "yn": "1752.0;1784.0;1834.0;1833.0;1786.0;1751.0;1765.0"
            }, 
            {
                "class": "Window", 
                "xn": "1662.0;1596.0;1596.0;1673.0;1672.0", 
                "yn": "1413.0;1451.0;1497.0;1498.0;1453.0"
            }, 
            {
                "class": "Window", 
                "xn": "1414.0;1479.0;1479.0;1336.0;1334.0;1393.0;1405.0", 
                "yn": "1413.0;1450.0;1497.0;1500.0;1448.0;1414.0;1429.0"
            }, 
            {
                "class": "Door", 
                "xn": "998.0;858.0;862.0;901.0;945.0;994.0", 
                "yn": "1432.0;1433.0;1339.0;1337.0;1341.0;1390.0"
            }, 
            {
                "class": "Wall", 
                "xn": "505.0;530.0;531.0;507.0", 
                "yn": "1468.0;1468.0;1492.0;1492.0"
            }, 
            {
                "class": "Window", 
                "xn": "576.0;572.0;831.0;829.0", 
                "yn": "1214.0;1261.0;1260.0;1212.0"
            }, 
            {
                "class": "Window", 
                "xn": "554.0;507.0;506.0;551.0", 
                "yn": "910.0;910.0;1189.0;1189.0"
            }, 
            {
                "class": "Door", 
                "xn": "1258.0;1340.0;1248.0;1248.0", 
                "yn": "645.0;593.0;593.0;622.0"
            }, 
            {
                "class": "Wall", 
                "xn": "1242.0;1241.0;510.0;506.0", 
                "yn": "577.0;600.0;600.0;578.0"
            }, 
            {
                "class": "Door", 
                "xn": "1252.0;1349.0;1346.0;1294.0;1261.0", 
                "yn": "855.0;860.0;764.0;774.0;816.0"
            }, 
            {
                "class": "Door", 
                "xn": "1617.0;1705.0;1603.0;1606.0", 
                "yn": "911.0;865.0;864.0;890.0"
            }, 
            {
                "class": "Door", 
                "xn": "1930.0;1937.0;1838.0;1844.0;1881.0", 
                "yn": "774.0;863.0;871.0;823.0;780.0"
            }, 
            {
                "class": "Door", 
                "xn": "2160.0;2064.0;2064.0;2117.0;2149.0", 
                "yn": "988.0;991.0;895.0;904.0;945.0"
            }, 
            {
                "class": "Door", 
                "xn": "2155.0;2061.0;2063.0;2120.0;2153.0", 
                "yn": "1081.0;1076.0;1171.0;1162.0;1116.0"
            }, 
            {
                "class": "Door", 
                "xn": "2296.0;2202.0;2197.0;2257.0;2292.0", 
                "yn": "1354.0;1354.0;1450.0;1439.0;1393.0"
            }, 
            {
                "class": "Door", 
                "xn": "2121.0;2123.0;2024.0;2038.0;2081.0", 
                "yn": "1546.0;1452.0;1453.0;1506.0;1538.0"
            }, 
            {
                "class": "Door", 
                "xn": "1867.0;1960.0;1958.0;1907.0;1871.0", 
                "yn": "1370.0;1373.0;1272.0;1290.0;1335.0"
            }, 
            {
                "class": "Door", 
                "xn": "1313.0;1221.0;1225.0;1266.0;1303.0", 
                "yn": "1243.0;1244.0;1155.0;1159.0;1191.0"
            }, 
            {
                "class": "Text", 
                "height": 25, 
                "width": 135, 
                "x": 688, 
                "y": 382, 
                "text": "garage"
            }, 
            {
                "class": "Text", 
                "height": 25, 
                "width": 133, 
                "x": 1119, 
                "y": 659, 
                "text": "cellier"
            }, 
            {
                "class": "Text", 
                "height": 25, 
                "width": 93, 
                "x": 1816, 
                "y": 689, 
                "text": "bains"
            }, 
            {
                "class": "Text", 
                "height": 25, 
                "width": 130, 
                "x": 729, 
                "y": 754, 
                "text": "sejour"
            }, 
            {
                "class": "Text", 
                "height": 25, 
                "width": 55, 
                "x": 1613, 
                "y": 765, 
                "text": "wc"
            }, 
            {
                "class": "Text", 
                "height": 25, 
                "width": 186, 
                "x": 2194, 
                "y": 754, 
                "text": "chambre 5"
            }, 
            {
                "class": "Text", 
                "height": 24, 
                "width": 79, 
                "x": 1385, 
                "y": 902, 
                "text": "hall"
            }, 
            {
                "class": "Text", 
                "height": 25, 
                "width": 187, 
                "x": 2270, 
                "y": 1090, 
                "text": "chambre"
            }, 
            {
                "class": "Text", 
                "height": 25, 
                "width": 106, 
                "x": 978, 
                "y": 1179, 
                "text": "repas"
            }, 
            {
                "class": "Text", 
                "height": 25, 
                "width": 127, 
                "x": 1355, 
                "y": 1179, 
                "text": "cuisine"
            }, 
            {
                "class": "Text", 
                "height": 24, 
                "width": 182, 
                "x": 1680, 
                "y": 1179, 
                "text": "chambre 1"
            }, 
            {
                "class": "Text", 
                "height": 24, 
                "width": 186, 
                "x": 1839, 
                "y": 1575, 
                "text": "chambre 2"
            }, 
            {
                "class": "Text", 
                "height": 25, 
                "width": 187, 
                "x": 2264, 
                "y": 1575, 
                "text": "chambre 3"
            }, 
            {
                "class": "Text", 
                "height": 70.82213850972062, 
                "width": 179.4160842246256, 
                "x": 604.3489152829495, 
                "y": 1298.4058726782118, 
                "text": "terrasse couverte"
            }, 
            {
                "class": "Text", 
                "height": 28.32885540388827, 
                "width": 134.5620631684692, 
                "x": 1404.6390804427929, 
                "y": 613.7918670842456, 
                "text": "porche"
            }
        ], 
        "class": "image", 
        "filename": "fp_33.png"
    }
]