[
    {
        "annotations": [
            {
                "class": "Wall",
                "xn": "511.0;936.0;936.0;511.0",
                "yn": "1027.0;1027.0;1072.0;1071.0"
            },
            {
                "class": "Wall",
                "xn": "1029.0;1029.0;1388.0;1390.0",
                "yn": "1027.0;1072.0;1072.0;1027.0"
            },
            {
                "class": "Wall",
                "xn": "1454.0;1455.0;1858.0;1861.0",
                "yn": "1029.0;1071.0;1072.0;1033.0"
            },
            {
                "class": "Wall",
                "xn": "1814.0;1861.0;1861.0;1813.0",
                "yn": "1268.0;1266.0;1030.0;1029.0"
            },
            {
                "class": "Wall",
                "xn": "1813.0;1860.0;1858.0;1814.0",
                "yn": "1405.0;1402.0;1632.0;1632.0"
            },
            {
                "class": "Wall",
                "xn": "1813.0;1865.0;1865.0;1816.0",
                "yn": "1736.0;1735.0;1856.0;1855.0"
            },
            {
                "class": "Wall",
                "xn": "1814.0;1860.0;1863.0;1816.0",
                "yn": "1949.0;1946.0;2155.0;2149.0"
            },
            {
                "class": "Wall",
                "xn": "1649.0;1649.0;1858.0;1861.0",
                "yn": "2110.0;2152.0;2152.0;2110.0"
            },
            {
                "class": "Wall",
                "xn": "1508.0;1508.0;1305.0;1304.0",
                "yn": "2110.0;2153.0;2152.0;2110.0"
            },
            {
                "class": "Wall",
                "xn": "1344.0;1347.0;1304.0;1297.0",
                "yn": "2013.0;2152.0;2153.0;2014.0"
            },
            {
                "class": "Wall",
                "xn": "1205.0;1209.0;1344.0;1344.0",
                "yn": "2013.0;2062.0;2055.0;2011.0"
            },
            {
                "class": "Wall",
                "xn": "994.0;994.0;771.0;771.0",
                "yn": "2014.0;2058.0;2058.0;2013.0"
            },
            {
                "class": "Wall",
                "xn": "630.0;630.0;513.0;510.0",
                "yn": "2014.0;2055.0;2057.0;2013.0"
            },
            {
                "class": "Wall",
                "xn": "511.0;551.0;554.0;513.0",
                "yn": "1649.0;1649.0;2058.0;2057.0"
            },
            {
                "class": "Wall",
                "xn": "510.0;552.0;554.0;511.0",
                "yn": "1360.0;1360.0;1557.0;1558.0"
            },
            {
                "class": "Wall",
                "xn": "508.0;552.0;554.0;511.0",
                "yn": "1218.0;1216.0;1071.0;1071.0"
            },
            {
                "class": "Wall",
                "xn": "905.0;907.0;1274.0;1274.0",
                "yn": "1514.0;1541.0;1541.0;1516.0"
            },
            {
                "class": "Wall",
                "xn": "1480.0;1479.0;1818.0;1816.0",
                "yn": "1518.0;1544.0;1544.0;1519.0"
            },
            {
                "class": "Wall",
                "xn": "905.0;918.0;917.0;905.0",
                "yn": "1427.0;1427.0;1070.0;1071.0"
            },
            {
                "class": "Wall",
                "xn": "1266.0;1277.0;1276.0;1264.0",
                "yn": "1421.0;1421.0;1074.0;1074.0"
            },
            {
                "class": "Wall",
                "xn": "1379.5;1380.5;1264.5;1262.5",
                "yn": "1258.0;1269.0;1268.0;1258.0"
            },
            {
                "class": "Wall",
                "xn": "1370.5;1383.5;1383.5;1371.5",
                "yn": "1419.5;1419.5;1257.5;1256.5"
            },
            {
                "class": "Wall",
                "xn": "1478.0;1490.0;1488.0;1478.0",
                "yn": "1418.0;1419.0;1074.0;1074.0"
            },
            {
                "class": "Wall",
                "xn": "1478.0;1489.0;1488.0;1476.0",
                "yn": "1641.0;1642.0;1544.0;1544.0"
            },
            {
                "class": "Door",
                "xn": "1477.0;1477.0;1386.0;1390.0;1424.0",
                "yn": "1544.0;1643.0;1644.0;1594.0;1558.0"
            },
            {
                "class": "Door",
                "xn": "1718.0;1863.0;1862.0;1811.0;1766.0;1732.0",
                "yn": "1734.0;1736.0;1629.0;1631.0;1645.0;1679.0"
            },
            {
                "class": "Wall",
                "xn": "1590.0;1590.0;1815.0;1814.0",
                "yn": "1748.0;1758.0;1759.0;1748.0"
            },
            {
                "class": "Wall",
                "xn": "1504.5;1504.5;1335.5;1335.5",
                "yn": "1745.5;1756.5;1756.5;1746.5"
            },
            {
                "class": "Wall",
                "xn": "1346.0;1335.0;1336.0;1347.0",
                "yn": "1922.0;1921.0;1745.0;1745.0"
            },
            {
                "class": "Door",
                "xn": "1503.0;1503.0;1589.0;1591.0;1555.0",
                "yn": "1847.0;1741.0;1739.0;1792.0;1831.0"
            },
            {
                "class": "Window",
                "xn": "1866.0;1865.0;1810.0;1811.0",
                "yn": "1853.0;1948.0;1951.0;1858.0"
            },
            {
                "class": "Window",
                "xn": "1506.0;1652.0;1653.0;1510.0",
                "yn": "2105.0;2105.0;2158.0;2160.0"
            },
            {
                "class": "Door",
                "xn": "1244.0;1351.0;1349.0;1302.0;1264.0",
                "yn": "2010.0;2015.0;1920.0;1923.0;1949.0"
            },
            {
                "class": "Window",
                "xn": "1070.0;1070.0;994.0;994.0;1208.0;1206.0;1156.0;1138.0;1121.0",
                "yn": "1945.0;2010.0;2010.0;2059.0;2060.0;1943.0;1958.0;1987.0;1958.0"
            },
            {
                "class": "Window",
                "xn": "628.0;629.0;772.0;773.0",
                "yn": "2009.0;2064.0;2065.0;2009.0"
            },
            {
                "class": "Door",
                "xn": "644.0;506.0;505.0;555.0;593.0;629.0",
                "yn": "1649.0;1648.0;1557.0;1556.0;1564.0;1595.0"
            },
            {
                "class": "Wall",
                "xn": "814.0;814.0;553.0;553.0",
                "yn": "1534.0;1545.0;1544.0;1534.0"
            },
            {
                "class": "Door",
                "xn": "811.0;810.0;904.0;898.0;854.0",
                "yn": "1447.0;1546.0;1550.0;1491.0;1455.0"
            },
            {
                "class": "Door",
                "xn": "1008.0;910.0;908.0;960.0;995.0",
                "yn": "1518.0;1518.0;1424.0;1432.0;1468.0"
            },
            {
                "class": "Door",
                "xn": "1175.0;1274.0;1274.0;1218.0;1188.0",
                "yn": "1517.0;1519.0;1420.0;1435.0;1469.0"
            },
            {
                "class": "Door",
                "xn": "1355.0;1274.0;1373.0;1367.0",
                "yn": "1465.0;1417.0;1417.0;1445.0"
            },
            {
                "class": "Door",
                "xn": "1379.0;1379.0;1474.0;1464.0;1427.0",
                "yn": "1320.0;1422.0;1425.0;1370.0;1333.0"
            },
            {
                "class": "Door",
                "xn": "1581.0;1478.0;1479.0;1521.0;1558.0",
                "yn": "1516.0;1518.0;1421.0;1427.0;1457.0"
            },
            {
                "class": "Window",
                "xn": "499.0;499.0;556.0;559.0",
                "yn": "1216.0;1359.0;1364.0;1216.0"
            },
            {
                "class": "Door",
                "xn": "937.5;931.5;1030.5;1031.5;1019.5;978.5",
                "yn": "1163.5;1022.5;1021.5;1074.5;1118.5;1154.5"
            },
            {
                "class": "Window",
                "xn": "1385.0;1459.0;1459.0;1388.0",
                "yn": "1019.0;1020.0;1076.0;1078.0"
            },
            {
                "class": "Window",
                "xn": "1868.0;1871.0;1806.0;1807.0",
                "yn": "1264.0;1403.0;1405.0;1266.0"
            },
            {
                "class": "Text",
                "height": 30,
                "text": "bains",
                "width": 116,
                "x": 1314,
                "y": 1133
            },
            {
                "class": "Text",
                "height": 31,
                "text": "wc",
                "width": 77,
                "x": 1294,
                "y": 1304
            },
            {
                "class": "Text",
                "height": 31,
                "text": "degt",
                "width": 115,
                "x": 1309,
                "y": 1457
            },
            {
                "class": "Text",
                "height": 29,
                "text": "hall",
                "width": 98,
                "x": 1539,
                "y": 1647
            },
            {
                "class": "Text",
                "height": 30,
                "text": "sejour",
                "width": 163,
                "x": 875,
                "y": 1747
            },
            {
                "class": "Text",
                "height": 31,
                "text": "cuisine",
                "width": 160,
                "x": 1466,
                "y": 1906
            },
            {
                "class": "Text",
                "height": 44.8540210561564,
                "text": "ch 1",
                "width": 96.79025596328495,
                "x": 665.728101991374,
                "y": 1262.9948034233516
            },
            {
                "class": "Text",
                "height": 35.411069254860195,
                "text": "ch 2",
                "width": 84.9865662116647,
                "x": 1059.9713396954858,
                "y": 1265.3555413736756
            },
            {
                "class": "Text",
                "height": 35.41106925486042,
                "text": "ch 1",
                "width": 101.51173186393294,
                "x": 1602.9410682700106,
                "y": 1267.7162793239995
            },
            {
                "class": "Stairs",
                "xn": "1275.3304501;1125.29157362;1106.00086093;1380.35766364;1381.4293699;1381.4293699;1379.28595738",
                "yn": "1543.25701525;1545.40042777;1636.49545992;1635.42375366;1545.40042777;1545.40042777;1541.11360273"
            }
        ],
        "class": "image",
        "filename": "fp_36.png"
    }
]
