[
    {
        "annotations": [
            {
                "class": "Wall", 
                "xn": "361.0;404.0;405.0;361.0", 
                "yn": "1594.0;1594.0;1456.0;1458.0"
            }, 
            {
                "class": "Wall", 
                "xn": "361.0;361.0;872.0;871.0", 
                "yn": "1416.0;1459.0;1459.0;1416.0"
            }, 
            {
                "class": "Wall", 
                "xn": "404.0;404.0;549.0;549.0", 
                "yn": "2272.0;2315.0;2314.0;2272.0"
            }, 
            {
                "class": "Wall", 
                "xn": "360.0;405.0;404.0;360.0", 
                "yn": "1737.0;1734.0;2314.0;2314.0"
            }, 
            {
                "class": "Wall", 
                "xn": "693.0;693.0;993.0;993.0", 
                "yn": "2273.0;2314.0;2315.0;2273.0"
            }, 
            {
                "class": "Wall", 
                "xn": "1035.0;1036.0;1264.0;1264.0", 
                "yn": "1889.0;1896.0;1896.0;1889.0"
            }, 
            {
                "class": "Wall", 
                "xn": "935.0;935.0;848.0;842.0", 
                "yn": "1897.0;1889.0;1889.0;1896.0"
            }, 
            {
                "class": "Wall", 
                "xn": "1136.0;1136.0;1561.0;1561.0", 
                "yn": "2272.0;2314.0;2314.0;2273.0"
            }, 
            {
                "class": "Wall", 
                "xn": "1271.0;1264.0;1264.0;1272.0", 
                "yn": "1889.0;1889.0;2271.0;2271.0"
            }, 
            {
                "class": "Wall", 
                "xn": "1774.0;1773.0;1992.0;1992.0", 
                "yn": "2273.0;2314.0;2314.0;2272.0"
            }, 
            {
                "class": "Wall", 
                "xn": "1990.0;2034.0;2034.0;1990.0", 
                "yn": "2060.0;2059.0;2314.0;2314.0"
            }, 
            {
                "class": "Wall", 
                "xn": "1991.0;2033.0;2034.0;1991.0", 
                "yn": "1919.0;1919.0;1605.0;1605.0"
            }, 
            {
                "class": "Wall", 
                "xn": "1992.0;2034.0;2033.0;1991.0", 
                "yn": "1465.0;1464.0;1313.0;1312.0"
            }, 
            {
                "class": "Wall", 
                "xn": "2009.0;2034.0;2033.0;2009.0", 
                "yn": "1198.0;1198.0;1287.0;1287.0"
            }, 
            {
                "class": "Wall", 
                "xn": "1413.0;1413.0;2033.0;2033.0", 
                "yn": "1287.0;1311.0;1312.0;1287.0"
            }, 
            {
                "class": "Wall", 
                "xn": "2010.0;2033.0;2034.0;2008.0", 
                "yn": "1126.0;1126.0;793.0;792.0"
            }, 
            {
                "class": "Wall", 
                "xn": "1297.0;1268.0;1271.0;1297.0", 
                "yn": "938.0;940.0;792.0;792.0"
            }, 
            {
                "class": "Wall", 
                "xn": "2034.0;2034.0;1271.0;1271.0", 
                "yn": "768.0;792.0;793.0;767.0"
            }, 
            {
                "class": "Wall", 
                "xn": "1298.0;1269.0;1269.0;1300.0", 
                "yn": "1226.0;1223.0;1291.0;1293.0"
            }, 
            {
                "class": "Wall", 
                "xn": "1270.0;1270.0;1312.0;1313.0", 
                "yn": "1369.0;1286.0;1286.0;1369.0"
            }, 
            {
                "class": "Wall", 
                "xn": "1270.0;1270.0;1312.0;1312.0", 
                "yn": "1441.0;1533.0;1533.0;1440.0"
            }, 
            {
                "class": "Wall", 
                "xn": "1258.0;1258.0;1312.0;1313.0", 
                "yn": "1576.0;1534.0;1533.0;1577.0"
            }, 
            {
                "class": "Wall", 
                "xn": "1278.0;1271.0;1271.0;1278.0", 
                "yn": "1675.0;1675.0;1576.0;1576.0"
            }, 
            {
                "class": "Wall", 
                "xn": "1495.0;1502.0;1501.0;1496.0", 
                "yn": "1529.0;1529.0;1674.0;1674.0"
            }, 
            {
                "class": "Wall", 
                "xn": "1271.0;1270.0;1501.0;1501.0", 
                "yn": "1676.0;1683.0;1683.0;1675.0"
            }, 
            {
                "class": "Wall", 
                "xn": "1495.0;1501.0;1501.0;1501.0;1495.0", 
                "yn": "1426.0;1426.0;1369.0;1312.0;1312.0"
            }, 
            {
                "class": "Wall", 
                "xn": "940.0;942.0;1034.0;1033.0", 
                "yn": "1415.0;1459.0;1459.0;1414.0"
            }, 
            {
                "class": "Wall", 
                "xn": "1077.0;1035.0;1033.0;1076.0", 
                "yn": "1532.0;1532.0;1416.0;1416.0"
            }, 
            {
                "class": "Wall", 
                "xn": "1084.0;1084.0;1035.0;1035.0", 
                "yn": "1578.0;1532.0;1532.0;1577.0"
            }, 
            {
                "class": "Wall", 
                "xn": "945.0;947.0;1035.0;1035.0", 
                "yn": "1569.0;1578.0;1578.0;1570.0"
            }, 
            {
                "class": "Wall", 
                "xn": "1130.0;1154.0;1153.0;1130.0", 
                "yn": "1534.0;1535.0;1577.0;1576.0"
            }, 
            {
                "class": "Wall", 
                "xn": "1135.0;1142.0;1142.0;1135.0", 
                "yn": "1600.0;1600.0;1576.0;1577.0"
            }, 
            {
                "class": "Wall", 
                "xn": "740.0;741.0;404.0;404.0", 
                "yn": "1888.0;1896.0;1896.0;1888.0"
            }, 
            {
                "class": "Wall", 
                "xn": "839.0;848.0;847.0;839.0", 
                "yn": "1886.0;1887.0;2272.0;2272.0"
            }, 
            {
                "class": "Wall", 
                "xn": "733.0;742.0;742.0;732.0", 
                "yn": "1782.0;1782.0;1458.0;1458.0"
            }, 
            {
                "class": "Wall", 
                "xn": "947.0;940.0;939.0;947.0", 
                "yn": "1788.0;1788.0;1570.0;1570.0"
            }, 
            {
                "class": "Wall", 
                "xn": "1135.0;1142.0;1142.0;1136.0", 
                "yn": "1699.0;1699.0;1789.0;1790.0"
            }, 
            {
                "class": "Wall", 
                "xn": "840.0;840.0;733.0;733.0", 
                "yn": "1783.0;1791.0;1790.0;1782.0"
            }, 
            {
                "class": "Wall", 
                "xn": "1135.0;1135.0;946.0;946.0", 
                "yn": "1705.0;1712.0;1712.0;1706.0"
            }, 
            {
                "class": "Window", 
                "xn": "2003.0;2039.0;2039.0;2004.0", 
                "yn": "1128.0;1128.0;1198.0;1201.0"
            }, 
            {
                "class": "Window", 
                "xn": "1986.0;2037.0;2040.0;1988.0", 
                "yn": "1466.0;1465.0;1605.0;1607.0"
            }, 
            {
                "class": "Window", 
                "xn": "1921.0;2036.0;2039.0;1921.0;1926.0;1961.0;1929.0", 
                "yn": "1923.0;1922.0;2061.0;2056.0;2008.0;1991.0;1964.0"
            }, 
            {
                "class": "Window", 
                "xn": "1771.0;1772.0;1558.0;1561.0", 
                "yn": "2270.0;2317.0;2316.0;2270.0"
            }, 
            {
                "class": "Window", 
                "xn": "992.0;995.0;1136.0;1134.0", 
                "yn": "2266.0;2318.0;2320.0;2265.0"
            }, 
            {
                "class": "Window", 
                "xn": "550.0;550.0;691.0;694.0", 
                "yn": "2267.0;2318.0;2318.0;2268.0"
            }, 
            {
                "class": "Door", 
                "xn": "835.0;839.0;742.0;755.0;793.0", 
                "yn": "1989.0;1893.0;1891.0;1952.0;1979.0"
            }, 
            {
                "class": "Window", 
                "xn": "409.0;358.0;357.0;406.0", 
                "yn": "1592.0;1593.0;1735.0;1739.0"
            }, 
            {
                "class": "Window", 
                "xn": "872.0;942.0;941.0;872.0", 
                "yn": "1466.0;1460.0;1413.0;1413.0"
            }, 
            {
                "class": "Window", 
                "xn": "1085.0;1130.0;1130.0;1083.0", 
                "yn": "1580.0;1581.0;1531.0;1529.0"
            }, 
            {
                "class": "Door", 
                "xn": "1258.0;1258.0;1153.0;1153.0;1165.0;1207.0", 
                "yn": "1681.0;1532.0;1533.0;1577.0;1632.0;1671.0"
            }, 
            {
                "class": "Door", 
                "xn": "1184.0;1128.0;1138.0;1163.0", 
                "yn": "1683.0;1583.0;1697.0;1698.0"
            }, 
            {
                "class": "Window", 
                "xn": "1316.0;1266.0;1266.0;1314.0", 
                "yn": "1444.0;1441.0;1373.0;1371.0"
            }, 
            {
                "class": "Door", 
                "xn": "1320.0;1317.0;1413.0;1416.0;1393.0;1356.0", 
                "yn": "1401.0;1289.0;1288.0;1321.0;1370.0;1393.0"
            }, 
            {
                "class": "Door", 
                "xn": "1407.0;1502.0;1501.0;1456.0;1417.0", 
                "yn": "1523.0;1525.0;1431.0;1438.0;1475.0"
            }, 
            {
                "class": "Door", 
                "xn": "935.0;938.0;842.0;848.0;884.0", 
                "yn": "1692.0;1788.0;1792.0;1748.0;1705.0"
            }, 
            {
                "class": "Door", 
                "xn": "942.0;937.0;1035.0;1028.0;990.0", 
                "yn": "1986.0;1893.0;1890.0;1929.0;1972.0"
            }, 
            {
                "class": "Door", 
                "xn": "641.0;740.0;741.0;686.0;650.0", 
                "yn": "1887.0;1888.0;1791.0;1800.0;1844.0"
            }, 
            {
                "class": "Text", 
                "height": 30, 
                "width": 170, 
                "x": 1785, 
                "y": 903, 
                "text": "garage"
            }, 
            {
                "class": "Text", 
                "height": 32, 
                "width": 124, 
                "x": 1126, 
                "y": 1462, 
                "text": "porche"
            }, 
            {
                "class": "Text", 
                "height": 31, 
                "width": 160, 
                "x": 1739, 
                "y": 1471, 
                "text": "cuisine"
            }, 
            {
                "class": "Text", 
                "height": 30, 
                "width": 168, 
                "x": 1325, 
                "y": 1549, 
                "text": "cellier"
            }, 
            {
                "class": "Text", 
                "height": 31, 
                "width": 117, 
                "x": 825, 
                "y": 1608, 
                "text": "bains"
            }, 
            {
                "class": "Text", 
                "height": 30, 
                "width": 228, 
                "x": 458, 
                "y": 1660, 
                "text": "chambre 1"
            }, 
            {
                "class": "Text", 
                "height": 24, 
                "width": 151, 
                "x": 966, 
                "y": 1743, 
                "text": "placard"
            }, 
            {
                "class": "Text", 
                "height": 31, 
                "width": 97, 
                "x": 1174, 
                "y": 1742, 
                "text": "hall"
            }, 
            {
                "class": "Text", 
                "height": 32, 
                "width": 285, 
                "x": 869, 
                "y": 1818, 
                "text": "degagement"
            }, 
            {
                "class": "Text", 
                "height": 30, 
                "width": 234, 
                "x": 535, 
                "y": 2031, 
                "text": "chambre 2"
            }, 
            {
                "class": "Text", 
                "height": 30, 
                "width": 233, 
                "x": 973, 
                "y": 2095, 
                "text": "chambre 3"
            }, 
            {
                "class": "Text", 
                "height": 33.801280432623116, 
                "width": 59.80226538079478, 
                "x": 1042.639496421683, 
                "y": 1588.6601803332874, 
                "text": "wc"
            }, 
            {
                "class": "Text", 
                "height": 33.801280432623344, 
                "width": 163.80620517348143, 
                "x": 1684.8638246415223, 
                "y": 2017.6764319781194, 
                "text": "sejour"
            }
        ], 
        "class": "image", 
        "filename": "fp_42.png"
    }
]