[
    {
        "annotations": [
            {
                "class": "Wall",
                "xn": "2055.0;2055.0;2007.0;2007.0",
                "yn": "1913.0;1679.0;1678.0;1915.0"
            },
            {
                "class": "Window",
                "xn": "1935.0;2065.0;2060.0;1937.0",
                "yn": "1910.0;1909.0;2050.0;2053.0"
            },
            {
                "class": "Window",
                "xn": "2004.0;2062.0;2063.0;1999.0",
                "yn": "1541.0;1540.0;1679.0;1684.0"
            },
            {
                "class": "Window",
                "xn": "1579.0;1579.0;1795.0;1794.0",
                "yn": "2260.0;2313.0;2311.0;2260.0"
            },
            {
                "class": "Window",
                "xn": "1006.0;1008.0;1160.0;1162.0",
                "yn": "2260.0;2322.0;2321.0;2260.0"
            },
            {
                "class": "Window",
                "xn": "565.0;564.0;713.0;714.0",
                "yn": "2257.0;2319.0;2319.0;2257.0"
            },
            {
                "class": "Window",
                "xn": "373.0;431.0;431.0;376.0",
                "yn": "1590.0;1585.0;1734.0;1734.0"
            },
            {
                "class": "Window",
                "xn": "862.0;941.0;941.0;862.0",
                "yn": "1400.0;1402.0;1455.0;1460.0"
            },
            {
                "class": "Window",
                "xn": "1016.0;1013.0;1066.0;1066.0",
                "yn": "1525.0;1571.0;1571.0;1525.0"
            },
            {
                "class": "Window",
                "xn": "1269.0;1325.0;1325.0;1268.0",
                "yn": "1373.0;1375.0;1472.0;1476.0"
            },
            {
                "class": "Window",
                "xn": "1263.0;1314.0;1313.0;1266.0",
                "yn": "930.0;932.0;1219.0;1219.0"
            },
            {
                "class": "Window",
                "xn": "2020.0;2063.0;2061.0;2025.0",
                "yn": "1264.0;1262.0;1343.0;1339.0"
            },
            {
                "class": "Door",
                "xn": "708.0;670.0;662.0;763.0;761.0",
                "yn": "1792.0;1824.0;1880.0;1888.0;1785.0"
            },
            {
                "class": "Door",
                "xn": "769.0;806.0;856.0;860.0;763.0",
                "yn": "1937.0;1973.0;1979.0;1877.0;1878.0"
            },
            {
                "class": "Door",
                "xn": "955.0;957.0;1059.0;1053.0;1013.0",
                "yn": "1979.0;1878.0;1877.0;1925.0;1966.0"
            },
            {
                "class": "Door",
                "xn": "905.0;870.0;856.0;958.0;961.0",
                "yn": "1692.0;1723.0;1782.0;1788.0;1683.0"
            },
            {
                "class": "Door",
                "xn": "1066.0;966.0;1045.0;1062.0",
                "yn": "1771.0;1771.0;1830.0;1806.0"
            },
            {
                "class": "Door",
                "xn": "1218.0;1160.0;1159.0;1264.0;1263.0",
                "yn": "1662.0;1674.0;1557.0;1554.0;1609.0"
            },
            {
                "class": "Door",
                "xn": "1377.0;1322.0;1322.0;1415.0;1418.0",
                "yn": "1484.0;1469.0;1577.0;1580.0;1530.0"
            },
            {
                "class": "Door",
                "xn": "1790.0;1798.0;1705.0;1704.0;1749.0",
                "yn": "1347.0;1397.0;1399.0;1302.0;1306.0"
            },
            {
                "class": "Wall",
                "xn": "2052.0;2049.0;2013.0;2013.0",
                "yn": "2306.0;2047.0;2047.0;2309.0"
            },
            {
                "class": "Wall",
                "xn": "1794.0;2052.0;2050.0;1796.0",
                "yn": "2267.0;2266.0;2305.0;2306.0"
            },
            {
                "class": "Wall",
                "xn": "1163.0;1577.0;1577.0;1160.0",
                "yn": "2267.0;2269.0;2311.0;2308.0"
            },
            {
                "class": "Wall",
                "xn": "712.0;1012.0;1012.0;715.0",
                "yn": "2264.0;2267.0;2308.0;2308.0"
            },
            {
                "class": "Wall",
                "xn": "381.0;567.0;568.0;381.0",
                "yn": "2306.0;2308.0;2267.0;2267.0"
            },
            {
                "class": "Wall",
                "xn": "425.0;422.0;379.0;381.0",
                "yn": "1733.0;2306.0;2306.0;1736.0"
            },
            {
                "class": "Wall",
                "xn": "383.0;862.0;862.0;381.0",
                "yn": "1409.0;1408.0;1452.0;1450.0"
            },
            {
                "class": "Wall",
                "xn": "383.0;379.0;425.0;429.0",
                "yn": "1408.0;1586.0;1589.0;1408.0"
            },
            {
                "class": "Wall",
                "xn": "1006.5;1006.5;958.0;960.0",
                "yn": "1409.0;1572.0;1572.0;1410.0"
            },
            {
                "class": "Wall",
                "xn": "940.0;1001.0;1000.0;943.0",
                "yn": "1409.0;1411.0;1453.0;1452.0"
            },
            {
                "class": "Wall",
                "xn": "1162.0;1164.0;1073.0;1072.0",
                "yn": "1530.0;1569.0;1572.0;1530.0"
            },
            {
                "class": "Wall",
                "xn": "1030.0;961.0;959.0;1028.0",
                "yn": "1527.0;1528.0;1567.0;1570.0"
            },
            {
                "class": "Wall",
                "xn": "1268.0;1323.0;1323.0;1268.0",
                "yn": "1531.0;1531.0;1574.0;1572.0"
            },
            {
                "class": "Wall",
                "xn": "1281.0;1281.0;1325.0;1321.0",
                "yn": "1472.0;1572.0;1574.0;1472.0"
            },
            {
                "class": "Wall",
                "xn": "1698.0;1279.0;1276.0;1700.0",
                "yn": "1258.0;1256.0;1283.0;1284.0"
            },
            {
                "class": "Wall",
                "xn": "1675.0;1671.0;1701.0;1701.0",
                "yn": "1417.0;1258.0;1258.0;1414.0"
            },
            {
                "class": "Wall",
                "xn": "1321.0;1320.0;1276.0;1277.0",
                "yn": "1374.0;1255.0;1256.0;1377.0"
            },
            {
                "class": "Wall",
                "xn": "1304.0;1303.0;1278.0;1278.0",
                "yn": "1219.0;1256.0;1256.0;1217.0"
            },
            {
                "class": "Wall",
                "xn": "1279.0;2050.0;2051.0;1279.0",
                "yn": "761.0;760.0;788.0;788.0"
            },
            {
                "class": "Wall",
                "xn": "1276.0;1304.0;1306.0;1276.0",
                "yn": "931.0;930.0;761.0;763.0"
            },
            {
                "class": "Wall",
                "xn": "2054.0;2054.0;2029.0;2029.0",
                "yn": "763.0;1270.0;1270.0;760.0"
            },
            {
                "class": "Wall",
                "xn": "1797.0;2052.0;2052.0;1794.0",
                "yn": "1418.0;1418.0;1393.0;1393.0"
            },
            {
                "class": "Wall",
                "xn": "2055.0;2055.0;2030.0;2029.0",
                "yn": "1341.0;1397.0;1397.0;1341.0"
            },
            {
                "class": "Wall",
                "xn": "2011.0;2010.0;2055.0;2054.0",
                "yn": "1414.0;1538.0;1535.0;1414.0"
            },
            {
                "class": "Wall",
                "xn": "865.0;753.0;752.0;866.0",
                "yn": "1775.0;1775.0;1786.0;1785.0"
            },
            {
                "class": "Wall",
                "xn": "752.0;751.0;764.0;763.0",
                "yn": "1779.0;1410.0;1410.0;1780.0"
            },
            {
                "class": "Wall",
                "xn": "1062.0;1150.0;1150.0;1062.0",
                "yn": "1775.0;1775.0;1786.0;1786.0"
            },
            {
                "class": "Wall",
                "xn": "1066.0;1067.0;1075.0;1076.0",
                "yn": "1677.0;1530.0;1530.0;1675.0"
            },
            {
                "class": "Wall",
                "xn": "1149.0;1065.0;1065.0;1151.0",
                "yn": "1668.0;1667.0;1678.0;1678.0"
            },
            {
                "class": "Wall",
                "xn": "1154.0;1154.0;1143.0;1141.0",
                "yn": "1785.0;1667.0;1665.0;1785.0"
            },
            {
                "class": "Wall",
                "xn": "970.0;970.0;959.0;958.0",
                "yn": "1782.0;1572.0;1571.0;1781.0"
            },
            {
                "class": "Wall",
                "xn": "1322.0;1049.0;1049.0;1322.0",
                "yn": "1881.0;1880.0;1891.0;1891.0"
            },
            {
                "class": "Wall",
                "xn": "1322.5;1324.5;1309.5;1311.5",
                "yn": "1751.5;2310.5;2310.5;1752.5"
            },
            {
                "class": "Wall",
                "xn": "871.0;870.0;857.0;860.0",
                "yn": "1882.0;2311.0;2311.0;1883.0"
            },
            {
                "class": "Wall",
                "xn": "872.0;960.0;961.0;871.0",
                "yn": "1880.0;1880.0;1892.0;1891.0"
            },
            {
                "class": "Wall",
                "xn": "379.0;762.0;765.0;379.0",
                "yn": "1880.0;1881.0;1891.0;1899.0"
            },
            {
                "class": "Wall",
                "xn": "1685.0;1683.0;1671.0;1673.0",
                "yn": "1570.0;1415.0;1415.0;1572.0"
            },
            {
                "class": "Wall",
                "xn": "1417.0;1417.0;1686.0;1685.0",
                "yn": "1562.0;1572.0;1574.0;1561.0"
            },
            {
                "class": "Text",
                "height": 31,
                "text": "garage",
                "width": 170,
                "x": 1606,
                "y": 907
            },
            {
                "class": "Text",
                "height": 32,
                "text": "cellier",
                "width": 166,
                "x": 1758,
                "y": 1284
            },
            {
                "class": "Text",
                "height": 31,
                "text": "porche",
                "width": 125,
                "x": 1084,
                "y": 1445
            },
            {
                "class": "Text",
                "height": 30,
                "text": "bureau",
                "width": 163,
                "x": 1428,
                "y": 1451
            },
            {
                "class": "Text",
                "height": 31,
                "text": "bains",
                "width": 117,
                "x": 833,
                "y": 1598
            },
            {
                "class": "Text",
                "height": 30,
                "text": "chambre 1",
                "width": 228,
                "x": 474,
                "y": 1652
            },
            {
                "class": "Text",
                "height": 31,
                "text": "cuisine",
                "width": 161,
                "x": 1793,
                "y": 1639
            },
            {
                "class": "Text",
                "height": 30,
                "text": "wc",
                "width": 67,
                "x": 993,
                "y": 1711
            },
            {
                "class": "Text",
                "height": 30,
                "text": "hall",
                "width": 98,
                "x": 1202,
                "y": 1711
            },
            {
                "class": "Text",
                "height": 30,
                "text": "degagement",
                "width": 285,
                "x": 737,
                "y": 1826
            },
            {
                "class": "Text",
                "height": 31,
                "text": "sejour",
                "width": 162,
                "x": 1591,
                "y": 2000
            },
            {
                "class": "Text",
                "height": 30,
                "text": "chambre 2",
                "width": 234,
                "x": 474,
                "y": 2083
            },
            {
                "class": "Text",
                "height": 30,
                "text": "chambre 3",
                "width": 234,
                "x": 970,
                "y": 2089
            },
            {
                "class": "Text",
                "height": 60,
                "text": "pl",
                "width": 22,
                "x": 277,
                "y": 1425
            },
            {
                "class": "Text",
                "height": 33.28640509956858,
                "text": "pl",
                "width": 43.27232662943925,
                "x": 1075.150884716064,
                "y": 1607.7333663091608
            }
        ],
        "class": "image",
        "filename": "fp_4.png"
    }
]
