[
    {
        "annotations": [
            {
                "class": "Wall", 
                "xn": "1333.0;1876.0;1876.0;1334.0", 
                "yn": "1098.0;1099.0;1122.0;1123.0"
            }, 
            {
                "class": "Wall", 
                "xn": "1008.0;1233.0;1233.0;1008.0", 
                "yn": "1097.0;1099.0;1123.0;1124.0"
            }, 
            {
                "class": "Wall", 
                "xn": "235.5;275.5;277.5;234.5", 
                "yn": "1540.5;1540.5;1445.5;1445.5"
            }, 
            {
                "class": "Wall", 
                "xn": "277.0;277.0;418.0;418.0", 
                "yn": "2296.0;2339.0;2338.0;2296.0"
            }, 
            {
                "class": "Wall", 
                "xn": "570.0;570.0;814.0;814.0", 
                "yn": "2338.0;2296.0;2296.0;2338.0"
            }, 
            {
                "class": "Wall", 
                "xn": "837.0;836.0;235.0;234.0", 
                "yn": "1404.0;1446.0;1446.0;1406.0"
            }, 
            {
                "class": "Wall", 
                "xn": "766.0;774.0;774.0;766.0", 
                "yn": "1446.0;1446.0;1776.0;1776.0"
            }, 
            {
                "class": "Wall", 
                "xn": "897.0;896.0;765.0;766.0", 
                "yn": "1784.0;1777.0;1776.0;1784.0"
            }, 
            {
                "class": "Wall", 
                "xn": "843.0;843.0;774.0;774.0", 
                "yn": "1658.0;1665.0;1666.0;1659.0"
            }, 
            {
                "class": "Wall", 
                "xn": "668.0;668.0;638.0;638.0", 
                "yn": "1777.0;1785.0;1785.0;1777.0"
            }, 
            {
                "class": "Wall", 
                "xn": "629.0;629.0;637.0;637.0", 
                "yn": "1852.0;1777.0;1777.0;1852.0"
            }, 
            {
                "class": "Wall", 
                "xn": "459.0;459.0;637.0;637.0", 
                "yn": "1852.0;1860.0;1860.0;1853.0"
            }, 
            {
                "class": "Wall", 
                "xn": "453.0;460.0;459.0;453.0", 
                "yn": "1785.0;1785.0;1861.0;1860.0"
            }, 
            {
                "class": "Wall", 
                "xn": "277.0;276.0;460.0;460.0", 
                "yn": "1776.0;1783.0;1785.0;1778.0"
            }, 
            {
                "class": "Wall", 
                "xn": "234.0;276.0;276.0;234.0", 
                "yn": "1695.0;1694.0;2339.0;2338.0"
            }, 
            {
                "class": "Wall", 
                "xn": "631.0;636.0;636.0;630.0", 
                "yn": "1961.0;1961.0;2295.0;2295.0"
            }, 
            {
                "class": "Wall", 
                "xn": "1117.0;1110.0;1110.0;1115.0", 
                "yn": "2059.0;2059.0;1883.0;1883.0"
            }, 
            {
                "class": "Wall", 
                "xn": "909.0;911.0;1109.0;1109.0", 
                "yn": "1960.0;1966.0;1967.0;1960.0"
            }, 
            {
                "class": "Wall", 
                "xn": "901.0;909.0;909.0;902.0", 
                "yn": "1891.0;1891.0;1966.0;1966.0"
            }, 
            {
                "class": "Wall", 
                "xn": "745.0;745.0;909.0;909.0", 
                "yn": "1883.0;1890.0;1890.0;1883.0"
            }, 
            {
                "class": "Wall", 
                "xn": "745.0;737.0;736.0;744.0", 
                "yn": "1967.0;1967.0;1882.0;1882.0"
            }, 
            {
                "class": "Wall", 
                "xn": "967.0;967.0;1109.0;1110.0", 
                "yn": "2339.0;2296.0;2296.0;2339.0"
            }, 
            {
                "class": "Wall", 
                "xn": "1162.0;1162.0;1109.0;1109.0", 
                "yn": "2102.0;2059.0;2059.0;2102.0"
            }, 
            {
                "class": "Wall", 
                "xn": "1151.0;1109.0;1108.0;1150.0", 
                "yn": "2339.0;2339.0;2102.0;2101.0"
            }, 
            {
                "class": "Wall", 
                "xn": "984.0;1027.0;1027.0;984.0", 
                "yn": "1236.0;1235.0;1264.0;1263.0"
            }, 
            {
                "class": "Wall", 
                "xn": "985.0;984.0;1008.0;1008.0", 
                "yn": "1099.0;1127.0;1128.0;1097.0"
            }, 
            {
                "class": "Wall", 
                "xn": "984.0;1009.0;1008.0;984.0", 
                "yn": "991.0;990.0;879.0;879.0"
            }, 
            {
                "class": "Wall", 
                "xn": "1009.0;984.0;984.0;1008.0", 
                "yn": "583.0;583.0;543.0;543.0"
            }, 
            {
                "class": "Wall", 
                "xn": "1875.0;1918.0;1918.0;1876.0", 
                "yn": "2059.0;2058.0;1605.0;1605.0"
            }, 
            {
                "class": "Wall", 
                "xn": "1799.0;1800.0;1919.0;1919.0", 
                "yn": "2060.0;2102.0;2102.0;2058.0"
            }, 
            {
                "class": "Wall", 
                "xn": "1470.0;1469.0;1340.0;1340.0", 
                "yn": "2104.0;2060.0;2061.0;2102.0"
            }, 
            {
                "class": "Wall", 
                "xn": "1918.0;1876.0;1875.0;1919.0", 
                "yn": "1275.0;1275.0;1097.0;1097.0"
            }, 
            {
                "class": "Wall", 
                "xn": "1894.0;1919.0;1919.0;1895.0", 
                "yn": "1047.0;1047.0;1097.0;1096.0"
            }, 
            {
                "class": "Wall", 
                "xn": "1104.0;1104.0;1214.0;1214.0", 
                "yn": "1777.0;1784.0;1783.0;1776.0"
            }, 
            {
                "class": "Wall", 
                "xn": "1214.0;1222.0;1222.0;1215.0", 
                "yn": "1549.0;1549.0;1783.0;1783.0"
            }, 
            {
                "class": "Wall", 
                "xn": "1004.0;1004.0;1222.0;1222.0", 
                "yn": "1540.0;1547.0;1547.0;1540.0"
            }, 
            {
                "class": "Wall", 
                "xn": "1003.0;997.0;996.0;1003.0", 
                "yn": "1784.0;1784.0;1540.0;1541.0"
            }, 
            {
                "class": "Wall", 
                "xn": "1028.0;1029.0;1096.0;1096.0", 
                "yn": "1439.0;1447.0;1447.0;1439.0"
            }, 
            {
                "class": "Wall", 
                "xn": "984.0;1026.0;1027.0;986.0", 
                "yn": "1369.0;1369.0;1447.0;1447.0"
            }, 
            {
                "class": "Wall", 
                "xn": "944.0;945.0;987.0;985.0", 
                "yn": "1406.0;1446.0;1446.0;1405.0"
            }, 
            {
                "class": "Wall", 
                "xn": "1894.0;1894.0;1008.0;1009.0", 
                "yn": "567.0;544.0;543.0;566.0"
            }, 
            {
                "class": "Wall", 
                "xn": "1919.0;1893.0;1893.0;1918.0", 
                "yn": "960.0;960.0;543.0;543.0"
            }, 
            {
                "class": "Wall", 
                "xn": "1220.0;1220.0;1234.0;1233.0", 
                "yn": "2103.0;2060.0;2060.0;2103.0"
            }, 
            {
                "class": "Wall", 
                "xn": "1216.0;1216.0;1228.0;1228.0", 
                "yn": "1884.0;1890.0;1890.0;1884.0"
            }, 
            {
                "class": "Wall", 
                "xn": "1221.0;1227.0;1228.0;1221.0", 
                "yn": "2059.0;2059.0;1890.0;1890.0"
            }, 
            {
                "class": "Window", 
                "xn": "1056.0;1010.0;976.0;978.0;1013.0;1035.0", 
                "yn": "1008.0;1095.0;1095.0;996.0;993.0;995.0"
            }, 
            {
                "class": "Window", 
                "xn": "1075.0;1026.0;980.0;978.0;1031.0;1056.0", 
                "yn": "1214.0;1127.0;1127.0;1229.0;1230.0;1223.0"
            }, 
            {
                "class": "Window", 
                "xn": "1076.0;1029.0;979.0;976.0;1027.0;1050.0", 
                "yn": "1279.0;1368.0;1370.0;1268.0;1267.0;1269.0"
            }, 
            {
                "class": "Window", 
                "xn": "924.0;839.0;837.0;940.0;941.0;936.0", 
                "yn": "1494.0;1446.0;1401.0;1399.0;1449.0;1474.0"
            }, 
            {
                "class": "Window", 
                "xn": "313.0;276.0;230.0;229.0;279.0;310.0;291.0", 
                "yn": "1608.0;1546.0;1545.0;1689.0;1688.0;1625.0;1616.0"
            }, 
            {
                "class": "Window", 
                "xn": "486.0;419.0;420.0;569.0;569.0;503.0;493.0", 
                "yn": "2258.0;2293.0;2340.0;2341.0;2296.0;2258.0;2274.0"
            }, 
            {
                "class": "Window", 
                "xn": "880.0;813.0;814.0;968.0;965.0;899.0;889.0", 
                "yn": "2259.0;2295.0;2341.0;2344.0;2296.0;2258.0;2274.0"
            }, 
            {
                "class": "Window", 
                "xn": "1166.0;1164.0;1219.0;1214.0", 
                "yn": "2057.0;2105.0;2107.0;2057.0"
            }, 
            {
                "class": "Window", 
                "xn": "1470.0;1470.0;1803.0;1800.0", 
                "yn": "2055.0;2104.0;2105.0;2054.0"
            }, 
            {
                "class": "Door", 
                "xn": "1235.0;1234.0;1341.0;1339.0;1323.0;1276.0", 
                "yn": "1960.0;2104.0;2107.0;2057.0;1997.0;1966.0"
            }, 
            {
                "class": "Window", 
                "xn": "1871.0;1921.0;1921.0;1871.0", 
                "yn": "1274.0;1275.0;1606.0;1607.0"
            }, 
            {
                "class": "Window", 
                "xn": "1849.0;1887.0;1923.0;1922.0;1888.0;1865.0", 
                "yn": "978.0;1046.0;1047.0;963.0;961.0;968.0"
            }, 
            {
                "class": "Door", 
                "xn": "1326.0;1329.0;1237.0;1234.0;1243.0;1270.0", 
                "yn": "1009.0;1124.0;1126.0;1099.0;1057.0;1025.0"
            }, 
            {
                "class": "Door", 
                "xn": "1132.0;1225.0;1117.0;1120.0", 
                "yn": "1836.0;1884.0;1886.0;1855.0"
            }, 
            {
                "class": "Door", 
                "xn": "1005.0;1002.0;1104.0;1094.0;1050.0", 
                "yn": "1686.0;1781.0;1783.0;1732.0;1692.0"
            }, 
            {
                "class": "Door", 
                "xn": "990.0;994.0;896.0;904.0;934.0", 
                "yn": "1686.0;1785.0;1782.0;1737.0;1701.0"
            }, 
            {
                "class": "Door", 
                "xn": "642.0;640.0;738.0;721.0;685.0", 
                "yn": "2058.0;1960.0;1961.0;2017.0;2052.0"
            }, 
            {
                "class": "Door", 
                "xn": "535.0;636.0;636.0;578.0;543.0", 
                "yn": "1865.0;1863.0;1961.0;1951.0;1906.0"
            }, 
            {
                "class": "Door", 
                "xn": "759.0;766.0;668.0;674.0;707.0", 
                "yn": "1686.0;1777.0;1780.0;1730.0;1698.0"
            }, 
            {
                "class": "Wall", 
                "xn": "1103.5;1092.5;1092.5;1104.5", 
                "yn": "1439.0;1439.0;1533.0;1533.0"
            }, 
            {
                "class": "Wall", 
                "xn": "1351.0;1374.0;1377.0;1350.0", 
                "yn": "2313.0;2314.0;2338.0;2336.0"
            }, 
            {
                "class": "Wall", 
                "xn": "1893.0;1919.0;1919.0;1897.0", 
                "yn": "2313.0;2312.0;2338.0;2338.0"
            }, 
            {
                "class": "Text", 
                "height": 31, 
                "width": 169, 
                "x": 1342, 
                "y": 717, 
                "text": "garage"
            }, 
            {
                "class": "Text", 
                "height": 31, 
                "width": 166, 
                "x": 1130, 
                "y": 971, 
                "text": "cellier"
            }, 
            {
                "class": "Text", 
                "height": 30, 
                "width": 254, 
                "x": 1562, 
                "y": 977, 
                "text": "rangement"
            }, 
            {
                "class": "Text", 
                "height": 31, 
                "width": 159, 
                "x": 1130, 
                "y": 1301, 
                "text": "cuisine"
            }, 
            {
                "class": "Text", 
                "height": 31, 
                "width": 132, 
                "x": 1574, 
                "y": 1360, 
                "text": "repas"
            }, 
            {
                "class": "Text", 
                "height": 30, 
                "width": 227, 
                "x": 457, 
                "y": 1532, 
                "text": "chambre 1"
            }, 
            {
                "class": "Text", 
                "height": 31, 
                "width": 116, 
                "x": 859, 
                "y": 1608, 
                "text": "bains"
            }, 
            {
                "class": "Text", 
                "height": 30, 
                "width": 55, 
                "x": 788, 
                "y": 1703, 
                "text": "pl"
            }, 
            {
                "class": "Text", 
                "height": 31, 
                "width": 163, 
                "x": 1572, 
                "y": 1768, 
                "text": "sejour"
            }, 
            {
                "class": "Text", 
                "height": 30, 
                "width": 54, 
                "x": 322, 
                "y": 1798, 
                "text": "pl"
            }, 
            {
                "class": "Text", 
                "height": 30, 
                "width": 54, 
                "x": 517, 
                "y": 1798, 
                "text": "pl"
            }, 
            {
                "class": "Text", 
                "height": 31, 
                "width": 282, 
                "x": 694, 
                "y": 1815, 
                "text": "degagement"
            }, 
            {
                "class": "Text", 
                "height": 30, 
                "width": 55, 
                "x": 794, 
                "y": 1910, 
                "text": "pl"
            }, 
            {
                "class": "Text", 
                "height": 30, 
                "width": 98, 
                "x": 1302, 
                "y": 1910, 
                "text": "hall"
            }, 
            {
                "class": "Text", 
                "height": 30, 
                "width": 232, 
                "x": 303, 
                "y": 2010, 
                "text": "chambre 2"
            }, 
            {
                "class": "Text", 
                "height": 30, 
                "width": 233, 
                "x": 811, 
                "y": 2146, 
                "text": "chambre 3"
            }, 
            {
                "class": "Text", 
                "height": 30, 
                "width": 169, 
                "x": 1213, 
                "y": 2158, 
                "text": "porche"
            }, 
            {
                "class": "Text", 
                "height": 79, 
                "width": 222, 
                "x": 1542, 
                "y": 2204, 
                "text": "terrassecouverte"
            }, 
            {
                "class": "Text", 
                "height": 36.88082971371864, 
                "width": 188.09223153996504, 
                "x": 909.1124524431648, 
                "y": 1893.8306057994528, 
                "text": "placard"
            }, 
            {
                "class": "Text", 
                "height": 33.801280432623116, 
                "width": 62.40236387561208, 
                "x": 1138.8431407299188, 
                "y": 1895.4718027217143, 
                "text": "wc"
            }, 
            {
                "class": "Text", 
                "height": 36.40137892744042, 
                "width": 200.20758410092185, 
                "x": 1011.4383144838778, 
                "y": 1630.2617562503633, 
                "text": "dressing"
            }, 
            {
                "class": "Text", 
                "height": 33.801280432623116, 
                "width": 426.41615315001513, 
                "x": 1068.6404813698555, 
                "y": 2568.8973128793605, 
                "text": "surface habitable"
            }
        ], 
        "class": "image", 
        "filename": "fp_48.png"
    }
]