[
    {
        "annotations": [
            {
                "class": "Wall", 
                "xn": "828.0;829.0;641.0;641.0", 
                "yn": "892.0;868.0;867.0;892.0"
            }, 
            {
                "class": "Wall", 
                "xn": "781.0;781.0;1030.0;1031.0", 
                "yn": "2480.0;2522.0;2522.0;2480.0"
            }, 
            {
                "class": "Wall", 
                "xn": "982.0;982.0;988.0;989.0", 
                "yn": "2386.0;2479.0;2479.0;2386.0"
            }, 
            {
                "class": "Wall", 
                "xn": "1520.0;1520.0;1691.0;1691.0", 
                "yn": "1618.0;1577.0;1576.0;1618.0"
            }, 
            {
                "class": "Wall", 
                "xn": "1539.0;1539.0;1609.0;1609.0", 
                "yn": "1718.0;1724.0;1724.0;1717.0"
            }, 
            {
                "class": "Wall", 
                "xn": "1538.0;1538.0;1651.0;1651.0", 
                "yn": "1912.0;1920.0;1919.0;1912.0"
            }, 
            {
                "class": "Wall", 
                "xn": "1750.0;1750.0;1923.0;1980.0;1980.0", 
                "yn": "1913.0;1919.0;1919.0;1920.0;1913.0"
            }, 
            {
                "class": "Wall", 
                "xn": "1773.0;1773.0;2322.0;2322.0", 
                "yn": "1576.0;1619.0;1618.0;1577.0"
            }, 
            {
                "class": "Wall", 
                "xn": "2365.0;2323.0;2322.0;2364.0", 
                "yn": "1730.0;1730.0;1577.0;1578.0"
            }, 
            {
                "class": "Wall", 
                "xn": "1973.0;1973.0;2323.0;2323.0", 
                "yn": "2019.0;2026.0;2026.0;2019.0"
            }, 
            {
                "class": "Wall", 
                "xn": "1815.0;1815.0;1897.0;1897.0", 
                "yn": "1818.0;1825.0;1826.0;1818.0"
            }, 
            {
                "class": "Wall", 
                "xn": "2323.0;2364.0;2365.0;2324.0", 
                "yn": "1906.0;1907.0;2481.0;2480.0"
            }, 
            {
                "class": "Wall", 
                "xn": "2199.0;2199.0;2365.0;2364.0", 
                "yn": "2522.0;2480.0;2481.0;2523.0"
            }, 
            {
                "class": "Wall", 
                "xn": "498.0;498.0;310.0;310.0", 
                "yn": "2522.0;2480.0;2479.0;2522.0"
            }, 
            {
                "class": "Wall", 
                "xn": "268.0;310.0;309.0;269.0", 
                "yn": "1944.0;1944.0;2522.0;2523.0"
            }, 
            {
                "class": "Wall", 
                "xn": "292.0;268.0;268.0;293.0", 
                "yn": "1486.0;1484.0;1529.0;1528.0"
            }, 
            {
                "class": "Wall", 
                "xn": "310.0;310.0;1071.0;1072.0;775.0", 
                "yn": "1554.0;1528.0;1528.0;1553.0;1553.0"
            }, 
            {
                "class": "Wall", 
                "xn": "1177.0;1177.0;991.0;990.0", 
                "yn": "1836.0;1843.0;1842.0;1836.0"
            }, 
            {
                "class": "Wall", 
                "xn": "981.0;989.0;989.0;983.0", 
                "yn": "1553.0;1553.0;1842.0;1843.0"
            }, 
            {
                "class": "Wall", 
                "xn": "1126.0;1126.0;1189.0;1190.0", 
                "yn": "868.0;893.0;893.0;868.0"
            }, 
            {
                "class": "Wall", 
                "xn": "1170.0;1213.0;1213.0;1171.0", 
                "yn": "1529.0;1529.0;1606.0;1605.0"
            }, 
            {
                "class": "Wall", 
                "xn": "1213.0;1171.0;1172.0;1213.0", 
                "yn": "1688.0;1688.0;1737.0;1736.0"
            }, 
            {
                "class": "Wall", 
                "xn": "1243.0;1244.0;1213.0;1212.0", 
                "yn": "1737.0;1695.0;1695.0;1737.0"
            }, 
            {
                "class": "Wall", 
                "xn": "1237.0;1237.0;988.0;988.0", 
                "yn": "2020.0;2026.0;2027.0;2020.0"
            }, 
            {
                "class": "Wall", 
                "xn": "983.0;988.0;988.0;983.0", 
                "yn": "2285.0;2285.0;2019.0;2020.0"
            }, 
            {
                "class": "Wall", 
                "xn": "1206.0;1206.0;1236.0;1236.0", 
                "yn": "2522.0;2479.0;2480.0;2522.0"
            }, 
            {
                "class": "Wall", 
                "xn": "1342.0;1341.0;1573.0;1573.0", 
                "yn": "2480.0;2524.0;2523.0;2479.0"
            }, 
            {
                "class": "Wall", 
                "xn": "1751.0;1751.0;2021.0;2020.0", 
                "yn": "2523.0;2480.0;2480.0;2523.0"
            }, 
            {
                "class": "Wall", 
                "xn": "1710.0;1709.0;1874.0;1874.0", 
                "yn": "2026.0;2020.0;2020.0;2027.0"
            }, 
            {
                "class": "Wall", 
                "xn": "1897.0;1904.0;1903.0;1897.0", 
                "yn": "1618.0;1618.0;1912.0;1912.0"
            }, 
            {
                "class": "Wall", 
                "xn": "1633.0;1632.0;1638.0;1638.0", 
                "yn": "1664.0;1618.0;1618.0;1664.0"
            }, 
            {
                "class": "Wall", 
                "xn": "1437.0;1437.0;1390.0;1391.0", 
                "yn": "1618.0;1577.0;1577.0;1618.0"
            }, 
            {
                "class": "Wall", 
                "xn": "1213.0;1189.0;1188.0;1214.0", 
                "yn": "867.0;867.0;1527.0;1527.0"
            }, 
            {
                "class": "Wall", 
                "xn": "1390.0;1432.0;1431.0;1391.0", 
                "yn": "1694.0;1694.0;1618.0;1618.0"
            }, 
            {
                "class": "Wall", 
                "xn": "1348.0;1347.0;1431.0;1431.0", 
                "yn": "1737.0;1694.0;1694.0;1736.0"
            }, 
            {
                "class": "Wall", 
                "xn": "1336.0;1336.0;1609.0;1609.0", 
                "yn": "2020.0;2027.0;2027.0;2019.0"
            }, 
            {
                "class": "Wall", 
                "xn": "1425.0;1431.0;1432.0;1425.0", 
                "yn": "2027.0;2027.0;2479.0;2479.0"
            }, 
            {
                "class": "Wall", 
                "xn": "1353.0;1360.0;1361.0;1354.0", 
                "yn": "1919.0;1919.0;1843.0;1843.0"
            }, 
            {
                "class": "Wall", 
                "xn": "1531.0;1531.0;1354.0;1354.0", 
                "yn": "1843.0;1837.0;1836.0;1842.0"
            }, 
            {
                "class": "Wall", 
                "xn": "1869.0;1875.0;1874.0;1868.0", 
                "yn": "2027.0;2027.0;2479.0;2479.0"
            }, 
            {
                "class": "Wall", 
                "xn": "1531.0;1537.0;1537.0;1531.0", 
                "yn": "1618.0;1618.0;1919.0;1919.0"
            }, 
            {
                "class": "Wall", 
                "xn": "352.0;352.0;292.0;292.0", 
                "yn": "893.0;868.0;868.0;894.0"
            }, 
            {
                "class": "Wall", 
                "xn": "269.0;291.0;294.0;268.0", 
                "yn": "868.0;868.0;1226.0;1226.0"
            }, 
            {
                "class": "Wall", 
                "xn": "293.0;269.0;268.0;293.0", 
                "yn": "1399.0;1401.0;1290.0;1290.0"
            }, 
            {
                "class": "Wall", 
                "xn": "310.0;268.0;267.0;312.0", 
                "yn": "1660.0;1659.0;1527.0;1528.0"
            }, 
            {
                "class": "Wall", 
                "xn": "770.0;770.0;841.0;841.0", 
                "yn": "1595.0;1590.0;1590.0;1595.0"
            }, 
            {
                "class": "Wall", 
                "xn": "834.0;841.0;841.0;833.0", 
                "yn": "1554.0;1554.0;1595.0;1595.0"
            }, 
            {
                "class": "Wall", 
                "xn": "769.0;775.0;775.0;770.0", 
                "yn": "1554.0;1553.0;1589.0;1590.0"
            }, 
            {
                "class": "Window", 
                "xn": "336.0;294.0;260.0;259.0;292.0;313.0", 
                "yn": "1284.0;1217.0;1217.0;1298.0;1300.0;1294.0"
            }, 
            {
                "class": "Door", 
                "xn": "379.0;264.0;263.0;297.0;343.0;371.0", 
                "yn": "1488.0;1487.0;1394.0;1394.0;1414.0;1454.0"
            }, 
            {
                "class": "Door", 
                "xn": "1167.0;1166.0;1076.0;1073.0;1083.0;1118.0", 
                "yn": "1645.0;1532.0;1532.0;1561.0;1604.0;1635.0"
            }, 
            {
                "class": "Door", 
                "xn": "1134.0;1150.0;1174.0;1175.0", 
                "yn": "1624.0;1611.0;1609.0;1690.0"
            }, 
            {
                "class": "Window", 
                "xn": "264.0;315.0;317.0;265.0", 
                "yn": "1658.0;1658.0;1944.0;1945.0"
            }, 
            {
                "class": "Window", 
                "xn": "501.0;497.0;784.0;781.0", 
                "yn": "2474.0;2524.0;2524.0;2473.0"
            }, 
            {
                "class": "Window", 
                "xn": "1108.0;1033.0;1033.0;1205.0;1207.0;1129.0;1119.0", 
                "yn": "2437.0;2481.0;2524.0;2527.0;2476.0;2437.0;2454.0"
            }, 
            {
                "class": "Door", 
                "xn": "1338.0;1338.0;1240.0;1236.0;1255.0;1295.0", 
                "yn": "2383.0;2523.0;2524.0;2477.0;2417.0;2387.0"
            }, 
            {
                "class": "Window", 
                "xn": "1649.0;1574.0;1574.0;1746.0;1750.0;1671.0;1660.0", 
                "yn": "2437.0;2482.0;2526.0;2524.0;2479.0;2436.0;2455.0"
            }, 
            {
                "class": "Window", 
                "xn": "2099.0;2022.0;2023.0;2199.0;2197.0;2119.0;2110.0", 
                "yn": "2438.0;2482.0;2524.0;2525.0;2476.0;2438.0;2455.0"
            }, 
            {
                "class": "Window", 
                "xn": "2280.0;2322.0;2370.0;2370.0;2322.0;2280.0;2294.0", 
                "yn": "1809.0;1735.0;1732.0;1903.0;1907.0;1831.0;1819.0"
            }, 
            {
                "class": "Window", 
                "xn": "1706.0;1774.0;1773.0;1697.0;1696.0;1699.0", 
                "yn": "1656.0;1620.0;1573.0;1571.0;1620.0;1640.0"
            }, 
            {
                "class": "Window", 
                "xn": "1504.0;1436.0;1438.0;1517.0;1519.0;1514.0", 
                "yn": "1655.0;1616.0;1572.0;1574.0;1617.0;1640.0"
            }, 
            {
                "class": "Door", 
                "xn": "1348.0;1346.0;1242.0;1244.0;1256.0;1291.0", 
                "yn": "1840.0;1695.0;1694.0;1747.0;1791.0;1829.0"
            }, 
            {
                "class": "Door", 
                "xn": "1081.0;1176.0;1173.0;1116.0;1090.0", 
                "yn": "1835.0;1834.0;1731.0;1752.0;1787.0"
            }, 
            {
                "class": "Door", 
                "xn": "1335.0;1335.0;1237.0;1246.0;1278.0", 
                "yn": "2121.0;2022.0;2019.0;2067.0;2105.0"
            }, 
            {
                "class": "Door", 
                "xn": "1708.0;1708.0;1609.0;1621.0;1663.0", 
                "yn": "2120.0;2021.0;2024.0;2076.0;2113.0"
            }, 
            {
                "class": "Door", 
                "xn": "1744.0;1747.0;1651.0;1658.0;1696.0", 
                "yn": "1823.0;1919.0;1921.0;1869.0;1833.0"
            }, 
            {
                "class": "Door", 
                "xn": "1455.0;1348.0;1346.0;1398.0;1441.0", 
                "yn": "1835.0;1839.0;1736.0;1741.0;1783.0"
            }, 
            {
                "class": "Door", 
                "xn": "1080.0;984.0;984.0;1047.0;1079.0", 
                "yn": "2381.0;2384.0;2287.0;2303.0;2352.0"
            }, 
            {
                "class": "Door", 
                "xn": "1875.0;1876.0;1974.0;1970.0;1930.0", 
                "yn": "2122.0;2024.0;2023.0;2066.0;2106.0"
            }, 
            {
                "class": "Door", 
                "xn": "2071.0;1973.0;1975.0;2030.0;2067.0", 
                "yn": "2017.0;2021.0;1920.0;1933.0;1974.0"
            }, 
            {
                "class": "Window", 
                "xn": "1133.0;1174.0;1224.0;1224.0;1174.0;1153.0", 
                "yn": "1619.0;1692.0;1690.0;1602.0;1602.0;1607.0"
            }, 
            {
                "class": "Text", 
                "height": 25, 
                "width": 135, 
                "x": 496, 
                "y": 1139, 
                "text": "garage"
            }, 
            {
                "class": "Text", 
                "height": 25, 
                "width": 134, 
                "x": 1241, 
                "y": 1605, 
                "text": "porche"
            }, 
            {
                "class": "Text", 
                "height": 25, 
                "width": 132, 
                "x": 1015, 
                "y": 1652, 
                "text": "cellier"
            }, 
            {
                "class": "Text", 
                "height": 25, 
                "width": 53, 
                "x": 1450, 
                "y": 1735, 
                "text": "wc"
            }, 
            {
                "class": "Text", 
                "height": 25, 
                "width": 94, 
                "x": 1665, 
                "y": 1717, 
                "text": "bains"
            }, 
            {
                "class": "Text", 
                "height": 25, 
                "width": 107, 
                "x": 607, 
                "y": 1759, 
                "text": "salon"
            }, 
            {
                "class": "Text", 
                "height": 26, 
                "width": 186, 
                "x": 2031, 
                "y": 1759, 
                "text": "chambre 3"
            }, 
            {
                "class": "Text", 
                "height": 24, 
                "width": 79, 
                "x": 1204, 
                "y": 1883, 
                "text": "hall"
            }, 
            {
                "class": "Text", 
                "height": 25, 
                "width": 150, 
                "x": 1375, 
                "y": 1865, 
                "text": "placard"
            }, 
            {
                "class": "Text", 
                "height": 25, 
                "width": 228, 
                "x": 1423, 
                "y": 1960, 
                "text": "degagement"
            }, 
            {
                "class": "Text", 
                "height": 25, 
                "width": 129, 
                "x": 1079, 
                "y": 2184, 
                "text": "cuisine"
            }, 
            {
                "class": "Text", 
                "height": 25, 
                "width": 106, 
                "x": 608, 
                "y": 2213, 
                "text": "repas"
            }, 
            {
                "class": "Text", 
                "height": 25, 
                "width": 183, 
                "x": 1575, 
                "y": 2225, 
                "text": "chambre 1"
            }, 
            {
                "class": "Text", 
                "height": 25, 
                "width": 186, 
                "x": 1989, 
                "y": 2219, 
                "text": "chambre 2"
            }
        ], 
        "class": "image", 
        "filename": "fp_59.png"
    }
]