[
    {
        "annotations": [
            {
                "class": "Wall", 
                "xn": "917.0;944.0;944.0;918.0", 
                "yn": "811.0;810.0;857.0;858.0"
            }, 
            {
                "class": "Wall", 
                "xn": "1699.0;1722.0;1722.0;1699.0", 
                "yn": "746.0;745.0;772.0;772.0"
            }, 
            {
                "class": "Wall", 
                "xn": "641.0;684.0;682.0;641.0", 
                "yn": "1340.0;1342.0;1713.0;1715.0"
            }, 
            {
                "class": "Window", 
                "xn": "1284.0;1354.0;1354.0;1283.0", 
                "yn": "406.0;406.0;445.0;447.0"
            }, 
            {
                "class": "Window", 
                "xn": "910.0;948.0;948.0;913.0", 
                "yn": "736.0;735.0;814.0;814.0"
            }, 
            {
                "class": "Window", 
                "xn": "1687.0;1730.0;1728.0;1689.0", 
                "yn": "464.0;463.0;745.0;746.0"
            }, 
            {
                "class": "Window", 
                "xn": "1683.0;1731.0;1732.0;1687.0", 
                "yn": "770.0;767.0;1047.0;1051.0"
            }, 
            {
                "class": "Window", 
                "xn": "1910.0;1967.0;1967.0;1909.0", 
                "yn": "1205.0;1206.0;1280.0;1281.0"
            }, 
            {
                "class": "Window", 
                "xn": "1908.0;1966.0;1967.0;1908.0", 
                "yn": "1427.0;1424.0;1575.0;1576.0"
            }, 
            {
                "class": "Window", 
                "xn": "1909.0;1969.0;1967.0;1908.0", 
                "yn": "2086.0;2086.0;2187.0;2186.0"
            }, 
            {
                "class": "Window", 
                "xn": "1908.0;1967.0;1967.0;1910.0", 
                "yn": "2446.0;2449.0;2596.0;2596.0"
            }, 
            {
                "class": "Window", 
                "xn": "1166.0;1313.0;1312.0;1166.0", 
                "yn": "2790.0;2790.0;2853.0;2854.0"
            }, 
            {
                "class": "Window", 
                "xn": "910.0;1037.0;1024.0;992.0;1028.0;1041.0;911.0", 
                "yn": "2048.0;2052.0;2097.0;2122.0;2143.0;2195.0;2193.0"
            }, 
            {
                "class": "Window", 
                "xn": "909.0;970.0;969.0;909.0", 
                "yn": "2383.0;2383.0;2456.0;2460.0"
            }, 
            {
                "class": "Window", 
                "xn": "911.0;949.0;952.0;910.0", 
                "yn": "851.0;852.0;950.0;954.0"
            }, 
            {
                "class": "Window", 
                "xn": "635.0;755.0;746.0;709.0;743.0;756.0;688.0;691.0;634.0", 
                "yn": "1128.0;1130.0;1175.0;1201.0;1219.0;1266.0;1270.0;1347.0;1345.0"
            }, 
            {
                "class": "Window", 
                "xn": "634.0;755.0;747.0;710.0;746.0;756.0;688.0;686.0;634.0", 
                "yn": "1711.0;1715.0;1753.0;1784.0;1807.0;1854.0;1854.0;1930.0;1933.0"
            }, 
            {
                "class": "Window", 
                "xn": "906.0;909.0;690.0;687.0;767.0;769.0;816.0;837.0;862.0", 
                "yn": "1865.0;1983.0;1986.0;1929.0;1930.0;1860.0;1878.0;1913.0;1872.0"
            }, 
            {
                "class": "Door", 
                "xn": "1749.0;1709.0;1695.0;1815.0;1814.0", 
                "yn": "1789.0;1824.0;1883.0;1883.0;1775.0"
            }, 
            {
                "class": "Window", 
                "xn": "1848.0;1792.0;1791.0;1848.0", 
                "yn": "1904.0;1905.0;1948.0;1951.0"
            }, 
            {
                "class": "Door", 
                "xn": "1681.0;1666.0;1632.0;1579.0;1578.0", 
                "yn": "2083.0;2137.0;2172.0;2179.0;2083.0"
            }, 
            {
                "class": "Door", 
                "xn": "1680.0;1578.0;1574.0;1632.0;1669.0", 
                "yn": "2461.0;2461.0;2362.0;2373.0;2409.0"
            }, 
            {
                "class": "Door", 
                "xn": "1680.0;1667.0;1625.0;1573.0;1572.0", 
                "yn": "2618.0;2668.0;2704.0;2710.0;2618.0"
            }, 
            {
                "class": "Door", 
                "xn": "1363.0;1374.0;1402.0;1462.0;1462.0", 
                "yn": "2618.0;2663.0;2696.0;2714.0;2616.0"
            }, 
            {
                "class": "Door", 
                "xn": "1300.0;1356.0;1389.0;1398.0;1300.0", 
                "yn": "2562.0;2549.0;2510.0;2466.0;2461.0"
            }, 
            {
                "class": "Door", 
                "xn": "1388.0;1351.0;1301.0;1300.0;1396.0", 
                "yn": "2315.0;2274.0;2268.0;2365.0;2366.0"
            }, 
            {
                "class": "Door", 
                "xn": "1533.5;1484.5;1480.5;1580.5;1572.5", 
                "yn": "1980.0;1988.0;1883.0;1884.0;1932.0"
            }, 
            {
                "class": "Door", 
                "xn": "1585.0;1584.0;1554.0;1530.0", 
                "yn": "1885.0;1996.0;1992.0;1978.0"
            }, 
            {
                "class": "Door", 
                "xn": "1678.0;1640.0;1597.0;1596.0;1690.0;1692.0", 
                "yn": "1171.0;1200.0;1208.0;1072.0;1072.0;1124.0"
            }, 
            {
                "class": "Door", 
                "xn": "1677.0;1692.0;1596.0;1595.0;1640.0", 
                "yn": "1248.0;1307.0;1309.0;1212.0;1217.0"
            }, 
            {
                "class": "Wall", 
                "xn": "918.0;1287.0;1286.0;918.0", 
                "yn": "416.0;413.0;443.0;440.0"
            }, 
            {
                "class": "Wall", 
                "xn": "1721.0;1353.0;1353.0;1721.0", 
                "yn": "415.0;416.0;440.0;443.0"
            }, 
            {
                "class": "Wall", 
                "xn": "917.0;917.0;943.0;945.0", 
                "yn": "415.0;740.0;741.0;416.0"
            }, 
            {
                "class": "Wall", 
                "xn": "1723.0;1698.0;1694.0;1725.0", 
                "yn": "413.0;413.0;468.0;468.0"
            }, 
            {
                "class": "Wall", 
                "xn": "642.0;1595.0;1596.0;640.0", 
                "yn": "1077.0;1077.0;1116.0;1118.0"
            }, 
            {
                "class": "Wall", 
                "xn": "918.0;918.0;945.0;943.0", 
                "yn": "952.0;1113.0;1111.0;949.0"
            }, 
            {
                "class": "Wall", 
                "xn": "1957.0;1687.0;1692.0;1959.0", 
                "yn": "1075.0;1075.0;1119.0;1118.0"
            }, 
            {
                "class": "Wall", 
                "xn": "1723.0;1725.0;1696.0;1696.0", 
                "yn": "1052.0;1119.0;1118.0;1054.0"
            }, 
            {
                "class": "Wall", 
                "xn": "1959.0;1960.0;1915.0;1915.0", 
                "yn": "1077.0;1206.0;1203.0;1074.0"
            }, 
            {
                "class": "Wall", 
                "xn": "1960.0;1960.0;1914.0;1917.0", 
                "yn": "1278.0;1428.0;1428.0;1281.0"
            }, 
            {
                "class": "Wall", 
                "xn": "1915.0;1920.0;1960.0;1959.0", 
                "yn": "1580.0;1761.0;1761.0;1577.0"
            }, 
            {
                "class": "Wall", 
                "xn": "1795.0;1957.0;1960.0;1798.0", 
                "yn": "1717.0;1719.0;1763.0;1764.0"
            }, 
            {
                "class": "Wall", 
                "xn": "1842.0;1838.5;1799.5;1794.0", 
                "yn": "1784.0;1715.5;1715.5;1790.0"
            }, 
            {
                "class": "Wall", 
                "xn": "1959.0;1959.0;1917.0;1914.0", 
                "yn": "1961.0;2088.0;2089.0;1963.0"
            }, 
            {
                "class": "Wall", 
                "xn": "1800.0;1959.0;1957.0;1798.0", 
                "yn": "2003.0;2006.0;1963.0;1961.0"
            }, 
            {
                "class": "Wall", 
                "xn": "1839.0;1840.0;1795.0;1796.0", 
                "yn": "1945.0;2003.0;2000.0;1944.0"
            }, 
            {
                "class": "Wall", 
                "xn": "1962.0;1959.0;1917.0;1917.0", 
                "yn": "2186.0;2448.0;2452.0;2186.0"
            }, 
            {
                "class": "Wall", 
                "xn": "1959.0;1959.0;1917.0;1918.0", 
                "yn": "2842.0;2593.0;2595.0;2842.0"
            }, 
            {
                "class": "Wall", 
                "xn": "1311.0;1960.0;1959.0;1312.0", 
                "yn": "2804.0;2801.0;2843.0;2843.0"
            }, 
            {
                "class": "Wall", 
                "xn": "918.0;1164.0;1164.0;918.0", 
                "yn": "2840.0;2842.0;2803.0;2798.0"
            }, 
            {
                "class": "Wall", 
                "xn": "917.0;920.0;965.0;961.0", 
                "yn": "2462.0;2840.0;2842.0;2462.0"
            }, 
            {
                "class": "Wall", 
                "xn": "918.0;918.0;961.0;961.0", 
                "yn": "2193.0;2387.0;2387.0;2190.0"
            }, 
            {
                "class": "Wall", 
                "xn": "961.0;961.0;918.0;912.0", 
                "yn": "1939.0;2050.0;2048.0;1939.0"
            }, 
            {
                "class": "Wall", 
                "xn": "640.0;690.0;695.0;643.0", 
                "yn": "1978.0;1978.0;1936.0;1934.0"
            }, 
            {
                "class": "Wall", 
                "xn": "638.0;639.0;684.0;682.0", 
                "yn": "1076.0;1129.0;1129.0;1076.0"
            }, 
            {
                "class": "Wall", 
                "xn": "1693.0;1917.0;1918.0;1691.0", 
                "yn": "1300.0;1299.0;1310.0;1310.0"
            }, 
            {
                "class": "Wall", 
                "xn": "1580.0;1579.0;1590.0;1592.0", 
                "yn": "1114.0;1306.0;1308.0;1115.0"
            }, 
            {
                "class": "Wall", 
                "xn": "1472.0;1800.0;1801.0;1472.0", 
                "yn": "1716.0;1718.0;1729.0;1726.0"
            }, 
            {
                "class": "Wall", 
                "xn": "1843.0;1583.0;1583.0;1842.0", 
                "yn": "1888.0;1889.0;1899.0;1902.0"
            }, 
            {
                "class": "Wall", 
                "xn": "1581.0;1798.0;1798.0;1580.0", 
                "yn": "1995.0;1995.0;2007.0;2007.0"
            }, 
            {
                "class": "Wall", 
                "xn": "959.0;1485.0;1484.0;958.0", 
                "yn": "1938.0;1936.0;1948.0;1947.0"
            }, 
            {
                "class": "Wall", 
                "xn": "1473.0;1473.0;1483.0;1485.0", 
                "yn": "1887.0;2365.0;2363.0;1889.0"
            }, 
            {
                "class": "Wall", 
                "xn": "1394.0;1485.0;1484.0;1395.0", 
                "yn": "2357.0;2355.0;2367.0;2367.0"
            }, 
            {
                "class": "Wall", 
                "xn": "956.0;1300.0;1300.0;956.0", 
                "yn": "2461.0;2461.0;2471.0;2472.0"
            }, 
            {
                "class": "Wall", 
                "xn": "1288.0;1300.0;1302.0;1289.0", 
                "yn": "2368.0;2369.0;2283.0;2283.0"
            }, 
            {
                "class": "Wall", 
                "xn": "958.0;1295.0;1295.0;958.0", 
                "yn": "2273.0;2274.0;2284.0;2284.0"
            }, 
            {
                "class": "Door", 
                "xn": "1198.0;1307.0;1304.0;1259.0;1214.0", 
                "yn": "2457.0;2459.0;2364.0;2371.0;2407.0"
            }, 
            {
                "class": "Wall", 
                "xn": "1580.0;1915.0;1915.0;1581.0", 
                "yn": "2298.0;2297.0;2308.0;2309.0"
            }, 
            {
                "class": "Wall", 
                "xn": "1579.0;1577.0;1589.0;1589.0", 
                "yn": "2003.0;2082.0;2082.0;2003.0"
            }, 
            {
                "class": "Wall", 
                "xn": "1578.0;1577.0;1590.0;1589.0", 
                "yn": "2174.0;2298.0;2300.0;2174.0"
            }, 
            {
                "class": "Wall", 
                "xn": "1591.0;1590.0;1579.0;1577.0", 
                "yn": "2366.0;2310.0;2310.0;2366.0"
            }, 
            {
                "class": "Wall", 
                "xn": "1589.0;1590.0;1579.0;1576.0", 
                "yn": "2704.0;2806.0;2806.0;2704.0"
            }, 
            {
                "class": "Wall", 
                "xn": "1453.0;1452.0;1466.0;1466.0", 
                "yn": "2713.0;2801.0;2801.0;2712.0"
            }, 
            {
                "class": "Wall", 
                "xn": "1387.0;1461.0;1461.0;1387.0", 
                "yn": "2461.0;2461.0;2472.0;2472.0"
            }, 
            {
                "class": "Wall", 
                "xn": "1455.0;1465.0;1465.0;1455.0", 
                "yn": "2467.5;2467.5;2620.5;2620.5"
            }, 
            {
                "class": "Wall", 
                "xn": "1454.0;1586.0;1586.0;1454.0", 
                "yn": "2536.5;2536.5;2553.5;2553.5"
            }, 
            {
                "class": "Wall", 
                "xn": "1579.0;1591.0;1591.0;1579.0", 
                "yn": "2460.5;2460.5;2617.5;2617.5"
            }, 
            {
                "class": "Text", 
                "height": 25, 
                "width": 137, 
                "x": 1153, 
                "y": 851, 
                "text": "garage"
            }, 
            {
                "class": "Text", 
                "height": 26, 
                "width": 133, 
                "x": 1697, 
                "y": 1217, 
                "text": "cellier"
            }, 
            {
                "class": "Text", 
                "height": 24, 
                "width": 108, 
                "x": 1159, 
                "y": 1306, 
                "text": "repas"
            }, 
            {
                "class": "Text", 
                "height": 25, 
                "width": 129, 
                "x": 1632, 
                "y": 1495, 
                "text": "cuisine"
            }, 
            {
                "class": "Text", 
                "height": 24, 
                "width": 130, 
                "x": 941, 
                "y": 1690, 
                "text": "sejour"
            }, 
            {
                "class": "Text", 
                "height": 24, 
                "width": 80, 
                "x": 1531, 
                "y": 1784, 
                "text": "hall"
            }, 
            {
                "class": "Text", 
                "height": 25, 
                "width": 101, 
                "x": 1874, 
                "y": 1855, 
                "text": "porche"
            }, 
            {
                "class": "Text", 
                "height": 24, 
                "width": 53, 
                "x": 1624, 
                "y": 1926, 
                "text": "wc"
            }, 
            {
                "class": "Text", 
                "height": 24, 
                "width": 184, 
                "x": 1111, 
                "y": 2109, 
                "text": "chambre 1"
            }, 
            {
                "class": "Text", 
                "height": 26, 
                "width": 132, 
                "x": 1691, 
                "y": 2150, 
                "text": "bureau"
            }, 
            {
                "class": "Text", 
                "height": 25, 
                "width": 94, 
                "x": 1077, 
                "y": 2398, 
                "text": "bains"
            }, 
            {
                "class": "Text", 
                "height": 24, 
                "width": 106, 
                "x": 1472, 
                "y": 2487, 
                "text": "placard"
            }, 
            {
                "class": "Text", 
                "height": 26, 
                "width": 187, 
                "x": 1696, 
                "y": 2475, 
                "text": "chambre 3"
            }, 
            {
                "class": "Text", 
                "height": 25, 
                "width": 187, 
                "x": 1206, 
                "y": 2575, 
                "text": "chambre 2"
            }, 
            {
                "class": "Text", 
                "height": 25, 
                "width": 138, 
                "x": 1466, 
                "y": 2634, 
                "text": "douche"
            }, 
            {
                "class": "Text", 
                "height": 25, 
                "width": 106, 
                "x": 1697, 
                "y": 2753, 
                "text": "placard"
            }, 
            {
                "class": "Text", 
                "height": 108.82834522770236, 
                "width": 30.13708021690229, 
                "x": 979.4551070493236, 
                "y": 2578.394640779416, 
                "text": "placard"
            }, 
            {
                "class": "Text", 
                "height": 115.52547416479183, 
                "width": 28.46279798262981, 
                "x": 1423.139899131496, 
                "y": 2102.8984862460693, 
                "text": "placard"
            }, 
            {
                "class": "Text", 
                "height": 231.05094832958412, 
                "width": 26.78851574835744, 
                "x": 1518.5739864850198, 
                "y": 2076.1099704977114, 
                "text": "degagement"
            }
        ], 
        "class": "image", 
        "filename": "fp_6.png"
    }
]