[
    {
        "annotations": [
            {
                "class": "Wall", 
                "xn": "533.0;557.0;558.0;535.0", 
                "yn": "1556.0;1557.0;1579.0;1579.0"
            }, 
            {
                "class": "Window", 
                "xn": "1572.0;1640.0;1642.0;1642.0;1632.0;1569.0", 
                "yn": "244.0;242.0;274.0;299.0;314.0;275.0"
            }, 
            {
                "class": "Window", 
                "xn": "645.0;529.0;526.0;646.0;634.0;598.0;638.0", 
                "yn": "650.0;651.0;792.0;791.0;739.0;723.0;696.0"
            }, 
            {
                "class": "Window", 
                "xn": "648.0;531.0;528.0;646.0;634.0;607.0;634.0", 
                "yn": "1016.0;1014.0;1159.0;1158.0;1104.0;1088.0;1067.0"
            }, 
            {
                "class": "Window", 
                "xn": "716.0;716.0;859.0;860.0;809.0;788.0;761.0", 
                "yn": "1227.0;1342.0;1344.0;1227.0;1235.0;1272.0;1234.0"
            }, 
            {
                "class": "Door", 
                "xn": "1123.0;979.0;982.0;1026.0;1082.0;1112.0", 
                "yn": "1454.0;1457.0;1358.0;1355.0;1369.0;1406.0"
            }, 
            {
                "class": "Window", 
                "xn": "1229.0;1162.0;1164.0;1309.0;1309.0;1246.0;1235.0", 
                "yn": "1500.0;1538.0;1585.0;1583.0;1532.0;1497.0;1518.0"
            }, 
            {
                "class": "Door", 
                "xn": "1604.0;1608.0;1502.0;1502.0;1513.0;1546.0", 
                "yn": "1320.0;1462.0;1463.0;1415.0;1366.0;1335.0"
            }, 
            {
                "class": "Window", 
                "xn": "1800.0;1729.0;1695.0;1790.0;1829.0;1812.0;1791.0", 
                "yn": "1649.0;1628.0;1663.0;1759.0;1728.0;1660.0;1664.0"
            }, 
            {
                "class": "Window", 
                "xn": "2026.0;1957.0;1923.0;2019.0;2057.0;2037.0;2021.0", 
                "yn": "1871.0;1852.0;1882.0;1985.0;1951.0;1885.0;1885.0"
            }, 
            {
                "class": "Window", 
                "xn": "2576.0;2555.0;2588.0;2689.0;2656.0;2590.0;2591.0", 
                "yn": "1575.0;1643.0;1677.0;1581.0;1547.0;1564.0;1579.0"
            }, 
            {
                "class": "Window", 
                "xn": "2178.0;2160.0;2193.0;2245.0;2212.0;2198.0", 
                "yn": "986.0;914.0;880.0;929.0;966.0;977.0"
            }, 
            {
                "class": "Window", 
                "xn": "1840.0;1903.0;1896.0;1824.0;1824.0;1829.0", 
                "yn": "898.0;858.0;814.0;815.0;865.0;884.0"
            }, 
            {
                "class": "Window", 
                "xn": "1731.0;1770.0;1812.0;1813.0;1774.0;1749.0", 
                "yn": "798.0;733.0;733.0;807.0;807.0;804.0"
            }, 
            {
                "class": "Door", 
                "xn": "1680.0;1579.0;1580.0;1629.0;1671.0", 
                "yn": "1057.0;1052.0;954.0;965.0;1003.0"
            }, 
            {
                "class": "Door", 
                "xn": "1557.0;1558.0;1464.0;1463.0;1501.0", 
                "yn": "838.0;938.0;938.0;895.0;852.0"
            }, 
            {
                "class": "Door", 
                "xn": "1358.0;1451.0;1454.0;1364.0;1377.0;1427.0;1383.0", 
                "yn": "953.0;952.0;1134.0;1131.0;1073.0;1044.0;1017.0"
            }, 
            {
                "class": "Door", 
                "xn": "1361.0;1455.0;1455.0;1399.0;1363.0", 
                "yn": "1149.0;1144.0;1240.0;1230.0;1183.0"
            }, 
            {
                "class": "Door", 
                "xn": "1826.0;1907.0;1812.0;1814.0", 
                "yn": "1180.0;1131.0;1130.0;1161.0"
            }, 
            {
                "class": "Door", 
                "xn": "2066.0;2002.0;1941.0;1973.0;2030.0", 
                "yn": "1168.0;1234.0;1173.0;1142.0;1146.0"
            }, 
            {
                "class": "Door", 
                "xn": "2184.0;2114.0;2180.0;2209.0;2215.0", 
                "yn": "1285.0;1356.0;1422.0;1387.0;1317.0"
            }, 
            {
                "class": "Door", 
                "xn": "2253.0;2183.0;2113.0;2160.0;2216.0", 
                "yn": "1492.0;1423.0;1482.0;1518.0;1518.0"
            }, 
            {
                "class": "Door", 
                "xn": "2040.0;2113.0;2048.0;2025.0;2015.0", 
                "yn": "1554.0;1489.0;1421.0;1449.0;1510.0"
            }, 
            {
                "class": "Wall", 
                "xn": "2179.0;2589.0;2556.0;2149.0", 
                "yn": "2082.0;1679.0;1647.0;2049.0"
            }, 
            {
                "class": "Wall", 
                "xn": "2153.0;2026.0;2058.0;2184.0", 
                "yn": "2113.0;1987.0;1956.0;2083.0"
            }, 
            {
                "class": "Wall", 
                "xn": "2789.0;2689.0;2654.0;2750.0", 
                "yn": "1480.0;1580.0;1547.0;1444.0"
            }, 
            {
                "class": "Wall", 
                "xn": "2245.0;2749.5;2716.5;2213.0", 
                "yn": "938.0;1445.0;1478.0;968.0"
            }, 
            {
                "class": "Wall", 
                "xn": "2129.0;2189.0;2158.0;2106.0", 
                "yn": "820.0;879.0;911.0;862.0"
            }, 
            {
                "class": "Wall", 
                "xn": "2131.0;1899.0;1898.0;2106.0", 
                "yn": "821.0;821.0;866.0;866.0"
            }, 
            {
                "class": "Wall", 
                "xn": "1829.0;1813.0;1813.0;1767.0;1767.0;1830.0", 
                "yn": "822.0;823.0;804.0;804.0;864.0;864.0"
            }, 
            {
                "class": "Wall", 
                "xn": "1811.0;1815.0;1782.0;1780.0", 
                "yn": "862.0;1137.0;1139.0;862.0"
            }, 
            {
                "class": "Wall", 
                "xn": "1813.0;1770.0;1772.0;1812.0", 
                "yn": "731.0;729.0;654.0;654.0"
            }, 
            {
                "class": "Wall", 
                "xn": "1809.0;1588.0;1586.0;1809.0", 
                "yn": "657.0;657.0;624.0;627.0"
            }, 
            {
                "class": "Wall", 
                "xn": "1812.0;1813.0;1785.0;1787.0", 
                "yn": "593.0;653.0;653.0;592.0"
            }, 
            {
                "class": "Wall", 
                "xn": "1813.0;1812.0;1785.0;1785.0", 
                "yn": "249.0;312.0;312.0;249.0"
            }, 
            {
                "class": "Wall", 
                "xn": "1644.0;1644.0;1786.0;1786.0", 
                "yn": "248.0;277.0;278.0;249.0"
            }, 
            {
                "class": "Wall", 
                "xn": "1053.0;1574.0;1576.0;1055.0", 
                "yn": "248.0;250.0;276.0;277.0"
            }, 
            {
                "class": "Wall", 
                "xn": "1053.0;1079.0;1082.0;1050.0", 
                "yn": "271.0;272.0;647.0;662.0"
            }, 
            {
                "class": "Wall", 
                "xn": "1080.0;1052.0;1351.0;1359.0", 
                "yn": "645.0;660.0;961.0;925.0"
            }, 
            {
                "class": "Wall", 
                "xn": "1562.0;1561.0;1589.0;1588.0", 
                "yn": "621.0;956.0;955.0;623.0"
            }, 
            {
                "class": "Wall", 
                "xn": "1361.0;1349.0;1465.0;1465.0", 
                "yn": "929.0;955.0;956.0;928.0"
            }, 
            {
                "class": "Wall", 
                "xn": "576.0;1052.0;1051.0;578.0", 
                "yn": "468.0;466.0;511.0;513.0"
            }, 
            {
                "class": "Wall", 
                "xn": "532.0;532.0;579.0;578.0", 
                "yn": "469.0;653.0;655.0;465.0"
            }, 
            {
                "class": "Wall", 
                "xn": "534.0;579.0;579.0;534.0", 
                "yn": "794.0;793.0;1017.0;1018.0"
            }, 
            {
                "class": "Wall", 
                "xn": "533.0;533.0;576.0;579.0", 
                "yn": "1344.0;1159.0;1158.0;1346.0"
            }, 
            {
                "class": "Wall", 
                "xn": "576.0;717.0;717.0;576.0", 
                "yn": "1300.0;1299.0;1342.0;1345.0"
            }, 
            {
                "class": "Wall", 
                "xn": "861.0;983.0;983.0;861.0", 
                "yn": "1345.0;1345.0;1300.0;1301.0"
            }, 
            {
                "class": "Wall", 
                "xn": "981.5;981.5;1024.5;1026.5", 
                "yn": "1359.0;1298.0;1299.0;1359.0"
            }, 
            {
                "class": "Wall", 
                "xn": "983.0;983.0;1026.0;1028.0", 
                "yn": "1583.0;1453.0;1453.0;1583.0"
            }, 
            {
                "class": "Wall", 
                "xn": "1164.0;1025.0;1024.0;1163.0", 
                "yn": "1583.0;1582.0;1536.0;1536.0"
            }, 
            {
                "class": "Wall", 
                "xn": "1491.0;1311.0;1309.0;1488.0", 
                "yn": "1580.0;1580.0;1536.0;1535.0"
            }, 
            {
                "class": "Wall", 
                "xn": "1491.0;1447.0;1447.0;1497.0", 
                "yn": "1582.0;1580.0;1457.0;1459.0"
            }, 
            {
                "class": "Wall", 
                "xn": "1504.0;1448.0;1448.0;1504.0", 
                "yn": "1463.0;1462.0;1418.0;1418.0"
            }, 
            {
                "class": "Wall", 
                "xn": "1609.0;1664.0;1663.0;1606.0", 
                "yn": "1464.0;1464.0;1418.0;1418.0"
            }, 
            {
                "class": "Wall", 
                "xn": "1622.0;1620.0;1663.0;1669.0", 
                "yn": "1582.0;1460.0;1462.0;1557.0"
            }, 
            {
                "class": "Wall", 
                "xn": "1697.0;1729.0;1664.0;1623.0", 
                "yn": "1659.0;1624.0;1560.0;1579.0"
            }, 
            {
                "class": "Wall", 
                "xn": "1798.0;1830.0;1957.0;1924.0", 
                "yn": "1761.0;1727.0;1850.0;1879.0"
            }, 
            {
                "class": "Wall", 
                "xn": "1015.0;1456.0;1453.0;1016.0", 
                "yn": "1148.0;1151.0;1136.0;1132.0"
            }, 
            {
                "class": "Wall", 
                "xn": "1449.0;1459.0;1458.0;1448.0", 
                "yn": "1239.0;1241.0;1418.0;1417.0"
            }, 
            {
                "class": "Wall", 
                "xn": "1579.0;1579.0;1590.0;1590.0", 
                "yn": "1136.0;1058.0;1058.0;1136.0"
            }, 
            {
                "class": "Wall", 
                "xn": "2048.0;1869.0;1858.0;2039.0", 
                "yn": "1422.0;1234.0;1246.0;1428.0"
            }, 
            {
                "class": "Wall", 
                "xn": "1658.0;1866.0;1857.0;1657.0", 
                "yn": "1237.0;1233.0;1243.0;1246.0"
            }, 
            {
                "class": "Wall", 
                "xn": "1664.0;1655.0;1650.0;1666.0", 
                "yn": "1420.0;1419.0;1242.0;1242.0"
            }, 
            {
                "class": "Wall", 
                "xn": "2159.0;2122.0;2110.0;2153.0", 
                "yn": "1533.0;1489.0;1498.0;1542.0"
            }, 
            {
                "class": "Wall", 
                "xn": "1895.0;2150.0;2159.0;1910.0", 
                "yn": "1790.0;1530.0;1542.0;1800.0"
            }, 
            {
                "class": "Wall", 
                "xn": "2193.0;2180.0;2484.0;2491.0", 
                "yn": "1412.0;1421.0;1721.0;1710.0"
            }, 
            {
                "class": "Wall", 
                "xn": "2295.0;2304.0;2066.0;2054.0", 
                "yn": "1047.0;1057.0;1296.0;1283.0"
            }, 
            {
                "class": "Wall", 
                "xn": "2119.0;2113.0;1999.0;2010.0", 
                "yn": "1340.0;1349.0;1240.0;1228.0"
            }, 
            {
                "class": "Wall", 
                "xn": "2098.0;2148.0;2134.0;2087.0", 
                "yn": "1151.0;1193.0;1205.0;1155.0"
            }, 
            {
                "class": "Wall", 
                "xn": "1913.0;1902.0;1934.0;1949.0", 
                "yn": "1134.0;1142.0;1178.0;1167.0"
            }, 
            {
                "class": "Wall", 
                "xn": "1919.0;1923.0;1905.0;1906.0", 
                "yn": "862.0;1132.0;1132.0;861.0"
            }, 
            {
                "class": "Wall", 
                "xn": "1785.0;1583.0;1585.0;1784.0", 
                "yn": "1049.0;1047.0;1061.0;1064.0"
            }, 
            {
                "class": "Text", 
                "height": 25, 
                "width": 135, 
                "x": 1311, 
                "y": 468, 
                "text": "garage"
            }, 
            {
                "class": "Text", 
                "height": 25, 
                "width": 130, 
                "x": 744, 
                "y": 658, 
                "text": "sejour"
            }, 
            {
                "class": "Text", 
                "height": 25, 
                "width": 146, 
                "x": 1607, 
                "y": 811, 
                "text": "lingerie"
            }, 
            {
                "class": "Text", 
                "height": 25, 
                "width": 94, 
                "x": 2079, 
                "y": 1000, 
                "text": "bains"
            }, 
            {
                "class": "Text", 
                "height": 25, 
                "width": 151, 
                "x": 1607, 
                "y": 1094, 
                "text": "placard"
            }, 
            {
                "class": "Text", 
                "height": 25, 
                "width": 107, 
                "x": 733, 
                "y": 1131, 
                "text": "repas"
            }, 
            {
                "class": "Text", 
                "height": 24, 
                "width": 79, 
                "x": 1483, 
                "y": 1177, 
                "text": "hall"
            }, 
            {
                "class": "Text", 
                "height": 25, 
                "width": 95, 
                "x": 1600, 
                "y": 1177, 
                "text": "degt"
            }, 
            {
                "class": "Text", 
                "height": 26, 
                "width": 128, 
                "x": 1140, 
                "y": 1271, 
                "text": "cuisine"
            }, 
            {
                "class": "Text", 
                "height": 25, 
                "width": 186, 
                "x": 2310, 
                "y": 1348, 
                "text": "chambre 3"
            }, 
            {
                "class": "Text", 
                "height": 25, 
                "width": 182, 
                "x": 1755, 
                "y": 1454, 
                "text": "chambre 1"
            }, 
            {
                "class": "Text", 
                "height": 24, 
                "width": 186, 
                "x": 2091, 
                "y": 1732, 
                "text": "chambre 2"
            }, 
            {
                "class": "Text", 
                "height": 75.40285634969769, 
                "width": 187.20709162683613, 
                "x": 660.4250176835604, 
                "y": 1398.852990211636, 
                "text": "terrasse couverte"
            }, 
            {
                "class": "Text", 
                "height": 41.60157591707468, 
                "width": 57.202166885977704, 
                "x": 1627.6616577555467, 
                "y": 663.0251161783776, 
                "text": "pl"
            }, 
            {
                "class": "Text", 
                "height": 31.20118193780604, 
                "width": 26.00098494817189, 
                "x": 1508.057126993957, 
                "y": 1482.0561420457852, 
                "text": "p"
            }, 
            {
                "class": "Text", 
                "height": 31.20118193780604, 
                "width": 59.80226538079478, 
                "x": 1817.4688478772, 
                "y": 1029.6390039475982, 
                "text": "wc"
            }, 
            {
                "class": "Text", 
                "height": 39.001477422257494, 
                "width": 54.60206839116063, 
                "x": 2048.8776139159277, 
                "y": 1193.4452091210799, 
                "text": "pl"
            }, 
            {
                "class": "Text", 
                "height": 36.40137892744019, 
                "width": 49.40187140152602, 
                "x": 2173.682341667152, 
                "y": 1188.2450121314455, 
                "text": "pl"
            }
        ], 
        "class": "image", 
        "filename": "fp_61.png"
    }
]