[
    {
        "annotations": [
            {
                "class": "Wall",
                "xn": "1537.0;1563.0;1564.0;1538.0",
                "yn": "571.0;571.0;694.0;697.0"
            },
            {
                "class": "Wall",
                "xn": "575.0;600.0;601.0;575.0",
                "yn": "1069.0;1069.0;1373.0;1374.0"
            },
            {
                "class": "Wall",
                "xn": "1514.0;1563.0;1563.0;1513.0",
                "yn": "1189.0;1189.0;1233.0;1232.0"
            },
            {
                "class": "Wall",
                "xn": "2069.0;2113.0;2112.0;2069.0",
                "yn": "1374.0;1374.0;1909.0;1909.0"
            },
            {
                "class": "Wall",
                "xn": "1260.0;1285.0;1285.0;1260.0",
                "yn": "1686.0;1686.0;1904.0;1904.0"
            },
            {
                "class": "Wall",
                "xn": "1762.0;1786.0;1786.0;1762.0",
                "yn": "1951.0;1951.0;1969.0;1969.0"
            },
            {
                "class": "Wall",
                "xn": "2047.0;2112.0;2112.0;2047.0",
                "yn": "1909.0;1909.0;1952.0;1952.0"
            },
            {
                "class": "Wall",
                "xn": "1384.0;1520.0;1519.0;1384.0",
                "yn": "2079.0;2079.0;2087.0;2086.0"
            },
            {
                "class": "Wall",
                "xn": "339.0;420.0;420.0;339.0",
                "yn": "2204.0;2204.0;2247.0;2247.0"
            },
            {
                "class": "Wall",
                "xn": "829.0;872.0;872.0;829.0",
                "yn": "2204.0;2204.0;2291.0;2290.0"
            },
            {
                "class": "Wall",
                "xn": "1744.0;1786.0;1787.0;1744.0",
                "yn": "2496.0;2496.0;2583.0;2583.0"
            },
            {
                "class": "Wall",
                "xn": "830.0;872.0;872.0;829.0",
                "yn": "2504.0;2504.0;2583.0;2583.0"
            },
            {
                "class": "Wall",
                "xn": "704.0;704.0;828.0;828.0",
                "yn": "2204.0;2247.0;2247.0;2204.0"
            },
            {
                "class": "Wall",
                "xn": "1762.0;1787.0;1787.0;1762.0",
                "yn": "2145.0;2145.0;2128.0;2128.0"
            },
            {
                "class": "Wall",
                "xn": "1786.0;1745.0;1745.0;1786.0",
                "yn": "2255.0;2255.0;2187.0;2186.0"
            },
            {
                "class": "Wall",
                "xn": "1563.0;1563.0;1787.0;1787.0",
                "yn": "2145.0;2187.0;2187.0;2146.0"
            },
            {
                "class": "Wall",
                "xn": "2113.0;2114.0;2019.0;2019.0",
                "yn": "1330.0;1374.0;1372.0;1330.0"
            },
            {
                "class": "Wall",
                "xn": "1943.0;1943.0;1894.0;1894.0",
                "yn": "1330.0;1372.0;1372.0;1330.0"
            },
            {
                "class": "Wall",
                "xn": "1963.0;1963.0;1757.0;1757.0",
                "yn": "1909.0;1952.0;1952.0;1909.0"
            },
            {
                "class": "Wall",
                "xn": "599.0;576.0;574.0;601.0",
                "yn": "576.0;576.0;885.0;883.0"
            },
            {
                "class": "Wall",
                "xn": "576.0;576.0;1296.0;1293.0",
                "yn": "551.0;576.0;579.0;550.0"
            },
            {
                "class": "Wall",
                "xn": "1362.0;1363.0;1566.0;1563.0",
                "yn": "549.0;578.0;578.0;550.0"
            },
            {
                "class": "Wall",
                "xn": "1537.0;1563.0;1563.0;1538.0",
                "yn": "1116.0;1117.0;1190.0;1192.0"
            },
            {
                "class": "Wall",
                "xn": "1563.0;1520.0;1520.0;1563.0",
                "yn": "1327.0;1327.0;1372.0;1373.0"
            },
            {
                "class": "Wall",
                "xn": "1520.0;1527.0;1527.0;1520.0",
                "yn": "1450.0;1450.0;1372.0;1372.0"
            },
            {
                "class": "Wall",
                "xn": "1402.0;1409.0;1409.0;1402.0",
                "yn": "1330.0;1330.0;1478.0;1478.0"
            },
            {
                "class": "Wall",
                "xn": "1415.0;1415.0;1303.0;1303.0",
                "yn": "1189.0;1231.0;1231.0;1189.0"
            },
            {
                "class": "Wall",
                "xn": "1260.0;1303.0;1302.0;1260.0",
                "yn": "1189.0;1189.0;1479.0;1479.0"
            },
            {
                "class": "Wall",
                "xn": "1260.0;1260.0;1285.0;1285.0",
                "yn": "1585.0;1479.0;1479.0;1585.0"
            },
            {
                "class": "Wall",
                "xn": "1427.0;1426.0;1744.0;1744.0",
                "yn": "2541.0;2584.0;2583.0;2541.0"
            },
            {
                "class": "Wall",
                "xn": "1563.0;1520.0;1521.0;1563.0",
                "yn": "2068.0;2068.0;2187.0;2187.0"
            },
            {
                "class": "Wall",
                "xn": "1597.0;1604.0;1605.0;1596.0",
                "yn": "1580.0;1580.0;1910.0;1910.0"
            },
            {
                "class": "Wall",
                "xn": "1521.0;1521.0;1681.0;1681.0",
                "yn": "1572.0;1579.0;1580.0;1572.0"
            },
            {
                "class": "Wall",
                "xn": "1780.0;1780.0;2069.0;2069.0",
                "yn": "1572.0;1579.0;1580.0;1572.0"
            },
            {
                "class": "Wall",
                "xn": "1898.0;1904.0;1904.0;1898.0",
                "yn": "1371.5;1371.5;1464.5;1464.5"
            },
            {
                "class": "Wall",
                "xn": "1863.0;1862.0;1907.0;1905.0",
                "yn": "1466.0;1472.0;1475.0;1466.0"
            },
            {
                "class": "Wall",
                "xn": "1520.0;1521.0;1562.0;1562.0",
                "yn": "1909.0;1962.0;1962.0;1908.0"
            },
            {
                "class": "Wall",
                "xn": "1661.0;1661.0;1562.0;1562.0",
                "yn": "1909.0;1951.0;1951.0;1908.0"
            },
            {
                "class": "Wall",
                "xn": "1819.0;1819.0;1562.0;1562.0",
                "yn": "1330.0;1372.0;1372.0;1329.0"
            },
            {
                "class": "Wall",
                "xn": "1739.0;1747.0;1746.0;1738.0",
                "yn": "1442.0;1441.0;1372.0;1372.0"
            },
            {
                "class": "Wall",
                "xn": "1261.0;1261.0;1284.0;1286.0",
                "yn": "2080.0;2169.0;2169.0;2080.0"
            },
            {
                "class": "Wall",
                "xn": "871.0;872.0;1260.0;1260.0",
                "yn": "1731.0;1739.0;1739.0;1732.0"
            },
            {
                "class": "Wall",
                "xn": "829.0;871.0;871.0;829.0",
                "yn": "1665.0;1665.0;1739.0;1739.0"
            },
            {
                "class": "Wall",
                "xn": "339.0;382.0;382.0;339.0",
                "yn": "2115.0;2115.0;2203.0;2204.0"
            },
            {
                "class": "Wall",
                "xn": "1094.0;1095.0;871.0;872.0",
                "yn": "2542.0;2584.0;2584.0;2541.0"
            },
            {
                "class": "Wall",
                "xn": "575.0;575.0;828.0;828.0",
                "yn": "1396.0;1372.0;1372.0;1396.0"
            },
            {
                "class": "Wall",
                "xn": "873.0;873.0;1259.0;1259.0",
                "yn": "1372.0;1414.0;1414.0;1372.0"
            },
            {
                "class": "Wall",
                "xn": "828.0;872.0;872.0;828.0",
                "yn": "1423.0;1423.0;1372.0;1372.0"
            },
            {
                "class": "Wall",
                "xn": "829.5;828.5;434.5;434.5",
                "yn": "1696.5;1738.5;1737.5;1695.5"
            },
            {
                "class": "Wall",
                "xn": "339.0;382.0;382.0;339.0",
                "yn": "1830.0;1830.0;1791.0;1792.0"
            },
            {
                "class": "Wall",
                "xn": "376.0;339.0;339.0;376.0",
                "yn": "1731.0;1732.0;1792.0;1791.0"
            },
            {
                "class": "Wall",
                "xn": "339.0;339.0;434.0;435.0",
                "yn": "1696.0;1732.0;1734.0;1696.0"
            },
            {
                "class": "Wall",
                "xn": "1756.0;1756.0;1763.0;1762.0",
                "yn": "1451.0;1472.0;1472.0;1450.0"
            },
            {
                "class": "Wall",
                "xn": "1739.0;1762.0;1762.0;1739.0",
                "yn": "1442.0;1442.0;1450.0;1450.0"
            },
            {
                "class": "Window",
                "xn": "697.0;574.0;571.0;697.0;678.0;633.0;684.0",
                "yn": "882.0;881.0;1071.0;1069.0;1002.0;974.0;949.0"
            },
            {
                "class": "Window",
                "xn": "825.0;873.0;875.0;823.0",
                "yn": "1427.0;1426.0;1663.0;1666.0"
            },
            {
                "class": "Window",
                "xn": "336.0;383.0;385.0;337.0",
                "yn": "1829.0;1830.0;2118.0;2119.0"
            },
            {
                "class": "Window",
                "xn": "698.0;701.0;424.0;424.0",
                "yn": "2201.0;2251.0;2250.0;2202.0"
            },
            {
                "class": "Window",
                "xn": "827.0;872.0;872.0;826.0",
                "yn": "2294.0;2294.0;2507.0;2505.0"
            },
            {
                "class": "Window",
                "xn": "1090.0;1094.0;1425.0;1425.0",
                "yn": "2540.0;2583.0;2582.0;2537.0"
            },
            {
                "class": "Window",
                "xn": "1740.0;1789.0;1791.0;1740.0",
                "yn": "2258.0;2255.0;2492.0;2492.0"
            },
            {
                "class": "Door",
                "xn": "1288.0;1287.0;1384.0;1375.0;1337.0",
                "yn": "2180.0;2081.0;2077.0;2134.0;2167.0"
            },
            {
                "class": "Door",
                "xn": "1418.0;1533.0;1534.0;1516.0;1481.0;1439.0",
                "yn": "2066.0;2066.0;1966.0;1966.0;1974.0;2009.0"
            },
            {
                "class": "Door",
                "xn": "1664.0;1662.0;1758.0;1757.0;1750.0;1707.0",
                "yn": "1820.0;1951.0;1953.0;1908.0;1857.0;1822.0"
            },
            {
                "class": "Window",
                "xn": "1962.0;2046.0;2049.0;1965.0",
                "yn": "1908.0;1906.0;1954.0;1955.0"
            },
            {
                "class": "Window",
                "xn": "1948.0;1947.0;2020.0;2017.0",
                "yn": "1375.0;1330.0;1329.0;1377.0"
            },
            {
                "class": "Window",
                "xn": "1820.0;1822.0;1894.0;1893.0",
                "yn": "1327.0;1375.0;1376.0;1327.0"
            },
            {
                "class": "Window",
                "xn": "1565.0;1517.0;1516.0;1565.0",
                "yn": "1227.0;1227.0;1328.0;1327.0"
            },
            {
                "class": "Window",
                "xn": "1290.0;1291.0;1362.0;1363.0",
                "yn": "579.0;546.0;545.0;579.0"
            },
            {
                "class": "Door",
                "xn": "1512.0;1514.0;1413.0;1429.0;1461.0",
                "yn": "1324.0;1222.0;1221.0;1282.0;1312.0"
            },
            {
                "class": "Door",
                "xn": "1170.0;1270.0;1270.0;1212.0;1180.0",
                "yn": "1681.0;1681.0;1585.0;1594.0;1634.0"
            },
            {
                "class": "Door",
                "xn": "1308.0;1308.0;1403.0;1393.0;1355.0",
                "yn": "1569.0;1471.0;1473.0;1523.0;1561.0"
            },
            {
                "class": "Door",
                "xn": "1684.0;1681.0;1780.0;1771.0;1736.0",
                "yn": "1668.0;1574.0;1572.0;1623.0;1658.0"
            },
            {
                "class": "Door",
                "xn": "1962.0;1867.0;1864.0;1922.0;1952.0",
                "yn": "1568.0;1570.0;1474.0;1486.0;1524.0"
            },
            {
                "class": "Door",
                "xn": "1861.0;1863.0;1762.0;1772.0;1810.0",
                "yn": "1563.0;1468.0;1474.0;1518.0;1548.0"
            },
            {
                "class": "Text",
                "height": 31,
                "text": "placard",
                "width": 132,
                "x": 1570,
                "y": 1395
            },
            {
                "class": "Text",
                "height": 23,
                "text": "wc",
                "width": 49,
                "x": 1776,
                "y": 1435
            },
            {
                "class": "Text",
                "height": 32,
                "text": "douche",
                "width": 171,
                "x": 1836,
                "y": 1491
            },
            {
                "class": "Text",
                "height": 31,
                "text": "bureau",
                "width": 163,
                "x": 999,
                "y": 1512
            },
            {
                "class": "Text",
                "height": 30,
                "text": "hall",
                "width": 98,
                "x": 1348,
                "y": 1803
            },
            {
                "class": "Text",
                "height": 31,
                "text": "sejour",
                "width": 163,
                "x": 844,
                "y": 1979
            },
            {
                "class": "Text",
                "height": 30,
                "text": "porche",
                "width": 170,
                "x": 1569,
                "y": 2008
            },
            {
                "class": "Text",
                "height": 31,
                "text": "repas",
                "width": 133,
                "x": 1017,
                "y": 2296
            },
            {
                "class": "Text",
                "height": 31,
                "text": "cuisine",
                "width": 162,
                "x": 1399,
                "y": 2292
            },
            {
                "class": "Text",
                "height": 39.245093999999995,
                "text": "garages",
                "width": 201.83191200000022,
                "x": 967.1112450000008,
                "y": 897.0307200000008
            },
            {
                "class": "Text",
                "height": 148.57071300000007,
                "text": "placard",
                "width": 44.851536000000124,
                "x": 1536.1651080000013,
                "y": 1634.2778430000014
            },
            {
                "class": "Text",
                "height": 42.048315,
                "text": "vestiaire",
                "width": 210.24157500000024,
                "x": 1561.3940970000012,
                "y": 1494.1167930000013
            },
            {
                "class": "Text",
                "height": 47.65475700000002,
                "text": "ch amis/tv",
                "width": 249.48666900000012,
                "x": 1709.9648100000015,
                "y": 1709.9648100000015
            },
            {
                "class": "Stairs",
                "xn": "1409.1042529;1410.72143452;1519.07260316;1518.53354262",
                "yn": "1331.47953506;1447.91661181;1448.45567236;1332.55765615"
            },
            {
                "class": "Stairs",
                "xn": "1409.1042529;1303.44838696;1303.44838696;1310.45617398;1310.45617398;1402.09646587;1402.09646587;1408.02613182",
                "yn": "1232.29239561;1230.67521399;1473.79151776;1473.25245722;1477.56494154;1477.025881;1330.94047452;1330.94047452"
            }
        ],
        "class": "image",
        "filename": "fp_81.png"
    }
]
