[
    {
        "annotations": [
            {
                "class": "Wall",
                "xn": "683.0;640.0;639.0;682.0",
                "yn": "749.0;750.0;826.0;828.0"
            },
            {
                "class": "Wall",
                "xn": "640.0;640.0;1614.0;1614.0",
                "yn": "709.0;750.0;751.0;709.0"
            },
            {
                "class": "Wall",
                "xn": "1656.0;1614.0;1614.0;1656.0",
                "yn": "825.0;825.0;709.0;709.0"
            },
            {
                "class": "Wall",
                "xn": "1655.0;1614.0;1615.0;1656.0",
                "yn": "971.0;971.0;1268.0;1268.0"
            },
            {
                "class": "Wall",
                "xn": "1656.0;1614.0;1614.0;1656.0",
                "yn": "1343.0;1343.0;1435.0;1435.0"
            },
            {
                "class": "Wall",
                "xn": "1615.0;1615.0;1389.0;1390.0",
                "yn": "1469.0;1478.0;1478.0;1470.0"
            },
            {
                "class": "Wall",
                "xn": "1172.0;1178.0;1178.0;1171.0",
                "yn": "751.0;750.0;998.0;998.0"
            },
            {
                "class": "Wall",
                "xn": "1170.0;1170.0;1283.0;1283.0",
                "yn": "1141.0;1147.0;1146.0;1141.0"
            },
            {
                "class": "Wall",
                "xn": "1755.0;1755.0;1844.0;1844.0",
                "yn": "1807.0;1814.0;1814.0;1807.0"
            },
            {
                "class": "Wall",
                "xn": "1844.0;1886.0;1887.0;1844.0",
                "yn": "1477.0;1477.0;1615.0;1615.0"
            },
            {
                "class": "Wall",
                "xn": "1887.0;1887.0;1614.0;1613.0",
                "yn": "1436.0;1477.0;1477.0;1435.0"
            },
            {
                "class": "Wall",
                "xn": "1383.0;1383.0;1615.0;1614.0",
                "yn": "1140.0;1147.0;1147.0;1140.0"
            },
            {
                "class": "Wall",
                "xn": "640.0;681.0;682.0;640.0",
                "yn": "973.0;973.0;1198.0;1198.0"
            },
            {
                "class": "Wall",
                "xn": "1064.0;1064.0;681.0;681.0",
                "yn": "1088.0;1081.0;1081.0;1088.0"
            },
            {
                "class": "Wall",
                "xn": "1064.0;1064.0;1071.0;1072.0",
                "yn": "1147.0;1082.0;1081.0;1147.0"
            },
            {
                "class": "Wall",
                "xn": "640.0;682.0;683.0;639.0",
                "yn": "1339.0;1339.0;1418.0;1419.0"
            },
            {
                "class": "Wall",
                "xn": "640.0;639.0;1030.0;1031.0",
                "yn": "1462.0;1416.0;1418.0;1461.0"
            },
            {
                "class": "Wall",
                "xn": "1070.0;1029.0;1030.0;1072.0",
                "yn": "1507.0;1509.0;1417.0;1417.0"
            },
            {
                "class": "Wall",
                "xn": "1064.0;1072.0;1072.0;1064.0",
                "yn": "1246.0;1246.0;1417.0;1417.0"
            },
            {
                "class": "Wall",
                "xn": "1071.0;1071.0;1171.0;1171.0",
                "yn": "1470.0;1477.0;1477.0;1470.0"
            },
            {
                "class": "Wall",
                "xn": "1177.0;1171.0;1171.0;1178.0",
                "yn": "1246.0;1246.0;1477.0;1477.0"
            },
            {
                "class": "Wall",
                "xn": "1074.0;1029.0;1028.0;1074.0",
                "yn": "1608.0;1609.0;1891.0;1889.0"
            },
            {
                "class": "Wall",
                "xn": "1072.0;1030.0;1030.0;1072.0",
                "yn": "2105.0;2105.0;2201.0;2201.0"
            },
            {
                "class": "Wall",
                "xn": "1030.0;1030.0;1504.0;1504.0",
                "yn": "2244.0;2201.0;2203.0;2245.0"
            },
            {
                "class": "Wall",
                "xn": "1248.0;1249.0;1255.0;1255.0",
                "yn": "1006.0;1140.0;1140.0;1006.0"
            },
            {
                "class": "Wall",
                "xn": "1171.0;1171.0;1254.0;1255.0",
                "yn": "999.0;1005.0;1005.0;998.0"
            },
            {
                "class": "Wall",
                "xn": "1278.0;1284.0;1283.0;1277.0",
                "yn": "1476.0;1476.0;1254.0;1254.0"
            },
            {
                "class": "Wall",
                "xn": "1277.0;1278.0;1385.0;1384.0",
                "yn": "1246.0;1253.0;1253.0;1246.0"
            },
            {
                "class": "Wall",
                "xn": "1460.0;1467.0;1467.0;1467.0;1461.0",
                "yn": "1476.0;1476.0;1621.0;1814.0;1814.0"
            },
            {
                "class": "Wall",
                "xn": "1384.0;1384.0;1460.0;1460.0",
                "yn": "1594.0;1600.0;1600.0;1594.0"
            },
            {
                "class": "Wall",
                "xn": "1384.0;1391.0;1391.0;1383.0",
                "yn": "1239.0;1239.0;1502.0;1502.0"
            },
            {
                "class": "Wall",
                "xn": "1887.0;1844.0;1844.0;1886.0",
                "yn": "1763.0;1763.0;2201.0;2201.0"
            },
            {
                "class": "Wall",
                "xn": "1886.0;1886.0;1651.0;1653.0",
                "yn": "2244.0;2201.0;2202.0;2244.0"
            },
            {
                "class": "Window",
                "xn": "634.0;685.0;687.0;636.0",
                "yn": "827.0;826.0;970.0;968.0"
            },
            {
                "class": "Window",
                "xn": "633.0;685.0;687.0;632.0",
                "yn": "1197.0;1199.0;1340.0;1340.0"
            },
            {
                "class": "Wall",
                "xn": "893.0;919.0;920.0;894.0",
                "yn": "1749.0;1747.0;1775.0;1776.0"
            },
            {
                "class": "Door",
                "xn": "1169.0;1027.0;1026.0;1074.0;1133.0;1167.0;1168.0",
                "yn": "1507.0;1508.0;1616.0;1614.0;1597.0;1556.0;1531.5"
            },
            {
                "class": "Wall",
                "xn": "893.0;918.0;918.0;892.0",
                "yn": "2219.0;2219.0;2245.0;2246.0"
            },
            {
                "class": "Window",
                "xn": "1140.0;1073.0;1075.0;1028.0;1026.0;1138.0;1136.0;1101.0;1131.0",
                "yn": "2027.0;2028.0;2104.0;2106.0;1892.0;1893.0;1935.0;1960.0;1985.0"
            },
            {
                "class": "Window",
                "xn": "1506.0;1507.0;1652.0;1651.0",
                "yn": "2199.0;2246.0;2248.0;2200.0"
            },
            {
                "class": "Window",
                "xn": "1840.0;1891.0;1892.0;1842.0",
                "yn": "1615.0;1613.0;1761.0;1763.0"
            },
            {
                "class": "Window",
                "xn": "1609.0;1659.0;1659.0;1611.0",
                "yn": "1266.0;1266.0;1342.0;1343.0"
            },
            {
                "class": "Window",
                "xn": "1610.0;1660.0;1661.0;1610.0",
                "yn": "821.0;822.0;968.0;970.0"
            },
            {
                "class": "Door",
                "xn": "1377.5;1379.5;1284.5;1291.5;1326.5",
                "yn": "1051.0;1141.0;1142.0;1096.0;1059.0"
            },
            {
                "class": "Door",
                "xn": "1481.0;1381.0;1383.0;1437.0;1476.0",
                "yn": "1148.0;1147.0;1249.0;1238.0;1193.0"
            },
            {
                "class": "Door",
                "xn": "1166.0;1167.0;1071.0;1081.0;1116.0",
                "yn": "1050.0;1148.0;1146.0;1099.0;1061.0"
            },
            {
                "class": "Door",
                "xn": "973.0;1067.0;1072.0;1022.0;987.0",
                "yn": "1149.0;1146.0;1244.0;1234.0;1200.0"
            },
            {
                "class": "Door",
                "xn": "1168.0;1170.0;1068.0;1085.0;1125.0",
                "yn": "1345.0;1245.0;1241.0;1302.0;1337.0"
            },
            {
                "class": "Door",
                "xn": "1298.0;1385.0;1282.0;1286.0",
                "yn": "1523.0;1470.0;1473.0;1501.0"
            },
            {
                "class": "Door",
                "xn": "1338.0;1388.0;1383.0;1357.0",
                "yn": "1581.0;1487.0;1592.0;1589.0"
            },
            {
                "class": "Text",
                "height": 30,
                "text": "pl",
                "width": 54,
                "x": 1189,
                "y": 826
            },
            {
                "class": "Text",
                "height": 30,
                "text": "pl",
                "width": 54,
                "x": 1183,
                "y": 1056
            },
            {
                "class": "Text",
                "height": 30,
                "text": "degt",
                "width": 116,
                "x": 1260,
                "y": 1165
            },
            {
                "class": "Text",
                "height": 31,
                "text": "bains",
                "width": 116,
                "x": 1460,
                "y": 1257
            },
            {
                "class": "Text",
                "height": 31,
                "text": "wc",
                "width": 77,
                "x": 1080,
                "y": 1306
            },
            {
                "class": "Text",
                "height": 31,
                "text": "cuisine",
                "width": 159,
                "x": 1584,
                "y": 1589
            },
            {
                "class": "Text",
                "height": 31,
                "text": "salon",
                "width": 134,
                "x": 1204,
                "y": 1729
            },
            {
                "class": "Text",
                "height": 30,
                "text": "repas",
                "width": 134,
                "x": 1589,
                "y": 1983
            },
            {
                "class": "Text",
                "height": 35.411069254860195,
                "text": "pl",
                "width": 49.5754969568045,
                "x": 1376.3102250389009,
                "y": 1510.8722882073698
            },
            {
                "class": "Text",
                "height": 40.132545155508296,
                "text": "hall",
                "width": 108.59394571490475,
                "x": 1114.2683125529352,
                "y": 1517.9545020583419
            },
            {
                "class": "Text",
                "height": 44.8540210561564,
                "text": "ch 1",
                "width": 92.0687800626365,
                "x": 1366.8672732376049,
                "y": 880.5552554708577
            },
            {
                "class": "Text",
                "height": 37.77180720518436,
                "text": "ch 2",
                "width": 96.79025596328461,
                "x": 868.7515657192376,
                "y": 887.6374693218297
            },
            {
                "class": "Text",
                "height": 44.8540210561564,
                "text": "ch 3",
                "width": 103.87246981425676,
                "x": 812.0938549114612,
                "y": 1215.780044416868
            },
            {
                "class": "Stairs",
                "xn": "1275.28829397;1278.89845191;1179.61910843;1179.61910843",
                "yn": "1248.21210938;1370.05494002;1370.05494002;1252.72480681"
            },
            {
                "class": "Stairs",
                "xn": "1282.50860986;1284.31368883;1383.59303231;1382.69049282;1382.69049282",
                "yn": "1254.52988578;1472.04190195;1467.52920452;1251.82226733;1251.82226733"
            }
        ],
        "class": "image",
        "filename": "fp_89.png"
    }
]
