chambre 2 : [1347,793] : [1231,778,1463,809] : confidence,dict,original_word,difference : [93,DM,None,0]
bains : [989,852] : [931,837,1047,868] : confidence,dict,original_word,difference : [92,DM,None,0]
bureau : [605,935] : [523,920,687,951] : confidence,dict,original_word,difference : [88,DM,None,0]
degt : [862,1099] : [804,1084,920,1114] : confidence,dict,original_word,difference : [93,DM,None,0]
placard : [664,1218] : [571,1203,758,1234] : confidence,dict,original_word,difference : [89,DM,None,0]
wc : [691,1283] : [657,1268,725,1299] : confidence,dict,original_word,difference : [81,DM,None,0]
placard : [1538,1401] : [1445,1386,1632,1417] : confidence,dict,original_word,difference : [94,DM,None,0]
cuisine : [1127,1496] : [1048,1481,1207,1512] : confidence,dict,original_word,difference : [90,DM,None,0]
pl : [704,1549] : [677,1534,731,1564] : confidence,dict,original_word,difference : [90,DM,None,0]
terrassecouverte : [1573,1661] : [1464,1622,1682,1700] : confidence,dict,original_word,difference : [92,DM,None,0]
repas : [1132,1880] : [1066,1865,1199,1895] : confidence,dict,original_word,difference : [85,DM,None,0]
sejour : [750,2328] : [669,2313,832,2344] : confidence,dict,original_word,difference : [85,DM,None,0]
placard : [1157,1256] : [1142,1350,1173,1162] : confidence,dict,original_word,difference : [91,DM,None,0]
No Text Detected
