garage : [1423,1082] : [1339,1067,1508,1098] : confidence,dict,original_word,difference : [92,DM,None,0]
wc : [1683,1392] : [1650,1377,1716,1408] : confidence,dict,original_word,difference : [89,DM,None,0]
lingerie : [1719,1532] : [1627,1517,1811,1548] : confidence,dict,original_word,difference : [93,DM,None,0]
sejour : [1165,1670] : [1085,1655,1246,1685] : confidence,dict,original_word,difference : [91,DM,None,0]
bureau : [1527,1658] : [1446,1643,1609,1673] : confidence,dict,original_word,difference : [82,DM,None,0]
cuisine : [1661,1981] : [1581,1966,1741,1997] : confidence,dict,original_word,difference : [92,DM,None,0]
repas : [1311,2015] : [1245,2000,1378,2031] : confidence,dict,original_word,difference : [92,DM,None,0]
No Text Detected
