garage : [1744,1031] : [1660,1016,1829,1047] : confidence,dict,original_word,difference : [92,DM,None,0]
porche : [1088,1483] : [1004,1468,1173,1499] : confidence,dict,original_word,difference : [91,DM,None,0]
cellier : [1475,1540] : [1392,1525,1558,1556] : confidence,dict,original_word,difference : [88,DM,None,0]
chambre 1 : [424,1590] : [311,1575,538,1606] : confidence,dict,original_word,difference : [93,DM,None,0]
cuisine : [1952,1673] : [1873,1658,2032,1689] : confidence,dict,original_word,difference : [83,DM,None,0]
hall : [1180,1703] : [1131,1688,1229,1718] : confidence,dict,original_word,difference : [79,DM,None,0]
chambre 2 : [433,2086] : [317,2071,549,2102] : confidence,dict,original_word,difference : [89,DM,None,0]
chambre 3 : [835,2092] : [719,2077,951,2108] : confidence,dict,original_word,difference : [92,DM,None,0]
No Text Detected
