garage : [755,394] : [688,382,823,407] : confidence,dict,original_word,difference : [89,DM,None,0]
cellier : [1185,671] : [1119,659,1252,684] : confidence,dict,original_word,difference : [92,DM,None,0]
bains : [1862,701] : [1816,689,1909,714] : confidence,dict,original_word,difference : [84,DM,None,0]
sejour : [794,766] : [729,754,859,779] : confidence,dict,original_word,difference : [91,DM,None,0]
wc : [1640,777] : [1613,765,1668,790] : confidence,dict,original_word,difference : [79,DM,None,0]
chambre 5 : [2287,766] : [2194,754,2380,779] : confidence,dict,original_word,difference : [90,DM,None,0]
hall : [1424,914] : [1385,902,1464,926] : confidence,dict,original_word,difference : [73,DM,None,0]
chambre : [2363,1102] : [2270,1090,2457,1115] : confidence,dict,original_word,difference : [94,DM,None,0]
repas : [1031,1191] : [978,1179,1084,1204] : confidence,dict,original_word,difference : [85,DM,None,0]
cuisine : [1418,1191] : [1355,1179,1482,1204] : confidence,dict,original_word,difference : [85,DM,None,0]
chambre 1 : [1771,1191] : [1680,1179,1862,1203] : confidence,dict,original_word,difference : [91,DM,None,0]
terrassecouverte : [694,1337] : [607,1306,782,1369] : confidence,dict,original_word,difference : [89,DM,None,0]
chambre 2 : [1932,1587] : [1839,1575,2025,1599] : confidence,dict,original_word,difference : [92,DM,None,0]
chambre 3 : [2357,1587] : [2264,1575,2451,1600] : confidence,dict,original_word,difference : [92,DM,None,0]
No Text Detected
