chambre 2 : [389,858] : [296,846,482,870] : confidence,dict,original_word,difference : [91,DM,None,0]
chambre 3 : [1263,894] : [1170,882,1356,907] : confidence,dict,original_word,difference : [87,DM,None,0]
hall : [796,1077] : [757,1065,836,1089] : confidence,dict,original_word,difference : [91,DM,None,0]
terrassecouverte : [1618,1164] : [1531,1133,1706,1196] : confidence,dict,original_word,difference : [87,DM,None,0]
chambre 1 : [410,1206] : [319,1194,501,1219] : confidence,dict,original_word,difference : [74,DM,None,0]
chambre 4 : [1244,1219] : [1151,1207,1337,1231] : confidence,dict,original_word,difference : [75,DM,None,0]
wc : [681,1289] : [654,1277,709,1302] : confidence,dict,original_word,difference : [82,DM,None,0]
pl : [784,1330] : [762,1318,806,1342] : confidence,dict,original_word,difference : [88,DM,None,0]
chambre 5 : [1262,1532] : [1169,1519,1355,1545] : confidence,dict,original_word,difference : [92,DM,None,0]
garage : [292,1631] : [224,1619,360,1644] : confidence,dict,original_word,difference : [78,DM,None,0]
cuisine : [642,1613] : [579,1601,706,1626] : confidence,dict,original_word,difference : [84,DM,None,0]
repas : [1217,1927] : [1164,1915,1271,1940] : confidence,dict,original_word,difference : [87,DM,None,0]
sejour : [1742,2288] : [1677,2276,1807,2301] : confidence,dict,original_word,difference : [91,DM,None,0]
No Text Detected
