cellier : [1514,569] : [1431,554,1598,585] : confidence,dict,original_word,difference : [88,DM,None,0]
chambre 3 : [1934,581] : [1818,566,2051,597] : confidence,dict,original_word,difference : [78,DM,None,0]
chambre 2 : [2684,569] : [2568,554,2801,584] : confidence,dict,original_word,difference : [91,DM,None,0]
cuisine : [1393,923] : [1313,908,1474,939] : confidence,dict,original_word,difference : [83,DM,None,0]
hall : [2067,912] : [2019,897,2116,927] : confidence,dict,original_word,difference : [82,DM,None,0]
chambre 1 : [2121,1160] : [2007,1145,2235,1175] : confidence,dict,original_word,difference : [90,DM,None,0]
sejour : [2615,1177] : [2534,1162,2696,1193] : confidence,dict,original_word,difference : [71,DM,None,0]
No Text Detected
