bains : [941,708] : [884,693,999,723] : confidence,dict,original_word,difference : [93,DM,None,0]
chambre 3 : [1229,773] : [1113,758,1346,788] : confidence,dict,original_word,difference : [92,DM,None,0]
chambre 2 : [721,790] : [605,775,837,806] : confidence,dict,original_word,difference : [91,DM,None,0]
garage : [1669,820] : [1585,805,1754,836] : confidence,dict,original_word,difference : [81,DM,None,0]
pl : [615,1056] : [588,1042,642,1071] : confidence,dict,original_word,difference : [95,DM,None,0]
pl : [763,1056] : [736,1042,790,1071] : confidence,dict,original_word,difference : [94,DM,None,0]
cellier : [1137,1062] : [1054,1047,1220,1078] : confidence,dict,original_word,difference : [93,DM,None,0]
wc : [1234,1245] : [1200,1230,1269,1261] : confidence,dict,original_word,difference : [80,DM,None,0]
chambre 1 : [659,1310] : [546,1295,773,1325] : confidence,dict,original_word,difference : [94,DM,None,0]
hall : [1033,1322] : [984,1307,1082,1337] : confidence,dict,original_word,difference : [75,DM,None,0]
porche : [1428,1404] : [1344,1389,1513,1420] : confidence,dict,original_word,difference : [85,DM,None,0]
cuisine : [1174,1670] : [1095,1655,1254,1686] : confidence,dict,original_word,difference : [89,DM,None,0]
sejour : [733,1705] : [652,1690,814,1721] : confidence,dict,original_word,difference : [90,DM,None,0]
repas : [1180,2113] : [1113,2098,1247,2129] : confidence,dict,original_word,difference : [88,DM,None,0]
terrassecouverte : [679,2343] : [568,2304,790,2383] : confidence,dict,original_word,difference : [87,DM,None,0]
No Text Detected
