garage : [1383,858] : [1298,843,1468,874] : confidence,dict,original_word,difference : [92,DM,None,0]
chambre 1 : [1110,1236] : [996,1221,1224,1251] : confidence,dict,original_word,difference : [90,DM,None,0]
cellier : [1581,1234] : [1498,1219,1664,1249] : confidence,dict,original_word,difference : [87,DM,None,0]
buanderie : [1580,1360] : [1464,1345,1696,1376] : confidence,dict,original_word,difference : [94,DM,None,0]
douche : [1041,1536] : [956,1521,1127,1552] : confidence,dict,original_word,difference : [85,DM,None,0]
wc : [1343,1586] : [1310,1571,1376,1602] : confidence,dict,original_word,difference : [80,DM,None,0]
cuisine : [1832,1653] : [1752,1638,1913,1668] : confidence,dict,original_word,difference : [88,DM,None,0]
porche : [940,1782] : [856,1767,1024,1798] : confidence,dict,original_word,difference : [92,DM,None,0]
hall : [1176,1834] : [1127,1820,1225,1849] : confidence,dict,original_word,difference : [96,DM,None,0]
repas : [1825,2053] : [1759,2038,1892,2068] : confidence,dict,original_word,difference : [92,DM,None,0]
sejour : [1414,2168] : [1333,2153,1495,2184] : confidence,dict,original_word,difference : [92,DM,None,0]
terrassecouverte : [1857,2487] : [1746,2448,1968,2527] : confidence,dict,original_word,difference : [92,DM,None,0]
No Text Detected
