garage : [1441,1007] : [1356,992,1526,1023] : confidence,dict,original_word,difference : [93,DM,None,0]
cellier : [1693,1349] : [1610,1334,1776,1365] : confidence,dict,original_word,difference : [91,DM,None,0]
hall : [1430,1568] : [1381,1553,1479,1583] : confidence,dict,original_word,difference : [96,DM,None,0]
pl : [1461,1745] : [1446,1730,1477,1760] : confidence,dict,original_word,difference : [96,SG,pi,1]
wc : [1553,1709] : [1520,1694,1586,1725] : confidence,dict,original_word,difference : [79,DM,None,0]
porche : [1896,1757] : [1812,1742,1981,1772] : confidence,dict,original_word,difference : [90,DM,None,0]
sejour : [1136,1869] : [1055,1854,1217,1884] : confidence,dict,original_word,difference : [88,DM,None,0]
cuisine : [1543,2105] : [1463,2090,1623,2121] : confidence,dict,original_word,difference : [86,DM,None,0]
No Text Detected
