Wall : [513,1674],[556,1674],[556,2194],[513,2194] : [1] 
Wall : [389,759],[431,759],[431,1231],[389,1231] : [1] 
Wall : [424,2152],[466,2152],[466,2961],[424,2961] : [1] 
Wall : [949,658],[1583,658],[1583,700],[949,700] : [1] 
Wall : [1368,1443],[1713,1443],[1713,1485],[1368,1485] : [1] 
Wall : [725,658],[880,658],[880,701],[725,701] : [1] 
Wall : [513,1337],[555,1337],[555,1603],[513,1603] : [1] 
Wall : [423,2151],[556,2151],[556,2195],[423,2195] : [1] 
Wall : [423,2542],[780,2542],[780,2583],[423,2583] : [1] 
Wall : [1671,1346],[1712,1346],[1712,1485],[1671,1485] : [1] 
Wall : [388,759],[526,759],[526,801],[388,801] : [1] 
Wall : [1540,994],[1713,994],[1713,1037],[1540,1037] : [1] 
Wall : [726,658],[767,658],[767,800],[726,800] : [1] 
Wall : [1541,915],[1582,915],[1582,1036],[1541,1036] : [1] 
Wall : [1671,995],[1712,995],[1712,1134],[1671,1134] : [1] 
Wall : [1541,658],[1582,658],[1582,774],[1541,774] : [1] 
Wall : [666,758],[768,758],[768,800],[666,800] : [1] 
Wall : [423,2937],[1282,2937],[1282,2961],[423,2961] : [1] 
Wall : [636,1591],[774,1591],[774,1615],[636,1615] : [1] 
Wall : [1257,2294],[1281,2294],[1281,2961],[1257,2961] : [1] 
Wall : [1806,1863],[1830,1863],[1830,2318],[1806,2318] : [1] 
Wall : [512,1715],[774,1715],[774,1739],[512,1739] : [1] 
Wall : [1256,2294],[1831,2294],[1831,2318],[1256,2318] : [1] 
Wall : [512,1361],[768,1361],[768,1385],[512,1385] : [1] 
Wall : [636,1485],[768,1485],[768,1510],[636,1510] : [1] 
Wall : [636,1485],[661,1485],[661,1615],[636,1615] : [1] 
Wall : [513,1190],[537,1190],[537,1267],[513,1267] : [1] 
Wall : [1389,1443],[1411,1443],[1411,1503],[1389,1503] : [1] 
Wall : [388,1189],[556,1189],[556,1238],[388,1238] : [1] 
Wall : [1068,658],[1074,658],[1074,1036],[1068,1036] : [1] 
Wall : [1375,1443],[1388,1443],[1388,1497],[1375,1497] : [1] 
Wall : [1368,1367],[1375,1367],[1375,1503],[1368,1503] : [1] 
Wall : [761,658],[767,658],[767,1063],[761,1063] : [1] 
Wall : [1177,1029],[1713,1029],[1713,1036],[1177,1036] : [1] 
Wall : [539,1190],[546,1190],[546,1261],[539,1261] : [1] 
Wall : [512,1239],[768,1239],[768,1255],[512,1255] : [1] 
Wall : [547,1190],[556,1190],[556,1267],[547,1267] : [1] 
Wall : [952,1030],[1084,1030],[1084,1036],[952,1036] : [1] 
Wall : [1076,1367],[1376,1367],[1376,1373],[1076,1373] : [1] 
Wall : [760,1030],[860,1030],[860,1036],[760,1036] : [1] 
Wall : [761,1157],[768,1157],[768,1258],[761,1258] : [1] 
Wall : [1109,1148],[1116,1148],[1116,1373],[1109,1373] : [1] 
Wall : [878,1148],[1193,1148],[1193,1154],[878,1154] : [1] 
Wall : [879,1148],[885,1148],[885,1246],[879,1246] : [1] 
Wall : [878,1367],[996,1367],[996,1373],[878,1373] : [1] 
Wall : [879,1340],[885,1340],[885,1739],[879,1739] : [1] 
Wall : [878,1733],[963,1733],[963,1739],[878,1739] : [1] 
Wall : [554,1192],[760,1192],[760,1188],[554,1188] : [1] 
Wall : [1374,1369],[1670,1369],[1670,1365],[1374,1365] : [1] 
Wall : [734,1590],[738,1590],[738,1509],[734,1509] : [1] 
Wall : [1189,1366],[1193,1366],[1193,1154],[1189,1154] : [1] 
