Wall : [666,732],[708,732],[708,874],[666,874] : [1] 
Wall : [666,1665],[708,1665],[708,2031],[666,2031] : [1] 
Wall : [1374,732],[1943,732],[1943,774],[1374,774] : [1] 
Wall : [666,1015],[709,1015],[709,1523],[666,1523] : [1] 
Wall : [1900,1352],[1942,1352],[1942,1482],[1900,1482] : [1] 
Wall : [665,732],[1234,732],[1234,774],[665,774] : [1] 
Wall : [1900,732],[1942,732],[1942,862],[1900,862] : [1] 
Wall : [1900,1004],[1942,1004],[1942,1211],[1900,1211] : [1] 
Wall : [1770,1439],[1943,1439],[1943,1483],[1770,1483] : [1] 
Wall : [1771,1623],[1812,1623],[1812,1748],[1771,1748] : [1] 
Wall : [1055,1990],[1494,1990],[1494,2031],[1055,2031] : [1] 
Wall : [665,1989],[845,1989],[845,2031],[665,2031] : [1] 
Wall : [1634,1989],[1813,1989],[1813,2031],[1634,2031] : [1] 
Wall : [1771,1889],[1812,1889],[1812,2031],[1771,2031] : [1] 
Wall : [984,1210],[1412,1210],[1412,1235],[984,1235] : [1] 
Wall : [984,1334],[1412,1334],[1412,1358],[984,1358] : [1] 
Wall : [984,1210],[1009,1210],[1009,1358],[984,1358] : [1] 
Wall : [1771,1440],[1812,1440],[1812,1517],[1771,1517] : [1] 
Wall : [1404,732],[1411,732],[1411,1110],[1404,1110] : [1] 
Wall : [665,1210],[1412,1210],[1412,1218],[665,1218] : [1] 
Wall : [1510,1440],[1943,1440],[1943,1448],[1510,1448] : [1] 
Wall : [1038,732],[1044,732],[1044,1110],[1038,1110] : [1] 
Wall : [1510,1104],[1943,1104],[1943,1110],[1510,1110] : [1] 
Wall : [1510,1647],[1813,1647],[1813,1653],[1510,1653] : [1] 
Wall : [1275,1647],[1281,1647],[1281,2031],[1275,2031] : [1] 
Wall : [1328,1334],[1334,1334],[1334,1470],[1328,1470] : [1] 
Wall : [1303,1104],[1412,1104],[1412,1110],[1303,1110] : [1] 
Wall : [1197,998],[1412,998],[1412,1004],[1197,1004] : [1] 
Wall : [1510,1210],[1517,1210],[1517,1447],[1510,1447] : [1] 
Wall : [1037,1104],[1099,1104],[1099,1110],[1037,1110] : [1] 
Wall : [1274,1647],[1412,1647],[1412,1653],[1274,1653] : [1] 
Wall : [1327,1464],[1412,1464],[1412,1470],[1327,1470] : [1] 
Wall : [1198,998],[1204,998],[1204,1110],[1198,1110] : [1] 
Wall : [1333,1384],[1409,1384],[1409,1380],[1333,1380] : [1] 
Wall : [1407,1463],[1411,1463],[1411,1382],[1407,1382] : [1] 
Wall : [1334,1465],[1409,1465],[1409,1461],[1334,1461] : [1] 
