Total No of Rooms: 1
open : plan 1-room 1 : living : [1311, 2015] : contour_details : [ 872 1818],[ 873 1817],[1428 1817],[1429 1818],[1429 1820],[1430 1821],[1430 1822],[1431 1823],[1431 1825],[1432 1826],[1432 1828],[1433 1829],[1433 1831],[1434 1832],[1434 1834],[1435 1835],[1435 1836],[1436 1837],[1436 1839],[1437 1840],[1437 1842],[1438 1843],[1438 1845],[1439 1846],[1439 1847],[1440 1848],[1440 1850],[1441 1851],[1441 1853],[1442 1854],[1442 1856],[1443 1857],[1443 1859],[1444 1860],[1444 1862],[1445 1863],[1446 1862],[1447 1862],[1449 1860],[1450 1860],[1452 1858],[1453 1858],[1455 1856],[1456 1856],[1458 1854],[1459 1854],[1461 1852],[1462 1852],[1464 1850],[1465 1850],[1467 1848],[1468 1848],[1469 1847],[1470 1848],[1470 1851],[1471 1852],[1471 1860],[1472 1861],[1472 1869],[1473 1870],[1473 1878],[1474 1879],[1474 1887],[1475 1888],[1475 1896],[1476 1897],[1476 1905],[1477 1906],[1477 1914],[1478 1915],[1478 1923],[1479 1924],[1479 1933],[1480 1934],[1480 1942],[1481 1943],[1481 1951],[1482 1952],[1482 1960],[1483 1961],[1483 1969],[1484 1970],[1484 1978],[1485 1979],[1485 1987],[1486 1988],[1486 1996],[1487 1997],[1487 2005],[1488 2006],[1488 2014],[1489 2015],[1489 2023],[1490 2024],[1490 2032],[1491 2033],[1491 2042],[1492 2043],[1492 2051],[1493 2052],[1493 2060],[1494 2061],[1494 2069],[1495 2070],[1495 2078],[1496 2079],[1496 2087],[1497 2088],[1497 2096],[1498 2097],[1498 2105],[1499 2106],[1499 2114],[1500 2115],[1500 2123],[1501 2124],[1501 2132],[1502 2133],[1502 2140],[1501 2141],[ 991 2141],[ 990 2140],[ 990 1823],[ 989 1822],[ 873 1822],[ 872 1821]

open : plan 1-room 2 : kitchen : [1661, 1981] : contour_details : [1515 1817],[1516 1816],[1811 1816],[1812 1817],[1812 2140],[1811 2141],[1504 2141],[1503 2140],[1503 2133],[1502 2132],[1502 2124],[1501 2123],[1501 2115],[1500 2114],[1500 2106],[1499 2105],[1499 2097],[1498 2096],[1498 2088],[1497 2087],[1497 2079],[1496 2078],[1496 2070],[1495 2069],[1495 2061],[1494 2060],[1494 2052],[1493 2051],[1493 2043],[1492 2042],[1492 2034],[1491 2033],[1491 2024],[1490 2023],[1490 2015],[1489 2014],[1489 2006],[1488 2005],[1488 1997],[1487 1996],[1487 1988],[1486 1987],[1486 1979],[1485 1978],[1485 1970],[1484 1969],[1484 1961],[1483 1960],[1483 1952],[1482 1951],[1482 1943],[1481 1942],[1481 1934],[1480 1933],[1480 1925],[1479 1924],[1479 1915],[1478 1914],[1478 1906],[1477 1905],[1477 1897],[1476 1896],[1476 1888],[1475 1887],[1475 1879],[1474 1878],[1474 1870],[1473 1869],[1473 1861],[1472 1860],[1472 1852],[1471 1851],[1471 1846],[1473 1844],[1474 1844],[1476 1842],[1477 1842],[1479 1840],[1480 1840],[1482 1838],[1483 1838],[1485 1836],[1486 1836],[1488 1834],[1489 1834],[1491 1832],[1492 1832],[1494 1830],[1495 1830],[1497 1828],[1498 1828],[1500 1826],[1501 1826],[1503 1824],[1504 1824],[1506 1822],[1507 1822],[1509 1820],[1510 1820],[1511 1819],[1512 1819],[1514 1817]

open : plan 1-room 3 : dressing room : [1719, 1532] : contour_details : [1623 1474],[1624 1473],[1811 1473],[1812 1474],[1812 1804],[1811 1805],[1623 1805],[1622 1804],[1622 1640],[1623 1639]

open : plan 1-room 4 : toilet : [1683, 1392] : contour_details : [1624 1379],[1625 1378],[1811 1378],[1812 1379],[1812 1462],[1811 1463],[1625 1463],[1624 1462]

open : plan 1-room 5 : dining : [1165, 1670] : contour_details : [ 872 1367],[ 873 1366],[1237 1366],[1238 1367],[1238 1459],[1239 1460],[1312 1460],[1313 1461],[1313 1475],[1312 1476],[1312 1492],[1311 1493],[1311 1508],[1310 1509],[1310 1525],[1309 1526],[1309 1541],[1308 1542],[1308 1558],[1307 1559],[1307 1574],[1306 1575],[1307 1576],[1308 1575],[1311 1575],[1312 1574],[1315 1574],[1316 1573],[1319 1573],[1320 1572],[1323 1572],[1324 1571],[1327 1571],[1328 1570],[1331 1570],[1332 1569],[1335 1569],[1336 1568],[1338 1568],[1340 1570],[1340 1572],[1341 1573],[1341 1575],[1342 1576],[1342 1577],[1343 1578],[1343 1580],[1344 1581],[1344 1583],[1345 1584],[1345 1586],[1346 1587],[1346 1589],[1347 1590],[1347 1591],[1348 1592],[1348 1594],[1349 1595],[1349 1597],[1350 1598],[1350 1600],[1351 1601],[1351 1603],[1352 1604],[1352 1605],[1353 1606],[1353 1608],[1354 1609],[1354 1611],[1355 1612],[1355 1614],[1356 1615],[1356 1616],[1357 1617],[1357 1619],[1358 1620],[1358 1622],[1359 1623],[1359 1625],[1360 1626],[1360 1628],[1361 1629],[1361 1630],[1362 1631],[1362 1633],[1363 1634],[1363 1636],[1364 1637],[1364 1639],[1365 1640],[1365 1641],[1366 1642],[1366 1644],[1367 1645],[1367 1647],[1368 1648],[1368 1650],[1369 1651],[1369 1653],[1370 1654],[1370 1655],[1371 1656],[1371 1658],[1372 1659],[1372 1661],[1373 1662],[1373 1664],[1374 1665],[1374 1667],[1375 1668],[1375 1669],[1376 1670],[1376 1672],[1377 1673],[1377 1675],[1378 1676],[1378 1678],[1379 1679],[1379 1680],[1380 1681],[1380 1683],[1381 1684],[1381 1686],[1382 1687],[1382 1689],[1383 1690],[1383 1692],[1384 1693],[1384 1694],[1385 1695],[1385 1697],[1386 1698],[1386 1700],[1387 1701],[1387 1703],[1388 1704],[1388 1705],[1389 1706],[1389 1708],[1390 1709],[1390 1711],[1391 1712],[1391 1714],[1392 1715],[1392 1717],[1393 1718],[1393 1719],[1394 1720],[1394 1722],[1395 1723],[1395 1725],[1396 1726],[1396 1728],[1397 1729],[1397 1731],[1398 1732],[1398 1733],[1399 1734],[1399 1736],[1400 1737],[1400 1739],[1401 1740],[1401 1742],[1402 1743],[1402 1744],[1403 1745],[1403 1747],[1404 1748],[1404 1750],[1405 1751],[1405 1753],[1406 1754],[1406 1756],[1407 1757],[1407 1758],[1408 1759],[1408 1761],[1409 1762],[1409 1764],[1410 1765],[1410 1767],[1411 1768],[1411 1769],[1412 1770],[1412 1772],[1413 1773],[1413 1775],[1414 1776],[1414 1778],[1415 1779],[1415 1781],[1416 1782],[1416 1783],[1417 1784],[1417 1786],[1418 1787],[1418 1789],[1419 1790],[1419 1792],[1420 1793],[1420 1795],[1421 1796],[1421 1797],[1422 1798],[1422 1800],[1423 1801],[1423 1803],[1424 1804],[1424 1806],[1425 1807],[1425 1808],[1426 1809],[1426 1811],[1427 1812],[1427 1814],[1426 1815],[ 873 1815],[ 872 1814]

open : plan 1-room 6 : office : [1527, 1658] : contour_details : [1426 1342],[1427 1341],[1546 1341],[1547 1342],[1547 1377],[1548 1378],[1621 1378],[1622 1379],[1622 1639],[1621 1640],[1621 1804],[1620 1805],[1446 1805],[1445 1806],[1445 1814],[1444 1815],[1429 1815],[1428 1814],[1428 1813],[1427 1812],[1427 1810],[1426 1809],[1426 1807],[1425 1806],[1425 1804],[1424 1803],[1424 1801],[1423 1800],[1423 1799],[1422 1798],[1422 1796],[1421 1795],[1421 1793],[1420 1792],[1420 1790],[1419 1789],[1419 1788],[1418 1787],[1418 1785],[1417 1784],[1417 1782],[1416 1781],[1416 1779],[1415 1778],[1415 1776],[1414 1775],[1414 1774],[1413 1773],[1413 1771],[1412 1770],[1412 1768],[1411 1767],[1411 1765],[1410 1764],[1410 1762],[1409 1761],[1409 1760],[1408 1759],[1408 1757],[1407 1756],[1407 1754],[1406 1753],[1406 1751],[1405 1750],[1405 1749],[1404 1748],[1404 1746],[1403 1745],[1403 1743],[1402 1742],[1402 1740],[1401 1739],[1401 1737],[1400 1736],[1400 1735],[1399 1734],[1399 1732],[1398 1731],[1398 1729],[1397 1728],[1397 1726],[1396 1725],[1396 1724],[1395 1723],[1395 1721],[1394 1720],[1394 1718],[1393 1717],[1393 1715],[1392 1714],[1392 1712],[1391 1711],[1391 1710],[1390 1709],[1390 1707],[1389 1706],[1389 1704],[1388 1703],[1388 1701],[1387 1700],[1387 1698],[1386 1697],[1386 1696],[1385 1695],[1385 1693],[1384 1692],[1384 1690],[1383 1689],[1383 1687],[1382 1686],[1382 1685],[1381 1684],[1381 1682],[1380 1681],[1380 1679],[1379 1678],[1379 1676],[1378 1675],[1378 1673],[1377 1672],[1377 1671],[1376 1670],[1376 1668],[1375 1667],[1375 1665],[1374 1664],[1374 1662],[1373 1661],[1373 1660],[1372 1659],[1372 1657],[1371 1656],[1371 1654],[1370 1653],[1370 1651],[1369 1650],[1369 1648],[1368 1647],[1368 1646],[1367 1645],[1367 1643],[1366 1642],[1366 1640],[1365 1639],[1365 1637],[1364 1636],[1364 1634],[1363 1633],[1363 1632],[1362 1631],[1362 1629],[1361 1628],[1361 1626],[1360 1625],[1360 1623],[1359 1622],[1359 1621],[1358 1620],[1358 1618],[1357 1617],[1357 1615],[1356 1614],[1356 1612],[1355 1611],[1355 1609],[1354 1608],[1354 1607],[1353 1606],[1353 1604],[1352 1603],[1352 1601],[1351 1600],[1351 1598],[1350 1597],[1350 1595],[1349 1594],[1349 1593],[1348 1592],[1348 1590],[1347 1589],[1347 1587],[1346 1586],[1346 1584],[1345 1583],[1345 1582],[1344 1581],[1344 1579],[1343 1578],[1343 1576],[1342 1575],[1342 1573],[1341 1572],[1341 1570],[1340 1569],[1340 1568],[1341 1567],[1343 1567],[1344 1566],[1348 1566],[1349 1565],[1352 1565],[1353 1564],[1356 1564],[1357 1563],[1360 1563],[1361 1562],[1364 1562],[1365 1561],[1368 1561],[1369 1560],[1372 1560],[1373 1559],[1376 1559],[1377 1558],[1380 1558],[1381 1557],[1384 1557],[1385 1556],[1388 1556],[1389 1555],[1392 1555],[1393 1554],[1396 1554],[1397 1553],[1401 1553],[1402 1552],[1405 1552],[1406 1551],[1409 1551],[1410 1550],[1413 1550],[1415 1548],[1416 1548],[1421 1543],[1422 1543],[1426 1539]

open : plan 1-room 7 : garage : [1423, 1082] : contour_details : [972 872],[973 871],[1829  871],[1830  872],[1830 1338],[1829 1339],[1427 1339],[1426 1338],[1426 1322],[1425 1321],[ 973 1321],[ 972 1320]

