Door : [853,1186],[953,1186],[953,1193],[853,1193] : [1] 
Door : [1538,1531],[1638,1531],[1638,1548],[1538,1548] : [1] 
Door : [1479,2420],[1573,2420],[1573,2463],[1479,2463] : [1] 
Door : [535,1538],[628,1538],[628,1548],[535,1548] : [1] 
Door : [594,2420],[687,2420],[687,2463],[594,2463] : [1] 
Door : [952,1192],[959,1192],[959,1294],[952,1294] : [1] 
Door : [846,1741],[854,1741],[854,1843],[846,1843] : [1] 
Door : [1171,1741],[1178,1741],[1178,1843],[1171,1843] : [1] 
Door : [952,1405],[995,1405],[995,1506],[952,1506] : [1] 
Door : [932,1309],[932,1392],[953,1392],[953,1309] : [0.866666666667] 
