Door : [1431,779],[1530,779],[1530,786],[1431,786] : [1] 
Door : [1614,779],[1713,779],[1713,786],[1614,786] : [1] 
Door : [1844,778],[2113,778],[2113,800],[1844,800] : [1] 
Door : [1430,1104],[1530,1104],[1530,1117],[1430,1117] : [1] 
Door : [1760,803],[1785,803],[1785,905],[1760,905] : [1] 
Door : [1424,797],[1431,797],[1431,899],[1424,899] : [1] 
Door : [2422,1211],[2425,1237],[2504,1160],[2474,1132] : [0.6] 
Door : [2481,1358],[2492,1345],[2457,1264],[2457,1287] : [0.4] 
