balcon : [1345,1002] : [1281,990,1410,1015] : confidence,dict,original_word,difference : [93,DM,None,0]
wc : [825,1224] : [798,1212,853,1237] : confidence,dict,original_word,difference : [89,DM,None,0]
cuisine : [1642,1328] : [1579,1315,1706,1341] : confidence,dict,original_word,difference : [83,DM,None,0]
repas : [1562,1596] : [1509,1584,1615,1609] : confidence,dict,original_word,difference : [73,DM,None,0]
terrassebois : [1995,1616] : [1867,1604,2124,1629] : confidence,dict,original_word,difference : [83,DM,None,0]
chambre 1 : [707,1658] : [616,1646,798,1670] : confidence,dict,original_word,difference : [92,DM,None,0]
sejour : [1136,1831] : [1071,1819,1201,1844] : confidence,dict,original_word,difference : [92,DM,None,0]
No Text Detected
