Window : [1732,1766],[2014,1766],[2014,1808],[1732,1808] : [1] 
Window : [975,667],[1017,667],[1017,810],[975,810] : [1] 
Window : [979,1169],[1017,1169],[1017,1424],[979,1424] : [1] 
Window : [1623,1808],[1615,1779],[1459,1565],[1430,1596] : [0.5] 
Window : [2328,1894],[2328,1924],[2507,1728],[2478,1700] : [0.8] 
Window : [1036,1509],[1318,1514],[1318,1471],[1036,1470] : [0.6] 
