cellier : [1842,716] : [1776,704,1908,729] : confidence,dict,original_word,difference : [91,DM,None,0]
garage : [1356,846] : [1289,834,1423,859] : confidence,dict,original_word,difference : [80,DM,None,0]
cuisine : [2163,816] : [2099,804,2227,829] : confidence,dict,original_word,difference : [90,DM,None,0]
repas : [2037,1035] : [1984,1023,2090,1048] : confidence,dict,original_word,difference : [91,DM,None,0]
hall : [1431,1153] : [1393,1142,1470,1165] : confidence,dict,original_word,difference : [94,DM,None,0]
salonveranda : [2545,1247] : [2408,1235,2682,1259] : confidence,dict,original_word,difference : [93,DM,None,0]
placard : [1543,1283] : [1469,1271,1617,1296] : confidence,dict,original_word,difference : [92,DM,None,0]
wc : [1195,1401] : [1169,1389,1221,1414] : confidence,dict,original_word,difference : [98,DM,None,0]
sejour : [1992,1508] : [1927,1496,2057,1521] : confidence,dict,original_word,difference : [90,DM,None,0]
chambre 2 : [953,1566] : [860,1554,1046,1578] : confidence,dict,original_word,difference : [91,DM,None,0]
chambre 1 : [1535,1619] : [1445,1607,1626,1631] : confidence,dict,original_word,difference : [90,DM,None,0]
douche : [1284,1643] : [1217,1631,1352,1656] : confidence,dict,original_word,difference : [95,DM,None,0]
No Text Detected
