Wall : [773,2032],[1242,2032],[1242,2074],[773,2074] : [1] 
Wall : [1678,1625],[1720,1625],[1720,1867],[1678,1867] : [1] 
Wall : [1678,1335],[1720,1335],[1720,1554],[1678,1554] : [1] 
Wall : [774,1011],[816,1011],[816,1176],[774,1176] : [1] 
Wall : [1678,2009],[1720,2009],[1720,2410],[1678,2410] : [1] 
Wall : [774,1389],[816,1389],[816,1737],[774,1737] : [1] 
Wall : [774,1879],[816,1879],[816,2074],[774,2074] : [1] 
Wall : [1676,810],[1720,810],[1720,1194],[1676,1194] : [1] 
Wall : [1199,2369],[1721,2369],[1721,2410],[1199,2410] : [1] 
Wall : [1447,1011],[1721,1011],[1721,1052],[1447,1052] : [1] 
Wall : [773,1011],[1183,1011],[1183,1052],[773,1052] : [1] 
Wall : [1200,2203],[1241,2203],[1241,2410],[1200,2410] : [1] 
Wall : [1287,1010],[1348,1010],[1348,1053],[1287,1053] : [1] 
Wall : [1206,2032],[1241,2032],[1241,2109],[1206,2109] : [1] 
Wall : [1323,810],[1721,810],[1721,834],[1323,834] : [1] 
Wall : [1200,1749],[1223,1749],[1223,2109],[1200,2109] : [1] 
Wall : [1324,1300],[1348,1300],[1348,1649],[1324,1649] : [1] 
Wall : [1324,810],[1347,810],[1347,1200],[1324,1200] : [1] 
Wall : [1199,1625],[1223,1625],[1223,1649],[1199,1649] : [1] 
Wall : [1323,1749],[1721,1749],[1721,1755],[1323,1755] : [1] 
Wall : [1323,1536],[1721,1536],[1721,1542],[1323,1542] : [1] 
Wall : [1199,2085],[1721,2085],[1721,2092],[1199,2092] : [1] 
Wall : [773,1625],[1224,1625],[1224,1631],[773,1631] : [1] 
