Door : [1182,1010],[1287,1010],[1287,1052],[1182,1052] : [1] 
Door : [1223,1624],[1324,1624],[1324,1631],[1223,1631] : [1] 
Door : [1347,1010],[1447,1010],[1447,1052],[1347,1052] : [1] 
Door : [1222,1748],[1323,1748],[1323,1755],[1222,1755] : [1] 
Door : [1323,1199],[1347,1199],[1347,1300],[1323,1300] : [1] 
Door : [1199,1648],[1223,1648],[1223,1749],[1199,1749] : [1] 
Door : [1205,2108],[1241,2108],[1241,2203],[1205,2203] : [1] 
Door : [1427,1557],[1443,1735],[1468,1732],[1452,1554] : [0.866666666667] 
