chambre 2 : [830,569] : [714,554,947,584] : confidence,dict,original_word,difference : [80,DM,None,0]
chambre 3 : [1580,581] : [1464,566,1697,597] : confidence,dict,original_word,difference : [89,DM,None,0]
cellier : [2002,569] : [1919,554,2085,585] : confidence,dict,original_word,difference : [77,DM,None,0]
garage : [2417,578] : [2332,557,2502,599] : confidence,dict,original_word,difference : [81,DM,None,0]
hall : [1449,912] : [1400,897,1498,927] : confidence,dict,original_word,difference : [82,DM,None,0]
cuisine : [2123,923] : [2043,908,2203,939] : confidence,dict,original_word,difference : [86,DM,None,0]
sejour : [901,1177] : [820,1162,982,1193] : confidence,dict,original_word,difference : [70,DM,None,0]
chambre 1 : [1388,1160] : [1275,1145,1502,1175] : confidence,dict,original_word,difference : [95,DM,None,0]
No Text Detected
