Window : [2192,1667],[2216,1667],[2216,1833],[2192,1833] : [1] 
Window : [764,2401],[928,2401],[928,2444],[764,2444] : [1] 
Window : [1234,1446],[1278,1446],[1278,1527],[1234,1527] : [1] 
Window : [1153,2401],[1318,2401],[1318,2444],[1153,2444] : [1] 
Window : [1784,2128],[1827,2128],[1827,2294],[1784,2294] : [1] 
Window : [1235,839],[1260,839],[1260,1313],[1235,1313] : [1] 
Window : [1520,2401],[1684,2401],[1684,2444],[1520,2444] : [1] 
Window : [1927,1976],[2091,1976],[2091,2018],[1927,2018] : [1] 
Window : [946,1527],[1017,1527],[1017,1569],[946,1569] : [1] 
Window : [746,1403],[816,1403],[816,1445],[746,1445] : [1] 
Window : [398,2401],[562,2401],[562,2444],[398,2444] : [1] 
Window : [2193,2343],[2216,2343],[2216,2060],[2193,2060] : [0.5] 
Window : [930,1446],[1211,1429],[1211,1403],[930,1404] : [0.5] 
Window : [238,1768],[287,1768],[279,1603],[238,1603] : [0.5] 
Window : [2175,1237],[2216,1237],[2216,1007],[2193,1007] : [0.5] 
Window : [1893,2444],[2174,2444],[2174,2419],[1893,2401] : [0.5] 
