garage : [870,885] : [785,870,955,901] : confidence,dict,original_word,difference : [93,DM,None,0]
cellier : [1434,885] : [1351,870,1517,901] : confidence,dict,original_word,difference : [92,DM,None,0]
chambre 2 : [902,1212] : [786,1197,1019,1228] : confidence,dict,original_word,difference : [92,DM,None,0]
bains : [1427,1209] : [1369,1194,1486,1225] : confidence,dict,original_word,difference : [90,DM,None,0]
wc : [1536,1380] : [1503,1356,1569,1405] : confidence,dict,original_word,difference : [83,DM,None,0]
porche : [852,1570] : [768,1555,936,1586] : confidence,dict,original_word,difference : [91,DM,None,0]
chambre 1 : [1595,1612] : [1482,1597,1709,1628] : confidence,dict,original_word,difference : [87,DM,None,0]
cuisine : [999,1800] : [918,1785,1080,1816] : confidence,dict,original_word,difference : [90,DM,None,0]
sejour : [1614,2103] : [1533,2088,1695,2119] : confidence,dict,original_word,difference : [88,DM,None,0]
repas : [1156,2243] : [1090,2228,1223,2259] : confidence,dict,original_word,difference : [88,DM,None,0]
terrassecouverte : [619,2390] : [508,2351,730,2430] : confidence,dict,original_word,difference : [91,DM,None,0]
pl : [831,2451] : [819,2439,844,2464] : confidence,dict,original_word,difference : [84,SG,el,1]
No Text Detected
