Total No of Rooms: 14
single : room 1 : maybe bedroom 3 : [927,2161] : contour_details : [638 1967],[638 2296],[819 2296],[820 2295],[1109 2295],[1109 2105],[1108 2104],[1108 2079],[1109 2078],[1109 2069],[1108 2068],[1108 2061],[1109 2060],[1109 1968],[738 1968],[737 1967]

single : room 2 : maybe closet : [821,1925] : contour_details : [745 1892],[745 1928],[746 1929],[746 1964],[900 1964],[900 1892]

single : room 3 : maybe bedroom 2 : [419,2025] : contour_details : [278 1861],[278 2295],[564 2295],[565 2296],[630 2296],[630 1961],[629 1960],[629 1862],[453 1862],[452 1861]

single : room 4 : maybe closet : [349,1813] : contour_details : [278 1786],[278 1821],[279 1822],[279 1857],[451 1857],[451 1786]

single : room 5 : maybe corridor : [835,1830] : contour_details : [669 1784],[668 1785],[638 1785],[638 1805],[696 1863],[1083 1863],[1083 1784],[1005 1784],[1004 1785],[997 1785],[996 1784],[991 1784],[990 1785],[989 1785],[988 1784],[899 1784],[898 1785],[758 1785],[757 1784]

single : room 6 : maybe closet : [544,1813] : contour_details : [462 1780],[462 1785],[461 1786],[461 1815],[462 1816],[462 1851],[628 1851],[628 1802],[611 1785],[610 1785],[605 1780]

single : room 7 : unknown room : [1044,1739] : contour_details : [1012 1693],[1012 1776],[1083 1776],[1083 1735],[1081 1733],[1081 1732],[1079 1730],[1079 1729],[1058 1708],[1057 1708],[1056 1707],[1055 1707],[1054 1706],[1053 1706],[1052 1705],[1051 1705],[1050 1704],[1049 1704],[1048 1703],[1047 1703],[1046 1702],[1045 1702],[1044 1701],[1043 1701],[1042 1700],[1040 1700],[1039 1699],[1038 1699],[1037 1698],[1036 1698],[1035 1697],[1034 1697],[1033 1696],[1032 1696],[1031 1695],[1030 1695],[1029 1694],[1028 1694],[1027 1693]

single : room 8 : unknown room : [721,1741] : contour_details : [748 1693],[747 1694],[745 1694],[744 1695],[743 1695],[742 1696],[740 1696],[739 1697],[738 1697],[737 1698],[735 1698],[734 1699],[732 1699],[731 1700],[730 1700],[729 1701],[727 1701],[726 1702],[725 1702],[724 1703],[722 1703],[721 1704],[719 1704],[718 1705],[717 1705],[716 1706],[714 1706],[713 1707],[712 1707],[707 1712],[706 1712],[690 1728],[690 1729],[689 1730],[689 1731],[688 1732],[688 1733],[687 1734],[687 1735],[686 1736],[686 1737],[684 1739],[684 1740],[683 1741],[683 1742],[682 1743],[682 1744],[681 1745],[681 1746],[680 1747],[680 1748],[679 1749],[679 1750],[678 1751],[678 1752],[676 1754],[676 1755],[675 1756],[675 1776],[756 1776],[756 1693]

single : room 9 : unknown room : [1118,1652] : contour_details : [1005 1549],[1005 1776],[1008 1776],[1008 1691],[1010 1689],[1026 1689],[1027 1690],[1029 1690],[1030 1691],[1031 1691],[1032 1692],[1033 1692],[1034 1693],[1035 1693],[1036 1694],[1037 1694],[1038 1695],[1039 1695],[1040 1696],[1041 1696],[1042 1697],[1043 1697],[1044 1698],[1046 1698],[1047 1699],[1048 1699],[1049 1700],[1050 1700],[1051 1701],[1052 1701],[1053 1702],[1054 1702],[1055 1703],[1056 1703],[1057 1704],[1058 1704],[1059 1705],[1061 1705],[1082 1726],[1082 1727],[1084 1729],[1084 1730],[1086 1732],[1086 1733],[1087 1734],[1087 1776],[1102 1776],[1103 1777],[1213 1777],[1213 1549]

single : room 10 : maybe bedroom 1 : [570,1547] : contour_details : [278 1449],[278 1548],[277 1549],[277 1688],[278 1689],[278 1777],[458 1777],[459 1776],[607 1776],[625 1794],[626 1794],[630 1798],[630 1785],[629 1784],[629 1778],[630 1777],[663 1777],[664 1776],[669 1776],[670 1775],[671 1775],[671 1757],[672 1756],[672 1755],[673 1754],[673 1753],[674 1752],[674 1751],[675 1750],[675 1749],[676 1748],[676 1747],[677 1746],[677 1745],[679 1743],[679 1742],[680 1741],[680 1740],[681 1739],[681 1738],[682 1737],[682 1736],[683 1735],[683 1734],[684 1733],[684 1732],[685 1731],[685 1730],[687 1728],[687 1727],[688 1726],[688 1724],[693 1719],[694 1719],[709 1704],[711 1704],[712 1703],[714 1703],[715 1702],[716 1702],[717 1701],[719 1701],[720 1700],[721 1700],[722 1699],[724 1699],[725 1698],[727 1698],[728 1697],[729 1697],[730 1696],[732 1696],[733 1695],[734 1695],[735 1694],[737 1694],[738 1693],[740 1693],[741 1692],[742 1692],[743 1691],[745 1691],[746 1690],[747 1690],[748 1689],[758 1689],[760 1691],[760 1776],[765 1776],[766 1777],[766 1667],[765 1666],[765 1660],[766 1659],[766 1449]

single : room 11 : unknown room : [909,1520] : contour_details : [846 1447],[846 1448],[845 1449],[774 1449],[774 1659],[841 1659],[841 1571],[843 1569],[996 1569],[996 1549],[995 1548],[995 1541],[996 1540],[1097 1540],[1097 1448],[937 1448],[936 1447]

open : plan 1-room 12 : entry : [1351, 1925] : contour_details : [ 639 1815],[ 640 1814],[ 656 1830],[ 657 1830],[ 684 1857],[ 685 1857],[ 694 1866],[1874 1866],[1875 1867],[1875 2057],[1874 2058],[1237 2058],[1236 2057],[1236 1884],[1235 1883],[1214 1883],[1213 1884],[1213 2076],[1212 2077],[1165 2077],[1164 2076],[1164 2070],[1165 2069],[1170 2069],[1171 2068],[1171 2060],[1170 2059],[1120 2059],[1119 2058],[1119 1932],[1118 1931],[1109 1931],[1108 1932],[1108 1958],[1107 1959],[ 912 1959],[ 911 1958],[ 911 1884],[ 910 1883],[ 737 1883],[ 736 1884],[ 736 1957],[ 735 1958],[ 640 1958],[ 639 1957]

open : plan 1-room 13 : dining : [1653, 1783] : contour_details : [1224 1542],[1225 1541],[1874 1541],[1875 1542],[1875 1863],[1874 1864],[1089 1864],[1088 1863],[1088 1786],[1089 1785],[1223 1785],[1224 1784]

open : plan 1-room 14 : living : [1640, 1375] : contour_details : [1455 1126],[1456 1125],[1874 1125],[1875 1126],[1875 1538],[1874 1539],[1397 1539],[1396 1538],[1396 1534],[1397 1533],[1397 1527],[1398 1526],[1398 1520],[1399 1519],[1399 1513],[1400 1512],[1400 1506],[1401 1505],[1401 1499],[1402 1498],[1402 1492],[1403 1491],[1403 1485],[1404 1484],[1404 1478],[1405 1477],[1405 1471],[1406 1470],[1406 1464],[1407 1463],[1407 1457],[1408 1456],[1408 1450],[1409 1449],[1409 1443],[1410 1442],[1410 1436],[1411 1435],[1411 1430],[1412 1429],[1412 1423],[1413 1422],[1413 1416],[1414 1415],[1414 1409],[1415 1408],[1415 1402],[1416 1401],[1416 1395],[1417 1394],[1417 1388],[1418 1387],[1418 1381],[1419 1380],[1419 1374],[1420 1373],[1420 1367],[1421 1366],[1421 1360],[1422 1359],[1422 1353],[1423 1352],[1423 1346],[1424 1345],[1424 1339],[1425 1338],[1425 1332],[1426 1331],[1426 1326],[1427 1325],[1427 1319],[1428 1318],[1428 1312],[1429 1311],[1429 1305],[1430 1304],[1430 1298],[1431 1297],[1431 1291],[1432 1290],[1432 1284],[1433 1283],[1433 1277],[1434 1276],[1434 1270],[1435 1269],[1435 1263],[1436 1262],[1436 1256],[1437 1255],[1437 1249],[1438 1248],[1438 1242],[1439 1241],[1439 1235],[1440 1234],[1440 1228],[1441 1227],[1441 1222],[1442 1221],[1442 1215],[1443 1214],[1443 1208],[1444 1207],[1444 1201],[1445 1200],[1445 1194],[1446 1193],[1446 1187],[1447 1186],[1447 1180],[1448 1179],[1448 1173],[1449 1172],[1449 1166],[1450 1165],[1450 1159],[1451 1158],[1451 1152],[1452 1151],[1452 1145],[1453 1144],[1453 1138],[1454 1137],[1454 1131],[1455 1130]

open : plan 1-room 15 : kitchen : [1209, 1316] : contour_details : [1237 1126],[1238 1125],[1453 1125],[1454 1126],[1454 1131],[1453 1132],[1453 1137],[1452 1138],[1452 1144],[1451 1145],[1451 1151],[1450 1152],[1450 1158],[1449 1159],[1449 1165],[1448 1166],[1448 1172],[1447 1173],[1447 1179],[1446 1180],[1446 1186],[1445 1187],[1445 1193],[1444 1194],[1444 1200],[1443 1201],[1443 1207],[1442 1208],[1442 1214],[1441 1215],[1441 1221],[1440 1222],[1440 1228],[1439 1229],[1439 1235],[1438 1236],[1438 1241],[1437 1242],[1437 1248],[1436 1249],[1436 1255],[1435 1256],[1435 1262],[1434 1263],[1434 1269],[1433 1270],[1433 1276],[1432 1277],[1432 1283],[1431 1284],[1431 1290],[1430 1291],[1430 1297],[1429 1298],[1429 1304],[1428 1305],[1428 1311],[1427 1312],[1427 1318],[1426 1319],[1426 1325],[1425 1326],[1425 1332],[1424 1333],[1424 1339],[1423 1340],[1423 1345],[1422 1346],[1422 1352],[1421 1353],[1421 1359],[1420 1360],[1420 1366],[1419 1367],[1419 1373],[1418 1374],[1418 1380],[1417 1381],[1417 1387],[1416 1388],[1416 1394],[1415 1395],[1415 1401],[1414 1402],[1414 1408],[1413 1409],[1413 1415],[1412 1416],[1412 1422],[1411 1423],[1411 1429],[1410 1430],[1410 1436],[1409 1437],[1409 1443],[1408 1444],[1408 1449],[1407 1450],[1407 1456],[1406 1457],[1406 1463],[1405 1464],[1405 1470],[1404 1471],[1404 1477],[1403 1478],[1403 1484],[1402 1485],[1402 1491],[1401 1492],[1401 1498],[1400 1499],[1400 1505],[1399 1506],[1399 1512],[1398 1513],[1398 1519],[1397 1520],[1397 1526],[1396 1527],[1396 1533],[1395 1534],[1395 1538],[1394 1539],[1107 1539],[1106 1538],[1106 1439],[1105 1438],[1027 1438],[1026 1437],[1026 1364],[1025 1363],[1019 1363],[1018 1364],[1018 1367],[1017 1368],[1010 1368],[1009 1367],[1009 1131],[1010 1130],[1236 1130],[1237 1129]

open : plan 2-room 16 : cellar : [1213, 986] : contour_details : [994 755],[995 754],[996 754],[997 755],[998 755],[999 756],[1000  756],[1001  757],[1002  757],[1003  758],[1004  758],[1005  759],[1006  759],[1007  760],[1008  760],[1009  761],[1010  761],[1011  762],[1012  762],[1013  763],[1014  763],[1015  764],[1016  764],[1017  765],[1018  765],[1019  766],[1020  766],[1021  767],[1022  767],[1023  768],[1024  768],[1025  769],[1026  769],[1027  770],[1028  770],[1029  771],[1031  771],[1032  772],[1033  772],[1034  773],[1035  773],[1036  774],[1037  774],[1038  775],[1039  775],[1040  776],[1041  776],[1042  777],[1043  777],[1044  778],[1045  778],[1046  779],[1047  779],[1048  780],[1049  780],[1050  781],[1051  781],[1052  782],[1053  782],[1054  783],[1055  783],[1056  784],[1057  784],[1058  785],[1059  785],[1060  786],[1061  786],[1062  787],[1063  787],[1064  788],[1065  788],[1066  789],[1067  789],[1068  790],[1069  790],[1070  791],[1071  791],[1072  792],[1073  792],[1074  793],[1075  793],[1076  794],[1077  794],[1078  795],[1079  795],[1080  796],[1081  796],[1082  797],[1083  797],[1084  798],[1085  798],[1086  799],[1087  799],[1088  800],[1089  800],[1090  801],[1091  801],[1092  802],[1093  802],[1094  803],[1095  803],[1096  804],[1097  804],[1098  805],[1099  805],[1100  806],[1101  806],[1102  807],[1103  807],[1104  808],[1105  808],[1106  809],[1107  809],[1108  810],[1109  810],[1110  811],[1111  811],[1112  812],[1113  812],[1114  813],[1115  813],[1116  814],[1118  814],[1119  815],[1120  815],[1121  816],[1122  816],[1123  817],[1124  817],[1125  818],[1126  818],[1127  819],[1128  819],[1129  820],[1130  820],[1131  821],[1132  821],[1133  822],[1134  822],[1135  823],[1136  823],[1137  824],[1138  824],[1139  825],[1140  825],[1141  826],[1142  826],[1143  827],[1144  827],[1145  828],[1146  828],[1147  829],[1148  829],[1149  830],[1150  830],[1151  831],[1152  831],[1153  832],[1154  832],[1155  833],[1156  833],[1157  834],[1158  834],[1159  835],[1160  835],[1161  836],[1162  836],[1163  837],[1164  837],[1165  838],[1166  838],[1167  839],[1168  839],[1169  840],[1170  840],[1171  841],[1172  841],[1173  842],[1174  842],[1175  843],[1176  843],[1177  844],[1178  844],[1179  845],[1180  845],[1181  846],[1182  846],[1183  847],[1184  847],[1185  848],[1186  848],[1187  849],[1188  849],[1189  850],[1190  850],[1191  851],[1192  851],[1193  852],[1194  852],[1195  853],[1196  853],[1197  854],[1198  854],[1199  855],[1200  855],[1201  856],[1202  856],[1203  857],[1205  857],[1206  858],[1207  858],[1208  859],[1209  859],[1210  860],[1211  860],[1212  861],[1213  861],[1214  862],[1215  862],[1216  863],[1217  863],[1218  864],[1219  864],[1220  865],[1221  865],[1222  866],[1223  866],[1224  867],[1225  867],[1226  868],[1227  868],[1228  869],[1229  869],[1230  870],[1231  870],[1232  871],[1233  871],[1234  872],[1235  872],[1236  873],[1237  873],[1238  874],[1239  874],[1240  875],[1241  875],[1242  876],[1243  876],[1244  877],[1245  877],[1246  878],[1247  878],[1248  879],[1249  879],[1250  880],[1251  880],[1252  881],[1253  881],[1254  882],[1255  882],[1256  883],[1257  883],[1258  884],[1259  884],[1260  885],[1261  885],[1262  886],[1263  886],[1264  887],[1265  887],[1266  888],[1267  888],[1268  889],[1269  889],[1270  890],[1271  890],[1272  891],[1273  891],[1274  892],[1275  892],[1276  893],[1277  893],[1278  894],[1279  894],[1280  895],[1281  895],[1282  896],[1283  896],[1284  897],[1285  897],[1286  898],[1287  898],[1288  899],[1289  899],[1290  900],[1292  900],[1293  901],[1294  901],[1295  902],[1296  902],[1297  903],[1298  903],[1299  904],[1300  904],[1301  905],[1302  905],[1303  906],[1304  906],[1305  907],[1306  907],[1307  908],[1308  908],[1309  909],[1310  909],[1311  910],[1312  910],[1313  911],[1314  911],[1315  912],[1316  912],[1317  913],[1318  913],[1319  914],[1320  914],[1321  915],[1322  915],[1323  916],[1324  916],[1325  917],[1326  917],[1327  918],[1328  918],[1329  919],[1330  919],[1331  920],[1332  920],[1333  921],[1334  921],[1335  922],[1336  922],[1337  923],[1338  923],[1339  924],[1340  924],[1341  925],[1342  925],[1343  926],[1344  926],[1345  927],[1346  927],[1347  928],[1348  928],[1349  929],[1350  929],[1351  930],[1352  930],[1353  931],[1354  931],[1355  932],[1356  932],[1357  933],[1358  933],[1359  934],[1360  934],[1361  935],[1362  935],[1363  936],[1364  936],[1365  937],[1366  937],[1367  938],[1368  938],[1369  939],[1370  939],[1371  940],[1372  940],[1373  941],[1374  941],[1375  942],[1376  942],[1377  943],[1379  943],[1380  944],[1381  944],[1382  945],[1383  945],[1384  946],[1385  946],[1386  947],[1387  947],[1388  948],[1389  948],[1390  949],[1391  949],[1392  950],[1393  950],[1394  951],[1395  951],[1396  952],[1397  952],[1398  953],[1399  953],[1400  954],[1401  954],[1402  955],[1403  955],[1404  956],[1405  956],[1406  957],[1407  957],[1408  958],[1409  958],[1410  959],[1411  959],[1412  960],[1413  960],[1414  961],[1415  961],[1416  962],[1417  962],[1418  963],[1419  963],[1420  964],[1421  964],[1422  965],[1423  965],[1424  966],[1425  966],[1426  967],[1426  971],[1427  972],[1427  977],[1428  978],[1428  983],[1429  984],[1429  989],[1430  990],[1430  995],[1431  996],[1431 1001],[1432 1002],[1432 1007],[1433 1008],[1433 1013],[1434 1014],[1434 1019],[1435 1020],[1435 1025],[1436 1026],[1436 1031],[1437 1032],[1437 1037],[1438 1038],[1438 1043],[1439 1044],[1439 1049],[1440 1050],[1440 1055],[1441 1056],[1441 1061],[1442 1062],[1442 1067],[1443 1068],[1443 1073],[1444 1074],[1444 1079],[1445 1080],[1445 1085],[1446 1086],[1446 1091],[1447 1092],[1447 1096],[1446 1097],[1008 1097],[1007 1096],[1007 1073],[1006 1072],[1006 1048],[1005 1047],[1005 1023],[1004 1022],[1004  997],[1003  996],[1003  972],[1002  971],[1002  946],[1001  945],[1001  921],[1000  920],[1000  896],[999 895],[999 870],[998 869],[998 845],[997 844],[997 820],[996 819],[996 794],[995 793],[995 769],[994 768]

open : plan 2-room 17 : storage : [1689, 992] : contour_details : [1689  570],[1891  570],[1892  571],[1892 1038],[1891 1039],[1875 1039],[1874 1040],[1874 1096],[1873 1097],[1449 1097],[1448 1096],[1448 1093],[1447 1092],[1447 1087],[1446 1086],[1446 1081],[1445 1080],[1445 1075],[1444 1074],[1444 1069],[1443 1068],[1443 1063],[1442 1062],[1442 1057],[1441 1056],[1441 1051],[1440 1050],[1440 1045],[1439 1044],[1439 1039],[1438 1038],[1438 1033],[1437 1032],[1437 1027],[1436 1026],[1436 1021],[1435 1020],[1435 1015],[1434 1014],[1434 1009],[1433 1008],[1433 1003],[1432 1002],[1432  997],[1431  996],[1431  991],[1430  990],[1433  987],[1433  986],[1434  985],[1434  984],[1436  982],[1436  981],[1437  980],[1437  979],[1439  977],[1439  976],[1441  974],[1441  973],[1442  972],[1442  971],[1444  969],[1444  968],[1445  967],[1445  966],[1447  964],[1447  963],[1449  961],[1449  960],[1450  959],[1450  958],[1452  956],[1452  955],[1453  954],[1453  953],[1455  951],[1455  950],[1457  948],[1457  947],[1458  946],[1458  945],[1460  943],[1460  942],[1461  941],[1461  940],[1463  938],[1463  937],[1464  936],[1464  935],[1466  933],[1466  932],[1468  930],[1468  929],[1469  928],[1469  927],[1471  925],[1471  924],[1472  923],[1472  922],[1474  920],[1474  919],[1476  917],[1476  916],[1477  915],[1477  914],[1479  912],[1479  911],[1480  910],[1480  909],[1482  907],[1482  906],[1483  905],[1483  904],[1485  902],[1485  901],[1487  899],[1487  898],[1488  897],[1488  896],[1490  894],[1490  893],[1491  892],[1491  891],[1493  889],[1493  888],[1495  886],[1495  885],[1496  884],[1496  883],[1498  881],[1498  880],[1499  879],[1499  878],[1501  876],[1501  875],[1503  873],[1503  872],[1504  871],[1504  870],[1506  868],[1506  867],[1507  866],[1507  865],[1509  863],[1509  862],[1510  861],[1510  860],[1512  858],[1512  857],[1514  855],[1514  854],[1515  853],[1515  852],[1517  850],[1517  849],[1518  848],[1518  847],[1520  845],[1520  844],[1522  842],[1522  841],[1523  840],[1523  839],[1525  837],[1525  836],[1526  835],[1526  834],[1528  832],[1528  831],[1529  830],[1529  829],[1531  827],[1531  826],[1533  824],[1533  823],[1534  822],[1534  821],[1536  819],[1536  818],[1537  817],[1537  816],[1539  814],[1539  813],[1541  811],[1541  810],[1542  809],[1542  808],[1544  806],[1544  805],[1545  804],[1545  803],[1547  801],[1547  800],[1549  798],[1549  797],[1550  796],[1550  795],[1552  793],[1552  792],[1553  791],[1553  790],[1555  788],[1555  787],[1556  786],[1556  785],[1558  783],[1558  782],[1560  780],[1560  779],[1561  778],[1561  777],[1563  775],[1563  774],[1564  773],[1564  772],[1566  770],[1566  769],[1568  767],[1568  766],[1569  765],[1569  764],[1571  762],[1571  761],[1572  760],[1572  759],[1574  757],[1574  756],[1575  755],[1575  754],[1577  752],[1577  751],[1579  749],[1579  748],[1580  747],[1580  746],[1582  744],[1582  743],[1583  742],[1583  741],[1585  739],[1585  738],[1587  736],[1587  735],[1588  734],[1588  733],[1590  731],[1590  730],[1591  729],[1591  728],[1593  726],[1593  725],[1595  723],[1595  722],[1596  721],[1596  720],[1598  718],[1598  717],[1599  716],[1599  715],[1601  713],[1601  712],[1602  711],[1602  710],[1604  708],[1604  707],[1606  705],[1606  704],[1607  703],[1607  702],[1609  700],[1609  699],[1610  698],[1610  697],[1612  695],[1612  694],[1614  692],[1614  691],[1615  690],[1615  689],[1617  687],[1617  686],[1618  685],[1618  684],[1620  682],[1620  681],[1621  680],[1621  679],[1623  677],[1623  676],[1625  674],[1625  673],[1626  672],[1626  671],[1628  669],[1628  668],[1629  667],[1629  666],[1631  664],[1631  663],[1633  661],[1633  660],[1634  659],[1634  658],[1636  656],[1636  655],[1637  654],[1637  653],[1639  651],[1639  650],[1641  648],[1641  647],[1642  646],[1642  645],[1644  643],[1644  642],[1645  641],[1645  640],[1647  638],[1647  637],[1648  636],[1648  635],[1650  633],[1650  632],[1652  630],[1652  629],[1653  628],[1653  627],[1655  625],[1655  624],[1656  623],[1656  622],[1658  620],[1658  619],[1660  617],[1660  616],[1661  615],[1661  614],[1663  612],[1663  611],[1664  610],[1664  609],[1666  607],[1666  606],[1667  605],[1667  604],[1669  602],[1669  601],[1671  599],[1671  598],[1672  597],[1672  596],[1674  594],[1674  593],[1675  592],[1675  591],[1677  589],[1677  588],[1679  586],[1679  585],[1680  584],[1680  583],[1682  581],[1682  580],[1683  579],[1683  578],[1685  576],[1685  575],[1687  573],[1687  572]

open : plan 2-room 18 : garage : [1426, 732] : contour_details : [1011  571],[1012  570],[1685  570],[1686  571],[1685  572],[1685  573],[1683  575],[1683  576],[1682  577],[1682  578],[1680  580],[1680  581],[1678  583],[1678  584],[1677  585],[1677  586],[1675  588],[1675  589],[1674  590],[1674  591],[1672  593],[1672  594],[1670  596],[1670  597],[1669  598],[1669  599],[1667  601],[1667  602],[1666  603],[1666  604],[1664  606],[1664  607],[1663  608],[1663  609],[1661  611],[1661  612],[1659  614],[1659  615],[1658  616],[1658  617],[1656  619],[1656  620],[1655  621],[1655  622],[1653  624],[1653  625],[1651  627],[1651  628],[1650  629],[1650  630],[1648  632],[1648  633],[1647  634],[1647  635],[1645  637],[1645  638],[1643  640],[1643  641],[1642  642],[1642  643],[1640  645],[1640  646],[1639  647],[1639  648],[1637  650],[1637  651],[1636  652],[1636  653],[1634  655],[1634  656],[1632  658],[1632  659],[1631  660],[1631  661],[1629  663],[1629  664],[1628  665],[1628  666],[1626  668],[1626  669],[1624  671],[1624  672],[1623  673],[1623  674],[1621  676],[1621  677],[1620  678],[1620  679],[1618  681],[1618  682],[1616  684],[1616  685],[1615  686],[1615  687],[1613  689],[1613  690],[1612  691],[1612  692],[1610  694],[1610  695],[1609  696],[1609  697],[1607  699],[1607  700],[1605  702],[1605  703],[1604  704],[1604  705],[1602  707],[1602  708],[1601  709],[1601  710],[1599  712],[1599  713],[1597  715],[1597  716],[1596  717],[1596  718],[1594  720],[1594  721],[1593  722],[1593  723],[1591  725],[1591  726],[1590  727],[1590  728],[1588  730],[1588  731],[1586  733],[1586  734],[1585  735],[1585  736],[1583  738],[1583  739],[1582  740],[1582  741],[1580  743],[1580  744],[1578  746],[1578  747],[1577  748],[1577  749],[1575  751],[1575  752],[1574  753],[1574  754],[1572  756],[1572  757],[1570  759],[1570  760],[1569  761],[1569  762],[1567  764],[1567  765],[1566  766],[1566  767],[1564  769],[1564  770],[1563  771],[1563  772],[1561  774],[1561  775],[1559  777],[1559  778],[1558  779],[1558  780],[1556  782],[1556  783],[1555  784],[1555  785],[1553  787],[1553  788],[1551  790],[1551  791],[1550  792],[1550  793],[1548  795],[1548  796],[1547  797],[1547  798],[1545  800],[1545  801],[1544  802],[1544  803],[1542  805],[1542  806],[1540  808],[1540  809],[1539  810],[1539  811],[1537  813],[1537  814],[1536  815],[1536  816],[1534  818],[1534  819],[1532  821],[1532  822],[1531  823],[1531  824],[1529  826],[1529  827],[1528  828],[1528  829],[1526  831],[1526  832],[1524  834],[1524  835],[1523  836],[1523  837],[1521  839],[1521  840],[1520  841],[1520  842],[1518  844],[1518  845],[1517  846],[1517  847],[1515  849],[1515  850],[1513  852],[1513  853],[1512  854],[1512  855],[1510  857],[1510  858],[1509  859],[1509  860],[1507  862],[1507  863],[1505  865],[1505  866],[1504  867],[1504  868],[1502  870],[1502  871],[1501  872],[1501  873],[1499  875],[1499  876],[1498  877],[1498  878],[1496  880],[1496  881],[1494  883],[1494  884],[1493  885],[1493  886],[1491  888],[1491  889],[1490  890],[1490  891],[1488  893],[1488  894],[1486  896],[1486  897],[1485  898],[1485  899],[1483  901],[1483  902],[1482  903],[1482  904],[1480  906],[1480  907],[1478  909],[1478  910],[1477  911],[1477  912],[1475  914],[1475  915],[1474  916],[1474  917],[1472  919],[1472  920],[1471  921],[1471  922],[1469  924],[1469  925],[1467  927],[1467  928],[1466  929],[1466  930],[1464  932],[1464  933],[1463  934],[1463  935],[1461  937],[1461  938],[1459  940],[1459  941],[1458  942],[1458  943],[1456  945],[1456  946],[1455  947],[1455  948],[1453  950],[1453  951],[1452  952],[1452  953],[1450  955],[1450  956],[1448  958],[1448  959],[1447  960],[1447  961],[1445  963],[1445  964],[1444  965],[1444  966],[1442  968],[1442  969],[1440  971],[1440  972],[1439  973],[1439  974],[1437  976],[1437  977],[1436  978],[1436  979],[1434  981],[1434  982],[1432  984],[1432  985],[1431  986],[1429  984],[1429  979],[1428  978],[1428  973],[1427  972],[1427  966],[1426  965],[1425  965],[1424  964],[1423  964],[1422  963],[1421  963],[1420  962],[1419  962],[1418  961],[1417  961],[1416  960],[1415  960],[1414  959],[1413  959],[1412  958],[1411  958],[1410  957],[1409  957],[1408  956],[1407  956],[1406  955],[1405  955],[1404  954],[1403  954],[1402  953],[1401  953],[1400  952],[1399  952],[1398  951],[1397  951],[1396  950],[1395  950],[1394  949],[1393  949],[1392  948],[1391  948],[1390  947],[1388  947],[1387  946],[1386  946],[1385  945],[1384  945],[1383  944],[1382  944],[1381  943],[1380  943],[1379  942],[1378  942],[1377  941],[1376  941],[1375  940],[1374  940],[1373  939],[1372  939],[1371  938],[1370  938],[1369  937],[1368  937],[1367  936],[1366  936],[1365  935],[1364  935],[1363  934],[1362  934],[1361  933],[1360  933],[1359  932],[1358  932],[1357  931],[1356  931],[1355  930],[1354  930],[1353  929],[1352  929],[1351  928],[1350  928],[1349  927],[1348  927],[1347  926],[1346  926],[1345  925],[1344  925],[1343  924],[1342  924],[1341  923],[1340  923],[1339  922],[1338  922],[1337  921],[1336  921],[1335  920],[1334  920],[1333  919],[1332  919],[1331  918],[1330  918],[1329  917],[1328  917],[1327  916],[1326  916],[1325  915],[1324  915],[1323  914],[1322  914],[1321  913],[1320  913],[1319  912],[1318  912],[1317  911],[1316  911],[1315  910],[1314  910],[1313  909],[1312  909],[1311  908],[1310  908],[1309  907],[1308  907],[1307  906],[1306  906],[1305  905],[1304  905],[1303  904],[1301  904],[1300  903],[1299  903],[1298  902],[1297  902],[1296  901],[1295  901],[1294  900],[1293  900],[1292  899],[1291  899],[1290  898],[1289  898],[1288  897],[1287  897],[1286  896],[1285  896],[1284  895],[1283  895],[1282  894],[1281  894],[1280  893],[1279  893],[1278  892],[1277  892],[1276  891],[1275  891],[1274  890],[1273  890],[1272  889],[1271  889],[1270  888],[1269  888],[1268  887],[1267  887],[1266  886],[1265  886],[1264  885],[1263  885],[1262  884],[1261  884],[1260  883],[1259  883],[1258  882],[1257  882],[1256  881],[1255  881],[1254  880],[1253  880],[1252  879],[1251  879],[1250  878],[1249  878],[1248  877],[1247  877],[1246  876],[1245  876],[1244  875],[1243  875],[1242  874],[1241  874],[1240  873],[1239  873],[1238  872],[1237  872],[1236  871],[1235  871],[1234  870],[1233  870],[1232  869],[1231  869],[1230  868],[1229  868],[1228  867],[1227  867],[1226  866],[1225  866],[1224  865],[1223  865],[1222  864],[1221  864],[1220  863],[1219  863],[1218  862],[1217  862],[1216  861],[1214  861],[1213  860],[1212  860],[1211  859],[1210  859],[1209  858],[1208  858],[1207  857],[1206  857],[1205  856],[1204  856],[1203  855],[1202  855],[1201  854],[1200  854],[1199  853],[1198  853],[1197  852],[1196  852],[1195  851],[1194  851],[1193  850],[1192  850],[1191  849],[1190  849],[1189  848],[1188  848],[1187  847],[1186  847],[1185  846],[1184  846],[1183  845],[1182  845],[1181  844],[1180  844],[1179  843],[1178  843],[1177  842],[1176  842],[1175  841],[1174  841],[1173  840],[1172  840],[1171  839],[1170  839],[1169  838],[1168  838],[1167  837],[1166  837],[1165  836],[1164  836],[1163  835],[1162  835],[1161  834],[1160  834],[1159  833],[1158  833],[1157  832],[1156  832],[1155  831],[1154  831],[1153  830],[1152  830],[1151  829],[1150  829],[1149  828],[1148  828],[1147  827],[1146  827],[1145  826],[1144  826],[1143  825],[1142  825],[1141  824],[1140  824],[1139  823],[1138  823],[1137  822],[1136  822],[1135  821],[1134  821],[1133  820],[1132  820],[1131  819],[1130  819],[1129  818],[1127  818],[1126  817],[1125  817],[1124  816],[1123  816],[1122  815],[1121  815],[1120  814],[1119  814],[1118  813],[1117  813],[1116  812],[1115  812],[1114  811],[1113  811],[1112  810],[1111  810],[1110  809],[1109  809],[1108  808],[1107  808],[1106  807],[1105  807],[1104  806],[1103  806],[1102  805],[1101  805],[1100  804],[1099  804],[1098  803],[1097  803],[1096  802],[1095  802],[1094  801],[1093  801],[1092  800],[1091  800],[1090  799],[1089  799],[1088  798],[1087  798],[1086  797],[1085  797],[1084  796],[1083  796],[1082  795],[1081  795],[1080  794],[1079  794],[1078  793],[1077  793],[1076  792],[1075  792],[1074  791],[1073  791],[1072  790],[1071  790],[1070  789],[1069  789],[1068  788],[1067  788],[1066  787],[1065  787],[1064  786],[1063  786],[1062  785],[1061  785],[1060  784],[1059  784],[1058  783],[1057  783],[1056  782],[1055  782],[1054  781],[1053  781],[1052  780],[1051  780],[1050  779],[1049  779],[1048  778],[1047  778],[1046  777],[1045  777],[1044  776],[1043  776],[1042  775],[1040  775],[1039  774],[1038  774],[1037  773],[1036  773],[1035  772],[1034  772],[1033  771],[1032  771],[1031  770],[1030  770],[1029  769],[1028  769],[1027  768],[1026  768],[1025  767],[1024  767],[1023  766],[1022  766],[1021  765],[1020  765],[1019  764],[1018  764],[1017  763],[1016  763],[1015  762],[1014  762],[1013  761],[1012  761],[1011  760],[1010  760],[1009  759],[1008  759],[1007  758],[1006  758],[1005  757],[1004  757],[1003  756],[1002  756],[1001  755],[1000  755],[999 754],[998 754],[997 753],[996 753],[994 751],[994 744],[993 743],[993 718],[992 717],[992 693],[991 692],[991 668],[990 667],[990 642],[989 641],[989 617],[988 616],[988 593],[989 592],[1010  592],[1011  591]

open : plan 3-room 19 : bathroom : [917, 1623] : contour_details : [ 857 1575],[ 858 1574],[ 989 1574],[ 990 1575],[ 990 1687],[ 989 1688],[ 980 1688],[ 979 1689],[ 979 1693],[ 980 1694],[ 985 1694],[ 986 1695],[ 986 1774],[ 985 1775],[ 908 1775],[ 907 1774],[ 907 1758],[ 908 1757],[ 908 1756],[ 909 1755],[ 909 1754],[ 910 1753],[ 910 1752],[ 911 1751],[ 911 1750],[ 912 1749],[ 912 1748],[ 913 1747],[ 913 1746],[ 914 1745],[ 914 1744],[ 915 1743],[ 915 1742],[ 916 1741],[ 916 1740],[ 917 1739],[ 917 1738],[ 918 1737],[ 918 1736],[ 919 1735],[ 919 1734],[ 920 1733],[ 920 1731],[ 921 1730],[ 921 1729],[ 922 1728],[ 922 1727],[ 929 1720],[ 930 1720],[ 942 1708],[ 943 1708],[ 944 1707],[ 945 1707],[ 946 1706],[ 947 1706],[ 949 1704],[ 950 1704],[ 951 1703],[ 952 1703],[ 953 1702],[ 954 1702],[ 955 1701],[ 956 1701],[ 957 1700],[ 958 1700],[ 959 1699],[ 960 1699],[ 961 1698],[ 962 1698],[ 963 1697],[ 964 1697],[ 966 1695],[ 967 1695],[ 968 1694],[ 969 1694],[ 970 1693],[ 971 1693],[ 972 1692],[ 973 1692],[ 974 1691],[ 973 1690],[ 967 1690],[ 966 1691],[ 965 1691],[ 964 1692],[ 963 1692],[ 962 1693],[ 960 1693],[ 959 1694],[ 958 1694],[ 957 1695],[ 956 1695],[ 955 1696],[ 954 1696],[ 953 1697],[ 951 1697],[ 950 1698],[ 949 1698],[ 948 1699],[ 947 1699],[ 946 1700],[ 945 1700],[ 944 1701],[ 943 1701],[ 942 1702],[ 940 1702],[ 939 1703],[ 938 1703],[ 916 1725],[ 916 1727],[ 915 1728],[ 915 1729],[ 914 1730],[ 914 1731],[ 913 1732],[ 913 1733],[ 912 1734],[ 912 1736],[ 911 1737],[ 911 1738],[ 910 1739],[ 910 1740],[ 909 1741],[ 909 1742],[ 908 1743],[ 908 1744],[ 907 1745],[ 907 1747],[ 906 1748],[ 906 1749],[ 905 1750],[ 905 1751],[ 904 1752],[ 904 1753],[ 903 1754],[ 903 1755],[ 902 1756],[ 902 1757],[ 901 1758],[ 901 1773],[ 900 1774],[ 858 1774],[ 857 1773]

open : plan 3-room 20 : closet : [815, 1718] : contour_details : [ 846 1575],[ 847 1574],[ 854 1574],[ 855 1575],[ 855 1773],[ 854 1774],[ 843 1774],[ 842 1773],[ 842 1736],[ 841 1735],[ 840 1736],[ 840 1773],[ 839 1774],[ 776 1774],[ 775 1773],[ 775 1668],[ 776 1667],[ 845 1667],[ 846 1666]

