Total No of Rooms: 11
single : room 1 : maybe closet : [1705,1073] : contour_details : [1665 1034],[1665 1080],[1666 1081],[1666 1143],[1738 1143],[1738 1034]

single : room 2 : unknown room : [2779,1103] : contour_details : [2616 887],[2616 997],[2617 998],[2617 1321],[2943 1321],[2943 887]

single : room 3 : maybe corridor : [1985,949] : contour_details : [1778 886],[1777 887],[1670 887],[1670 996],[1740 996],[1741 997],[2492 997],[2493 998],[2493 1004],[2492 1005],[2149 1005],[2149 1322],[2276 1322],[2277 1321],[2608 1321],[2608 998],[2607 997],[2607 887],[2602 887],[2601 886],[2493 886],[2492 887],[2366 887],[2365 886],[2257 886],[2256 887],[2135 887],[2134 886],[2026 886],[2025 887],[1887 887],[1886 886]

single : room 4 : maybe cellar : [1395,884] : contour_details : [1406 709],[1405 710],[1305 710],[1305 820],[1306 821],[1306 1145],[1475 1145],[1475 1033],[1476 1032],[1476 709]

single : room 5 : maybe toilet : [1725,766] : contour_details : [1671 605],[1671 802],[1670 803],[1670 808],[1671 808],[1672 809],[1672 879],[1769 879],[1769 605]

single : room 6 : maybe bedroom : [2710,659] : contour_details : [2492 474],[2492 878],[2601 878],[2602 879],[2943 879],[2943 613],[2944 612],[2944 474]

single : room 7 : maybe office : [2132,690] : contour_details : [2025 474],[2025 878],[2134 878],[2135 879],[2248 879],[2248 474]

single : room 8 : maybe dressing room : [1886,678] : contour_details : [1671 474],[1671 595],[1777 595],[1778 596],[1778 878],[1886 878],[1887 879],[2017 879],[2017 474]

single : room 9 : maybe bathroom : [2328,648] : contour_details : [2339 473],[2338 474],[2256 474],[2256 878],[2365 878],[2366 879],[2484 879],[2484 474],[2407 474],[2406 473]

open : plan 1-room 10 : living : [1482, 1516] : contour_details : [1495 1036],[1496 1035],[1661 1035],[1662 1036],[1662 1554],[1661 1555],[ 698 1555],[ 697 1554],[ 697 1384],[ 698 1383],[1306 1383],[1307 1382],[1307 1208],[1308 1207],[1359 1207],[1360 1206],[1360 1154],[1361 1153],[1494 1153],[1495 1152]

open : plan 1-room 11 : kitchen : [1935, 1280] : contour_details : [1749 1007],[1750 1006],[2139 1006],[2140 1007],[2140 1331],[2141 1332],[2234 1332],[2235 1333],[2235 1554],[2234 1555],[1665 1555],[1664 1554],[1664 1154],[1665 1153],[1748 1153],[1749 1152]

open : plan 2-room 12 : storage : [982, 1233] : contour_details : [ 697 1026],[ 698 1025],[1277 1025],[1278 1026],[1278 1338],[1277 1339],[ 698 1339],[ 697 1338]

open : plan 2-room 13 : garage : [977, 819] : contour_details : [697 459],[698 458],[1277  458],[1278  459],[1278 1022],[1277 1023],[ 698 1023],[ 697 1022]

