garage : [563,1151] : [496,1139,631,1164] : confidence,dict,original_word,difference : [92,DM,None,0]
porche : [1308,1617] : [1241,1605,1375,1630] : confidence,dict,original_word,difference : [93,DM,None,0]
cellier : [1081,1664] : [1015,1652,1147,1677] : confidence,dict,original_word,difference : [90,DM,None,0]
wc : [1476,1747] : [1450,1735,1503,1760] : confidence,dict,original_word,difference : [75,DM,None,0]
bains : [1712,1729] : [1665,1717,1759,1742] : confidence,dict,original_word,difference : [82,DM,None,0]
salon : [660,1771] : [607,1759,714,1784] : confidence,dict,original_word,difference : [81,DM,None,0]
chambre 3 : [2124,1772] : [2031,1759,2217,1785] : confidence,dict,original_word,difference : [86,DM,None,0]
hall : [1243,1895] : [1204,1883,1283,1907] : confidence,dict,original_word,difference : [76,DM,None,0]
placard : [1450,1877] : [1375,1865,1525,1890] : confidence,dict,original_word,difference : [90,DM,None,0]
degagement : [1537,1972] : [1423,1960,1651,1985] : confidence,dict,original_word,difference : [87,DM,None,0]
cuisine : [1143,2196] : [1079,2184,1208,2209] : confidence,dict,original_word,difference : [87,DM,None,0]
repas : [661,2225] : [608,2213,714,2238] : confidence,dict,original_word,difference : [73,DM,None,0]
chambre 1 : [1666,2237] : [1575,2225,1758,2250] : confidence,dict,original_word,difference : [89,DM,None,0]
chambre 2 : [2082,2231] : [1989,2219,2175,2244] : confidence,dict,original_word,difference : [89,DM,None,0]
No Text Detected
