Door : [1072,1529],[1171,1529],[1171,1554],[1072,1554] : [1] 
Door : [1650,1913],[1750,1913],[1750,1920],[1650,1920] : [1] 
Door : [1237,2020],[1336,2020],[1336,2027],[1237,2027] : [1] 
Door : [1235,2480],[1336,2480],[1336,2523],[1235,2523] : [1] 
Door : [1875,2020],[1974,2020],[1974,2027],[1875,2027] : [1] 
Door : [1975,1919],[1982,1919],[1982,2021],[1975,2021] : [1] 
Door : [982,2285],[989,2285],[989,2387],[982,2387] : [1] 
Door : [1434,1737],[1434,1825],[1455,1825],[1455,1737] : [1] 
