Total No of Rooms: 7
single : room 1 : maybe bedroom 3 : [1330,2023] : contour_details : [1183 1810],[1182 1811],[1093 1811],[1093 2187],[1239 2187],[1240 2186],[1379 2186],[1380 2187],[1510 2187],[1510 1811],[1280 1811],[1279 1810]

single : room 2 : maybe bedroom 2 : [851,2023] : contour_details : [988 1810],[987 1811],[650 1811],[650 2186],[936 2186],[937 2187],[1085 2187],[1085 1811],[1084 1810]

single : room 3 : maybe bathroom : [1119,1535] : contour_details : [987 1374],[987 1697],[1085 1697],[1086 1696],[1185 1696],[1185 1485],[1184 1484],[1184 1374]

single : room 4 : maybe bedroom 1 : [836,1586] : contour_details : [650 1374],[650 1509],[649 1510],[649 1650],[650 1651],[650 1803],[977 1803],[977 1710],[978 1709],[978 1374]

single : room 5 : maybe cellar : [1650,1382] : contour_details : [1560 1226],[1560 1285],[1559 1286],[1559 1354],[1560 1355],[1560 1448],[1561 1449],[1561 1491],[1560 1492],[1559 1492],[1559 1591],[1740 1591],[1740 1227],[1658 1227],[1657 1226]

single : room 6 : garage : [2136,1103] : contour_details : [1542 714],[1542 854],[1541 855],[1541 1136],[1559 1136],[1560 1137],[1560 1200],[1657 1200],[1658 1201],[2235 1201],[2235 1114],[2236 1113],[2253 1113],[2253 1042],[2254 1041],[2254 714]

open : plan 1-room 7 : dining : [1949, 1910] : contour_details : [1522 1706],[1523 1705],[1713 1705],[1714 1706],[2234 1706],[2235 1707],[2235 2185],[2234 2186],[1520 2186],[1519 2185],[1519 1778],[1520 1777],[1520 1753],[1521 1752],[1521 1729],[1522 1728]

open : plan 1-room 8 : corridor : [1141, 1752] : contour_details : [ 988 1706],[ 989 1705],[1520 1705],[1521 1706],[1521 1728],[1520 1729],[1520 1753],[1519 1754],[1519 1777],[1518 1778],[1518 1800],[1517 1801],[ 989 1801],[ 988 1800]

open : plan 1-room 9 : entry : [1458, 1659] : contour_details : [1193 1600],[1194 1599],[1748 1599],[1749 1600],[1749 1651],[1750 1652],[1750 1704],[1749 1705],[1715 1705],[1714 1704],[1523 1704],[1522 1703],[1521 1704],[1194 1704],[1193 1703]

open : plan 1-room 10 : toilet : [1327, 1538] : contour_details : [1193 1377],[1194 1376],[1273 1376],[1274 1377],[1274 1491],[1275 1492],[1323 1492],[1324 1491],[1324 1488],[1325 1487],[1355 1487],[1356 1488],[1387 1488],[1388 1489],[1419 1489],[1420 1490],[1451 1490],[1452 1491],[1483 1491],[1484 1492],[1514 1492],[1515 1493],[1515 1596],[1514 1597],[1194 1597],[1193 1596]

open : plan 1-room 11 : kitchen : [2060, 1412] : contour_details : [1750 1229],[1751 1228],[2234 1228],[2235 1229],[2235 1704],[2234 1705],[1752 1705],[1751 1704],[1751 1652],[1750 1651]

