Total No of Rooms: 9
single : room 1 : maybe closet : [2581,1593] : contour_details : [2551 1482],[2551 1592],[2552 1593],[2552 1704],[2624 1704],[2624 1482]

single : room 2 : maybe closet : [2827,1262] : contour_details : [2715 1215],[2720 1220],[2720 1221],[2726 1227],[2726 1228],[2731 1233],[2731 1234],[2737 1240],[2737 1241],[2743 1247],[2743 1248],[2749 1254],[2749 1255],[2749 1248],[2751 1246],[2765 1246],[2767 1248],[2765 1250],[2753 1250],[2753 1269],[2751 1271],[2749 1269],[2749 1262],[2665 1262],[2639 1288],[2984 1288],[2984 1262],[2905 1262],[2903 1260],[2905 1258],[2984 1258],[2984 1215]

single : room 3 : maybe office : [875,1236] : contour_details : [680 1109],[680 1214],[679 1215],[678 1215],[678 1307],[679 1308],[679 1489],[1001 1489],[1002 1490],[1055 1490],[1055 1308],[1054 1307],[1054 1195],[1055 1194],[1055 1109]

single : room 4 : maybe closet : [2126,1130] : contour_details : [2078 1019],[2078 1130],[2079 1131],[2079 1242],[2151 1242],[2151 1019]

single : room 5 : maybe closet : [2715,843] : contour_details : [2557 797],[2557 832],[2558 833],[2558 868],[2984 868],[2984 797]

single : room 6 : maybe bathroom : [2356,923] : contour_details : [2475 795],[2474 796],[2273 796],[2273 1007],[2272 1008],[2272 1118],[2273 1119],[2273 1201],[2447 1201],[2447 1078],[2448 1077],[2455 1077],[2456 1078],[2456 1201],[2549 1201],[2549 1008],[2447 1008],[2446 1007],[2446 1001],[2447 1000],[2549 1000],[2549 796],[2543 796],[2542 795]

single : room 7 : garage : [1043,811] : contour_details : [1111 600],[1110 601],[661 601],[661 629],[660 630],[660 1053],[679 1053],[680 1054],[680 1083],[1486 1083],[1486 989],[1485 988],[1485 876],[1486 875],[1486 618],[1397 618],[1396 617],[1396 600]

open : plan 1-room 8 : bedroom 3 : [2325, 1508] : contour_details : [2156 1375],[2157 1374],[2461 1374],[2462 1375],[2483 1375],[2484 1376],[2505 1376],[2506 1377],[2527 1377],[2528 1378],[2549 1378],[2625 1454],[2625 1478],[2624 1479],[2550 1479],[2549 1480],[2549 1708],[2550 1709],[2624 1709],[2625 1710],[2625 1725],[2624 1726],[2157 1726],[2156 1725]

open : plan 1-room 9 : bedroom 2 : [2828, 1444] : contour_details : [2634 1294],[2635 1293],[2984 1293],[2985 1294],[2985 1725],[2984 1726],[2632 1726],[2631 1725],[2631 1409],[2632 1408],[2632 1370],[2633 1369],[2633 1331],[2634 1330]

open : plan 1-room 10 : entry : [2254, 1289] : contour_details : [2079 1009],[2080 1008],[2262 1008],[2263 1009],[2263 1209],[2264 1210],[2703 1210],[2704 1211],[2686 1229],[2686 1230],[2661 1255],[2661 1256],[2635 1282],[2635 1283],[2627 1291],[2628 1292],[2632 1292],[2633 1293],[2633 1330],[2632 1331],[2632 1369],[2631 1370],[2631 1408],[2630 1409],[2630 1444],[2629 1445],[2613 1429],[2612 1429],[2586 1403],[2585 1403],[2559 1377],[2558 1377],[2550 1369],[2545 1369],[2544 1370],[2544 1373],[2547 1376],[2546 1377],[2528 1377],[2527 1376],[2506 1376],[2505 1375],[2484 1375],[2483 1374],[2462 1374],[2461 1373],[2441 1373],[2440 1372],[2440 1366],[2439 1365],[2157 1365],[2156 1364],[2156 1244],[2154 1242],[2154 1015],[2153 1014],[2080 1014],[2079 1013]

open : plan 1-room 11 : bedroom 1 : [2784, 989] : contour_details : [2558  874],[2559  873],[2984  873],[2985  874],[2985 1205],[2984 1206],[2705 1206],[2704 1207],[2704 1208],[2703 1209],[2555 1209],[2554 1208],[2558 1204]

open : plan 1-room 12 : toilet : [2198, 917] : contour_details : [2156  798],[2157  797],[2262  797],[2263  798],[2263 1005],[2262 1006],[2157 1006],[2156 1005]

open : plan 2-room 13 : salon : [1759, 1620] : contour_details : [1531 1258],[1532 1257],[2144 1257],[2145 1258],[2145 1364],[2144 1365],[2093 1365],[2092 1366],[2092 1427],[2093 1428],[2145 1428],[2146 1429],[2146 1724],[2145 1725],[1531 1725],[1530 1724],[1530 1300],[1531 1299]

open : plan 2-room 14 : living : [1276, 1235] : contour_details : [1064 1110],[1065 1109],[1529 1109],[1530 1110],[1530 1255],[1529 1256],[1530 1257],[1530 1299],[1529 1300],[1529 1488],[1528 1489],[1065 1489],[1064 1488]

open : plan 2-room 15 : kitchen : [1871, 1000] : contour_details : [1701  798],[1702  797],[2145  797],[2146  798],[2146  998],[2145  999],[2069  999],[2068 1000],[2068 1246],[2067 1247],[1697 1247],[1696 1248],[1696 1254],[1695 1255],[1532 1255],[1531 1254],[1531 1110],[1532 1109],[1699 1109],[1700 1108],[1700  888],[1701  887]

open : plan 2-room 16 : cellar : [1590, 953] : contour_details : [1512  621],[1513  620],[1690  620],[1691  621],[1691  887],[1692  888],[1697  888],[1698  889],[1698  987],[1697  988],[1693  988],[1692  989],[1692 1099],[1691 1100],[1513 1100],[1512 1099]

