Window : [524,1207],[567,1207],[567,1278],[524,1278] : [1] 
Window : [524,1431],[567,1431],[567,1573],[524,1573] : [1] 
Window : [1540,740],[1565,740],[1565,953],[1540,953] : [1] 
Window : [1175,2801],[1315,2801],[1315,2843],[1175,2843] : [1] 
Window : [524,2452],[567,2452],[567,2595],[524,2595] : [1] 
Window : [1128,415],[1197,415],[1197,440],[1128,440] : [1] 
Window : [524,2092],[567,2092],[567,2187],[524,2187] : [1] 
Window : [1799,1118],[1843,1118],[1843,1343],[1799,1343] : [1] 
Window : [1522,2388],[1565,2388],[1565,2459],[1522,2459] : [1] 
Window : [762,463],[785,463],[785,1054],[762,1054] : [1] 
Window : [1523,2193],[1565,2193],[1569,2052],[1523,2052] : [0.8] 
Window : [643,1951],[685,1951],[680,1904],[638,1904] : [0.8] 
Window : [1577,1947],[1577,1982],[1843,1715],[1800,1715] : [0.5] 
