Window : [1135,2583],[1418,2583],[1418,2626],[1135,2626] : [1] 
Window : [1607,2014],[1649,2014],[1649,2121],[1607,2121] : [1] 
Window : [1625,1467],[1649,1467],[1649,1539],[1625,1539] : [1] 
Window : [880,1509],[934,1509],[934,1549],[880,1549] : [1] 
Window : [950,1399],[995,1399],[995,1506],[950,1506] : [1] 
Window : [1625,1467],[1649,1467],[1649,1616],[1625,1616] : [1] 
Window : [479,2028],[521,2028],[521,2109],[479,2109] : [1] 
Window : [987,2583],[1418,2583],[1418,2626],[987,2626] : [1] 
Window : [1011,741],[1294,741],[1294,766],[1011,766] : [1] 
Window : [479,2037],[521,2037],[521,2109],[479,2109] : [1] 
Window : [479,1686],[521,1686],[521,1829],[479,1829] : [1] 
Window : [887,1509],[934,1509],[934,1549],[887,1549] : [1] 
Window : [1607,2300],[1649,2300],[1649,2443],[1607,2443] : [1] 
Window : [1607,1739],[1649,1739],[1649,1882],[1607,1882] : [1] 
Window : [1607,1640],[1649,1640],[1649,1882],[1607,1882] : [1] 
Window : [669,2583],[810,2583],[810,2626],[669,2626] : [1] 
Window : [1454,741],[1524,741],[1524,766],[1454,766] : [1] 
