Door : [867,914],[967,914],[967,921],[867,921] : [1] 
Door : [868,1522],[967,1522],[967,1529],[868,1529] : [1] 
Door : [867,914],[967,914],[967,921],[867,921] : [1] 
Door : [1051,1209],[1150,1209],[1150,1217],[1051,1217] : [1] 
Door : [1045,1522],[1144,1522],[1144,1529],[1045,1529] : [1] 
Door : [1045,1894],[1144,1894],[1144,1901],[1045,1901] : [1] 
Door : [860,1103],[868,1103],[868,1204],[860,1204] : [1] 
Door : [1504,1109],[1529,1109],[1529,1210],[1504,1210] : [1] 
Door : [860,920],[868,920],[868,1021],[860,1021] : [1] 
Door : [1275,1476],[1313,1476],[1316,1370],[1275,1370] : [0.8] 
