garage : [1378,480] : [1311,468,1446,493] : confidence,dict,original_word,difference : [92,DM,None,0]
sejour : [809,670] : [744,658,874,683] : confidence,dict,original_word,difference : [88,DM,None,0]
lingerie : [1680,823] : [1607,811,1753,836] : confidence,dict,original_word,difference : [94,DM,None,0]
bains : [2126,1012] : [2079,1000,2173,1025] : confidence,dict,original_word,difference : [70,DM,None,0]
placard : [1682,1106] : [1607,1094,1758,1119] : confidence,dict,original_word,difference : [87,DM,None,0]
repas : [786,1143] : [733,1131,840,1156] : confidence,dict,original_word,difference : [91,DM,None,0]
hall : [1522,1189] : [1483,1177,1562,1201] : confidence,dict,original_word,difference : [96,DM,None,0]
degt : [1647,1189] : [1600,1177,1695,1202] : confidence,dict,original_word,difference : [93,DM,None,0]
cuisine : [1204,1284] : [1140,1271,1268,1297] : confidence,dict,original_word,difference : [90,DM,None,0]
chambre 3 : [2403,1360] : [2310,1348,2496,1373] : confidence,dict,original_word,difference : [89,DM,None,0]
terrassecouverte : [757,1441] : [670,1410,844,1473] : confidence,dict,original_word,difference : [89,DM,None,0]
chambre 1 : [1846,1466] : [1755,1454,1937,1479] : confidence,dict,original_word,difference : [83,DM,None,0]
chambre 2 : [2184,1744] : [2091,1732,2277,1756] : confidence,dict,original_word,difference : [92,DM,None,0]
No Text Detected
