Window : [1452,1209],[1499,1209],[1499,1252],[1452,1252] : [1] 
Window : [1452,1226],[1498,1226],[1498,1252],[1452,1252] : [1] 
Window : [1392,1640],[1435,1640],[1435,1783],[1392,1783] : [1] 
Window : [1396,1263],[1407,1263],[1407,1313],[1396,1313] : [1] 
Window : [2118,861],[2143,861],[2143,933],[2118,933] : [1] 
Window : [867,542],[1005,542],[1005,585],[867,585] : [1] 
Window : [1588,1226],[2059,1226],[2059,1252],[1588,1252] : [1] 
Window : [1095,2349],[1306,2349],[1306,2391],[1095,2391] : [1] 
Window : [1187,542],[1327,542],[1327,585],[1187,585] : [1] 
Window : [465,731],[507,731],[507,874],[465,874] : [1] 
Window : [465,1242],[507,1242],[507,1384],[465,1384] : [1] 
Window : [936,542],[1005,542],[1005,585],[936,585] : [1] 
Window : [1392,2054],[1435,2054],[1435,2196],[1392,2196] : [1] 
Window : [465,1776],[507,1776],[507,1919],[465,1919] : [1] 
Window : [949,2350],[970,2349],[552,2172],[552,2215] : [0.5] 
