Total No of Rooms: 11
single : room 1 : maybe closet : [1750,2765] : contour_details : [1589 2727],[1589 2763],[1590 2764],[1590 2799],[1910 2799],[1897 2786],[1897 2785],[1839 2727]

single : room 2 : maybe bathroom : [1535,2646] : contour_details : [1465 2543],[1465 2613],[1464 2614],[1464 2712],[1465 2713],[1465 2801],[1581 2801],[1581 2713],[1580 2712],[1580 2612],[1581 2611],[1581 2543]

single : room 3 : maybe closet : [1525,2499] : contour_details : [1466 2471],[1465 2472],[1465 2503],[1466 2504],[1466 2539],[1579 2539],[1579 2471]

single : room 4 : maybe bedroom 2 : [1299,2587] : contour_details : [1301 2471],[1300 2472],[963 2472],[963 2801],[1168 2801],[1169 2800],[1308 2800],[1309 2801],[1457 2801],[1457 2713],[1456 2712],[1456 2472],[1398 2472],[1397 2471]

single : room 5 : maybe bedroom 3 : [1789,2488] : contour_details : [1590 2307],[1590 2365],[1589 2366],[1589 2464],[1590 2465],[1590 2613],[1589 2614],[1588 2614],[1588 2712],[1589 2713],[1589 2723],[1841 2723],[1858 2740],[1858 2741],[1917 2800],[1917 2801],[1917 2595],[1916 2594],[1916 2452],[1917 2451],[1917 2307]

single : room 6 : maybe office : [1757,2163] : contour_details : [1589 2006],[1589 2081],[1588 2082],[1588 2181],[1589 2181],[1590 2182],[1590 2299],[1917 2299],[1917 2187],[1916 2186],[1916 2092],[1917 2091],[1917 2006]

single : room 7 : maybe bedroom 1 : [1203,2121] : contour_details : [964 1950],[964 1982],[963 1983],[963 2052],[962 2053],[962 2192],[963 2193],[963 2275],[1300 2275],[1301 2276],[1301 2282],[1300 2283],[1300 2357],[1397 2357],[1398 2358],[1473 2358],[1473 1950]

single : room 8 : maybe cellar : [1763,1230] : contour_details : [1685 1119],[1684 1120],[1684 1122],[1683 1123],[1683 1125],[1682 1126],[1682 1128],[1681 1129],[1681 1131],[1680 1132],[1680 1134],[1679 1135],[1679 1137],[1678 1138],[1678 1140],[1677 1141],[1677 1143],[1676 1144],[1676 1147],[1675 1148],[1675 1150],[1674 1151],[1674 1153],[1673 1154],[1673 1156],[1672 1157],[1672 1159],[1671 1160],[1671 1162],[1670 1163],[1670 1165],[1669 1166],[1669 1168],[1668 1169],[1668 1170],[1666 1172],[1665 1172],[1664 1173],[1663 1173],[1662 1174],[1661 1174],[1660 1175],[1659 1175],[1658 1176],[1657 1176],[1656 1177],[1655 1177],[1654 1178],[1653 1178],[1652 1179],[1651 1179],[1650 1180],[1649 1180],[1648 1181],[1647 1181],[1646 1182],[1645 1182],[1644 1183],[1643 1183],[1642 1184],[1641 1184],[1640 1185],[1639 1185],[1638 1186],[1637 1186],[1636 1187],[1635 1187],[1634 1188],[1633 1188],[1632 1189],[1631 1189],[1630 1190],[1629 1190],[1628 1191],[1627 1191],[1626 1192],[1625 1192],[1624 1193],[1623 1193],[1622 1194],[1621 1194],[1620 1195],[1619 1195],[1618 1196],[1617 1196],[1616 1197],[1615 1197],[1614 1198],[1613 1198],[1612 1199],[1611 1199],[1610 1200],[1609 1200],[1608 1201],[1607 1201],[1606 1202],[1605 1202],[1604 1203],[1603 1203],[1602 1204],[1601 1204],[1600 1203],[1600 1196],[1599 1195],[1599 1180],[1598 1179],[1598 1164],[1597 1163],[1597 1148],[1596 1147],[1596 1132],[1595 1131],[1595 1120],[1589 1120],[1589 1300],[1692 1300],[1693 1301],[1917 1301],[1917 1278],[1916 1277],[1916 1207],[1917 1206],[1917 1120],[1693 1120],[1692 1119]

single : room 9 : garage : [1221,863] : contour_details : [1289 440],[1288 441],[945 441],[945 741],[944 742],[944 952],[945 953],[945 1018],[1692 1018],[1693 1019],[1693 1023],[1694 1024],[1694 1033],[1695 1034],[1695 1042],[1696 1043],[1696 1051],[1697 1052],[1697 1061],[1698 1062],[1698 1070],[1699 1071],[1699 1076],[1699 1054],[1700 1053],[1700 463],[1701 462],[1701 441],[1356 441],[1355 440]

open : plan 1-room 10 : bathroom : [1124, 2410] : contour_details : [1484 1999],[1485 1998],[1578 1998],[1579 1999],[1579 2462],[1578 2463],[ 965 2463],[ 964 2462],[ 964 2285],[ 965 2284],[1290 2284],[1291 2285],[1291 2365],[1292 2366],[1483 2366],[1484 2365]

open : plan 1-room 11 : toilet : [1650, 1938] : contour_details : [1484 1907],[1485 1906],[1796 1906],[1797 1907],[1797 1995],[1796 1996],[1485 1996],[1484 1995]

open : plan 2-room 12 : entry : [1571, 1796] : contour_details : [1475 1731],[1476 1730],[1796 1730],[1797 1731],[1797 1884],[1796 1885],[1580 1885],[1579 1886],[1579 1890],[1578 1891],[1476 1891],[1475 1890]

open : plan 2-room 13 : dining : [1006, 1702] : contour_details : [ 686 1407],[ 687 1406],[ 689 1406],[ 690 1407],[ 693 1407],[ 694 1408],[ 697 1408],[ 698 1409],[ 701 1409],[ 702 1410],[ 706 1410],[ 707 1411],[ 710 1411],[ 711 1412],[ 714 1412],[ 715 1413],[ 719 1413],[ 720 1414],[ 723 1414],[ 724 1415],[ 727 1415],[ 728 1416],[ 732 1416],[ 733 1417],[ 736 1417],[ 737 1418],[ 740 1418],[ 741 1419],[ 745 1419],[ 746 1420],[ 749 1420],[ 750 1421],[ 753 1421],[ 754 1422],[ 757 1422],[ 758 1423],[ 762 1423],[ 763 1424],[ 766 1424],[ 767 1425],[ 770 1425],[ 771 1426],[ 775 1426],[ 776 1427],[ 779 1427],[ 780 1428],[ 783 1428],[ 784 1429],[ 788 1429],[ 789 1430],[ 792 1430],[ 793 1431],[ 796 1431],[ 797 1432],[ 800 1432],[ 801 1433],[ 805 1433],[ 806 1434],[ 809 1434],[ 810 1435],[ 813 1435],[ 814 1436],[ 818 1436],[ 819 1437],[ 822 1437],[ 823 1438],[ 826 1438],[ 827 1439],[ 831 1439],[ 832 1440],[ 835 1440],[ 836 1441],[ 839 1441],[ 840 1442],[ 843 1442],[ 844 1443],[ 848 1443],[ 849 1444],[ 852 1444],[ 853 1445],[ 856 1445],[ 857 1446],[ 861 1446],[ 862 1447],[ 865 1447],[ 866 1448],[ 869 1448],[ 870 1449],[ 874 1449],[ 875 1450],[ 878 1450],[ 879 1451],[ 882 1451],[ 883 1452],[ 887 1452],[ 888 1453],[ 891 1453],[ 892 1454],[ 895 1454],[ 896 1455],[ 899 1455],[ 900 1456],[ 904 1456],[ 905 1457],[ 908 1457],[ 909 1458],[ 912 1458],[ 913 1459],[ 917 1459],[ 918 1460],[ 921 1460],[ 922 1461],[ 925 1461],[ 926 1462],[ 930 1462],[ 931 1463],[ 934 1463],[ 935 1464],[ 938 1464],[ 939 1465],[ 942 1465],[ 943 1466],[ 947 1466],[ 948 1467],[ 951 1467],[ 952 1468],[ 955 1468],[ 956 1469],[ 960 1469],[ 961 1470],[ 964 1470],[ 965 1471],[ 968 1471],[ 969 1472],[ 973 1472],[ 974 1473],[ 977 1473],[ 978 1474],[ 981 1474],[ 982 1475],[ 985 1475],[ 986 1476],[ 990 1476],[ 991 1477],[ 994 1477],[ 995 1478],[ 998 1478],[ 999 1479],[1003 1479],[1004 1480],[1007 1480],[1008 1481],[1011 1481],[1012 1482],[1016 1482],[1017 1483],[1020 1483],[1021 1484],[1024 1484],[1025 1485],[1029 1485],[1030 1486],[1033 1486],[1034 1487],[1037 1487],[1038 1488],[1041 1488],[1042 1489],[1046 1489],[1047 1490],[1050 1490],[1051 1491],[1054 1491],[1055 1492],[1059 1492],[1060 1493],[1063 1493],[1064 1494],[1067 1494],[1068 1495],[1072 1495],[1073 1496],[1076 1496],[1077 1497],[1080 1497],[1081 1498],[1084 1498],[1085 1499],[1089 1499],[1090 1500],[1093 1500],[1094 1501],[1097 1501],[1098 1502],[1102 1502],[1103 1503],[1106 1503],[1107 1504],[1110 1504],[1111 1505],[1115 1505],[1116 1506],[1119 1506],[1120 1507],[1123 1507],[1124 1508],[1127 1508],[1128 1509],[1132 1509],[1133 1510],[1136 1510],[1137 1511],[1140 1511],[1141 1512],[1145 1512],[1146 1513],[1149 1513],[1150 1514],[1153 1514],[1154 1515],[1158 1515],[1159 1516],[1162 1516],[1163 1517],[1166 1517],[1167 1518],[1170 1518],[1171 1519],[1175 1519],[1176 1520],[1179 1520],[1180 1521],[1183 1521],[1184 1522],[1188 1522],[1189 1523],[1192 1523],[1193 1524],[1196 1524],[1197 1525],[1201 1525],[1202 1526],[1205 1526],[1206 1527],[1209 1527],[1210 1528],[1214 1528],[1215 1529],[1218 1529],[1219 1530],[1222 1530],[1223 1531],[1226 1531],[1227 1532],[1231 1532],[1232 1533],[1235 1533],[1236 1534],[1239 1534],[1240 1535],[1244 1535],[1245 1536],[1248 1536],[1249 1537],[1252 1537],[1253 1538],[1257 1538],[1258 1539],[1261 1539],[1262 1540],[1265 1540],[1266 1541],[1269 1541],[1270 1542],[1274 1542],[1275 1543],[1278 1543],[1279 1544],[1282 1544],[1283 1545],[1287 1545],[1288 1546],[1291 1546],[1292 1547],[1295 1547],[1296 1548],[1300 1548],[1301 1549],[1304 1549],[1305 1550],[1308 1550],[1309 1551],[1312 1551],[1313 1552],[1317 1552],[1318 1553],[1321 1553],[1322 1554],[1325 1554],[1326 1555],[1330 1555],[1331 1556],[1334 1556],[1335 1557],[1338 1557],[1339 1558],[1343 1558],[1344 1559],[1347 1559],[1348 1560],[1351 1560],[1352 1561],[1356 1561],[1357 1562],[1360 1562],[1361 1563],[1364 1563],[1365 1564],[1368 1564],[1369 1565],[1373 1565],[1374 1566],[1377 1566],[1378 1567],[1381 1567],[1382 1568],[1386 1568],[1387 1569],[1390 1569],[1391 1570],[1394 1570],[1395 1571],[1399 1571],[1400 1572],[1403 1572],[1404 1573],[1407 1573],[1408 1574],[1411 1574],[1412 1575],[1416 1575],[1417 1576],[1420 1576],[1421 1577],[1424 1577],[1425 1578],[1429 1578],[1430 1579],[1433 1579],[1434 1580],[1437 1580],[1438 1581],[1442 1581],[1443 1582],[1446 1582],[1447 1583],[1450 1583],[1451 1584],[1454 1584],[1455 1585],[1459 1585],[1460 1586],[1463 1586],[1464 1587],[1467 1587],[1468 1588],[1472 1588],[1473 1589],[1476 1589],[1477 1590],[1480 1590],[1481 1591],[1485 1591],[1486 1592],[1489 1592],[1490 1593],[1493 1593],[1494 1594],[1498 1594],[1499 1595],[1502 1595],[1503 1596],[1506 1596],[1507 1597],[1510 1597],[1511 1598],[1515 1598],[1516 1599],[1519 1599],[1520 1600],[1523 1600],[1524 1601],[1528 1601],[1529 1602],[1532 1602],[1533 1603],[1536 1603],[1537 1604],[1541 1604],[1542 1605],[1545 1605],[1546 1606],[1549 1606],[1550 1607],[1553 1607],[1554 1608],[1558 1608],[1559 1609],[1562 1609],[1563 1610],[1566 1610],[1567 1611],[1571 1611],[1572 1612],[1575 1612],[1576 1613],[1579 1613],[1580 1614],[1580 1719],[1579 1720],[1474 1720],[1473 1721],[1473 1891],[1472 1892],[1472 1936],[1471 1937],[ 907 1937],[ 842 1872],[ 842 1871],[ 686 1715]

open : plan 2-room 14 : kitchen : [1696, 1507] : contour_details : [1582 1311],[1583 1310],[1915 1310],[1916 1311],[1916 1719],[1915 1720],[1582 1720],[1581 1719],[1581 1516],[1582 1515]

open : plan 2-room 15 : living : [1213, 1318] : contour_details : [ 686 1122],[ 687 1121],[1580 1121],[1581 1122],[1581 1515],[1580 1516],[1580 1611],[1579 1612],[1576 1612],[1575 1611],[1572 1611],[1571 1610],[1568 1610],[1567 1609],[1564 1609],[1563 1608],[1559 1608],[1558 1607],[1555 1607],[1554 1606],[1551 1606],[1550 1605],[1546 1605],[1545 1604],[1542 1604],[1541 1603],[1538 1603],[1537 1602],[1533 1602],[1532 1601],[1529 1601],[1528 1600],[1525 1600],[1524 1599],[1520 1599],[1519 1598],[1516 1598],[1515 1597],[1512 1597],[1511 1596],[1508 1596],[1507 1595],[1503 1595],[1502 1594],[1499 1594],[1498 1593],[1495 1593],[1494 1592],[1490 1592],[1489 1591],[1486 1591],[1485 1590],[1482 1590],[1481 1589],[1477 1589],[1476 1588],[1473 1588],[1472 1587],[1469 1587],[1468 1586],[1465 1586],[1464 1585],[1460 1585],[1459 1584],[1456 1584],[1455 1583],[1452 1583],[1451 1582],[1447 1582],[1446 1581],[1443 1581],[1442 1580],[1439 1580],[1438 1579],[1434 1579],[1433 1578],[1430 1578],[1429 1577],[1426 1577],[1425 1576],[1422 1576],[1421 1575],[1417 1575],[1416 1574],[1413 1574],[1412 1573],[1409 1573],[1408 1572],[1404 1572],[1403 1571],[1400 1571],[1399 1570],[1396 1570],[1395 1569],[1391 1569],[1390 1568],[1387 1568],[1386 1567],[1383 1567],[1382 1566],[1378 1566],[1377 1565],[1374 1565],[1373 1564],[1370 1564],[1369 1563],[1366 1563],[1365 1562],[1361 1562],[1360 1561],[1357 1561],[1356 1560],[1353 1560],[1352 1559],[1348 1559],[1347 1558],[1344 1558],[1343 1557],[1340 1557],[1339 1556],[1335 1556],[1334 1555],[1331 1555],[1330 1554],[1327 1554],[1326 1553],[1323 1553],[1322 1552],[1318 1552],[1317 1551],[1314 1551],[1313 1550],[1310 1550],[1309 1549],[1305 1549],[1304 1548],[1301 1548],[1300 1547],[1297 1547],[1296 1546],[1292 1546],[1291 1545],[1288 1545],[1287 1544],[1284 1544],[1283 1543],[1280 1543],[1279 1542],[1275 1542],[1274 1541],[1271 1541],[1270 1540],[1267 1540],[1266 1539],[1262 1539],[1261 1538],[1258 1538],[1257 1537],[1254 1537],[1253 1536],[1249 1536],[1248 1535],[1245 1535],[1244 1534],[1241 1534],[1240 1533],[1236 1533],[1235 1532],[1232 1532],[1231 1531],[1228 1531],[1227 1530],[1224 1530],[1223 1529],[1219 1529],[1218 1528],[1215 1528],[1214 1527],[1211 1527],[1210 1526],[1206 1526],[1205 1525],[1202 1525],[1201 1524],[1198 1524],[1197 1523],[1193 1523],[1192 1522],[1189 1522],[1188 1521],[1185 1521],[1184 1520],[1181 1520],[1180 1519],[1176 1519],[1175 1518],[1172 1518],[1171 1517],[1168 1517],[1167 1516],[1163 1516],[1162 1515],[1159 1515],[1158 1514],[1155 1514],[1154 1513],[1150 1513],[1149 1512],[1146 1512],[1145 1511],[1142 1511],[1141 1510],[1138 1510],[1137 1509],[1133 1509],[1132 1508],[1129 1508],[1128 1507],[1125 1507],[1124 1506],[1120 1506],[1119 1505],[1116 1505],[1115 1504],[1112 1504],[1111 1503],[1107 1503],[1106 1502],[1103 1502],[1102 1501],[1099 1501],[1098 1500],[1095 1500],[1094 1499],[1090 1499],[1089 1498],[1086 1498],[1085 1497],[1082 1497],[1081 1496],[1077 1496],[1076 1495],[1073 1495],[1072 1494],[1069 1494],[1068 1493],[1064 1493],[1063 1492],[1060 1492],[1059 1491],[1056 1491],[1055 1490],[1051 1490],[1050 1489],[1047 1489],[1046 1488],[1043 1488],[1042 1487],[1039 1487],[1038 1486],[1034 1486],[1033 1485],[1030 1485],[1029 1484],[1026 1484],[1025 1483],[1021 1483],[1020 1482],[1017 1482],[1016 1481],[1013 1481],[1012 1480],[1008 1480],[1007 1479],[1004 1479],[1003 1478],[1000 1478],[ 999 1477],[ 996 1477],[ 995 1476],[ 991 1476],[ 990 1475],[ 987 1475],[ 986 1474],[ 983 1474],[ 982 1473],[ 978 1473],[ 977 1472],[ 974 1472],[ 973 1471],[ 970 1471],[ 969 1470],[ 965 1470],[ 964 1469],[ 961 1469],[ 960 1468],[ 957 1468],[ 956 1467],[ 953 1467],[ 952 1466],[ 948 1466],[ 947 1465],[ 944 1465],[ 943 1464],[ 940 1464],[ 939 1463],[ 935 1463],[ 934 1462],[ 931 1462],[ 930 1461],[ 927 1461],[ 926 1460],[ 922 1460],[ 921 1459],[ 918 1459],[ 917 1458],[ 914 1458],[ 913 1457],[ 909 1457],[ 908 1456],[ 905 1456],[ 904 1455],[ 901 1455],[ 900 1454],[ 897 1454],[ 896 1453],[ 892 1453],[ 891 1452],[ 888 1452],[ 887 1451],[ 884 1451],[ 883 1450],[ 879 1450],[ 878 1449],[ 875 1449],[ 874 1448],[ 871 1448],[ 870 1447],[ 866 1447],[ 865 1446],[ 862 1446],[ 861 1445],[ 858 1445],[ 857 1444],[ 854 1444],[ 853 1443],[ 849 1443],[ 848 1442],[ 845 1442],[ 844 1441],[ 841 1441],[ 840 1440],[ 836 1440],[ 835 1439],[ 832 1439],[ 831 1438],[ 828 1438],[ 827 1437],[ 823 1437],[ 822 1436],[ 819 1436],[ 818 1435],[ 815 1435],[ 814 1434],[ 811 1434],[ 810 1433],[ 806 1433],[ 805 1432],[ 802 1432],[ 801 1431],[ 798 1431],[ 797 1430],[ 793 1430],[ 792 1429],[ 789 1429],[ 788 1428],[ 785 1428],[ 784 1427],[ 780 1427],[ 779 1426],[ 776 1426],[ 775 1425],[ 772 1425],[ 771 1424],[ 767 1424],[ 766 1423],[ 763 1423],[ 762 1422],[ 759 1422],[ 758 1421],[ 755 1421],[ 754 1420],[ 750 1420],[ 749 1419],[ 746 1419],[ 745 1418],[ 742 1418],[ 741 1417],[ 737 1417],[ 736 1416],[ 733 1416],[ 732 1415],[ 729 1415],[ 728 1414],[ 724 1414],[ 723 1413],[ 720 1413],[ 719 1412],[ 716 1412],[ 715 1411],[ 712 1411],[ 711 1410],[ 707 1410],[ 706 1409],[ 703 1409],[ 702 1408],[ 699 1408],[ 698 1407],[ 694 1407],[ 693 1406],[ 690 1406],[ 689 1405],[ 687 1405],[ 686 1404]

