Wall : [1050,2196],[1092,2196],[1092,2403],[1050,2403] : [1] 
Wall : [1548,543],[2020,543],[2020,585],[1548,585] : [1] 
Wall : [1977,1384],[2019,1384],[2019,1777],[1977,1777] : [1] 
Wall : [1977,1919],[2019,1919],[2019,2256],[1977,2256] : [1] 
Wall : [1050,1783],[1092,1783],[1092,2055],[1050,2055] : [1] 
Wall : [1297,543],[1480,543],[1480,585],[1297,585] : [1] 
Wall : [1977,874],[2019,874],[2019,1243],[1977,1243] : [1] 
Wall : [341,543],[1158,543],[1158,586],[341,586] : [1] 
Wall : [1977,543],[2019,543],[2019,732],[1977,732] : [1] 
Wall : [1050,1488],[1092,1488],[1092,1641],[1050,1641] : [1] 
Wall : [1032,1210],[1093,1210],[1093,1253],[1032,1253] : [1] 
Wall : [1049,2349],[1179,2349],[1179,2391],[1049,2391] : [1] 
Wall : [1049,1487],[1211,1487],[1211,1530],[1049,1530] : [1] 
Wall : [1389,2350],[1536,2350],[1536,2391],[1389,2391] : [1] 
Wall : [1932,2172],[2020,2172],[2020,2215],[1932,2215] : [1] 
Wall : [1027,543],[1051,543],[1051,1028],[1027,1028] : [1] 
Wall : [342,933],[366,933],[366,1252],[342,1252] : [1] 
Wall : [956,1004],[980,1004],[980,1110],[956,1110] : [1] 
Wall : [1445,2533],[1625,2533],[1625,2557],[1445,2557] : [1] 
Wall : [342,543],[366,543],[366,862],[342,862] : [1] 
Wall : [1995,2492],[2019,2492],[2019,2557],[1995,2557] : [1] 
Wall : [1049,2532],[1117,2532],[1117,2557],[1049,2557] : [1] 
Wall : [341,1227],[426,1227],[426,1252],[341,1252] : [1] 
Wall : [955,1003],[1052,1003],[1052,1029],[955,1029] : [1] 
Wall : [1953,2532],[2020,2532],[2020,2557],[1953,2557] : [1] 
Wall : [1530,2369],[1506,2343],[1482,2365],[1505,2391] : [1] 
Wall : [1169,1476],[1207,1476],[1207,1529],[1169,1529] : [1] 
Wall : [1050,1210],[1092,1210],[1092,1264],[1050,1264] : [1] 
Wall : [1049,1311],[1211,1311],[1211,1359],[1049,1359] : [1] 
Wall : [1169,1317],[1210,1317],[1210,1370],[1169,1370] : [1] 
Wall : [1050,2521],[1072,2521],[1072,2557],[1050,2557] : [1] 
Wall : [1617,543],[1624,543],[1624,921],[1617,921] : [1] 
Wall : [1616,1523],[2020,1523],[2020,1529],[1616,1529] : [1] 
Wall : [1049,1895],[1341,1895],[1341,1901],[1049,1901] : [1] 
Wall : [1405,543],[1411,543],[1411,921],[1405,921] : [1] 
Wall : [1788,1097],[2020,1097],[2020,1104],[1788,1104] : [1] 
Wall : [1049,1522],[1341,1522],[1341,1529],[1049,1529] : [1] 
Wall : [955,1021],[1518,1021],[1518,1028],[955,1028] : [1] 
Wall : [1032,1210],[1335,1210],[1335,1218],[1032,1218] : [1] 
Wall : [1049,1317],[1335,1317],[1335,1324],[1049,1324] : [1] 
Wall : [1617,1204],[1625,1204],[1625,1529],[1617,1529] : [1] 
Wall : [1404,915],[1518,915],[1518,921],[1404,921] : [1] 
Wall : [1789,1021],[1795,1021],[1795,1104],[1789,1104] : [1] 
Wall : [1511,1021],[1517,1021],[1517,1217],[1511,1217] : [1] 
Wall : [1616,1021],[1796,1021],[1796,1028],[1616,1028] : [1] 
Wall : [1433,1210],[1518,1210],[1518,1217],[1433,1217] : [1] 
Wall : [1617,1021],[1624,1021],[1624,1104],[1617,1104] : [1] 
Wall : [1439,1523],[1518,1523],[1518,1529],[1439,1529] : [1] 
Wall : [1511,1523],[1518,1523],[1518,1901],[1511,1901] : [1] 
Wall : [1439,1895],[1518,1895],[1518,1901],[1439,1901] : [1] 
Wall : [1624,1105],[1788,1105],[1788,1101],[1624,1101] : [1] 
Wall : [1794,1024],[1976,1024],[1976,1020],[1794,1020] : [1] 
