Window : [465,2033],[606,2033],[606,2076],[465,2076] : [1] 
Window : [826,2033],[966,2033],[966,2076],[826,2076] : [1] 
Window : [1363,2209],[1645,2209],[1645,2253],[1363,2253] : [1] 
Window : [1127,1212],[1196,1212],[1196,1255],[1127,1255] : [1] 
Window : [2017,1472],[2060,1472],[2060,1756],[2017,1756] : [1] 
Window : [334,1360],[377,1360],[377,1502],[334,1502] : [1] 
Window : [967,1212],[1037,1212],[1037,1255],[967,1255] : [1] 
