Window : [2031,1638],[2074,1638],[2074,1780],[2031,1780] : [1] 
Window : [886,740],[911,740],[911,1024],[886,1024] : [1] 
Window : [2031,1998],[2074,1998],[2074,2140],[2031,2140] : [1] 
Window : [1289,628],[1358,628],[1358,653],[1289,653] : [1] 
Window : [1702,2305],[1984,2305],[1984,2347],[1702,2347] : [1] 
Window : [886,1201],[929,1201],[929,1343],[886,1343] : [1] 
Window : [1736,1248],[1761,1248],[1761,1319],[1736,1319] : [1] 
Window : [1145,2482],[1175,2453],[977,2254],[947,2284] : [0.5] 
