Wall : [886,1655],[1071,1655],[1071,1699],[886,1699] : [1] 
Wall : [1736,1455],[2075,1455],[2075,1497],[1736,1497] : [1] 
Wall : [2032,2140],[2074,2140],[2074,2347],[2032,2347] : [1] 
Wall : [2032,1780],[2074,1780],[2074,1999],[2032,1999] : [1] 
Wall : [1287,1455],[1638,1455],[1638,1497],[1287,1497] : [1] 
Wall : [2032,1455],[2074,1455],[2074,1639],[2032,1639] : [1] 
Wall : [887,1343],[929,1343],[929,1568],[887,1568] : [1] 
Wall : [1598,2306],[1703,2306],[1703,2348],[1598,2348] : [1] 
Wall : [1029,1815],[1070,1815],[1070,2024],[1029,2024] : [1] 
Wall : [887,1024],[929,1024],[929,1202],[887,1202] : [1] 
Wall : [1984,2305],[2075,2305],[2075,2347],[1984,2347] : [1] 
Wall : [858,2137],[899,2137],[899,2215],[858,2215] : [1] 
Wall : [1284,2600],[1363,2600],[1363,2641],[1284,2641] : [1] 
Wall : [1216,2553],[1246,2523],[1175,2452],[1145,2482] : [1] 
Wall : [1070,2005],[1040,1975],[840,2175],[870,2205] : [1] 
Wall : [947,2284],[977,2254],[869,2146],[839,2176] : [1] 
Wall : [1649,2337],[1620,2306],[1403,2521],[1432,2551] : [1] 
Wall : [1371,1083],[1395,1083],[1395,1479],[1371,1479] : [1] 
Wall : [1737,629],[1761,629],[1761,966],[1737,966] : [1] 
Wall : [886,629],[1290,629],[1290,653],[886,653] : [1] 
Wall : [1737,1319],[1761,1319],[1761,1497],[1737,1497] : [1] 
Wall : [1358,629],[1762,629],[1762,653],[1358,653] : [1] 
Wall : [886,1083],[1396,1083],[1396,1107],[886,1107] : [1] 
Wall : [1736,1066],[1761,1066],[1761,1249],[1736,1249] : [1] 
Wall : [887,629],[911,629],[911,741],[887,741] : [1] 
Wall : [1613,1455],[1637,1455],[1637,1875],[1613,1875] : [1] 
Wall : [886,1454],[1083,1454],[1083,1480],[886,1480] : [1] 
Wall : [1329,2655],[1358,2622],[1329,2596],[1300,2629] : [1] 
Wall : [1323,2659],[1346,2636],[1305,2596],[1283,2621] : [1] 
Wall : [1029,1656],[1070,1656],[1070,1709],[1029,1709] : [1] 
Wall : [887,1638],[928,1638],[928,1698],[887,1698] : [1] 
Wall : [1028,1696],[1189,1696],[1189,1704],[1028,1704] : [1] 
Wall : [1395,1455],[1401,1455],[1401,1709],[1395,1709] : [1] 
Wall : [1288,1455],[1295,1455],[1295,1562],[1288,1562] : [1] 
Wall : [886,1083],[1549,1083],[1549,1091],[886,1091] : [1] 
Wall : [1332,2590],[1339,2590],[1339,2647],[1332,2647] : [1] 
Wall : [1307,2591],[1314,2591],[1314,2647],[1307,2647] : [1] 
Wall : [1317,2601],[1329,2601],[1329,2659],[1317,2659] : [1] 
Wall : [1648,1082],[1762,1082],[1762,1091],[1648,1091] : [1] 
Wall : [1182,1455],[1189,1455],[1189,1703],[1182,1703] : [1] 
Wall : [1287,1703],[1402,1703],[1402,1709],[1287,1709] : [1] 
