Total No of Rooms: 3
single : room 1 : garage : [1383,858] : contour_details : [1291 653],[1290 654],[912 654],[912 741],[911 742],[911 1023],[929 1023],[930 1024],[930 1082],[1547 1082],[1548 1081],[1735 1081],[1735 965],[1736 964],[1736 654],[1358 654],[1357 653]

open : plan 1-room 2 : dining : [1414, 2168] : contour_details : [1047 2029],[1609 2029],[1610 2030],[1610 2162],[1609 2163],[1609 2303],[1608 2304],[1597 2304],[1596 2305],[1596 2328],[1551 2373],[1551 2374],[1487 2438],[1487 2439],[1423 2503],[1423 2504],[1358 2569],[1358 2570],[1340 2588],[1331 2588],[1330 2589],[1330 2597],[1329 2598],[1317 2598],[1316 2597],[1316 2590],[1315 2589],[1307 2589],[1303 2593],[1303 2594],[1301 2596],[1298 2593],[1298 2592],[1288 2582],[1288 2578],[1283 2573],[1283 2572],[1274 2563],[1274 2559],[1269 2554],[1269 2553],[1260 2544],[1260 2540],[1248 2528],[1248 2523],[ 901 2176],[1007 2070],[1007 2069]

open : plan 1-room 3 : living : [1825, 2053] : contour_details : [1639 1851],[1640 1850],[2029 1850],[2030 1851],[2030 2303],[2029 2304],[1611 2304],[1610 2303],[1610 2163],[1611 2162],[1611 2020],[1612 2019],[1612 1878],[1613 1877],[1638 1877],[1639 1876]

open : plan 1-room 4 : entry : [1176, 1834] : contour_details : [1403 1530],[1404 1529],[1405 1530],[1406 1530],[1408 1532],[1409 1532],[1410 1533],[1411 1533],[1413 1535],[1414 1535],[1416 1537],[1417 1537],[1418 1538],[1419 1538],[1421 1540],[1422 1540],[1424 1542],[1425 1542],[1427 1544],[1428 1544],[1429 1545],[1430 1545],[1432 1547],[1433 1547],[1435 1549],[1436 1549],[1437 1550],[1438 1550],[1440 1552],[1441 1552],[1443 1554],[1444 1554],[1445 1555],[1446 1555],[1448 1557],[1449 1557],[1451 1559],[1452 1559],[1453 1560],[1454 1560],[1456 1562],[1457 1562],[1459 1564],[1460 1564],[1461 1565],[1462 1565],[1464 1567],[1465 1567],[1467 1569],[1468 1569],[1469 1570],[1470 1570],[1472 1572],[1473 1572],[1475 1574],[1476 1574],[1478 1576],[1479 1576],[1480 1577],[1481 1577],[1483 1579],[1484 1579],[1486 1581],[1487 1581],[1488 1582],[1489 1582],[1491 1584],[1492 1584],[1494 1586],[1495 1586],[1496 1587],[1497 1587],[1499 1589],[1500 1589],[1502 1591],[1503 1591],[1504 1592],[1505 1592],[1507 1594],[1508 1594],[1511 1597],[1511 1708],[1512 1709],[1610 1709],[1611 1710],[1611 2019],[1610 2020],[1610 2026],[1609 2027],[1051 2027],[1050 2026],[1051 2025],[1071 2025],[1072 2024],[1072 1655],[1073 1654],[1126 1654],[1127 1653],[1179 1653],[1180 1654],[1180 1704],[1181 1705],[1205 1705],[1206 1706],[1221 1706],[1222 1707],[1237 1707],[1238 1708],[1253 1708],[1254 1709],[1269 1709],[1270 1710],[1285 1710],[1286 1711],[1402 1711],[1403 1710]

open : plan 1-room 5 : kitchen : [1832, 1653] : contour_details : [1639 1500],[1640 1499],[2029 1499],[2030 1500],[2030 1847],[2029 1848],[1640 1848],[1639 1847]

open : plan 1-room 6 : toilet : [1343, 1586] : contour_details : [1191 1500],[1192 1499],[1392 1499],[1393 1500],[1393 1700],[1392 1701],[1286 1701],[1285 1702],[1285 1708],[1284 1709],[1271 1709],[1270 1708],[1255 1708],[1254 1707],[1239 1707],[1238 1706],[1223 1706],[1222 1705],[1207 1705],[1206 1704],[1192 1704],[1191 1703]

open : plan 1-room 7 : bathroom : [1041, 1536] : contour_details : [ 931 1482],[ 932 1481],[1179 1481],[1180 1482],[1180 1651],[1179 1652],[1126 1652],[1125 1653],[ 932 1653],[ 931 1652]

open : plan 1-room 8 : bedroom 1 : [1110, 1236] : contour_details : [ 931 1110],[ 932 1109],[1368 1109],[1369 1110],[1369 1452],[1368 1453],[1181 1453],[1180 1454],[1180 1479],[1179 1480],[1085 1480],[1084 1479],[1084 1453],[1083 1452],[ 932 1452],[ 931 1451]

open : plan 2-room 9 : storage : [1580, 1360] : contour_details : [1398 1298],[1399 1297],[1565 1297],[1566 1298],[1733 1298],[1734 1299],[1734 1452],[1733 1453],[1399 1453],[1398 1452]

open : plan 2-room 10 : cellar : [1581, 1234] : contour_details : [1398 1094],[1399 1093],[1733 1093],[1734 1094],[1734 1296],[1733 1297],[1567 1297],[1566 1296],[1399 1296],[1398 1295]

