Unknown : [1965,1952],[2048,1952],[2048,1909],[1965,1910] : [0.3] 
Unknown : [1782,1717],[1889,1717],[1889,1770],[1782,1770] : [0.3] 
Unknown : [1296,1712],[1299,1733],[1585,1698],[1582,1677] : [0.3] 
Unknown : [1508,1471],[1890,1494],[1891,1473],[1509,1450] : [0.3] 
