Wall : [664,1727],[707,1727],[707,1975],[664,1975] : [1] 
Wall : [2525,664],[2568,664],[2568,907],[2525,907] : [1] 
Wall : [2525,1048],[2568,1048],[2568,1308],[2525,1308] : [1] 
Wall : [2253,1650],[2568,1650],[2568,1692],[2253,1692] : [1] 
Wall : [2525,1450],[2568,1450],[2568,1692],[2525,1692] : [1] 
Wall : [2028,664],[2568,664],[2568,706],[2028,706] : [1] 
Wall : [1910,1650],[2113,1650],[2113,1692],[1910,1692] : [1] 
Wall : [664,1379],[707,1379],[707,1586],[664,1586] : [1] 
Wall : [1768,664],[1959,664],[1959,706],[1768,706] : [1] 
Wall : [783,1154],[825,1154],[825,1261],[783,1261] : [1] 
Wall : [1402,1925],[1552,1925],[1552,1968],[1402,1968] : [1] 
Wall : [1662,1650],[1818,1650],[1818,1692],[1662,1692] : [1] 
Wall : [1302,664],[1487,664],[1487,706],[1302,706] : [1] 
Wall : [1556,664],[1700,664],[1700,706],[1556,706] : [1] 
Wall : [953,1934],[1257,1934],[1257,1975],[953,1975] : [1] 
Wall : [664,1933],[814,1933],[814,1975],[664,1975] : [1] 
Wall : [664,1042],[1274,1042],[1274,1079],[664,1079] : [1] 
Wall : [664,664],[1233,664],[1233,688],[664,688] : [1] 
Wall : [665,1007],[689,1007],[689,1066],[665,1066] : [1] 
Wall : [665,664],[689,664],[689,724],[665,724] : [1] 
Wall : [1374,664],[1397,664],[1397,1066],[1374,1066] : [1] 
Wall : [1509,1916],[1551,1916],[1551,1975],[1509,1975] : [1] 
Wall : [783,1367],[825,1367],[825,1420],[783,1420] : [1] 
Wall : [1396,1953],[1552,1953],[1552,1975],[1396,1975] : [1] 
Wall : [664,1372],[826,1372],[826,1421],[664,1421] : [1] 
Wall : [1508,1650],[1570,1650],[1570,1703],[1508,1703] : [1] 
Wall : [2164,1172],[2568,1172],[2568,1178],[2164,1178] : [1] 
Wall : [2289,1574],[2295,1574],[2295,1692],[2289,1692] : [1] 
Wall : [2165,664],[2171,664],[2171,1072],[2165,1072] : [1] 
Wall : [2047,1172],[2053,1172],[2053,1692],[2047,1692] : [1] 
Wall : [1805,664],[1811,664],[1811,1066],[1805,1066] : [1] 
Wall : [782,1166],[1026,1166],[1026,1173],[782,1173] : [1] 
Wall : [1746,1172],[1752,1172],[1752,1692],[1746,1692] : [1] 
Wall : [1604,664],[1610,664],[1610,1066],[1604,1066] : [1] 
Wall : [1396,1936],[1552,1936],[1552,1941],[1396,1941] : [1] 
Wall : [1851,1172],[2054,1172],[2054,1178],[1851,1178] : [1] 
Wall : [1804,1059],[2054,1059],[2054,1066],[1804,1066] : [1] 
Wall : [1018,1166],[1025,1166],[1025,1249],[1018,1249] : [1] 
Wall : [1508,1172],[1753,1172],[1753,1178],[1508,1178] : [1] 
Wall : [1508,1060],[1706,1060],[1706,1066],[1508,1066] : [1] 
Wall : [1276,1172],[1398,1172],[1398,1178],[1276,1178] : [1] 
Wall : [1284,1176],[1279,1172],[1202,1249],[1206,1254] : [1] 
Wall : [1202,1247],[1209,1247],[1209,1521],[1202,1521] : [1] 
Wall : [825,1250],[1018,1250],[1018,1246],[825,1246] : [1] 
Wall : [2294,1576],[2524,1576],[2524,1572],[2294,1572] : [1] 
