[
    {
        "annotations": [
            {
                "class": "Room", 
                "type": "single", 
                "xn": "1513;1514;1527;1528;1583;1584;1639;1640;1681;1682;1682;1683;1683;1682;1658;1657;1625;1624;1591;1590;1558;1557;1525;1524;1516;1515;1515;1514;1514;1513", 
                "yn": "1555;1554;1554;1555;1555;1556;1556;1557;1557;1558;1580;1581;1647;1648;1648;1647;1647;1646;1646;1645;1645;1644;1644;1643;1643;1642;1610;1609;1566;1565", 
                "text": "wc;", 
                "x": "1552", 
                "y": "1581"
            }, 
            {
                "class": "Room", 
                "type": "open", 
                "xn": "864;865;907;907;949;949;991;991;1033;1033;1075;1075;1116;1116;1158;1184;1185;1221;1222;1257;1258;1266;1267;1286;1286;1287;1298;1299;1344;1345;1389;1390;1435;1436;1481;1482;1527;1528;1573;1574;1607;1608;1608;1607;1607;1606;1606;1605;1605;1604;1579;1578;1500;1500;1501;1501;1502;1502;1503;1503;1504;1504;1505;1505;1504;1494;1493;1450;1449;1406;1405;1362;1361;1318;1317;1285;1284;1284;1285;1285;1269;1269;1291;1292;1330;1331;1496;1498;1498;1499;1499;1500;1500;1501;1501;1502;1502;1503;1503;1525;1526;1617;1618;1685;1686;1686;1685;1299;1298;1298;1297;1296;1292;1291;1282;1281;1276;1275;1197;1196;1196;1097;923;922;747;746;571;571;717;717", 
                "yn": "1093;1093;1135;1136;1178;1179;1221;1222;1264;1265;1307;1308;1349;1350;1392;1392;1391;1391;1390;1390;1389;1389;1390;1390;1388;1387;1387;1388;1388;1389;1389;1390;1390;1391;1391;1392;1392;1393;1393;1394;1394;1395;1431;1432;1480;1481;1529;1530;1541;1542;1542;1543;1543;1546;1547;1561;1562;1576;1577;1590;1591;1605;1606;1616;1617;1617;1618;1618;1619;1619;1620;1620;1621;1621;1622;1622;1621;1593;1592;1556;1556;1632;1632;1633;1633;1634;1634;1636;1640;1641;1644;1645;1649;1650;1653;1654;1658;1659;1661;1661;1662;1662;1663;1663;1664;2027;2028;2028;2027;1912;1912;1913;1913;1914;1914;1915;1915;1914;1914;1913;1912;1912;1738;1738;1563;1563;1388;1387;1241;1240", 
                "text": "sejour;hall;repas;cuisine;", 
                "x": "918;1419;1397;1442", 
                "y": "1427;1451;1758;1994"
            }, 
            {
                "class": "Room", 
                "type": "single", 
                "xn": "1401;1402;1414;1415;1464;1465;1514;1515;1564;1565;1601;1602;1602;1603;1603;1604;1604;1603;1555;1554;1488;1487;1422;1421;1405;1404;1404;1403;1403;1402;1402;1401", 
                "yn": "961;960;960;961;961;962;962;963;963;964;964;965;987;988;1080;1081;1149;1150;1150;1149;1149;1148;1148;1147;1147;1146;1101;1100;1039;1038;977;976", 
                "text": "d;", 
                "x": "1444", 
                "y": "1015"
            }, 
            {
                "class": "Room", 
                "type": "single", 
                "xn": "1322;1323;1387;1388;1388;1387;1387;1386;1386;1385;1385;1384;1347;1346;1297;1296;1284;1283;1283;1271;1270;1254;1253;1249;1249;1250;1250;1251;1251;1250;1218;1217;1173;1172;1162;1015;1015;869;869;868;868;869;1063;1064", 
                "yn": "958;957;957;958;1061;1062;1199;1200;1337;1338;1371;1372;1372;1371;1371;1370;1370;1369;1351;1351;1350;1350;1349;1349;1351;1352;1364;1365;1373;1374;1374;1373;1373;1372;1372;1225;1224;1078;990;989;960;959;959;958", 
                "text": "chambre 1;", 
                "x": "1115", 
                "y": "1067"
            }
        ], 
        "class": "image", 
        "filename": "fp_26.png"
    }
]