[
    {
        "annotations": [
            {
                "class": "Room", 
                "type": "single", 
                "xn": "1396;1397;1426;1427;1545;1546;1665;1666;1784;1785;1904;1905;1993;1994;1994;1993;1927;1926;1836;1835;1746;1745;1722;1670;1669;1617;1616;1563;1562;1510;1509;1457;1456;1402;1402;1401;1401;1400;1400;1399;1399;1398;1398;1397;1397;1396", 
                "yn": "1722;1721;1721;1722;1722;1723;1723;1724;1724;1725;1725;1726;1726;1727;2206;2207;2207;2206;2206;2205;2205;2204;2204;2152;2152;2100;2100;2047;2047;1995;1995;1943;1943;1889;1869;1868;1841;1840;1813;1812;1785;1784;1757;1756;1729;1728", 
                "text": "terrasse;", 
                "x": "1712", 
                "y": "1872"
            }, 
            {
                "class": "Room", 
                "type": "single", 
                "xn": "1620;1621;1624;1625;1625;1626;1626;1627;1627;1628;1628;1629;1629;1630;1630;1637;1638;1648;1649;1650;1650;1649;1649;1648;1648;1647;1647;1646;1646;1645;1645;1644;1644;1645;1655;1656;1700;1701;1745;1746;1790;1791;1835;1836;1868;1869;1869;1870;1870;1871;1871;1870;1831;1830;1670;1669;1549;1548;1548;1547;1547;1531;1530;1515;1514;1498;1497;1481;1480;1464;1463;1447;1446;1428;1428;1427;1427;1426;1426;1425;1425;1424;1434;1434;1454;1454;1474;1474;1494;1494;1505;1539;1539;1540;1540;1541;1541;1542;1554;1555;1570;1571;1587;1588;1603;1604", 
                "yn": "1080;1079;1079;1080;1084;1085;1105;1106;1125;1126;1146;1147;1166;1167;1181;1181;1180;1180;1179;1179;1171;1170;1158;1157;1145;1144;1132;1131;1119;1118;1106;1105;1103;1102;1102;1103;1103;1104;1104;1105;1105;1106;1106;1107;1107;1108;1135;1136;1247;1248;1330;1331;1331;1332;1332;1333;1333;1332;1316;1315;1310;1294;1294;1279;1279;1263;1263;1247;1247;1231;1231;1215;1215;1197;1196;1195;1194;1193;1192;1191;1190;1189;1179;1178;1158;1157;1137;1136;1116;1115;1104;1104;1103;1102;1093;1092;1085;1084;1084;1083;1083;1082;1082;1081;1081;1080", 
                "text": "hall;", 
                "x": "1655", 
                "y": "1259"
            }, 
            {
                "class": "Room", 
                "type": "open", 
                "xn": "1892;1893;1917;1918;2018;2019;2118;2119;2193;2194;2194;2195;2195;2194;2152;2151;2021;2020;2020;2019;2019;2018;2018;2017;2017;2016;2016;2015;2015;2012;2011;1994;1993;1981;1981;1982;1982;1983;1983;1984;1984;1985;1985;1986;1986;1987;1987;2009;2010;2040;2041;2071;2072;2102;2103;2133;2134;2164;2165;2172;2172;2173;2209;2209;2208;2208;2209;2440;2441;2517;2518;2518;2519;2519;2520;2520;2604;2605;2858;2859;2859;2860;2860;2861;2861;2862;2862;2861;2852;2851;2811;2810;2770;2769;2729;2728;2699;2699;2698;2697;2697;2698;2698;2697;2534;2533;2316;2315;2097;2096;2042;2041;2041;2040;2040;2041;2079;2080;2132;2133;2184;2185;2236;2237;2289;2290;2341;2342;2393;2394;2402;2402;2401;2401;2400;2400;2399;2399;2398;2398;2397;2397;2396;2396;2395;2395;2394;2394;2393;2388;2387;2368;2368;2369;2369;2370;2370;2369;2248;2247;2084;2083;2043;2042;2042;2041;2041;2039;2038;2034;2033;2030;2029;2025;2024;2020;2018;2018;2015;2015;2014;1838;1837;1601;1600;1542;1541;1541;1542;1542;1543;1543;1544;1885;1885;1884;1884;1885;1885;1886;1886;1887;1887;1888;1888;1889;1889;1890;1890;1891;1891;1892", 
                "yn": "978;977;977;978;978;979;979;980;980;981;1021;1022;1144;1145;1145;1146;1146;1145;1135;1134;1121;1120;1107;1106;1092;1091;1078;1077;1074;1074;1075;1075;1076;1076;1080;1081;1098;1099;1115;1116;1133;1134;1151;1152;1169;1170;1182;1182;1181;1181;1180;1180;1179;1179;1178;1178;1177;1177;1176;1176;1175;1174;1174;1172;1171;1160;1159;1159;1158;1158;1159;1160;1161;1169;1170;1175;1175;1176;1176;1177;1218;1219;1383;1384;1548;1549;1671;1672;1672;1673;1673;1674;1674;1675;1675;1676;1676;1781;1782;1782;1829;1830;2181;2182;2182;2181;2181;2180;2180;2179;2179;2178;1844;1843;1732;1731;1731;1730;1730;1729;1729;1728;1728;1727;1727;1726;1726;1725;1725;1724;1724;1709;1708;1707;1706;1705;1704;1702;1701;1699;1698;1697;1696;1694;1693;1692;1691;1689;1688;1688;1689;1689;1691;1692;1704;1705;1714;1715;1715;1714;1714;1713;1713;1712;1687;1686;1678;1678;1677;1677;1676;1676;1675;1675;1674;1674;1672;1671;1671;1673;1674;1674;1673;1673;1672;1672;1671;1632;1631;1473;1472;1354;1353;1353;1343;1342;1332;1331;1284;1283;1241;1240;1195;1194;1149;1148;1104;1103;1058;1057;1012;1011", 
                "text": "degt;degt;repas;cuisine;sejour;", 
                "x": "2022;1981;2389;1837;2359", 
                "y": "1005;1229;1300;1488;1908"
            }, 
            {
                "class": "Room", 
                "type": "single", 
                "xn": "1604;1605;1626;1627;1627;1626;1626;1625;1625;1624;1605;1604;1577;1576;1549;1548;1522;1521;1494;1493;1487;1477;1477;1458;1458;1438;1438;1419;1419;1399;1399;1389;1041;1040;1040;1039;1039;1038;1038;1037;1037;1036;1036;1035;1035;1034;1034;1033;1033;1034;1046;1047;1096;1097;1145;1146;1195;1196;1245;1246;1295;1296;1345;1346;1395;1396;1445;1446;1482;1483;1483;1484;1484;1485;1485;1486;1486;1487;1487;1488;1488;1489;1489;1490;1490;1491;1491;1492;1492;1493;1493;1494;1494;1495;1495;1529;1530;1541;1541;1540;1540;1539;1539;1540", 
                "yn": "800;799;799;800;901;902;1036;1037;1069;1070;1070;1069;1069;1068;1068;1067;1067;1066;1066;1065;1065;1075;1076;1095;1096;1116;1117;1136;1137;1157;1158;1168;1168;1167;1134;1133;1088;1087;1042;1041;996;995;950;949;905;904;859;858;847;846;846;847;847;848;848;849;849;850;850;851;851;852;852;853;853;854;854;855;855;856;857;858;866;867;875;876;883;884;892;893;901;902;909;910;918;919;927;928;935;936;944;945;953;954;959;959;958;958;900;899;821;820;801;800", 
                "text": "chambre parents;", 
                "x": "1246", 
                "y": "898"
            }, 
            {
                "class": "Room", 
                "type": "single", 
                "xn": "2537;2538;2577;2578;2736;2737;2895;2896;3014;3015;3015;3016;3016;3017;3017;3018;3018;3017;3008;3007;2967;2966;2927;2926;2886;2885;2855;2855;2856;2856;2855;2541;2540;2540;2539;2539;2538;2538;2537", 
                "yn": "796;795;795;796;796;797;797;798;798;799;826;827;935;936;1044;1045;1125;1126;1126;1127;1127;1128;1128;1129;1129;1130;1130;1133;1134;1144;1145;1145;1144;1058;1057;942;941;825;824", 
                "text": "salle tv;", 
                "x": "2755", 
                "y": "947"
            }, 
            {
                "class": "Room", 
                "type": "single", 
                "xn": "2365;2366;2401;2402;2513;2514;2514;2515;2515;2516;2516;2517;2517;2518;2518;2519;2519;2520;2520;2521;2521;2520;2315;2314;2314;2315;2365", 
                "yn": "796;795;795;796;796;797;809;810;859;860;910;911;961;962;1011;1012;1062;1063;1112;1113;1150;1151;1151;1150;882;881;881", 
                "text": "vide;", 
                "x": "2394", 
                "y": "1003"
            }, 
            {
                "class": "Room", 
                "type": "single", 
                "xn": "1979;1980;2088;2089;2089;2090;2090;2091;2091;2090;2078;2077;2023;2022;1968;1967;1913;1912;1872;1872;1873;1873;1874;1874;1873;1648;1647;1647;1648;1648;1649;1649;1650;1650;1651", 
                "yn": "796;795;795;796;816;817;898;899;959;960;960;961;961;962;962;963;963;964;964;976;977;1028;1029;1066;1067;1067;1066;1045;1044;955;954;865;864;797;796", 
                "text": "cellier;", 
                "x": "1846", 
                "y": "839"
            }, 
            {
                "class": "Room", 
                "type": "single", 
                "xn": "2105;2106;2127;2128;2193;2194;2194;2195;2195;2196;2196;2197;2197;2198;2198;2197;2162;2161;2113;2112;2101;2100;2100;2101;2101;2102;2102;2103;2103;2104;2104;2105", 
                "yn": "795;794;794;795;795;796;806;807;850;851;894;895;937;938;970;971;971;970;970;969;969;968;961;960;926;925;891;890;856;855;821;820", 
                "text": "wc;", 
                "x": "2142", 
                "y": "883"
            }, 
            {
                "class": "Room", 
                "type": "single", 
                "xn": "1221;1222;1234;1235;1283;1284;1332;1333;1381;1382;1430;1431;1467;1468;1468;1469;1469;1470;1470;1471;1471;1472;1472;1473;1473;1472;1219;1218;1218;1219;1219;1220;1220;1221", 
                "yn": "638;637;637;638;638;639;639;640;640;641;641;642;642;643;652;653;689;690;727;728;764;765;802;803;830;831;831;830;815;814;751;750;686;685", 
                "text": "dressing;", 
                "x": "1344", 
                "y": "735"
            }, 
            {
                "class": "Room", 
                "type": "single", 
                "xn": "866;867;908;909;1077;1078;1204;1205;1205;1204;1204;1203;1203;1202;1202;1201;1201;1200;1174;1173;1064;1063;954;953;871;870;870;871;871;872;872;873;873;874;929;930;1003;1004;1021;1022;1022;1023;1023;1024;1024;1003;1002;972;971;942;941;912;911;882;881;874;873;873;872;872;871;871;870;870;869;869;868;868;867;867;866", 
                "yn": "637;636;636;637;637;638;638;639;674;675;722;723;770;771;817;818;829;830;830;831;831;832;832;833;833;832;825;824;794;793;763;762;739;738;738;737;737;736;736;735;732;731;727;726;724;724;723;723;722;722;721;721;720;720;719;719;718;710;709;699;698;687;686;675;674;664;663;652;651;640;639", 
                "text": "bains;", 
                "x": "1053", 
                "y": "662"
            }
        ], 
        "class": "image", 
        "filename": "fp_22.png"
    }
]