[
    {
        "annotations": [
            {
                "class": "Room", 
                "type": "single", 
                "xn": "2275;2276;2283;2284;2284;2283;2283;2282;2259;2258;2162;2161;2089;2088;2088;2089;2115;2116;2150;2151;2185;2186;2194;2194;2193;2193;2192;2192;2191;2191;2190;2190;2191;2213;2214;2244;2245", 
                "yn": "1352;1351;1351;1352;1597;1598;1678;1679;1679;1680;1680;1681;1681;1680;1444;1443;1443;1442;1442;1441;1441;1440;1440;1425;1424;1404;1403;1382;1381;1361;1360;1355;1354;1354;1353;1353;1352", 
                "text": "bains;", 
                "x": "2228", 
                "y": "1474"
            }, 
            {
                "class": "Room", 
                "type": "single", 
                "xn": "2556;2557;2644;2645;2645;2644;2644;2643;2387;2386;2301;2300;2300;2299;2299;2298;2298;2297;2297;2296;2296;2295;2295;2294;2294;2293;2293;2294", 
                "yn": "1255;1254;1254;1255;1572;1573;1678;1679;1679;1678;1678;1677;1633;1632;1573;1572;1512;1511;1452;1451;1392;1391;1332;1331;1271;1270;1256;1255", 
                "text": "chambre 2;", 
                "x": "2481", 
                "y": "1444"
            }, 
            {
                "class": "Room", 
                "type": "single", 
                "xn": "2155;2156;2178;2179;2179;2180;2180;2179;2113;2112;2091;2090;2090;2089;2089;2088;2088;2087;2087;2088", 
                "yn": "1255;1254;1254;1255;1298;1299;1429;1430;1430;1429;1429;1428;1386;1385;1328;1327;1271;1270;1256;1255", 
                "text": "wc;", 
                "x": "2130", 
                "y": "1273"
            }, 
            {
                "class": "Room", 
                "type": "single", 
                "xn": "1750;1751;1770;1771;1849;1850;1929;1930;2008;2009;2067;2068;2068;2069;2069;2070;2070;2071;2071;2070;1752;1751;1751;1750", 
                "yn": "1254;1253;1253;1254;1254;1255;1255;1256;1256;1257;1257;1258;1293;1294;1434;1435;1575;1576;1680;1681;1681;1680;1361;1360", 
                "text": "chambre 1;", 
                "x": "1918", 
                "y": "1444"
            }, 
            {
                "class": "Room", 
                "type": "single", 
                "xn": "1413;1414;1428;1429;1487;1488;1545;1546;1589;1590;1590;1591;1591;1592;1592;1593;1593;1621;1622;1736;1737;1850;1851;1965;1966;2080;2081;2194;2195;2280;2281;2281;2282;2282;2283;2283;2284;2284;2285;2285;2284;2262;2261;2192;2191;2191;2192;2192;2193;2193;2194;2194;2176;2175;2100;2099;2023;2022;1947;1946;1870;1869;1794;1793;1736;1736;1737;1737;1738;1738;1737;1612;1611;1611;1610;1610;1608;1607;1597;1596;1589;1589;1590;1590;1591;1591;1592;1592;1593;1593;1592;1571;1570;1482;1481;1415;1414;1414;1413", 
                "yn": "1066;1065;1065;1066;1066;1067;1067;1068;1068;1069;1075;1076;1101;1102;1127;1128;1146;1146;1147;1147;1148;1148;1149;1149;1150;1150;1151;1151;1152;1152;1153;1164;1165;1212;1213;1260;1261;1308;1309;1344;1345;1345;1346;1346;1345;1337;1336;1300;1299;1264;1263;1236;1236;1237;1237;1238;1238;1239;1239;1240;1240;1241;1241;1242;1242;1250;1251;1286;1287;1312;1313;1313;1312;1255;1254;1235;1235;1236;1236;1237;1237;1241;1242;1260;1261;1278;1279;1297;1298;1311;1312;1312;1313;1313;1314;1314;1313;1128;1127", 
                "text": "hall;", 
                "x": "1530", 
                "y": "1178"
            }, 
            {
                "class": "Room", 
                "type": "single", 
                "xn": "1400;1401;1405;1406;1406;1407;1407;1406;1372;1371;1325;1324;1313;1312;1312;1313;1313;1314;1314;1315;1331;1332;1354;1355;1377;1378", 
                "yn": "947;946;946;947;998;999;1155;1156;1156;1155;1155;1154;1154;1153;1129;1128;1027;1026;951;950;950;949;949;948;948;947", 
                "text": "wc;", 
                "x": "1362", 
                "y": "1083"
            }, 
            {
                "class": "Room", 
                "type": "open", 
                "xn": "1177;1178;1296;1297;1297;1296;1296;1295;1295;1294;1294;1298;1299;1319;1320;1340;1341;1360;1361;1381;1382;1396;1397;1397;1398;1398;1399;1399;1400;1400;1401;1401;1402;1402;1426;1426;1425;1425;1424;1424;1425;1464;1465;1621;1622;1739;1740;1740;1741;1741;1742;1742;1741;1703;1702;1548;1547;1432;1431;1431;1406;1406;1405;1296;1295;1149;1148;1003;1002;856;855;819;818;818;819", 
                "yn": "945;944;944;945;1001;1002;1077;1078;1152;1153;1171;1171;1172;1172;1173;1173;1174;1174;1175;1175;1176;1176;1177;1190;1191;1246;1247;1303;1304;1359;1360;1415;1416;1439;1439;1392;1391;1341;1340;1328;1327;1327;1328;1328;1329;1329;1330;1373;1374;1550;1551;1682;1683;1683;1684;1684;1685;1685;1684;1680;1680;1681;1682;1682;1681;1681;1680;1680;1679;1679;1678;1678;1677;946;945", 
                "text": "sejour;cuisine;", 
                "x": "1088;1548", 
                "y": "1130;1467"
            }, 
            {
                "class": "Room", 
                "type": "single", 
                "xn": "1834;1835;1896;1897;1897;1896;1896;1895;1825;1824;1610;1609;1609;1608;1608;1609;1648;1648;1649", 
                "yn": "927;926;926;927;1079;1080;1130;1131;1131;1132;1132;1131;1081;1080;1064;1063;1063;928;927", 
                "text": "cellier;", 
                "x": "1724", 
                "y": "1032"
            }, 
            {
                "class": "Room", 
                "type": "single", 
                "xn": "2319;2320;2346;2347;2455;2456;2564;2565;2645;2646;2646;2645;2645;2644;2400;2399;2318;2317;2317;2318;2318;2319", 
                "yn": "827;826;826;827;827;828;828;829;829;830;1134;1135;1236;1237;1237;1236;1236;1235;1185;1184;981;980", 
                "text": "chambre 3;", 
                "x": "2481", 
                "y": "990"
            }, 
            {
                "class": "Room", 
                "type": "single", 
                "xn": "1641;1642;1721;1722;2042;2043;2283;2284;2284;2285;2285;2284;2256;2255;2138;2137;2020;2019;1931;1930;1930;1929;1929;1928;1928;1927;1927;1893;1892;1845;1844;1798;1797;1751;1750;1703;1702;1656;1655;1644;1643;1643;1642;1642;1641", 
                "yn": "576;575;575;576;576;577;577;578;711;712;1111;1112;1112;1113;1113;1114;1114;1115;1115;1114;1061;1060;989;988;916;915;898;898;897;897;896;896;895;895;894;894;893;893;892;892;891;774;773;616;615", 
                "text": "garage;", 
                "x": "1977", 
                "y": "700"
            }
        ], 
        "class": "image", 
        "filename": "fp_58.png"
    }
]