[
    {
        "annotations": [
            {
                "class": "Room", 
                "type": "single", 
                "xn": "2476;2477;2507;2508;2632;2633;2756;2757;2880;2881;2973;2974;2974;2973;2973;2972;2972;2971;2971;2970;2970;2969;2940;2939;2817;2816;2695;2694;2573;2572;2481;2480;2480;2479;2479;2478;2478;2477;2477;2476", 
                "yn": "2029;2028;2028;2029;2029;2030;2030;2031;2031;2032;2032;2033;2091;2092;2170;2171;2248;2249;2327;2328;2346;2347;2347;2348;2348;2349;2349;2350;2350;2351;2351;2350;2291;2290;2210;2209;2130;2129;2049;2048", 
                "text": "local piscine geothermie;", 
                "x": "2727", 
                "y": "2169"
            }, 
            {
                "class": "Room", 
                "type": "single", 
                "xn": "562;563;615;616;616;615;457;456;245;244;192;191;191;192;350;351", 
                "yn": "1718;1717;1717;1718;2054;2055;2055;2054;2054;2053;2053;2052;1720;1719;1719;1718", 
                "text": "chambre parents;", 
                "x": "524", 
                "y": "1875"
            }, 
            {
                "class": "Room", 
                "type": "single", 
                "xn": "2575;2576;2604;2605;2605;2604;2604;2603;2603;2602;2136;2135;2135;2136;2223;2224;2340;2341;2458;2459", 
                "yn": "1674;1673;1673;1674;1786;1787;1937;1938;1974;1975;1975;1974;1678;1677;1677;1676;1676;1675;1675;1674", 
                "text": "chambre amis;", 
                "x": "2373", 
                "y": "1914"
            }, 
            {
                "class": "Room", 
                "type": "single", 
                "xn": "1761;1762;1779;1780;1851;1852;1922;1923;1994;1995;2047;2048;2048;2050;2051;2062;2063;2074;2075;2086;2087;2098;2099;2109;2110;2118;2119;2119;2118;2118;2117;2117;2116;2097;2096;2017;2016;1937;1936;1857;1856;1797;1796;1796;1794;1793;1790;1789;1786;1785;1782;1781;1778;1777;1774;1773;1770;1769;1766;1764;1764;1763;1763;1762;1762;1761", 
                "yn": "1459;1458;1458;1459;1459;1460;1460;1461;1461;1462;1462;1463;1656;1656;1657;1657;1658;1658;1659;1659;1660;1660;1661;1661;1662;1662;1663;1779;1780;1935;1936;1974;1975;1975;1976;1976;1977;1977;1978;1978;1979;1979;1978;1629;1629;1628;1628;1627;1627;1626;1626;1625;1625;1624;1624;1623;1623;1622;1622;1620;1581;1580;1527;1526;1473;1472", 
                "text": "chambre enfant;", 
                "x": "1955", 
                "y": "1682"
            }, 
            {
                "class": "Room", 
                "type": "single", 
                "xn": "494;495;501;502;527;528;552;553;578;579;604;605;630;631;649;650;650;651;651;652;652;653;653;654;654;655;655;656;656;657;657;656;642;641;621;620;616;616;615;615;614;614;613;409;408;408;409;409;410;410;411;411;412;412;413;413;414;427;428;446;447;464;465;483;484;487;487;488;488;489;489;490;490;491;491;492;492;493;493;494", 
                "yn": "1400;1399;1399;1400;1400;1401;1401;1402;1402;1403;1403;1404;1404;1405;1405;1406;1413;1414;1445;1446;1476;1477;1507;1508;1539;1540;1570;1571;1602;1603;1625;1626;1626;1625;1625;1624;1624;1650;1651;1686;1687;1695;1696;1696;1695;1691;1690;1669;1668;1647;1646;1625;1624;1604;1603;1587;1586;1586;1585;1585;1584;1584;1583;1583;1582;1582;1577;1576;1551;1550;1524;1523;1498;1497;1472;1471;1446;1445;1420;1419", 
                "text": "dress;", 
                "x": "540", 
                "y": "1541"
            }, 
            {
                "class": "Room", 
                "type": "single", 
                "xn": "188;189;223;224;364;365;470;471;471;470;443;442;406;405;396;396;395;395;394;394;393;393;392;392;391;189;188", 
                "yn": "1400;1399;1399;1400;1400;1401;1401;1402;1567;1568;1568;1567;1567;1566;1566;1590;1591;1622;1623;1655;1656;1687;1688;1695;1696;1696;1695", 
                "text": "d;", 
                "x": "353", 
                "y": "1497"
            }, 
            {
                "class": "Room", 
                "type": "single", 
                "xn": "2184;2185;2198;2199;2251;2252;2291;2292;2292;2293;2293;2294;2294;2295;2295;2296;2296;2297;2297;2298;2298;2604;2605;2605;2604;2604;2603;2603;2602;2557;2556;2371;2370;2234;2233;2233;2230;2229;2229;2221;2220;2209;2208;2197;2196;2184;2183;2181;2180;2180;2181;2181;2182;2182;2183;2183;2184", 
                "yn": "1352;1351;1351;1352;1352;1353;1353;1354;1356;1357;1369;1370;1382;1383;1395;1396;1408;1409;1421;1422;1430;1430;1431;1506;1507;1608;1609;1633;1634;1634;1635;1635;1636;1636;1635;1548;1548;1547;1542;1542;1541;1541;1540;1540;1539;1539;1538;1538;1537;1527;1526;1480;1479;1434;1433;1387;1386", 
                "text": "bains;", 
                "x": "2448", 
                "y": "1537"
            }, 
            {
                "class": "Room", 
                "type": "single", 
                "xn": "2257;2258;2288;2289;2465;2466;2598;2599;2599;2598;2529;2528;2435;2434;2341;2340;2317;2316;2316;2315;2315;2314;2314;2313;2313;2312;2312;2311;2311;2310;2310;2300;2299;2284;2283;2269;2268;2258;2257", 
                "yn": "1245;1244;1244;1245;1245;1246;1246;1247;1409;1410;1410;1409;1409;1408;1408;1407;1407;1406;1398;1397;1387;1386;1375;1374;1363;1362;1352;1351;1340;1339;1337;1337;1336;1336;1335;1335;1334;1334;1333", 
                "text": "buanderie lingerie;", 
                "x": "2508", 
                "y": "1338"
            }, 
            {
                "class": "Room", 
                "type": "single", 
                "xn": "1766;1767;1968;1969;1969;1968;1893;1892;1792;1791;1767;1766", 
                "yn": "1156;1155;1155;1156;1438;1439;1439;1438;1438;1437;1437;1436", 
                "text": "cellier;", 
                "x": "1869", 
                "y": "1247"
            }, 
            {
                "class": "Room", 
                "type": "single", 
                "xn": "2456;2457;2474;2475;2475;2476;2476;2477;2477;2478;2478;2479;2479;2478;2399;2398;2291;2290;2264;2263;2263;2262;2262;2261;2261;2262;2314;2315;2385;2386", 
                "yn": "1138;1137;1137;1138;1143;1144;1165;1166;1188;1189;1210;1211;1227;1228;1228;1227;1227;1226;1226;1225;1194;1193;1152;1151;1141;1140;1140;1139;1139;1138", 
                "text": "wc;", 
                "x": "2368", 
                "y": "1176"
            }, 
            {
                "class": "Room", 
                "type": "open", 
                "xn": "685;686;774;775;1129;1130;1485;1486;1632;1632;1633;1783;1784;1784;2248;2249;2249;2248;2234;2234;2237;2238;2238;2239;2239;2240;2240;2241;2241;2240;2237;2237;2236;2231;2230;2221;2220;2211;2210;2201;2200;2191;2190;2182;2181;2172;2171;2164;2164;2165;2165;2166;2166;2173;2174;2203;2204;2224;2225;2225;2224;2206;2205;2127;2126;2068;2067;2067;2066;2066;2065;2065;2064;2064;2056;2055;2020;2019;1993;1992;1992;1991;1991;1990;1990;1991;1992;1992;1818;1817;1751;1751;1750;1750;1749;1749;1748;1748;1747;686;685;685;609;608;522;521;434;433;347;346;260;259;238;237;237;238;238;239;239;240;240;194;193;193;192;192;191;191;190;190;189;189;188;188;189;370;371;613;614;673;674;685", 
                "yn": "970;969;969;970;970;971;971;972;972;971;970;970;971;973;973;974;1135;1136;1136;1155;1155;1156;1164;1165;1199;1200;1235;1236;1240;1241;1241;1333;1334;1334;1335;1335;1336;1336;1337;1337;1338;1338;1339;1339;1340;1340;1341;1341;1367;1368;1474;1475;1554;1554;1555;1555;1556;1556;1557;1643;1644;1644;1645;1645;1646;1646;1645;1594;1593;1524;1523;1455;1454;1437;1437;1438;1438;1439;1439;1438;1333;1332;1192;1191;1156;1155;1155;1135;1135;1134;1134;1260;1261;1424;1425;1588;1589;1629;1630;1630;1629;1380;1380;1379;1379;1378;1378;1377;1377;1376;1376;1375;1375;1374;1372;1371;1357;1356;1342;1341;1331;1331;1330;1278;1277;1206;1205;1134;1133;1063;1062;991;990;973;972;972;971;971;970;970;971;971", 
                "text": "hall;sejour;repas;cuisine;dgt;", 
                "x": "1978;536;1202;1634;2115", 
                "y": "1041;1106;1200;1312;1295"
            }, 
            {
                "class": "Room", 
                "type": "single", 
                "xn": "528;529;613;614;953;954;1293;1294;1632;1633;1887;1888;1888;1889;1889;1890;1890;1889;1380;1379;699;698;529;528", 
                "yn": "321;320;320;321;321;322;322;323;323;324;324;325;401;402;706;707;935;936;936;935;935;934;934;933", 
                "text": "garage;", 
                "x": "1223", 
                "y": "574"
            }
        ], 
        "class": "image", 
        "filename": "fp_50.png"
    }
]