[
    {
        "annotations": [
            {
                "class": "Room", 
                "type": "single", 
                "xn": "1592;1593;1678;1679;1679;1678;1678;1677;1508;1507;1281;1280;1224;1223;1223;1224;1224;1225;1225;1226;1226;1227;1227;1228;1331;1331;1332;1332;1333", 
                "yn": "999;998;998;999;1240;1241;1320;1321;1321;1320;1320;1319;1319;1318;1304;1303;1242;1241;1180;1179;1119;1118;1072;1071;1071;1054;1053;1000;999", 
                "text": "chambre 3;", 
                "x": "1422", 
                "y": "1154"
            }, 
            {
                "class": "Room", 
                "type": "single", 
                "xn": "1129;1130;1209;1210;1210;1209;1090;1089;930;929;890;889;889;890;890;891", 
                "yn": "895;894;894;895;1319;1320;1320;1319;1319;1318;1318;1317;1213;1212;896;895", 
                "text": "chambre 2;", 
                "x": "1068", 
                "y": "1143"
            }, 
            {
                "class": "Room", 
                "type": "single", 
                "xn": "1618;1619;1630;1631;1679;1680;1713;1714;1714;1713;1696;1695;1594;1593;1493;1492;1391;1390;1315;1315;1314;1245;1244;1221;1220;1220;1221;1221;1222;1222;1223;1370;1371;1567;1568;1616;1616;1594;1593;1593;1594;1611;1612;1617;1617;1618", 
                "yn": "805;804;804;805;805;806;806;807;981;982;982;983;983;984;984;985;985;986;986;1063;1064;1064;1063;1063;1062;1042;1041;957;956;893;892;892;891;891;890;890;883;883;882;837;836;836;835;835;829;828", 
                "text": "degt;", 
                "x": "1376", 
                "y": "947"
            }, 
            {
                "class": "Room", 
                "type": "single", 
                "xn": "1701;1702;1712;1713;1713;1712;1712;1711;1623;1622;1622;1621;1621;1622;1655;1656", 
                "yn": "650;649;649;650;761;762;798;799;799;798;689;688;652;651;651;650", 
                "text": "wc;", 
                "x": "1662", 
                "y": "735"
            }, 
            {
                "class": "Room", 
                "type": "open", 
                "xn": "1865;1866;1885;1886;1886;1904;1905;1960;1961;1961;1962;1962;1963;1963;1964;1964;1963;1944;1943;1890;1890;1920;1921;1921;1922;1922;1923;1923;1935;1936;1972;1972;1973;1973;1974;2017;2018;2075;2076;2129;2129;2130;2163;2163;2162;2162;2163;2181;2182;2257;2258;2333;2334;2408;2409;2465;2466;2466;2467;2467;2468;2468;2467;2453;2452;2393;2392;2332;2331;2272;2271;2212;2211;2166;2165;2165;2149;2149;2150;2150;2149;2104;2103;1921;1920;1738;1737;1601;1600;1600;1601;1601;1602;1602;1603;1689;1689;1690;1690;1691;1691;1692;1692;1693;1705;1706;1723;1724;1727;1727;1728;1728;1727;1727;1724;1723;1723;1724;1724;1725;1725;1726;1726;1727;1727;1728;1786;1787", 
                "yn": "647;646;646;647;753;753;754;754;755;765;766;810;811;855;856;889;890;890;891;891;903;903;904;911;912;943;944;967;967;968;968;953;952;905;904;904;903;903;902;902;900;899;899;868;867;826;825;825;826;826;827;827;828;828;829;829;830;891;892;1136;1137;1320;1321;1321;1322;1322;1323;1323;1324;1324;1325;1325;1326;1326;1325;1324;1324;1384;1385;1673;1674;1674;1675;1675;1676;1676;1677;1677;1676;1635;1634;1464;1463;1336;1335;1335;1308;1307;1196;1195;1084;1083;999;998;998;997;997;996;996;974;973;916;915;893;893;892;832;831;783;782;735;734;686;685;649;648;648;647", 
                "text": "hall;cuisine;repas;sejour;", 
                "x": "1805;2250;1872;1848", 
                "y": "766;1049;1131;1408"
            }, 
            {
                "class": "Room", 
                "type": "single", 
                "xn": "1266;1267;1392;1393;1393;1392;1392;1391;1329;1328;1077;1076;888;887;887;888;888;889;889;890", 
                "yn": "558;557;557;558;797;798;877;878;878;879;879;880;880;879;840;839;680;679;559;558", 
                "text": "chambre 1;", 
                "x": "1101", 
                "y": "741"
            }, 
            {
                "class": "Room", 
                "type": "single", 
                "xn": "1407;1408;1447;1448;1567;1568;1568;1567;1534;1534;1547;1548;1565;1566;1583;1584;1601;1602;1605;1606;1606;1605;1551;1550;1533;1533;1534;1534;1539;1540;1564;1565;1582;1583;1583;1582;1562;1561;1476;1475;1411;1410;1410;1409;1409;1408;1408;1407", 
                "yn": "557;556;556;557;557;558;632;633;633;650;650;649;649;648;648;647;647;646;646;647;823;824;824;823;823;827;828;839;839;840;840;841;841;842;878;879;879;880;880;881;881;880;800;799;692;691;584;583", 
                "text": "d;", 
                "x": "1437", 
                "y": "709"
            }, 
            {
                "class": "Room", 
                "type": "single", 
                "xn": "2320;2321;2461;2462;2462;2463;2463;2464;2464;2465;2465;2464;2425;2424;2265;2264;2144;2144;2143;1973;1972;1972;1973;1973;1974;1974;1975;1975;1969;1968;1941;1940;1913;1912;1892;1891;1891;1892;1892;1893;1893;1894;1894;1895;1895;1896;1896;1897", 
                "yn": "556;555;555;556;577;578;662;663;747;748;811;812;812;813;813;814;814;888;889;889;888;877;876;826;825;775;774;736;736;737;737;738;738;739;739;738;730;729;694;693;657;656;621;620;585;584;557;556", 
                "text": "local technique;", 
                "x": "2231", 
                "y": "603"
            }
        ], 
        "class": "image", 
        "filename": "fp_68.png"
    }
]