[
    {
        "annotations": [
            {
                "class": "Room", 
                "type": "single", 
                "xn": "1092;1093;1109;1110;1175;1176;1242;1243;1291;1292;1292;1291;1098;1097;1097;1096;1096;1095;1095;1094;1094;1093;1093;1092", 
                "yn": "1763;1762;1762;1763;1763;1764;1764;1765;1765;1766;1845;1846;1846;1845;1844;1843;1825;1824;1806;1805;1787;1786;1768;1767", 
                "text": "wc;", 
                "x": "1134", 
                "y": "1787"
            }, 
            {
                "class": "Room", 
                "type": "single", 
                "xn": "1187;1188;1287;1288;1288;1287;884;883;883;884;884;885;885;886", 
                "yn": "1407;1406;1406;1407;1750;1751;1751;1750;1708;1707;1537;1536;1408;1407", 
                "text": "ch 2;", 
                "x": "1064", 
                "y": "1574"
            }, 
            {
                "class": "Room", 
                "type": "open", 
                "xn": "1303;1304;1315;1316;1363;1364;1399;1400;1400;1399;1399;1398;1397;1397;1396;1396;1428;1429;1461;1462;1493;1494;1526;1529;1530;1530;1594;1594;1592;1591;1536;1494;1494;1453;1453;1411;1411;1412;1412;1413;1516;1517;1655;1656;1794;1795;1828;1829;1829;1830;1830;1831;1831;1832;1832;1833;1833;1834;1834;1833;1816;1815;1773;1773;1797;1798;1831;1832;1832;1833;1833;1832;884;883;883;884;884;885;885;882;881;881;882;883;883;882;882;883;1084;1085;1085;1084;1084;1083;1083;1200;1201;1300;1300;1299;1299;1300;1300;1301;1301;1302;1302;1303", 
                "yn": "1297;1296;1296;1297;1297;1298;1298;1299;1713;1714;1851;1852;1852;1875;1876;2000;2032;2032;2064;2064;2095;2095;2127;2127;2128;2134;2134;2119;2119;2120;2120;2078;2077;2036;2035;1993;1938;1937;1770;1769;1769;1768;1768;1767;1767;1766;1766;1767;1784;1785;1854;1855;1923;1924;1993;1994;2063;2064;2115;2116;2116;2117;2117;2133;2133;2132;2132;2133;2230;2231;2522;2523;2523;2522;2475;2474;2284;2283;2188;2188;2187;2117;2116;2116;1854;1853;1763;1762;1762;1763;1800;1801;1850;1851;1862;1862;1861;1861;1853;1852;1818;1817;1679;1678;1540;1539;1401;1400", 
                "text": "degt;cuisine;hall;salon;repas;", 
                "x": "1342;1614;1058;1063;1648", 
                "y": "1358;1905;2023;2347;2330"
            }, 
            {
                "class": "Room", 
                "type": "single", 
                "xn": "1305;1306;1361;1362;1530;1531;1531;1530;1497;1496;1452;1451;1407;1406;1362;1361;1317;1316;1306;1305", 
                "yn": "928;927;927;928;928;929;1285;1286;1286;1285;1285;1284;1284;1283;1283;1282;1282;1281;1281;1280", 
                "text": "bains;", 
                "x": "1381", 
                "y": "1090"
            }, 
            {
                "class": "Room", 
                "type": "single", 
                "xn": "883;884;985;986;1290;1291;1291;1290;1290;1289;1289;1288;1188;1187;884;883", 
                "yn": "926;925;925;926;926;927;1099;1100;1330;1331;1388;1389;1389;1390;1390;1389", 
                "text": "ch 1;", 
                "x": "1101", 
                "y": "1103"
            }, 
            {
                "class": "Room", 
                "type": "single", 
                "xn": "1564;1565;1909;1910;1910;1909;1909;1908;1789;1788;1428;1427;1427;1428;1428;1429;1480;1481;1548;1549;1565;1565;1564", 
                "yn": "676;675;675;676;1469;1470;1733;1734;1734;1735;1735;1734;1631;1630;1319;1318;1318;1317;1317;1316;1316;837;836", 
                "text": "garage;", 
                "x": "1702", 
                "y": "1072"
            }
        ], 
        "class": "image", 
        "filename": "fp_64.png"
    }
]