[
    {
        "annotations": [
            {
                "class": "Room", 
                "type": "single", 
                "xn": "883;884;971;972;972;973;973;974;974;975;975;976;976;977;977;976;807;806;580;579;523;522;522;523;523;524;524;525;525;526;526;527;593;594;682;683;772;773;861;862;883", 
                "yn": "2132;2131;2131;2132;2154;2155;2243;2244;2332;2333;2422;2423;2511;2512;2578;2579;2579;2578;2578;2577;2577;2576;2557;2556;2474;2473;2392;2391;2309;2308;2247;2246;2246;2245;2245;2244;2244;2243;2243;2242;2242", 
                "text": "chambre 1;", 
                "x": "790", 
                "y": "2450"
            }, 
            {
                "class": "Room", 
                "type": "single", 
                "xn": "856;857;870;871;871;870;526;525;525;524;524;523;523;522;522;523;566;567;624;625;682;683;740;741;798;799", 
                "yn": "2030;2029;2029;2030;2228;2229;2229;2228;2181;2180;2117;2116;2052;2051;2036;2035;2035;2034;2034;2033;2033;2032;2032;2031;2031;2030", 
                "text": "douche;", 
                "x": "663", 
                "y": "2089"
            }, 
            {
                "class": "Room", 
                "type": "single", 
                "xn": "885;886;891;892;914;915;937;938;960;961;977;978;978;979;979;987;988;1024;1025;1052;1053;1053;1052;1052;1051;1043;1042;1007;1006;980;980;979;979;978;978;977;977;976;976;975;975;974;952;951;922;921;891;890;883;882;882;883;883;884;884;885", 
                "yn": "1715;1714;1714;1715;1715;1716;1716;1717;1717;1718;1718;1719;1746;1747;1830;1830;1831;1831;1832;1832;1833;1957;1958;1998;1999;1999;2000;2000;2001;2001;2019;2020;2043;2044;2068;2069;2092;2093;2117;2118;2123;2124;2124;2123;2123;2122;2122;2121;2121;2120;2087;2086;1952;1951;1817;1816", 
                "text": "degt;", 
                "x": "938", 
                "y": "2065"
            }, 
            {
                "class": "Room", 
                "type": "open", 
                "xn": "1331;1332;1399;1400;1601;1602;1602;1603;1603;1604;1604;1605;1605;1606;1606;1616;1617;1617;1616;1615;1615;1614;1614;1613;1613;1612;1612;1611;1611;1610;1610;1609;1609;1608;1608;1607;1607;1606;1606;1605;1605;1604;1604;1603;991;990;990;991;991;992;1001;1002;1014;1015;1027;1028;1030;1030;991;990;990;989;989;988;988;989;1008;1009;1035;1036;1062;1063;1069;1069;1070;1165;1166;1292;1293;1295;1295;1296;1332;1332;1331", 
                "yn": "1642;1641;1641;1642;1642;1643;1665;1666;1758;1759;1850;1851;1943;1944;1977;1977;1978;2098;2099;2099;2137;2138;2180;2181;2223;2224;2266;2267;2308;2309;2351;2352;2394;2395;2437;2438;2480;2481;2523;2524;2566;2567;2576;2577;2577;2576;2498;2497;2259;2258;2258;2257;2257;2256;2256;2255;2255;2176;2176;2175;2117;2116;2038;2037;2018;2017;2017;2016;2016;2015;2015;2014;2014;1835;1834;1834;1833;1833;1832;1832;1829;1828;1828;1734;1733", 
                "text": "cuisine;hall;sejour;", 
                "x": "1366;1424;1231", 
                "y": "1900;2057;2394"
            }, 
            {
                "class": "Room", 
                "type": "single", 
                "xn": "526;527;870;871;871;870;870;869;523;522;522;523;523;524;524;525;525;526", 
                "yn": "1555;1554;1554;1555;1900;1901;2015;2016;2016;2015;1987;1986;1872;1871;1757;1756;1642;1641", 
                "text": "chambre 2;", 
                "x": "651", 
                "y": "1850"
            }, 
            {
                "class": "Room", 
                "type": "single", 
                "xn": "954;955;977;978;978;977;943;942;896;895;884;883;883;884", 
                "yn": "1553;1552;1552;1553;1713;1714;1714;1713;1713;1712;1712;1711;1554;1553", 
                "text": "wc;", 
                "x": "925", 
                "y": "1655"
            }, 
            {
                "class": "Room", 
                "type": "single", 
                "xn": "1358;1359;1391;1392;1392;1393;1393;1394;1394;1395;1395;1396;1396;1397;1397;1396;1378;1377;1320;1320;1319;1319;1318;1318;1317;1194;1193;1029;1028;988;987;987;988;988;989;989;990;1090;1091;1224;1225", 
                "yn": "1399;1398;1398;1399;1410;1411;1455;1456;1500;1501;1546;1547;1591;1592;1625;1626;1626;1627;1627;1698;1699;1793;1794;1817;1818;1818;1817;1817;1816;1816;1815;1764;1763;1557;1556;1402;1401;1401;1400;1400;1399", 
                "text": "chambre 3;", 
                "x": "1159", 
                "y": "1585"
            }, 
            {
                "class": "Room", 
                "type": "open", 
                "xn": "1566;1567;1619;1620;1620;1621;1621;1620;1593;1592;1554;1553;1516;1515;1478;1477;1440;1439;1430;1429;1429;1428;1428;1427;1427;1426;1426;1425;1425;1424;1424;1342;1341;1231;1230;1121;1120;1010;1009;982;981;981;980;980;979;979;980;1139;1140;1353;1354", 
                "yn": "770;769;769;770;979;980;1608;1609;1609;1608;1608;1607;1607;1606;1606;1605;1605;1604;1604;1603;1569;1568;1523;1522;1476;1475;1429;1428;1383;1382;1371;1371;1370;1370;1369;1369;1368;1368;1367;1367;1366;1144;1143;847;846;773;772;772;771;771;770", 
                "text": "garage;bauanderie;", 
                "x": "1134;1557", 
                "y": "1136;1498"
            }
        ], 
        "class": "image", 
        "filename": "fp_69.png"
    }
]