[
    {
        "annotations": [
            {
                "class": "Room", 
                "type": "single", 
                "xn": "1499;1500;1839;1840;1840;1841;1841;1842;1842;1957;1958;1958;1959;1959;1960;1960;1961;1961;1960;1906;1905;1832;1831;1759;1758;1740;1739;1739;1740;1740;1651;1650;1531;1530;1501;1500;1500;1499", 
                "yn": "1624;1623;1623;1624;1630;1631;1657;1658;1677;1677;1678;1713;1714;1855;1856;1997;1998;2103;2104;2104;2103;2103;2102;2102;2101;2101;2100;2074;2073;1992;1992;1991;1991;1990;1990;1989;1716;1715", 
                "text": "cuisine;", 
                "x": "1765", 
                "y": "1812"
            }, 
            {
                "class": "Room", 
                "type": "single", 
                "xn": "1265;1266;1355;1356;1356;1357;1357;1349;1349;1331;1331;1314;1314;1296;1296;1287;1215;1214;1118;1117;1021;1020;997;996;996;997", 
                "yn": "1525;1524;1524;1525;1588;1589;1779;1787;1788;1806;1807;1824;1825;1843;1844;1853;1853;1852;1852;1851;1851;1850;1850;1849;1526;1525", 
                "text": "bureau;", 
                "x": "1165", 
                "y": "1660"
            }, 
            {
                "class": "Room", 
                "type": "single", 
                "xn": "1189;1190;1245;1246;1246;1245;1059;1058;993;992;992;993", 
                "yn": "1419;1418;1418;1419;1506;1507;1507;1506;1506;1505;1420;1419", 
                "text": "wc;", 
                "x": "1149", 
                "y": "1465"
            }, 
            {
                "class": "Room", 
                "type": "open", 
                "xn": "1370;1371;1464;1465;1512;1513;1702;1703;1845;1846;1846;1845;1845;1844;1844;1843;1674;1673;1617;1616;1616;1615;1615;1614;1614;1599;1599;1600;1600;1601;1601;1600;1584;1583;1517;1516;1466;1466;1467;1467;1468;1468;1467;1464;1464;1463;1463;1464;1464;1465;1465;1466;1466;1487;1488;1572;1573;1658;1659;1722;1723;1723;1724;1724;1723;1575;1574;1377;1376;1327;1326;1326;1325;1325;1324;1324;1323;1323;1322;1322;1321;1321;1320;1320;1318;1317;1310;1310;1311;1311;1312;1312;1311;995;994;994;995;995;996;996;997;997;998;998;999;1296;1333;1334;1372;1372;1371;1371;1370;1370;1369;1369;1368;1368;1352;1351;1330;1329;1307;1306;1285;1284;1268;1267;1267;1268;1286;1287;1370", 
                "yn": "1418;1417;1417;1418;1418;1419;1419;1420;1420;1421;1490;1491;1584;1585;1607;1608;1608;1607;1607;1606;1579;1578;1542;1541;1532;1532;1541;1542;1579;1580;1607;1608;1608;1609;1609;1610;1610;1631;1632;1717;1718;1782;1783;1783;1827;1828;1859;1860;1912;1913;1965;1966;2005;2005;2006;2006;2007;2007;2008;2008;2009;2136;2137;2517;2518;2518;2517;2517;2516;2516;2515;2499;2498;2475;2474;2452;2451;2428;2427;2405;2404;2381;2380;2375;2375;2376;2376;2393;2394;2465;2466;2518;2519;2519;2518;2479;2478;2316;2315;2153;2152;1990;1989;1868;1867;1867;1830;1830;1792;1731;1730;1662;1661;1593;1592;1524;1523;1507;1507;1506;1506;1505;1505;1504;1504;1503;1503;1502;1419;1418;1418;1419;1419", 
                "text": "hall;sejour;", 
                "x": "1534;1317", 
                "y": "1521;2227"
            }, 
            {
                "class": "Room", 
                "type": "open", 
                "xn": "1406;1407;1430;1431;1525;1526;1620;1621;1715;1716;1810;1811;1905;1906;1976;1977;1977;1978;1978;1977;1939;1938;1781;1780;1624;1623;1505;1504;1504;1505;1505;1489;1488;1488;1485;1484;1480;1479;1474;1473;1469;1468;1464;1463;1458;1457;1453;1452;1448;1447;1442;1441;1437;1436;1432;1431;1426;1425;1421;1420;1416;1415;1411;1410;1405;1404;1400;1399;1395;1394;1393;1392;1392;1391;1391;1390;1390;1389;1389;1388;1388;1387;1387;1375;1374;1324;1323;1272;1271;1233;1233;1234;1234;1233;1170;1169;978;977;977;976;976;977;1406", 
                "yn": "669;668;668;669;669;670;670;671;671;672;672;673;673;674;674;675;847;848;1367;1368;1368;1369;1369;1370;1370;1371;1371;1370;1325;1324;1245;1245;1244;1233;1233;1232;1232;1231;1231;1230;1230;1229;1229;1228;1228;1227;1227;1226;1226;1225;1225;1224;1224;1223;1223;1222;1222;1221;1221;1220;1220;1219;1219;1218;1218;1217;1217;1216;1216;1215;1215;1214;1203;1202;1187;1186;1171;1170;1155;1154;1139;1138;1135;1135;1136;1136;1137;1137;1138;1138;1195;1196;1367;1368;1368;1369;1369;1368;847;846;673;672;672", 
                "text": "garage;buanderie;", 
                "x": "1775;1110", 
                "y": "1008;1248"
            }
        ], 
        "class": "image", 
        "filename": "fp_80.png"
    }
]