[
    {
        "annotations": [
            {
                "class": "Room", 
                "type": "single", 
                "xn": "1200;1201;1235;1236;1376;1377;1517;1518;1623;1624;1624;1625;1625;1624;1572;1571;1358;1357;1198;1197;1197;1198;1198;1199;1199;1200", 
                "yn": "1619;1618;1618;1619;1619;1620;1620;1621;1621;1622;1700;1701;1937;1938;1938;1939;1939;1940;1940;1939;1914;1913;1807;1806;1700;1699", 
                "text": "cuisine;", 
                "x": "1416", 
                "y": "1786"
            }, 
            {
                "class": "Room", 
                "type": "single", 
                "xn": "1394;1395;1423;1424;1424;1425;1425;1426;1426;1631;1633;1633;1634;1634;1635;1635;1636;1636;1637;1637;1638;1638;1639;1639;1640;1640;1641;1641;1642;1642;1643;1643;1644;1644;1645;1645;1646;1646;1647;1647;1648;1648;1649;1649;1650;1650;1651;1651;1652;1652;1653;1653;1654;1654;1655;1655;1656;1656;1657;1657;1658;1658;1659;1659;1660;1660;1661;1661;1662;1662;1663;1663;1664;1664;1665;1665;1664;1616;1615;1549;1548;1483;1482;1466;1466;1478;1479;1528;1529;1578;1579;1629;1630;1666;1667;1667;1666;1179;1178;1178;1179;1179;1180;1180;1181;1286;1287;1287;1288;1288;1301;1302;1306;1306;1305;1305;1306", 
                "yn": "1260;1259;1259;1260;1277;1278;1350;1351;1404;1404;1406;1408;1409;1411;1412;1413;1414;1416;1417;1419;1420;1422;1423;1425;1426;1427;1428;1430;1431;1433;1434;1436;1437;1439;1440;1442;1443;1444;1445;1447;1448;1450;1451;1453;1454;1456;1457;1458;1459;1461;1462;1464;1465;1467;1468;1470;1471;1473;1474;1475;1476;1478;1479;1481;1482;1484;1485;1487;1488;1489;1490;1492;1493;1495;1496;1497;1498;1498;1497;1497;1496;1496;1495;1495;1510;1510;1511;1511;1512;1512;1513;1513;1514;1514;1515;1600;1601;1601;1600;1580;1579;1494;1493;1429;1428;1428;1429;1448;1449;1507;1507;1506;1506;1323;1322;1261;1260", 
                "text": "hall;", 
                "x": "1382", 
                "y": "1467"
            }, 
            {
                "class": "Room", 
                "type": "single", 
                "xn": "1177;1178;1289;1290;1290;1289;1262;1261;1179;1178;1178;1177", 
                "yn": "1259;1258;1258;1259;1410;1411;1411;1412;1412;1411;1298;1297", 
                "text": "wc;", 
                "x": "1234", 
                "y": "1356"
            }, 
            {
                "class": "Room", 
                "type": "open", 
                "xn": "1128;1129;1147;1148;1148;1150;1151;1154;1155;1158;1159;1162;1163;1165;1166;1167;1167;1166;1166;1165;1143;1142;1142;1140;1140;1138;1138;1136;1136;1134;1134;1132;1132;1130;1130;1128;1128;1126;1126;1123;1123;1121;1121;1119;1119;1117;1117;1115;1115;1113;1113;1111;1111;1109;1109;1107;1107;1105;1105;1103;1103;1100;1100;1098;1098;1096;1096;1094;1094;1092;1092;1090;1090;1088;1088;1086;1086;1084;1084;1082;1082;1080;1080;1078;1078;1075;1075;1073;1073;1071;1071;1069;1069;1067;1067;1065;1065;1063;1063;1061;1061;1059;1059;1057;1057;1055;1055;1052;1052;1050;1050;1048;1048;1046;1046;1044;1044;1042;1042;1040;1040;1038;1038;1036;1036;1034;1034;1032;1032;1030;1030;1027;1027;1025;1025;1023;1023;1021;1021;1019;1019;1017;1017;1015;1015;1013;1013;1011;1011;1009;1009;1007;1007;1004;1004;1002;1002;1000;1000;998;998;996;996;994;994;992;992;990;990;988;988;986;986;984;984;982;982;979;979;977;977;975;975;973;973;971;971;969;969;967;967;965;965;963;963;961;961;959;959;956;956;954;954;952;952;950;950;948;948;946;946;944;944;942;942;940;940;938;938;936;936;934;934;931;931;929;929;927;927;925;925;923;923;921;921;919;919;917;917;915;915;913;913;911;911;909;909;906;906;904;904;902;902;900;900;898;898;896;896;894;894;892;892;890;890;888;888;886;886;883;883;881;881;879;879;878;877;875;874;872;871;869;868;866;865;863;862;860;859;857;856;854;853;851;850;848;847;845;844;842;841;839;838;836;835;833;832;830;829;827;826;824;823;821;820;818;817;815;814;812;811;809;808;806;805;803;802;800;799;797;796;794;793;791;790;788;787;785;784;782;781;779;778;776;775;773;772;770;769;767;766;764;763;761;760;758;757;755;754;752;751;749;748;746;745;743;742;740;739;737;736;734;733;731;730;728;727;725;724;722;721;719;718;716;715;713;712;710;709;707;706;704;703;701;700;698;697;695;694;692;691;689;688;685;684;682;681;679;678;676;675;673;672;670;669;667;666;664;663;661;660;658;657;655;654;652;651;649;648;646;645;643;642;640;639;637;636;634;633;631;630;628;627;625;624;622;621;619;618;616;615;613;612;610;609;607;606;604;603;601;600;598;597;595;594;592;591;589;588;586;585;583;582;580;579;577;576;574;573;571;570;568;567;565;564;562;561;559;558;556;555;553;552;550;549;547;546;544;543;541;540;538;537;535;534;532;531;529;528;526;525;523;522;520;519;517;516;514;513;511;510;508;507;505;504;502;501;499;498;496;495;493;492;490;489;487;486;484;483;481;480;478;477;475;474;472;471;469;468;466;465;463;462;460;459;457;456;454;453;451;450;448;447;445;444;442;441;439;438;436;435;433;432;429;428;426;425;423;422;420;419;417;416;414;413;411;410;408;407;405;404;402;401;399;398;396;395;393;392;390;389;387;386;384;383;381;380;378;377;375;374;372;371;369;368;366;366;368;368;370;370;372;372;374;374;376;376;378;378;380;380;383;383;385;385;387;387;389;389;391;391;393;393;395;395;397;397;399;399;401;401;403;403;405;405;407;407;409;409;411;411;413;413;415;415;417;417;419;419;421;421;423;423;425;425;427;427;429;429;431;431;433;433;435;435;437;437;439;439;441;441;444;444;446;446;448;448;450;450;452;452;454;454;456;456;458;458;460;460;462;462;464;464;466;466;468;468;470;470;472;472;474;474;476;476;478;478;480;480;482;482;484;484;486;486;488;488;490;490;492;492;494;494;496;496;498;498;500;500;502;502;505;505;507;507;509;509;511;511;513;513;515;515;517;517;519;519;521;521;523;523;525;525;527;527;529;529;531;531;533;533;535;535;537;537;539;539;541;541;543;543;545;545;547;547;549;549;551;551;553;553;555;555;557;557;559;559;561;561;563;563;566;566;568;568;570;570;572;572;574;574;576;576;578;578;580;580;582;582;584;584;586;586;588;588;590;590;592;592;594;594;596;596;598;598;600;600;602;602;604;604;606;606;608;608;610;610;612;612;614;614;616;616;618;618;620;620;622;622;624;624;627;627;629;629;631;631;633;633;635;635;637;637;639;639;641;641;643;643;645;645;647;647;649;649;651;651;653;653;655;655;657;657;659;659;661;661;663;663;665;665;667;667;669;669;671;671;673;673;675;675;677;677;679;679;681;681;683;683;685;685;688;688;690;690;692;692;694;694;696;696;698;698;700;700;702;702;704;704;706;706;708;708;710;710;712;712;714;714;716;716;718;718;720;720;722;722;724;724;726;726;728;728;730;730;732;732;734;734;736;736;738;738;740;740;742;742;744;744;746;746;749;749;751;751;753;753;755;755;757;757;759;759;761;761;763;763;765;765;767;767;769;769;771;771;773;773;775;775;777;777;779;779;781;781;783;783;785;785;787;787;789;789;791;791;793;793;795;795;797;797;799;799;801;801;803;803;805;805;807;807;810;810;812;812;814;814;816;816;818;818;820;820;822;822;824;824;826;826;828;828;830;830;832;832;834;834;836;836;838;838;840;840;842;842;844;844;846;846;848;848;850;850;852;852;854;854;856;856;858;858;860;860;862;862;864;864;866;866;868;868;871;871;873;873;875;875;877;877;879;879;881;881;883;883;885;885;887;887;889;889;891;891;893;893;895;895;897;897;899;899;901;901;903;903;905;905;907;907;909;909;911;911;913;913;915;915;917;974;975;1051;1052", 
                "yn": "1166;1165;1165;1166;1260;1260;1259;1259;1258;1258;1257;1257;1256;1256;1255;1256;1769;1770;1940;1941;1941;1942;1943;1945;1946;1948;1949;1951;1952;1954;1955;1957;1958;1960;1961;1963;1964;1966;1967;1970;1971;1973;1974;1976;1977;1979;1980;1982;1983;1985;1986;1988;1989;1991;1992;1994;1995;1997;1998;2000;2001;2004;2005;2007;2008;2010;2011;2013;2014;2016;2017;2019;2020;2022;2023;2025;2026;2028;2029;2031;2032;2034;2035;2037;2038;2041;2042;2044;2045;2047;2048;2050;2051;2053;2054;2056;2057;2059;2060;2062;2063;2065;2066;2068;2069;2071;2072;2075;2076;2078;2079;2081;2082;2084;2085;2087;2088;2090;2091;2093;2094;2096;2097;2099;2100;2102;2103;2105;2106;2108;2109;2112;2113;2115;2116;2118;2119;2121;2122;2124;2125;2127;2128;2130;2131;2133;2134;2136;2137;2139;2140;2142;2143;2146;2147;2149;2150;2152;2153;2155;2156;2158;2159;2161;2162;2164;2165;2167;2168;2170;2171;2173;2174;2176;2177;2179;2180;2183;2184;2186;2187;2189;2190;2192;2193;2195;2196;2198;2199;2201;2202;2204;2205;2207;2208;2210;2211;2213;2214;2217;2218;2220;2221;2223;2224;2226;2227;2229;2230;2232;2233;2235;2236;2238;2239;2241;2242;2244;2245;2247;2248;2250;2251;2254;2255;2257;2258;2260;2261;2263;2264;2266;2267;2269;2270;2272;2273;2275;2276;2278;2279;2281;2282;2284;2285;2287;2288;2291;2292;2294;2295;2297;2298;2300;2301;2303;2304;2306;2307;2309;2310;2312;2313;2315;2316;2318;2319;2321;2322;2325;2326;2328;2329;2331;2332;2333;2333;2331;2331;2329;2329;2327;2327;2325;2325;2323;2323;2321;2321;2319;2319;2317;2317;2315;2315;2313;2313;2311;2311;2309;2309;2307;2307;2305;2305;2303;2303;2301;2301;2299;2299;2297;2297;2295;2295;2293;2293;2291;2291;2289;2289;2287;2287;2285;2285;2283;2283;2281;2281;2279;2279;2277;2277;2275;2275;2273;2273;2271;2271;2269;2269;2267;2267;2265;2265;2263;2263;2261;2261;2259;2259;2257;2257;2255;2255;2253;2253;2251;2251;2249;2249;2247;2247;2245;2245;2243;2243;2241;2241;2239;2239;2237;2237;2235;2235;2233;2233;2231;2231;2229;2229;2227;2227;2225;2225;2223;2223;2221;2221;2219;2219;2217;2217;2215;2215;2213;2213;2211;2211;2209;2209;2207;2207;2204;2204;2202;2202;2200;2200;2198;2198;2196;2196;2194;2194;2192;2192;2190;2190;2188;2188;2186;2186;2184;2184;2182;2182;2180;2180;2178;2178;2176;2176;2174;2174;2172;2172;2170;2170;2168;2168;2166;2166;2164;2164;2162;2162;2160;2160;2158;2158;2156;2156;2154;2154;2152;2152;2150;2150;2148;2148;2146;2146;2144;2144;2142;2142;2140;2140;2138;2138;2136;2136;2134;2134;2132;2132;2130;2130;2128;2128;2126;2126;2124;2124;2122;2122;2120;2120;2118;2118;2116;2116;2114;2114;2112;2112;2110;2110;2108;2108;2106;2106;2104;2104;2102;2102;2100;2100;2098;2098;2096;2096;2094;2094;2092;2092;2090;2090;2088;2088;2086;2086;2084;2084;2082;2082;2080;2080;2078;2078;2076;2076;2074;2074;2072;2072;2070;2070;2068;2068;2066;2066;2064;2064;2062;2062;2060;2060;2058;2058;2056;2056;2054;2054;2052;2052;2050;2050;2048;2048;2046;2046;2044;2044;2042;2042;2040;2040;2038;2038;2036;2036;2033;2033;2031;2031;2029;2029;2027;2027;2025;2025;2023;2023;2021;2021;2019;2019;2017;2017;2015;2015;2013;2013;2011;2011;2009;2009;2007;2007;2005;2005;2003;2003;2001;2001;1999;1999;1997;1997;1995;1995;1993;1993;1991;1989;1987;1986;1984;1983;1981;1980;1978;1977;1975;1974;1972;1971;1969;1968;1965;1964;1962;1961;1959;1958;1956;1955;1953;1952;1950;1949;1947;1946;1944;1943;1941;1940;1938;1937;1935;1934;1932;1931;1929;1928;1926;1925;1923;1922;1920;1919;1917;1916;1914;1913;1911;1910;1908;1907;1905;1904;1902;1901;1899;1898;1896;1895;1893;1892;1890;1889;1887;1886;1884;1883;1881;1880;1878;1877;1874;1873;1871;1870;1868;1867;1865;1864;1862;1861;1859;1858;1856;1855;1853;1852;1850;1849;1847;1846;1844;1843;1841;1840;1838;1837;1835;1834;1832;1831;1829;1828;1826;1825;1823;1822;1820;1819;1817;1816;1814;1813;1811;1810;1808;1807;1805;1804;1802;1801;1799;1798;1796;1795;1793;1792;1790;1789;1787;1786;1783;1782;1780;1779;1777;1776;1774;1773;1771;1770;1768;1767;1765;1764;1762;1761;1759;1758;1756;1755;1753;1752;1750;1749;1747;1746;1744;1743;1741;1740;1738;1737;1735;1734;1732;1731;1729;1728;1726;1725;1723;1722;1720;1719;1717;1716;1714;1713;1711;1710;1708;1707;1705;1704;1702;1701;1699;1698;1696;1695;1692;1691;1689;1688;1686;1685;1683;1682;1680;1679;1677;1676;1674;1673;1671;1670;1668;1667;1665;1664;1662;1661;1659;1658;1656;1655;1653;1652;1650;1649;1647;1646;1644;1643;1641;1640;1638;1637;1635;1634;1632;1631;1629;1628;1626;1625;1623;1622;1620;1619;1617;1616;1614;1613;1611;1610;1608;1607;1605;1604;1601;1600;1598;1597;1595;1594;1592;1591;1589;1588;1586;1585;1583;1582;1580;1579;1577;1576;1574;1573;1571;1570;1568;1567;1565;1564;1562;1561;1559;1558;1556;1555;1553;1552;1550;1549;1547;1546;1544;1543;1541;1540;1538;1537;1535;1534;1532;1531;1529;1528;1526;1525;1523;1522;1520;1519;1517;1516;1514;1513;1510;1509;1507;1506;1504;1503;1501;1500;1498;1497;1495;1494;1492;1491;1489;1488;1486;1485;1483;1482;1480;1479;1477;1476;1474;1473;1471;1470;1468;1467;1465;1464;1462;1461;1459;1458;1456;1455;1453;1452;1450;1449;1447;1446;1444;1443;1441;1440;1438;1437;1435;1434;1432;1431;1429;1428;1426;1425;1423;1422;1419;1418;1416;1415;1413;1412;1410;1409;1407;1406;1404;1403;1401;1400;1398;1397;1395;1394;1392;1391;1389;1388;1386;1385;1383;1382;1380;1379;1377;1376;1374;1373;1371;1370;1368;1367;1365;1364;1362;1361;1359;1358;1356;1355;1353;1352;1350;1349;1347;1346;1344;1343;1341;1340;1338;1337;1335;1334;1332;1331;1328;1327;1325;1324;1322;1321;1319;1318;1316;1315;1313;1312;1310;1309;1307;1306;1304;1303;1301;1300;1298;1297;1295;1294;1292;1291;1289;1288;1286;1285;1283;1282;1280;1279;1277;1276;1274;1273;1271;1270;1268;1267;1265;1264;1262;1261;1259;1258;1256;1255;1253;1252;1250;1249;1247;1246;1244;1243;1241;1240;1237;1236;1234;1233;1231;1230;1228;1227;1225;1224;1222;1221;1219;1218;1216;1215;1213;1212;1210;1209;1207;1206;1204;1203;1201;1200;1198;1197;1195;1194;1192;1191;1189;1188;1186;1185;1183;1182;1180;1179;1177;1176;1174;1173;1171;1170;1168;1168;1167;1167;1166", 
                "text": "sejour;cf;", 
                "x": "818;582", 
                "y": "1839;2086"
            }, 
            {
                "class": "Room", 
                "type": "open", 
                "xn": "1457;1458;1634;1635;2164;2165;2165;2166;2166;2165;1681;1680;1680;1679;1679;1678;1678;1677;1677;1676;1676;1675;1675;1674;1674;1673;1673;1672;1672;1671;1671;1670;1670;1669;1669;1668;1668;1667;1667;1666;1666;1665;1665;1664;1664;1663;1663;1662;1662;1661;1661;1660;1660;1659;1659;1658;1658;1657;1657;1656;1656;1655;1655;1654;1654;1653;1653;1652;1652;1651;1651;1650;1650;1649;1649;1648;1648;1647;1647;1646;1646;1645;1645;1644;1644;1643;1643;1642;1642;1641;1615;1614;1578;1577;1541;1540;1504;1503;1467;1466;1458;1457", 
                "yn": "960;959;959;960;960;961;1209;1210;1955;1956;1956;1955;1870;1869;1755;1754;1641;1640;1526;1525;1495;1494;1492;1491;1489;1488;1486;1485;1483;1482;1480;1479;1477;1476;1474;1473;1471;1470;1469;1468;1466;1465;1463;1462;1460;1459;1457;1456;1454;1453;1451;1450;1448;1447;1445;1444;1442;1441;1439;1438;1436;1435;1433;1432;1430;1429;1427;1426;1424;1423;1421;1420;1419;1418;1416;1415;1413;1412;1410;1409;1407;1406;1404;1403;1401;1400;1398;1397;1395;1394;1394;1393;1393;1392;1392;1391;1391;1390;1390;1389;1389;1388", 
                "text": "cellier;garages;", 
                "x": "1926;1937", 
                "y": "1851;1258"
            }
        ], 
        "class": "image", 
        "filename": "fp_87.png"
    }
]