[
    {
        "annotations": [
            {
                "class": "Room", 
                "type": "single", 
                "xn": "1023;1024;1028;1029;1029;1030;1030;1031;1031;1032;1032;1033;1033;1032;903;902;730;729;686;685;685;686;686;687;687;688;688;689;689;690;926;926;925;925;924;924;925;940;941;961;962;981;982;1002;1003", 
                "yn": "1837;1836;1836;1837;1873;1874;2020;2021;2166;2167;2313;2314;2423;2424;2424;2423;2423;2422;2422;2421;2392;2391;2270;2269;2149;2148;2027;2026;1936;1935;1935;1901;1900;1854;1853;1842;1841;1841;1840;1840;1839;1839;1838;1838;1837", 
                "text": "chambre 1;", 
                "x": "830", 
                "y": "2088"
            }, 
            {
                "class": "Room", 
                "type": "single", 
                "xn": "687;688;706;707;780;781;854;855;910;911;911;912;912;913;913;912;746;745;690;689;689;688;688;687", 
                "yn": "1738;1737;1737;1738;1738;1739;1739;1740;1740;1741;1761;1762;1843;1844;1905;1906;1906;1905;1905;1904;1843;1842;1759;1758", 
                "text": "d;", 
                "x": "807", 
                "y": "1819"
            }, 
            {
                "class": "Room", 
                "type": "single", 
                "xn": "686;687;705;706;781;782;857;858;914;915;915;914;858;857;782;781;706;705;687;686", 
                "yn": "1628;1627;1627;1628;1628;1629;1629;1630;1630;1631;1723;1724;1724;1723;1723;1722;1722;1721;1721;1720", 
                "text": "wc;", 
                "x": "861", 
                "y": "1692"
            }, 
            {
                "class": "Room", 
                "type": "open", 
                "xn": "921;922;1031;1032;1032;1043;1043;1044;1125;1126;1126;1339;1340;1340;1341;1343;1344;1344;1345;1347;1347;1346;1346;1347;1882;1883;1883;1884;1884;1883;1687;1686;1622;1622;1621;1619;1619;1620;1620;1621;1621;1622;1622;1623;1623;1624;1624;1625;1625;1624;1621;1621;1620;1586;1585;1443;1442;1301;1300;1158;1157;1051;1050;1050;1049;1049;1048;1048;1047;1047;1046;1046;1047;1053;1054;1082;1083;1104;1104;1101;1100;1100;1049;1048;1048;1047;1047;1046;1046;1034;1034;1035;1035;1034;1007;1006;970;969;933;932;924;923;923;922;922;921", 
                "yn": "1236;1235;1235;1236;1242;1242;1239;1238;1238;1239;1481;1481;1482;1488;1489;1489;1490;1469;1468;1468;1297;1296;1237;1236;1236;1237;1318;1319;1563;1564;1564;1563;1563;1583;1584;1584;1596;1597;1668;1669;1740;1741;1812;1813;1884;1885;1941;1942;2053;2054;2054;2421;2422;2422;2423;2423;2424;2424;2425;2425;2426;2426;2425;2361;2360;2275;2274;2188;2187;2102;2101;2080;2079;2079;2080;2080;2081;2081;2054;2054;2053;2012;2012;2011;1896;1895;1742;1741;1623;1623;1680;1681;1828;1829;1829;1828;1828;1827;1827;1826;1826;1825;1605;1604;1310;1309", 
                "text": "hall;cuisine;repas;sejour;", 
                "x": "1018;1448;1331;1306", 
                "y": "1421;1409;1733;2218"
            }, 
            {
                "class": "Room", 
                "type": "single", 
                "xn": "1807;1808;1882;1883;1883;1884;1884;1883;1810;1809;1587;1586;1586;1585;1585;1584;1584;1583;1583;1582;1582;1583", 
                "yn": "1047;1046;1046;1047;1089;1090;1216;1217;1217;1218;1218;1217;1186;1185;1144;1143;1101;1100;1059;1058;1048;1047", 
                "text": "cellier;", 
                "x": "1717", 
                "y": "1096"
            }, 
            {
                "class": "Room", 
                "type": "single", 
                "xn": "1379;1380;1536;1537;1537;1536;1301;1300;985;984;906;905;905;906;906;907", 
                "yn": "545;544;544;545;1184;1185;1185;1184;1184;1183;1183;1182;1024;1023;546;545", 
                "text": "garages;", 
                "x": "1187", 
                "y": "917"
            }
        ], 
        "class": "image", 
        "filename": "fp_82.png"
    }
]